0,1,0.0,644.0,488.0,0.58750004,0.26666668,8614896
0,0,0.0,661.0,1426.0,0.58750004,0.33333334,8615474
0,2,0.0,660.0,1425.0,0.58750004,0.26666668,8615491
0,2,0.0,653.0,1417.0,0.58750004,0.26666668,8615491
0,2,0.0,634.0,1389.0,0.58750004,0.26666668,8615491
0,2,0.0,620.0,1364.0,0.58750004,0.26666668,8615492
0,2,0.0,604.0,1332.0,0.58750004,0.26666668,8615492
0,2,0.0,586.0,1291.0,0.58750004,0.26666668,8615525
0,2,0.0,568.0,1242.0,0.58750004,0.26666668,8615525
0,2,0.0,551.0,1184.0,0.58750004,0.26666668,8615526
0,2,0.0,536.0,1121.0,0.58750004,0.26666668,8615526
0,2,0.0,524.0,1052.0,0.58750004,0.26666668,8615559
0,2,0.0,517.0,982.0,0.58750004,0.26666668,8615559
0,2,0.0,514.0,912.0,0.58750004,0.26666668,8615560
0,2,0.0,514.0,843.0,0.58750004,0.26666668,8615561
0,2,0.0,516.0,783.0,0.6,0.26666668,8615593
0,2,0.0,522.0,724.0,0.6,0.26666668,8615594
0,2,0.0,532.0,666.0,0.6,0.26666668,8615595
0,2,0.0,543.0,609.0,0.6,0.26666668,8615595
0,2,0.0,556.0,554.0,0.6,0.26666668,8615627
0,2,0.0,574.0,496.0,0.6,0.26666668,8615628
0,2,0.0,596.0,426.0,0.58750004,0.26666668,8615628
0,1,0.0,596.0,426.0,0.58750004,0.26666668,8615629
0,0,0.0,680.0,1448.0,0.58750004,0.26666668,8616221
0,2,0.0,677.0,1443.0,0.575,0.26666668,8616237
0,2,0.0,666.0,1412.0,0.575,0.26666668,8616237
0,2,0.0,657.0,1382.0,0.575,0.26666668,8616238
0,2,0.0,646.0,1344.0,0.575,0.26666668,8616238
0,2,0.0,632.0,1295.0,0.575,0.26666668,8616271
0,2,0.0,614.0,1237.0,0.575,0.26666668,8616272
0,2,0.0,594.0,1169.0,0.575,0.26666668,8616272
0,2,0.0,573.0,1098.0,0.575,0.26666668,8616273
0,2,0.0,550.0,1020.0,0.58750004,0.26666668,8616305
0,2,0.0,532.0,945.0,0.58750004,0.26666668,8616305
0,2,0.0,518.0,870.0,0.58750004,0.26666668,8616306
0,2,0.0,508.0,800.0,0.58750004,0.26666668,8616306
0,2,0.0,501.0,735.0,0.58750004,0.26666668,8616339
0,2,0.0,497.0,674.0,0.58750004,0.26666668,8616339
0,2,0.0,496.0,615.0,0.58750004,0.26666668,8616340
0,2,0.0,498.0,566.0,0.58750004,0.26666668,8616340
0,2,0.0,502.0,515.0,0.58750004,0.26666668,8616391
0,2,0.0,509.0,459.0,0.58750004,0.26666668,8616391
0,2,0.0,522.0,400.0,0.58750004,0.26666668,8616392
0,2,0.0,543.0,326.0,0.58750004,0.26666668,8616392
0,1,0.0,543.0,326.0,0.58750004,0.26666668,8616393
0,0,0.0,674.0,1407.0,0.58750004,0.26666668,8617019
0,2,0.0,668.0,1398.0,0.58750004,0.26666668,8617035
0,2,0.0,639.0,1343.0,0.58750004,0.26666668,8617036
0,2,0.0,617.0,1295.0,0.58750004,0.26666668,8617036
0,2,0.0,596.0,1238.0,0.58750004,0.26666668,8617036
0,2,0.0,577.0,1176.0,0.58750004,0.26666668,8617053
0,2,0.0,561.0,1112.0,0.6,0.26666668,8617053
0,2,0.0,548.0,1043.0,0.6,0.26666668,8617070
0,2,0.0,536.0,969.0,0.6,0.26666668,8617070
0,2,0.0,527.0,887.0,0.6,0.26666668,8617103
0,2,0.0,521.0,806.0,0.6,0.26666668,8617103
0,2,0.0,520.0,717.0,0.6,0.26666668,8617103
0,2,0.0,523.0,628.0,0.6,0.26666668,8617104
0,2,0.0,531.0,546.0,0.6,0.26666668,8617137
0,2,0.0,543.0,466.0,0.6,0.26666668,8617137
0,2,0.0,559.0,388.0,0.6,0.26666668,8617138
0,2,0.0,583.0,308.0,0.6,0.26666668,8617138
0,2,0.0,620.0,209.0,0.58750004,0.26666668,8617165
0,1,0.0,620.0,209.0,0.58750004,0.26666668,8617166
0,0,0.0,697.0,1397.0,0.6,0.26666668,8617772
0,2,0.0,696.0,1396.0,0.6,0.26666668,8617783
0,2,0.0,690.0,1386.0,0.6,0.26666668,8617783
0,2,0.0,674.0,1353.0,0.58750004,0.26666668,8617783
0,2,0.0,662.0,1323.0,0.58750004,0.26666668,8617784
0,2,0.0,647.0,1287.0,0.58750004,0.26666668,8617784
0,2,0.0,630.0,1240.0,0.58750004,0.26666668,8617802
0,2,0.0,613.0,1188.0,0.58750004,0.26666668,8617803
0,2,0.0,598.0,1131.0,0.58750004,0.26666668,8617817
0,2,0.0,584.0,1069.0,0.58750004,0.26666668,8617818
0,2,0.0,572.0,1005.0,0.58750004,0.26666668,8617834
0,2,0.0,563.0,938.0,0.58750004,0.26666668,8617834
0,2,0.0,557.0,863.0,0.58750004,0.26666668,8617851
0,2,0.0,554.0,786.0,0.58750004,0.26666668,8617851
0,2,0.0,554.0,702.0,0.58750004,0.26666668,8617870
0,2,0.0,560.0,615.0,0.58750004,0.26666668,8617870
0,2,0.0,570.0,529.0,0.58750004,0.26666668,8617888
0,2,0.0,586.0,443.0,0.58750004,0.26666668,8617889
0,2,0.0,608.0,354.0,0.58750004,0.26666668,8617907
0,2,0.0,643.0,259.0,0.575,0.26666668,8617908
0,1,0.0,643.0,259.0,0.575,0.26666668,8617930
0,0,0.0,740.0,1432.0,0.6,0.26666668,8618531
0,2,0.0,735.0,1426.0,0.6,0.26666668,8618546
0,2,0.0,706.0,1386.0,0.58750004,0.26666668,8618547
0,2,0.0,681.0,1348.0,0.58750004,0.26666668,8618548
0,2,0.0,654.0,1303.0,0.58750004,0.26666668,8618548
0,2,0.0,627.0,1250.0,0.58750004,0.26666668,8618566
0,2,0.0,603.0,1194.0,0.6,0.26666668,8618566
0,2,0.0,583.0,1139.0,0.6,0.26666668,8618598
0,2,0.0,566.0,1080.0,0.6,0.26666668,8618598
0,2,0.0,551.0,1017.0,0.6,0.26666668,8618609
0,2,0.0,540.0,950.0,0.6,0.26666668,8618609
0,2,0.0,533.0,872.0,0.6,0.26666668,8618631
0,2,0.0,531.0,782.0,0.6,0.26666668,8618631
0,2,0.0,534.0,681.0,0.6,0.26666668,8618632
0,2,0.0,541.0,580.0,0.6,0.26666668,8618632
0,2,0.0,553.0,480.0,0.58750004,0.26666668,8618665
0,2,0.0,568.0,388.0,0.58750004,0.26666668,8618665
0,2,0.0,584.0,308.0,0.58750004,0.26666668,8618666
0,2,0.0,601.0,228.0,0.58750004,0.26666668,8618666
0,2,0.0,621.0,157.0,0.58750004,0.26666668,8618695
0,1,0.0,621.0,157.0,0.58750004,0.26666668,8618697
0,0,0.0,749.0,1510.0,0.58750004,0.26666668,8619228
0,2,0.0,748.0,1509.0,0.58750004,0.26666668,8619243
0,2,0.0,740.0,1500.0,0.575,0.26666668,8619243
0,2,0.0,713.0,1458.0,0.575,0.26666668,8619243
0,2,0.0,693.0,1419.0,0.575,0.26666668,8619243
0,2,0.0,668.0,1369.0,0.575,0.26666668,8619244
0,2,0.0,641.0,1309.0,0.575,0.26666668,8619260
0,2,0.0,616.0,1242.0,0.58750004,0.26666668,8619260
0,2,0.0,594.0,1172.0,0.58750004,0.26666668,8619277
0,2,0.0,575.0,1098.0,0.58750004,0.26666668,8619277
0,2,0.0,560.0,1027.0,0.58750004,0.26666668,8619294
0,2,0.0,547.0,948.0,0.58750004,0.26666668,8619294
0,2,0.0,538.0,864.0,0.58750004,0.26666668,8619311
0,2,0.0,533.0,767.0,0.58750004,0.26666668,8619311
0,2,0.0,530.0,677.0,0.58750004,0.26666668,8619328
0,2,0.0,532.0,583.0,0.58750004,0.26666668,8619328
0,2,0.0,539.0,491.0,0.58750004,0.26666668,8619345
0,2,0.0,550.0,398.0,0.58750004,0.26666668,8619345
0,2,0.0,566.0,309.0,0.58750004,0.26666668,8619362
0,2,0.0,589.0,216.0,0.58750004,0.26666668,8619362
0,2,0.0,615.0,119.0,0.58750004,0.26666668,8619379
0,1,0.0,615.0,119.0,0.58750004,0.26666668,8619380
0,0,0.0,711.0,1452.0,0.58750004,0.26666668,8619974
0,2,0.0,705.0,1439.0,0.58750004,0.26666668,8619990
0,2,0.0,675.0,1362.0,0.58750004,0.26666668,8619990
0,2,0.0,653.0,1297.0,0.58750004,0.26666668,8619990
0,2,0.0,631.0,1229.0,0.58750004,0.26666668,8619990
0,2,0.0,611.0,1158.0,0.58750004,0.26666668,8620009
0,2,0.0,593.0,1084.0,0.58750004,0.26666668,8620009
0,2,0.0,578.0,1012.0,0.58750004,0.26666668,8620024
0,2,0.0,565.0,937.0,0.58750004,0.26666668,8620024
0,2,0.0,556.0,864.0,0.58750004,0.26666668,8620041
0,2,0.0,550.0,784.0,0.58750004,0.26666668,8620041
0,2,0.0,547.0,703.0,0.58750004,0.26666668,8620058
0,2,0.0,549.0,623.0,0.58750004,0.26666668,8620058
0,2,0.0,555.0,541.0,0.58750004,0.26666668,8620077
0,2,0.0,563.0,461.0,0.58750004,0.26666668,8620078
0,2,0.0,574.0,377.0,0.58750004,0.26666668,8620095
0,2,0.0,589.0,290.0,0.58750004,0.26666668,8620095
0,2,0.0,608.0,201.0,0.58750004,0.26666668,8620117
0,2,0.0,630.0,117.0,0.58750004,0.26666668,8620117
0,1,0.0,630.0,117.0,0.58750004,0.26666668,8620150
0,0,0.0,780.0,1480.0,0.575,0.26666668,8620688
0,2,0.0,779.0,1479.0,0.575,0.26666668,8620703
0,2,0.0,774.0,1474.0,0.575,0.26666668,8620704
0,2,0.0,760.0,1454.0,0.58750004,0.26666668,8620704
0,2,0.0,745.0,1432.0,0.58750004,0.26666668,8620705
0,2,0.0,725.0,1400.0,0.58750004,0.26666668,8620705
0,2,0.0,700.0,1357.0,0.58750004,0.26666668,8620720
0,2,0.0,674.0,1307.0,0.58750004,0.26666668,8620721
0,2,0.0,647.0,1248.0,0.58750004,0.26666668,8620743
0,2,0.0,623.0,1186.0,0.58750004,0.26666668,8620758
0,2,0.0,602.0,1120.0,0.58750004,0.26666668,8620758
0,2,0.0,586.0,1051.0,0.58750004,0.26666668,8620759
0,2,0.0,574.0,977.0,0.58750004,0.26666668,8620773
0,2,0.0,565.0,901.0,0.58750004,0.26666668,8620774
0,2,0.0,560.0,826.0,0.58750004,0.26666668,8620792
0,2,0.0,560.0,749.0,0.58750004,0.26666668,8620792
0,2,0.0,563.0,670.0,0.58750004,0.26666668,8620821
0,2,0.0,568.0,586.0,0.58750004,0.26666668,8620822
0,2,0.0,577.0,490.0,0.58750004,0.26666668,8620839
0,2,0.0,590.0,386.0,0.58750004,0.26666668,8620839
0,2,0.0,604.0,285.0,0.575,0.26666668,8620840
0,1,0.0,604.0,285.0,0.575,0.26666668,8620840
0,0,0.0,774.0,1492.0,0.575,0.26666668,8621365
0,2,0.0,771.0,1486.0,0.575,0.26666668,8621381
0,2,0.0,760.0,1454.0,0.575,0.26666668,8621381
0,2,0.0,748.0,1425.0,0.575,0.26666668,8621382
0,2,0.0,731.0,1388.0,0.575,0.26666668,8621382
0,2,0.0,711.0,1345.0,0.575,0.26666668,8621400
0,2,0.0,688.0,1295.0,0.575,0.26666668,8621400
0,2,0.0,662.0,1238.0,0.58750004,0.26666668,8621432
0,2,0.0,636.0,1175.0,0.58750004,0.26666668,8621432
0,2,0.0,611.0,1110.0,0.58750004,0.26666668,8621437
0,2,0.0,589.0,1043.0,0.58750004,0.26666668,8621437
0,2,0.0,570.0,978.0,0.58750004,0.26666668,8621467
0,2,0.0,554.0,914.0,0.58750004,0.26666668,8621467
0,2,0.0,542.0,854.0,0.58750004,0.26666668,8621468
0,2,0.0,533.0,795.0,0.58750004,0.26666668,8621468
0,2,0.0,527.0,738.0,0.58750004,0.26666668,8621484
0,2,0.0,524.0,682.0,0.58750004,0.26666668,8621484
0,2,0.0,522.0,629.0,0.58750004,0.26666668,8621517
0,2,0.0,522.0,577.0,0.58750004,0.26666668,8621517
0,2,0.0,524.0,518.0,0.58750004,0.26666668,8621518
0,2,0.0,530.0,438.0,0.58750004,0.26666668,8621518
0,2,0.0,541.0,332.0,0.58750004,0.26666668,8621551
0,1,0.0,541.0,332.0,0.58750004,0.26666668,8621552
0,0,0.0,758.0,1360.0,0.575,0.26666668,8622095
0,2,0.0,752.0,1349.0,0.575,0.26666668,8622111
0,2,0.0,710.0,1276.0,0.575,0.26666668,8622112
0,2,0.0,676.0,1215.0,0.575,0.26666668,8622112
0,2,0.0,640.0,1143.0,0.575,0.26666668,8622112
0,2,0.0,606.0,1070.0,0.575,0.26666668,8622146
0,2,0.0,577.0,1001.0,0.575,0.26666668,8622146
0,2,0.0,552.0,931.0,0.575,0.26666668,8622147
0,2,0.0,530.0,862.0,0.58750004,0.26666668,8622147
0,2,0.0,514.0,795.0,0.58750004,0.26666668,8622163
0,2,0.0,498.0,724.0,0.58750004,0.26666668,8622163
0,2,0.0,487.0,658.0,0.58750004,0.26666668,8622180
0,2,0.0,479.0,591.0,0.58750004,0.26666668,8622180
0,2,0.0,475.0,525.0,0.58750004,0.26666668,8622197
0,2,0.0,474.0,459.0,0.58750004,0.26666668,8622197
0,2,0.0,476.0,396.0,0.58750004,0.26666668,8622214
0,2,0.0,480.0,334.0,0.58750004,0.26666668,8622214
0,2,0.0,488.0,264.0,0.58750004,0.26666668,8622231
0,2,0.0,503.0,188.0,0.58750004,0.26666668,8622231
0,2,0.0,528.0,97.0,0.58750004,0.26666668,8622257
0,1,0.0,528.0,97.0,0.58750004,0.26666668,8622257
0,0,0.0,742.0,1501.0,0.58750004,0.26666668,8622792
0,2,0.0,739.0,1497.0,0.575,0.26666668,8622808
0,2,0.0,715.0,1465.0,0.575,0.26666668,8622808
0,2,0.0,689.0,1425.0,0.575,0.26666668,8622808
0,2,0.0,655.0,1364.0,0.58750004,0.26666668,8622809
0,2,0.0,619.0,1293.0,0.58750004,0.26666668,8622825
0,2,0.0,585.0,1220.0,0.58750004,0.26666668,8622826
0,2,0.0,555.0,1146.0,0.58750004,0.26666668,8622842
0,2,0.0,529.0,1072.0,0.58750004,0.26666668,8622843
0,2,0.0,507.0,999.0,0.58750004,0.26666668,8622862
0,2,0.0,490.0,931.0,0.58750004,0.26666668,8622863
0,2,0.0,476.0,864.0,0.58750004,0.26666668,8622876
0,2,0.0,466.0,798.0,0.58750004,0.26666668,8622876
0,2,0.0,462.0,729.0,0.58750004,0.26666668,8622893
0,2,0.0,460.0,656.0,0.58750004,0.26666668,8622893
0,2,0.0,466.0,578.0,0.58750004,0.26666668,8622929
0,2,0.0,477.0,481.0,0.58750004,0.26666668,8622930
0,2,0.0,497.0,378.0,0.58750004,0.26666668,8622934
0,1,0.0,497.0,378.0,0.58750004,0.26666668,8622935
0,0,0.0,694.0,1358.0,0.58750004,0.26666668,8623470
0,2,0.0,693.0,1356.0,0.58750004,0.26666668,8623487
0,2,0.0,676.0,1332.0,0.58750004,0.26666668,8623487
0,2,0.0,654.0,1299.0,0.58750004,0.26666668,8623488
0,2,0.0,625.0,1250.0,0.58750004,0.26666668,8623488
0,2,0.0,594.0,1191.0,0.58750004,0.26666668,8623522
0,2,0.0,564.0,1126.0,0.58750004,0.26666668,8623523
0,2,0.0,537.0,1055.0,0.58750004,0.26666668,8623523
0,2,0.0,516.0,984.0,0.6,0.26666668,8623523
0,2,0.0,500.0,914.0,0.6,0.26666668,8623554
0,2,0.0,487.0,845.0,0.6,0.26666668,8623555
0,2,0.0,480.0,778.0,0.6,0.26666668,8623555
0,2,0.0,476.0,704.0,0.6,0.26666668,8623556
0,2,0.0,476.0,623.0,0.6,0.26666668,8623589
0,2,0.0,481.0,535.0,0.6,0.26666668,8623589
0,2,0.0,491.0,448.0,0.6,0.26666668,8623589
0,2,0.0,506.0,357.0,0.6,0.26666668,8623590
0,2,0.0,525.0,269.0,0.6,0.26666668,8623622
0,2,0.0,548.0,181.0,0.6,0.26666668,8623623
0,2,0.0,577.0,100.0,0.6,0.26666668,8623623
0,1,0.0,577.0,100.0,0.6,0.26666668,8623624
0,0,0.0,726.0,1520.0,0.58750004,0.26666668,8624252
0,2,0.0,720.0,1513.0,0.58750004,0.26666668,8624267
0,2,0.0,685.0,1466.0,0.58750004,0.26666668,8624268
0,2,0.0,655.0,1419.0,0.58750004,0.26666668,8624268
0,2,0.0,622.0,1360.0,0.58750004,0.26666668,8624268
0,2,0.0,592.0,1296.0,0.58750004,0.26666668,8624301
0,2,0.0,566.0,1231.0,0.6,0.26666668,8624302
0,2,0.0,544.0,1164.0,0.6,0.26666668,8624302
0,2,0.0,527.0,1098.0,0.6,0.26666668,8624302
0,2,0.0,514.0,1030.0,0.6,0.26666668,8624335
0,2,0.0,505.0,958.0,0.6,0.26666668,8624336
0,2,0.0,498.0,883.0,0.6,0.26666668,8624337
0,2,0.0,495.0,802.0,0.6,0.26666668,8624337
0,2,0.0,496.0,713.0,0.6,0.26666668,8624369
0,2,0.0,502.0,611.0,0.6,0.26666668,8624370
0,2,0.0,513.0,517.0,0.6,0.26666668,8624370
0,2,0.0,529.0,417.0,0.6,0.26666668,8624371
0,2,0.0,545.0,330.0,0.6,0.26666668,8624403
0,2,0.0,564.0,253.0,0.6,0.26666668,8624404
0,2,0.0,583.0,184.0,0.6,0.26666668,8624404
0,2,0.0,601.0,123.0,0.6,0.26666668,8624405
0,2,0.0,621.0,66.0,0.6,0.26666668,8624421
0,1,0.0,621.0,66.0,0.6,0.26666668,8624421
0,0,0.0,707.0,1367.0,0.575,0.26666668,8625032
0,2,0.0,706.0,1366.0,0.575,0.26666668,8625048
0,2,0.0,694.0,1356.0,0.58750004,0.26666668,8625048
0,2,0.0,661.0,1324.0,0.58750004,0.26666668,8625048
0,2,0.0,635.0,1294.0,0.58750004,0.26666668,8625049
0,2,0.0,606.0,1253.0,0.58750004,0.26666668,8625049
0,2,0.0,575.0,1200.0,0.58750004,0.26666668,8625072
0,2,0.0,548.0,1140.0,0.58750004,0.26666668,8625072
0,2,0.0,526.0,1075.0,0.58750004,0.26666668,8625087
0,2,0.0,509.0,1004.0,0.58750004,0.26666668,8625088
0,2,0.0,497.0,927.0,0.58750004,0.26666668,8625101
0,2,0.0,491.0,846.0,0.58750004,0.26666668,8625101
0,2,0.0,490.0,756.0,0.58750004,0.26666668,8625154
0,2,0.0,493.0,667.0,0.58750004,0.26666668,8625154
0,2,0.0,500.0,561.0,0.58750004,0.26666668,8625155
0,2,0.0,510.0,457.0,0.58750004,0.26666668,8625156
0,2,0.0,527.0,352.0,0.58750004,0.26666668,8625157
0,2,0.0,549.0,247.0,0.58750004,0.26666668,8625157
0,2,0.0,572.0,159.0,0.58750004,0.26666668,8625167
0,2,0.0,601.0,76.0,0.58750004,0.26666668,8625168
0,1,0.0,601.0,76.0,0.58750004,0.26666668,8625191
0,0,0.0,700.0,1413.0,0.575,0.26666668,8625796
0,2,0.0,699.0,1412.0,0.58750004,0.26666668,8625812
0,2,0.0,689.0,1401.0,0.58750004,0.26666668,8625813
0,2,0.0,654.0,1359.0,0.58750004,0.26666668,8625813
0,2,0.0,626.0,1317.0,0.58750004,0.26666668,8625813
0,2,0.0,598.0,1262.0,0.58750004,0.26666668,8625814
0,2,0.0,571.0,1199.0,0.58750004,0.26666668,8625830
0,2,0.0,548.0,1131.0,0.58750004,0.26666668,8625830
0,2,0.0,532.0,1058.0,0.58750004,0.26666668,8625847
0,2,0.0,522.0,984.0,0.58750004,0.26666668,8625847
0,2,0.0,517.0,905.0,0.58750004,0.26666668,8625880
0,2,0.0,519.0,823.0,0.58750004,0.26666668,8625880
0,2,0.0,526.0,736.0,0.58750004,0.26666668,8625881
0,2,0.0,539.0,641.0,0.58750004,0.26666668,8625881
0,2,0.0,560.0,529.0,0.58750004,0.26666668,8625915
0,2,0.0,584.0,421.0,0.58750004,0.26666668,8625915
0,2,0.0,616.0,303.0,0.58750004,0.26666668,8625915
0,2,0.0,649.0,198.0,0.58750004,0.26666668,8625916
0,2,0.0,681.0,100.0,0.58750004,0.26666668,8625943
0,1,0.0,681.0,100.0,0.58750004,0.26666668,8625943
0,0,0.0,745.0,1472.0,0.58750004,0.26666668,8626577
0,2,0.0,744.0,1471.0,0.58750004,0.26666668,8626593
0,2,0.0,730.0,1448.0,0.58750004,0.26666668,8626594
0,2,0.0,710.0,1408.0,0.58750004,0.26666668,8626594
0,2,0.0,685.0,1347.0,0.58750004,0.26666668,8626594
0,2,0.0,662.0,1273.0,0.58750004,0.26666668,8626627
0,2,0.0,642.0,1192.0,0.6,0.26666668,8626628
0,2,0.0,626.0,1112.0,0.6,0.26666668,8626628
0,2,0.0,614.0,1031.0,0.6,0.26666668,8626628
0,2,0.0,606.0,947.0,0.6,0.26666668,8626644
0,2,0.0,604.0,851.0,0.6,0.26666668,8626644
0,2,0.0,608.0,750.0,0.6,0.26666668,8626661
0,2,0.0,619.0,644.0,0.6,0.26666668,8626662
0,2,0.0,635.0,532.0,0.6,0.26666668,8626678
0,2,0.0,654.0,431.0,0.6,0.26666668,8626679
0,2,0.0,678.0,330.0,0.6,0.26666668,8626695
0,2,0.0,707.0,239.0,0.6,0.26666668,8626696
0,2,0.0,739.0,151.0,0.6,0.26666668,8626712
0,2,0.0,778.0,65.0,0.6,0.26666668,8626713
0,1,0.0,778.0,65.0,0.6,0.26666668,8626729
0,0,0.0,694.0,1484.0,0.6125,0.33333334,8627341
0,2,0.0,690.0,1478.0,0.6125,0.33333334,8627357
0,2,0.0,654.0,1396.0,0.6,0.33333334,8627357
0,2,0.0,627.0,1324.0,0.6,0.33333334,8627358
0,2,0.0,606.0,1253.0,0.6,0.33333334,8627358
0,2,0.0,590.0,1184.0,0.6125,0.33333334,8627408
0,2,0.0,580.0,1115.0,0.6125,0.33333334,8627409
0,2,0.0,574.0,1038.0,0.6125,0.33333334,8627409
0,2,0.0,572.0,950.0,0.6125,0.33333334,8627409
0,2,0.0,576.0,848.0,0.6125,0.33333334,8627410
0,2,0.0,587.0,737.0,0.6125,0.33333334,8627410
0,2,0.0,606.0,613.0,0.6125,0.33333334,8627442
0,2,0.0,630.0,498.0,0.6125,0.33333334,8627442
0,2,0.0,658.0,382.0,0.6125,0.33333334,8627443
0,2,0.0,684.0,287.0,0.6125,0.33333334,8627443
0,2,0.0,714.0,196.0,0.6125,0.26666668,8627459
0,2,0.0,740.0,116.0,0.6,0.26666668,8627459
0,2,0.0,772.0,39.0,0.5625,0.26666668,8627476
0,1,0.0,772.0,39.0,0.5625,0.26666668,8627477
0,0,0.0,713.0,1502.0,0.58750004,0.26666668,8628088
0,2,0.0,708.0,1496.0,0.6,0.26666668,8628104
0,2,0.0,674.0,1442.0,0.6,0.26666668,8628105
0,2,0.0,643.0,1384.0,0.6,0.26666668,8628105
0,2,0.0,613.0,1313.0,0.6,0.26666668,8628105
0,2,0.0,588.0,1235.0,0.6,0.26666668,8628138
0,2,0.0,569.0,1154.0,0.6,0.26666668,8628139
0,2,0.0,558.0,1067.0,0.6,0.26666668,8628139
0,2,0.0,558.0,967.0,0.6,0.26666668,8628140
0,2,0.0,566.0,856.0,0.6,0.26666668,8628155
0,2,0.0,583.0,728.0,0.6,0.26666668,8628156
0,2,0.0,614.0,593.0,0.6,0.26666668,8628172
0,2,0.0,652.0,464.0,0.6,0.26666668,8628173
0,2,0.0,690.0,340.0,0.5625,0.26666668,8628203
0,1,0.0,690.0,340.0,0.5625,0.26666668,8628215
0,0,0.0,718.0,1455.0,0.58750004,0.33333334,8628954
0,2,0.0,717.0,1454.0,0.58750004,0.26666668,8628970
0,2,0.0,700.0,1432.0,0.58750004,0.26666668,8628970
0,2,0.0,671.0,1385.0,0.58750004,0.26666668,8628971
0,2,0.0,632.0,1306.0,0.58750004,0.26666668,8628971
0,2,0.0,596.0,1208.0,0.58750004,0.26666668,8628989
0,2,0.0,570.0,1108.0,0.6,0.26666668,8628991
0,2,0.0,553.0,1001.0,0.6,0.26666668,8629006
0,2,0.0,544.0,882.0,0.6,0.26666668,8629007
0,2,0.0,546.0,751.0,0.6,0.26666668,8629023
0,2,0.0,557.0,613.0,0.6,0.26666668,8629024
0,2,0.0,580.0,472.0,0.6,0.26666668,8629038
0,2,0.0,610.0,345.0,0.6,0.26666668,8629041
0,2,0.0,646.0,232.0,0.6,0.26666668,8629057
0,1,0.0,646.0,232.0,0.6,0.26666668,8629057
0,0,0.0,699.0,1490.0,0.6125,0.33333334,8629632
0,2,0.0,698.0,1489.0,0.6125,0.33333334,8629648
0,2,0.0,683.0,1462.0,0.6,0.33333334,8629649
0,2,0.0,664.0,1419.0,0.6,0.33333334,8629649
0,2,0.0,638.0,1354.0,0.6,0.33333334,8629650
0,2,0.0,613.0,1278.0,0.6,0.33333334,8629669
0,2,0.0,593.0,1196.0,0.6,0.33333334,8629669
0,2,0.0,579.0,1108.0,0.6,0.33333334,8629683
0,2,0.0,569.0,1016.0,0.6,0.33333334,8629684
0,2,0.0,564.0,903.0,0.6,0.33333334,8629700
0,2,0.0,565.0,792.0,0.6,0.33333334,8629701
0,2,0.0,573.0,660.0,0.6,0.33333334,8629717
0,2,0.0,588.0,525.0,0.6,0.33333334,8629718
0,2,0.0,612.0,386.0,0.6,0.26666668,8629744
0,2,0.0,643.0,262.0,0.58750004,0.26666668,8629745
0,1,0.0,643.0,262.0,0.58750004,0.26666668,8629757
0,0,0.0,706.0,1351.0,0.58750004,0.33333334,8630379
0,2,0.0,701.0,1346.0,0.6,0.26666668,8630395
0,2,0.0,680.0,1323.0,0.6,0.26666668,8630396
0,2,0.0,658.0,1298.0,0.6,0.26666668,8630396
0,2,0.0,633.0,1263.0,0.6,0.26666668,8630397
0,2,0.0,608.0,1217.0,0.6,0.26666668,8630430
0,2,0.0,585.0,1163.0,0.6,0.26666668,8630430
0,2,0.0,563.0,1093.0,0.6,0.26666668,8630430
0,2,0.0,545.0,1012.0,0.6,0.26666668,8630431
0,2,0.0,536.0,908.0,0.6,0.26666668,8630464
0,2,0.0,534.0,795.0,0.6,0.26666668,8630464
0,2,0.0,542.0,660.0,0.6,0.26666668,8630464
0,2,0.0,557.0,523.0,0.6,0.26666668,8630465
0,2,0.0,575.0,380.0,0.6,0.26666668,8630498
0,2,0.0,597.0,248.0,0.6,0.26666668,8630498
0,2,0.0,622.0,113.0,0.6,0.26666668,8630499
0,1,0.0,622.0,113.0,0.6,0.26666668,8630499
0,0,0.0,738.0,1458.0,0.6,0.26666668,8631092
0,2,0.0,733.0,1456.0,0.6,0.26666668,8631109
0,2,0.0,720.0,1449.0,0.6125,0.26666668,8631109
0,2,0.0,697.0,1429.0,0.6125,0.26666668,8631109
0,2,0.0,679.0,1409.0,0.6125,0.26666668,8631110
0,2,0.0,657.0,1380.0,0.6125,0.26666668,8631110
0,2,0.0,631.0,1342.0,0.6125,0.26666668,8631143
0,2,0.0,606.0,1294.0,0.6125,0.26666668,8631144
0,2,0.0,582.0,1239.0,0.6125,0.26666668,8631144
0,2,0.0,558.0,1174.0,0.6125,0.26666668,8631145
0,2,0.0,537.0,1096.0,0.6125,0.26666668,8631160
0,2,0.0,523.0,1013.0,0.6125,0.26666668,8631161
0,2,0.0,515.0,916.0,0.6125,0.26666668,8631177
0,2,0.0,515.0,811.0,0.6125,0.26666668,8631178
0,2,0.0,522.0,694.0,0.6125,0.26666668,8631194
0,2,0.0,538.0,573.0,0.6125,0.26666668,8631195
0,2,0.0,563.0,435.0,0.6125,0.26666668,8631211
0,2,0.0,590.0,310.0,0.6125,0.26666668,8631212
0,2,0.0,627.0,186.0,0.6125,0.26666668,8631229
0,1,0.0,627.0,186.0,0.6125,0.26666668,8631229
0,0,0.0,612.0,1435.0,0.625,0.33333334,8658312
0,2,0.0,607.0,1428.0,0.625,0.33333334,8658338
0,2,0.0,587.0,1389.0,0.625,0.33333334,8658339
0,2,0.0,571.0,1349.0,0.625,0.33333334,8658339
0,2,0.0,552.0,1297.0,0.625,0.33333334,8658339
0,2,0.0,533.0,1235.0,0.625,0.33333334,8658358
0,2,0.0,516.0,1165.0,0.625,0.33333334,8658359
0,2,0.0,498.0,1083.0,0.625,0.33333334,8658389
0,2,0.0,481.0,998.0,0.625,0.33333334,8658390
0,2,0.0,468.0,899.0,0.6125,0.33333334,8658390
0,2,0.0,458.0,793.0,0.6125,0.33333334,8658390
0,2,0.0,454.0,670.0,0.6125,0.33333334,8658407
0,2,0.0,457.0,544.0,0.6125,0.33333334,8658407
0,2,0.0,463.0,414.0,0.6125,0.33333334,8658423
0,2,0.0,475.0,289.0,0.6125,0.26666668,8658423
0,2,0.0,490.0,172.0,0.6,0.26666668,8658439
0,2,0.0,510.0,78.0,0.58750004,0.26666668,8658440
0,1,0.0,510.0,78.0,0.58750004,0.26666668,8658455
0,0,0.0,754.0,1470.0,0.58750004,0.26666668,8658837
0,2,0.0,751.0,1468.0,0.6,0.26666668,8658853
0,2,0.0,741.0,1464.0,0.6,0.26666668,8658854
0,2,0.0,718.0,1452.0,0.6125,0.26666668,8658854
0,2,0.0,702.0,1442.0,0.6125,0.26666668,8658855
0,2,0.0,685.0,1430.0,0.6125,0.26666668,8658855
0,2,0.0,665.0,1413.0,0.6125,0.26666668,8658878
0,2,0.0,644.0,1393.0,0.6125,0.26666668,8658878
0,2,0.0,618.0,1360.0,0.6125,0.26666668,8658898
0,2,0.0,590.0,1317.0,0.6125,0.26666668,8658898
0,2,0.0,558.0,1257.0,0.6125,0.26666668,8658912
0,2,0.0,527.0,1181.0,0.6125,0.26666668,8658912
0,2,0.0,499.0,1092.0,0.6125,0.26666668,8658927
0,2,0.0,472.0,991.0,0.6125,0.26666668,8658927
0,2,0.0,450.0,883.0,0.6125,0.26666668,8658941
0,2,0.0,436.0,776.0,0.6125,0.26666668,8658941
0,2,0.0,426.0,662.0,0.6125,0.26666668,8658959
0,2,0.0,417.0,553.0,0.6125,0.26666668,8658959
0,2,0.0,415.0,452.0,0.6125,0.26666668,8658977
0,2,0.0,413.0,363.0,0.6125,0.26666668,8658978
0,2,0.0,415.0,280.0,0.6125,0.26666668,8658992
0,2,0.0,420.0,201.0,0.6125,0.26666668,8658993
0,2,0.0,427.0,133.0,0.6125,0.26666668,8659010
0,2,0.0,438.0,64.0,0.6125,0.26666668,8659010
0,1,0.0,438.0,64.0,0.6125,0.26666668,8659027
0,0,0.0,696.0,1429.0,0.6375,0.33333334,8659385
0,2,0.0,695.0,1428.0,0.6375,0.33333334,8659398
0,2,0.0,685.0,1425.0,0.6375,0.33333334,8659399
0,2,0.0,667.0,1414.0,0.6375,0.33333334,8659399
0,2,0.0,653.0,1402.0,0.6375,0.33333334,8659400
0,2,0.0,634.0,1380.0,0.625,0.33333334,8659401
0,2,0.0,610.0,1341.0,0.625,0.33333334,8659417
0,2,0.0,582.0,1290.0,0.625,0.33333334,8659418
0,2,0.0,553.0,1225.0,0.625,0.33333334,8659433
0,2,0.0,527.0,1152.0,0.625,0.33333334,8659433
0,2,0.0,501.0,1071.0,0.625,0.33333334,8659450
0,2,0.0,476.0,985.0,0.625,0.33333334,8659451
0,2,0.0,453.0,894.0,0.625,0.33333334,8659472
0,2,0.0,436.0,808.0,0.625,0.33333334,8659473
0,2,0.0,418.0,715.0,0.625,0.33333334,8659489
0,2,0.0,405.0,617.0,0.625,0.33333334,8659490
0,2,0.0,398.0,523.0,0.625,0.33333334,8659507
0,2,0.0,396.0,425.0,0.625,0.33333334,8659507
0,2,0.0,402.0,327.0,0.625,0.33333334,8659524
0,2,0.0,411.0,237.0,0.625,0.33333334,8659525
0,2,0.0,421.0,154.0,0.6125,0.33333334,8659547
0,2,0.0,440.0,71.0,0.6,0.26666668,8659548
0,1,0.0,440.0,71.0,0.6,0.26666668,8659576
0,0,0.0,685.0,1409.0,0.6375,0.33333334,8659910
0,2,0.0,678.0,1401.0,0.625,0.33333334,8659924
0,2,0.0,652.0,1363.0,0.625,0.33333334,8659924
0,2,0.0,633.0,1333.0,0.625,0.33333334,8659924
0,2,0.0,613.0,1295.0,0.625,0.33333334,8659925
0,2,0.0,594.0,1255.0,0.625,0.33333334,8659941
0,2,0.0,572.0,1209.0,0.625,0.33333334,8659941
0,2,0.0,550.0,1155.0,0.625,0.33333334,8659958
0,2,0.0,528.0,1093.0,0.625,0.33333334,8659958
0,2,0.0,506.0,1019.0,0.625,0.33333334,8659975
0,2,0.0,483.0,937.0,0.625,0.33333334,8659975
0,2,0.0,463.0,845.0,0.625,0.33333334,8659997
0,2,0.0,446.0,745.0,0.625,0.33333334,8659997
0,2,0.0,435.0,644.0,0.625,0.33333334,8660018
0,2,0.0,428.0,535.0,0.625,0.33333334,8660018
0,2,0.0,424.0,426.0,0.625,0.33333334,8660034
0,2,0.0,424.0,316.0,0.625,0.33333334,8660034
0,2,0.0,426.0,217.0,0.6125,0.33333334,8660051
0,2,0.0,431.0,107.0,0.6125,0.33333334,8660052
0,1,0.0,431.0,107.0,0.6125,0.33333334,8660074
0,0,0.0,583.0,1359.0,0.6375,0.33333334,8660452
0,2,0.0,582.0,1358.0,0.6375,0.33333334,8660473
0,2,0.0,575.0,1352.0,0.6375,0.33333334,8660473
0,2,0.0,553.0,1329.0,0.6375,0.33333334,8660474
0,2,0.0,535.0,1302.0,0.625,0.33333334,8660474
0,2,0.0,512.0,1261.0,0.625,0.33333334,8660474
0,2,0.0,486.0,1204.0,0.625,0.33333334,8660496
0,2,0.0,462.0,1135.0,0.625,0.33333334,8660497
0,2,0.0,442.0,1053.0,0.625,0.33333334,8660511
0,2,0.0,424.0,964.0,0.625,0.33333334,8660512
0,2,0.0,408.0,866.0,0.625,0.33333334,8660527
0,2,0.0,397.0,762.0,0.625,0.33333334,8660527
0,2,0.0,387.0,655.0,0.625,0.33333334,8660542
0,2,0.0,381.0,544.0,0.625,0.33333334,8660543
0,2,0.0,378.0,436.0,0.625,0.33333334,8660557
0,2,0.0,379.0,332.0,0.625,0.33333334,8660557
0,2,0.0,383.0,237.0,0.625,0.33333334,8660574
0,2,0.0,391.0,150.0,0.625,0.33333334,8660574
0,2,0.0,402.0,68.0,0.625,0.33333334,8660593
0,1,0.0,402.0,68.0,0.625,0.33333334,8660594
0,0,0.0,733.0,1414.0,0.6375,0.33333334,8660960
0,2,0.0,732.0,1413.0,0.6375,0.33333334,8660976
0,2,0.0,723.0,1407.0,0.6375,0.33333334,8660976
0,2,0.0,700.0,1389.0,0.6375,0.33333334,8660977
0,2,0.0,684.0,1371.0,0.625,0.33333334,8660977
0,2,0.0,661.0,1342.0,0.625,0.33333334,8660977
0,2,0.0,633.0,1301.0,0.625,0.33333334,8660993
0,2,0.0,605.0,1250.0,0.625,0.33333334,8660994
0,2,0.0,575.0,1190.0,0.625,0.33333334,8661027
0,2,0.0,545.0,1120.0,0.625,0.33333334,8661027
0,2,0.0,517.0,1041.0,0.625,0.33333334,8661028
0,2,0.0,489.0,958.0,0.625,0.33333334,8661028
0,2,0.0,462.0,863.0,0.625,0.33333334,8661066
0,2,0.0,442.0,765.0,0.625,0.33333334,8661067
0,2,0.0,426.0,667.0,0.625,0.33333334,8661067
0,2,0.0,413.0,557.0,0.625,0.33333334,8661067
0,2,0.0,409.0,450.0,0.625,0.33333334,8661078
0,2,0.0,410.0,340.0,0.6125,0.33333334,8661078
0,2,0.0,418.0,230.0,0.6125,0.33333334,8661112
0,2,0.0,426.0,131.0,0.6125,0.33333334,8661112
0,1,0.0,426.0,131.0,0.6125,0.33333334,8661113
0,0,0.0,683.0,1386.0,0.6375,0.33333334,8661503
0,2,0.0,682.0,1385.0,0.625,0.33333334,8661519
0,2,0.0,669.0,1370.0,0.625,0.33333334,8661520
0,2,0.0,634.0,1321.0,0.625,0.33333334,8661520
0,2,0.0,611.0,1282.0,0.625,0.33333334,8661521
0,2,0.0,586.0,1235.0,0.625,0.33333334,8661521
0,2,0.0,556.0,1176.0,0.625,0.33333334,8661556
0,2,0.0,526.0,1106.0,0.625,0.33333334,8661557
0,2,0.0,493.0,1024.0,0.625,0.33333334,8661557
0,2,0.0,461.0,930.0,0.625,0.33333334,8661558
0,2,0.0,434.0,825.0,0.625,0.33333334,8661588
0,2,0.0,409.0,715.0,0.625,0.33333334,8661588
0,2,0.0,390.0,591.0,0.625,0.33333334,8661589
0,2,0.0,378.0,473.0,0.625,0.33333334,8661590
0,2,0.0,371.0,357.0,0.625,0.33333334,8661634
0,2,0.0,369.0,247.0,0.625,0.33333334,8661634
0,2,0.0,371.0,153.0,0.625,0.33333334,8661635
0,2,0.0,376.0,61.0,0.6125,0.33333334,8661635
0,1,0.0,376.0,61.0,0.6125,0.33333334,8661651
0,0,0.0,641.0,1331.0,0.625,0.33333334,8662080
0,2,0.0,639.0,1327.0,0.625,0.33333334,8662096
0,2,0.0,616.0,1288.0,0.625,0.33333334,8662097
0,2,0.0,598.0,1251.0,0.625,0.33333334,8662097
0,2,0.0,576.0,1206.0,0.625,0.33333334,8662098
0,2,0.0,552.0,1155.0,0.625,0.33333334,8662118
0,2,0.0,530.0,1101.0,0.625,0.33333334,8662118
0,2,0.0,507.0,1040.0,0.625,0.33333334,8662135
0,2,0.0,482.0,973.0,0.625,0.33333334,8662135
0,2,0.0,457.0,897.0,0.625,0.33333334,8662150
0,2,0.0,438.0,816.0,0.625,0.33333334,8662150
0,2,0.0,420.0,729.0,0.625,0.33333334,8662176
0,2,0.0,407.0,631.0,0.625,0.33333334,8662177
0,2,0.0,400.0,529.0,0.625,0.33333334,8662193
0,2,0.0,398.0,425.0,0.625,0.33333334,8662193
0,2,0.0,405.0,319.0,0.625,0.33333334,8662215
0,2,0.0,414.0,221.0,0.625,0.33333334,8662215
0,2,0.0,426.0,117.0,0.6125,0.33333334,8662216
0,1,0.0,426.0,117.0,0.6125,0.33333334,8662217
0,0,0.0,601.0,1451.0,0.625,0.33333334,8662623
0,2,0.0,596.0,1438.0,0.625,0.33333334,8662639
0,2,0.0,557.0,1331.0,0.625,0.33333334,8662640
0,2,0.0,531.0,1261.0,0.625,0.33333334,8662641
0,2,0.0,505.0,1187.0,0.625,0.33333334,8662641
0,2,0.0,476.0,1108.0,0.625,0.33333334,8662658
0,2,0.0,450.0,1027.0,0.625,0.33333334,8662658
0,2,0.0,424.0,937.0,0.625,0.33333334,8662676
0,2,0.0,402.0,851.0,0.625,0.33333334,8662678
0,2,0.0,385.0,757.0,0.625,0.33333334,8662698
0,2,0.0,374.0,654.0,0.625,0.33333334,8662698
0,2,0.0,370.0,538.0,0.625,0.33333334,8662714
0,2,0.0,373.0,417.0,0.625,0.33333334,8662714
0,2,0.0,384.0,289.0,0.6125,0.26666668,8662732
0,1,0.0,384.0,289.0,0.6125,0.26666668,8662733
0,0,0.0,696.0,1468.0,0.6375,0.33333334,8663133
0,2,0.0,689.0,1465.0,0.6375,0.33333334,8663149
0,2,0.0,671.0,1452.0,0.625,0.33333334,8663150
0,2,0.0,657.0,1438.0,0.625,0.33333334,8663150
0,2,0.0,635.0,1411.0,0.625,0.33333334,8663150
0,2,0.0,606.0,1366.0,0.625,0.33333334,8663167
0,2,0.0,574.0,1305.0,0.625,0.33333334,8663167
0,2,0.0,542.0,1232.0,0.625,0.33333334,8663200
0,2,0.0,512.0,1148.0,0.625,0.33333334,8663201
0,2,0.0,482.0,1054.0,0.625,0.33333334,8663201
0,2,0.0,455.0,950.0,0.625,0.33333334,8663202
0,2,0.0,434.0,840.0,0.625,0.33333334,8663252
0,2,0.0,416.0,729.0,0.625,0.33333334,8663252
0,2,0.0,400.0,608.0,0.625,0.33333334,8663253
0,2,0.0,388.0,490.0,0.625,0.33333334,8663254
0,2,0.0,382.0,370.0,0.625,0.33333334,8663254
0,2,0.0,382.0,257.0,0.625,0.33333334,8663255
0,2,0.0,387.0,154.0,0.625,0.33333334,8663268
0,2,0.0,396.0,52.0,0.6125,0.33333334,8663269
0,1,0.0,396.0,52.0,0.6125,0.33333334,8663286
0,0,0.0,727.0,1491.0,0.625,0.33333334,8663693
0,2,0.0,716.0,1481.0,0.625,0.33333334,8663710
0,2,0.0,668.0,1432.0,0.625,0.33333334,8663710
0,2,0.0,631.0,1385.0,0.625,0.33333334,8663711
0,2,0.0,590.0,1328.0,0.625,0.33333334,8663711
0,2,0.0,548.0,1258.0,0.625,0.33333334,8663727
0,2,0.0,508.0,1181.0,0.625,0.33333334,8663728
0,2,0.0,468.0,1094.0,0.625,0.33333334,8663748
0,2,0.0,435.0,998.0,0.625,0.33333334,8663749
0,2,0.0,404.0,893.0,0.625,0.33333334,8663765
0,2,0.0,381.0,786.0,0.625,0.33333334,8663766
0,2,0.0,365.0,666.0,0.625,0.33333334,8663818
0,2,0.0,355.0,541.0,0.625,0.33333334,8663818
0,2,0.0,351.0,428.0,0.625,0.33333334,8663819
0,2,0.0,352.0,308.0,0.625,0.33333334,8663819
0,2,0.0,359.0,195.0,0.625,0.33333334,8663819
0,2,0.0,366.0,86.0,0.6125,0.26666668,8663826
0,1,0.0,366.0,86.0,0.6125,0.26666668,8663843
0,0,0.0,713.0,1389.0,0.6125,0.33333334,8664236
0,2,0.0,705.0,1381.0,0.6125,0.33333334,8664252
0,2,0.0,674.0,1343.0,0.625,0.33333334,8664253
0,2,0.0,647.0,1310.0,0.625,0.33333334,8664253
0,2,0.0,617.0,1270.0,0.625,0.33333334,8664254
0,2,0.0,583.0,1223.0,0.625,0.33333334,8664273
0,2,0.0,548.0,1170.0,0.625,0.33333334,8664273
0,2,0.0,512.0,1111.0,0.625,0.33333334,8664303
0,2,0.0,474.0,1040.0,0.625,0.33333334,8664304
0,2,0.0,441.0,964.0,0.625,0.33333334,8664304
0,2,0.0,406.0,871.0,0.625,0.33333334,8664305
0,2,0.0,380.0,774.0,0.625,0.33333334,8664337
0,2,0.0,359.0,663.0,0.625,0.33333334,8664338
0,2,0.0,344.0,539.0,0.625,0.33333334,8664338
0,2,0.0,333.0,419.0,0.625,0.33333334,8664339
0,2,0.0,328.0,294.0,0.625,0.33333334,8664371
0,2,0.0,329.0,172.0,0.625,0.33333334,8664372
0,2,0.0,332.0,54.0,0.625,0.33333334,8664372
0,1,0.0,332.0,54.0,0.625,0.33333334,8664373
0,0,0.0,666.0,1435.0,0.625,0.33333334,8664780
0,2,0.0,665.0,1434.0,0.625,0.33333334,8664796
0,2,0.0,652.0,1425.0,0.625,0.33333334,8664797
0,2,0.0,613.0,1381.0,0.625,0.33333334,8664797
0,2,0.0,582.0,1336.0,0.625,0.33333334,8664797
0,2,0.0,547.0,1279.0,0.625,0.33333334,8664798
0,2,0.0,511.0,1211.0,0.625,0.33333334,8664814
0,2,0.0,476.0,1136.0,0.625,0.33333334,8664814
0,2,0.0,445.0,1055.0,0.625,0.33333334,8664834
0,2,0.0,414.0,967.0,0.625,0.33333334,8664834
0,2,0.0,386.0,873.0,0.625,0.33333334,8664851
0,2,0.0,364.0,775.0,0.625,0.33333334,8664851
0,2,0.0,344.0,672.0,0.625,0.33333334,8664870
0,2,0.0,326.0,563.0,0.625,0.33333334,8664871
0,2,0.0,313.0,445.0,0.625,0.33333334,8664887
0,2,0.0,306.0,328.0,0.625,0.33333334,8664887
0,2,0.0,304.0,214.0,0.625,0.33333334,8664913
0,2,0.0,305.0,101.0,0.625,0.33333334,8664913
0,1,0.0,305.0,101.0,0.625,0.33333334,8664934
0,0,0.0,582.0,1406.0,0.625,0.33333334,8665289
0,2,0.0,572.0,1394.0,0.625,0.33333334,8665306
0,2,0.0,534.0,1338.0,0.625,0.33333334,8665306
0,2,0.0,505.0,1291.0,0.625,0.33333334,8665306
0,2,0.0,474.0,1235.0,0.625,0.33333334,8665307
0,2,0.0,443.0,1171.0,0.625,0.33333334,8665323
0,2,0.0,410.0,1095.0,0.625,0.33333334,8665323
0,2,0.0,381.0,1013.0,0.625,0.33333334,8665340
0,2,0.0,353.0,921.0,0.625,0.33333334,8665343
0,2,0.0,327.0,820.0,0.625,0.33333334,8665359
0,2,0.0,305.0,712.0,0.625,0.33333334,8665359
0,2,0.0,292.0,597.0,0.625,0.33333334,8665379
0,2,0.0,282.0,479.0,0.625,0.33333334,8665380
0,2,0.0,280.0,370.0,0.625,0.33333334,8665396
0,2,0.0,281.0,254.0,0.625,0.33333334,8665397
0,2,0.0,286.0,156.0,0.625,0.33333334,8665414
0,2,0.0,296.0,56.0,0.625,0.33333334,8665415
0,1,0.0,296.0,56.0,0.625,0.33333334,8665430
0,0,0.0,659.0,1434.0,0.625,0.33333334,8665782
0,2,0.0,651.0,1432.0,0.625,0.33333334,8665799
0,2,0.0,623.0,1422.0,0.625,0.33333334,8665799
0,2,0.0,603.0,1410.0,0.625,0.33333334,8665799
0,2,0.0,580.0,1393.0,0.625,0.33333334,8665800
0,2,0.0,557.0,1371.0,0.625,0.33333334,8665818
0,2,0.0,529.0,1339.0,0.625,0.33333334,8665819
0,2,0.0,495.0,1294.0,0.625,0.33333334,8665850
0,2,0.0,463.0,1241.0,0.625,0.33333334,8665862
0,2,0.0,430.0,1178.0,0.625,0.33333334,8665862
0,2,0.0,398.0,1103.0,0.625,0.33333334,8665863
0,2,0.0,373.0,1022.0,0.625,0.33333334,8665884
0,2,0.0,351.0,925.0,0.625,0.33333334,8665884
0,2,0.0,337.0,823.0,0.625,0.33333334,8665884
0,2,0.0,325.0,716.0,0.625,0.33333334,8665885
0,2,0.0,319.0,606.0,0.625,0.33333334,8665918
0,2,0.0,315.0,496.0,0.625,0.33333334,8665918
0,2,0.0,317.0,388.0,0.625,0.33333334,8665918
0,2,0.0,321.0,288.0,0.625,0.33333334,8665919
0,2,0.0,328.0,193.0,0.625,0.33333334,8665952
0,2,0.0,338.0,110.0,0.625,0.33333334,8665952
0,2,0.0,348.0,29.0,0.6125,0.33333334,8665953
0,1,0.0,348.0,29.0,0.6125,0.33333334,8665953
0,0,0.0,635.0,1405.0,0.625,0.33333334,8666325
0,2,0.0,629.0,1399.0,0.625,0.33333334,8666342
0,2,0.0,603.0,1366.0,0.625,0.33333334,8666342
0,2,0.0,580.0,1332.0,0.625,0.33333334,8666342
0,2,0.0,553.0,1287.0,0.625,0.33333334,8666343
0,2,0.0,526.0,1233.0,0.625,0.33333334,8666361
0,2,0.0,496.0,1171.0,0.625,0.33333334,8666362
0,2,0.0,467.0,1103.0,0.625,0.33333334,8666410
0,2,0.0,440.0,1030.0,0.625,0.33333334,8666410
0,2,0.0,410.0,946.0,0.625,0.33333334,8666410
0,2,0.0,385.0,859.0,0.625,0.33333334,8666410
0,2,0.0,363.0,765.0,0.625,0.33333334,8666411
0,2,0.0,344.0,670.0,0.625,0.33333334,8666411
0,2,0.0,326.0,572.0,0.625,0.33333334,8666444
0,2,0.0,314.0,476.0,0.625,0.33333334,8666444
0,2,0.0,307.0,379.0,0.625,0.33333334,8666444
0,2,0.0,307.0,287.0,0.625,0.33333334,8666445
0,2,0.0,312.0,194.0,0.625,0.33333334,8666478
0,2,0.0,323.0,105.0,0.625,0.33333334,8666478
0,1,0.0,323.0,105.0,0.625,0.33333334,8666479
0,0,0.0,544.0,1493.0,0.6375,0.33333334,8666853
0,2,0.0,542.0,1491.0,0.625,0.33333334,8666869
0,2,0.0,523.0,1460.0,0.625,0.33333334,8666869
0,2,0.0,504.0,1423.0,0.625,0.33333334,8666870
0,2,0.0,480.0,1374.0,0.625,0.33333334,8666870
0,2,0.0,457.0,1318.0,0.625,0.33333334,8666887
0,2,0.0,433.0,1257.0,0.625,0.33333334,8666892
0,2,0.0,406.0,1187.0,0.625,0.33333334,8666907
0,2,0.0,381.0,1111.0,0.625,0.33333334,8666907
0,2,0.0,358.0,1033.0,0.625,0.33333334,8666922
0,2,0.0,332.0,947.0,0.625,0.33333334,8666922
0,2,0.0,309.0,858.0,0.625,0.33333334,8666937
0,2,0.0,291.0,765.0,0.625,0.33333334,8666937
0,2,0.0,275.0,668.0,0.625,0.33333334,8666958
0,2,0.0,261.0,570.0,0.625,0.33333334,8666959
0,2,0.0,251.0,466.0,0.625,0.33333334,8666979
0,2,0.0,245.0,362.0,0.625,0.33333334,8666980
0,2,0.0,248.0,254.0,0.625,0.33333334,8666998
0,2,0.0,256.0,153.0,0.625,0.33333334,8666999
0,2,0.0,269.0,43.0,0.6125,0.33333334,8667019
0,1,0.0,269.0,43.0,0.6125,0.33333334,8667030
0,0,0.0,659.0,1416.0,0.625,0.33333334,8667415
0,2,0.0,658.0,1416.0,0.6125,0.33333334,8667430
0,2,0.0,652.0,1415.0,0.625,0.33333334,8667430
0,2,0.0,635.0,1408.0,0.625,0.33333334,8667431
0,2,0.0,622.0,1399.0,0.625,0.33333334,8667431
0,2,0.0,606.0,1384.0,0.625,0.33333334,8667432
0,2,0.0,581.0,1355.0,0.625,0.33333334,8667448
0,2,0.0,552.0,1313.0,0.625,0.33333334,8667448
0,2,0.0,521.0,1258.0,0.625,0.33333334,8667464
0,2,0.0,489.0,1193.0,0.625,0.33333334,8667465
0,2,0.0,459.0,1120.0,0.625,0.33333334,8667481
0,2,0.0,431.0,1039.0,0.625,0.33333334,8667481
0,2,0.0,402.0,951.0,0.625,0.33333334,8667504
0,2,0.0,377.0,863.0,0.625,0.33333334,8667505
0,2,0.0,355.0,767.0,0.625,0.33333334,8667526
0,2,0.0,333.0,673.0,0.625,0.33333334,8667527
0,2,0.0,314.0,578.0,0.625,0.33333334,8667549
0,2,0.0,302.0,485.0,0.625,0.33333334,8667550
0,2,0.0,294.0,395.0,0.625,0.33333334,8667551
0,2,0.0,290.0,305.0,0.625,0.33333334,8667551
0,2,0.0,290.0,219.0,0.625,0.33333334,8667585
0,2,0.0,294.0,127.0,0.625,0.33333334,8667585
0,2,0.0,303.0,32.0,0.58750004,0.33333334,8667586
0,1,0.0,303.0,32.0,0.58750004,0.33333334,8667587
0,0,0.0,678.0,1336.0,0.6375,0.33333334,8667939
0,2,0.0,675.0,1335.0,0.625,0.33333334,8667955
0,2,0.0,648.0,1320.0,0.625,0.33333334,8667955
0,2,0.0,626.0,1307.0,0.625,0.33333334,8667956
0,2,0.0,600.0,1288.0,0.625,0.33333334,8667956
0,2,0.0,573.0,1263.0,0.625,0.33333334,8667991
0,2,0.0,543.0,1231.0,0.625,0.33333334,8667992
0,2,0.0,506.0,1188.0,0.625,0.33333334,8667992
0,2,0.0,469.0,1136.0,0.625,0.33333334,8667993
0,2,0.0,428.0,1072.0,0.625,0.33333334,8668040
0,2,0.0,390.0,998.0,0.625,0.33333334,8668040
0,2,0.0,351.0,915.0,0.625,0.33333334,8668040
0,2,0.0,316.0,826.0,0.625,0.33333334,8668040
0,2,0.0,285.0,726.0,0.625,0.33333334,8668041
0,2,0.0,257.0,626.0,0.625,0.33333334,8668041
0,2,0.0,236.0,523.0,0.625,0.33333334,8668075
0,2,0.0,222.0,424.0,0.625,0.33333334,8668075
0,2,0.0,213.0,325.0,0.625,0.33333334,8668076
0,2,0.0,209.0,238.0,0.625,0.33333334,8668080
0,2,0.0,209.0,150.0,0.625,0.33333334,8668108
0,2,0.0,213.0,69.0,0.625,0.33333334,8668109
0,1,0.0,213.0,69.0,0.625,0.33333334,8668109
0,0,0.0,564.0,1360.0,0.6,0.33333334,8668516
0,2,0.0,561.0,1353.0,0.6125,0.33333334,8668532
0,2,0.0,531.0,1281.0,0.6125,0.33333334,8668532
0,2,0.0,507.0,1220.0,0.6125,0.33333334,8668533
0,2,0.0,482.0,1151.0,0.6125,0.33333334,8668533
0,2,0.0,458.0,1078.0,0.6125,0.33333334,8668556
0,2,0.0,435.0,998.0,0.6125,0.33333334,8668556
0,2,0.0,411.0,914.0,0.6125,0.33333334,8668576
0,2,0.0,388.0,828.0,0.6125,0.33333334,8668576
0,2,0.0,370.0,739.0,0.6125,0.33333334,8668590
0,2,0.0,356.0,648.0,0.6125,0.33333334,8668591
0,2,0.0,345.0,555.0,0.6125,0.33333334,8668605
0,2,0.0,338.0,463.0,0.6125,0.33333334,8668606
0,2,0.0,334.0,367.0,0.6125,0.33333334,8668621
0,2,0.0,333.0,267.0,0.6125,0.33333334,8668622
0,2,0.0,337.0,166.0,0.6125,0.26666668,8668638
0,1,0.0,337.0,166.0,0.6125,0.26666668,8668639
0,0,0.0,604.0,1486.0,0.625,0.33333334,8669044
0,2,0.0,596.0,1476.0,0.6125,0.33333334,8669059
0,2,0.0,563.0,1430.0,0.625,0.33333334,8669060
0,2,0.0,540.0,1393.0,0.625,0.33333334,8669060
0,2,0.0,512.0,1345.0,0.625,0.33333334,8669060
0,2,0.0,482.0,1290.0,0.625,0.33333334,8669077
0,2,0.0,453.0,1226.0,0.625,0.33333334,8669077
0,2,0.0,422.0,1153.0,0.625,0.33333334,8669097
0,2,0.0,393.0,1073.0,0.625,0.33333334,8669097
0,2,0.0,368.0,983.0,0.625,0.33333334,8669112
0,2,0.0,345.0,890.0,0.625,0.33333334,8669113
0,2,0.0,325.0,790.0,0.625,0.33333334,8669131
0,2,0.0,307.0,682.0,0.625,0.33333334,8669131
0,2,0.0,297.0,575.0,0.625,0.33333334,8669148
0,2,0.0,290.0,466.0,0.625,0.33333334,8669149
0,2,0.0,288.0,358.0,0.625,0.33333334,8669166
0,2,0.0,290.0,253.0,0.625,0.33333334,8669167
0,2,0.0,298.0,154.0,0.625,0.33333334,8669183
0,2,0.0,312.0,49.0,0.6125,0.33333334,8669183
0,1,0.0,312.0,49.0,0.6125,0.33333334,8669199
