0.2779668
0.3926017
0.1817234
0.2070084
0.3067784
0.3062148
0.2902017
0.2727949
0.2890766
0.3312984
0.358283
0.3489625
0.2102613
0.2236384
0.2268914
0.2802081
0.2788283
0.0868466
0.265839
0.2801501
0.309141
0.3763684
0.2994634
0.2554912
0.2527765
0.2759928
0.1854281
0.2767245
0.1708437
0.1831574
0.2729584
0.2720265
0.3124107
0.2127244
0.2146944
0.322454
0.2606573
0.375904
0.2480933
0.3377507
0.2978048
0.311552
0.3599437
0.1230269
0.4398881
0.2640775
0.352327
0.2361731
0.279031
0.360236
0.2468911
0.279533
0.3043695
0.1596767
0.3939039
0.1990007
0.2295068
0.219135
0.2940593
0.2366169
0.2161712
0.2996478
0.3133514
0.2163287
0.201177
0.122993
0.2067642
0.2526764
0.3188295
0.2823207
0.342021
0.3076839
0.1837687
0.3466002
0.1798772
0.377979
0.301316
0.3449872
0.4030268
0.2111582
0.3510239
0.2900412
0.2924816
0.3008399
0.3100914
0.341503
0.2068688
0.2025519
0.2136687
0.1169342
0.1719668
0.1911045
0.2050697
0.3014317
0.2391987
0.1947422
0.1942158
0.2530682
0.2778999
0.299801
