0.318063
0.0041653
0.2701489
0.0810978
0.1803449
0.2099937
0.1646716
0.1234383
0.2298336
0.2196263
0.2805681
0.1334735
0.1324151
0.1307494
0.1807699
0.1160117
0.1042781
0.2017879
0.3076679
0.2177104
0.1694656
0.2762304
0.1075302
0.1816916
0.0661362
0.0191967
0.1729283
0.0352654
0.1722832
0.2824779
0.2043557
0.1909226
0.2260095
0.1652097
0.2726466
0.0851121
0.1731761
0.2721205
0.2617535
0.0815508
0.2007381
0.1233587
0.2132577
0.1882755
0.258228
0.0070529
0.1135502
0.2109091
0.2133695
0.1638009
0.0698644
0.0639827
0.2575845
0.2885263
0.1770887
0.1797342
0.1213253
0.2100997
0.0934176
0.1303259
0.2141227
0.2619201
0.2784316
0.2170286
0.020877
0.2921084
0.3730477
0.0700165
0.1741528
0.2694373
0.1043245
0.1611904
0.2135641
0.1163276
0.2590887
0.2693775
0.269993
0.2612231
0.2796725
0.296951
0.2733767
0.1230533
0.2723381
0.0790042
0.2284956
0.1147803
0.213104
0.2734701
0.2589224
0.1140371
0.2601453
0.1201369
0.1795318
0.2797497
0.269577
0.3588345
0.1256181
0.1793789
0.1769908
0.1587186
