0.2107894
0.213474
0.0049826
0.0031329
0.1840749
0.0292716
0.0935433
0.1875552
0.1186288
0.1208647
0.1865867
0.1856778
0.1189144
0.0960243
0.0952336
0.122069
0.2104482
0.119215
0.0959807
0.0036961
0.1194679
0.0963519
0.0299011
0.0295008
0.0046075
0.0953281
0.0930735
0.1189007
0.0953361
0.0018009
0.0270905
0.1877732
0.0024834
0.001048
0.1197666
0.0939877
0.0038738
0.0305046
0.0939074
0.1187714
0.1194848
0.0294295
0.1187362
0.2111766
0.0290832
0.0943367
0.0957247
0.1850324
0.1211023
0.0933629
0.1191682
0.1185627
0.2127994
0.096149
0.0939385
0.0023704
0.0954615
0.0958599
0.1860792
0.1847829
0.030656
0.1848602
0.0278774
0.0939102
0.0953477
0.1870551
0.1855428
0.2104605
0.0293798
0.0932119
0.1208009
0.2117181
0.1213447
0.1844539
0.2101608
0.0960205
0.0039756
0.1211737
0.0304435
0.1199949
0.1857923
0.0033892
0.1198434
0.1218856
0.0281001
0.0932266
0.1211256
0.1198492
0.1209312
0.1194683
0.118348
0.0930743
0.0278049
0.0306474
0.0929606
0.0018593
0.1868175
0.0961195
0.0295759
0.0930954
