0.0486099
0.0595933
0.1560285
0.0256328
0.0312758
0.1336569
0.1053808
0.1000969
0.0895954
0.1533155
0.1094285
0.1113783
0.1225999
0.0709332
0.0824284
0.1080674
0.0980373
0.1243579
0.1755604
0.0860099
0.150971
0.1971945
0.0759884
0.1496866
0.1335394
0.1532723
0.1672834
0.1091627
0.0867734
0.0641494
0.0682521
0.1574556
0.1162976
0.1557218
0.1085344
0.1172008
0.1387798
0.1100652
0.1169226
0.0995441
0.1676685
0.0937727
0.0685138
0.0364861
0.1154744
0.1062543
0.0888753
0.136706
0.0825556
0.1203493
0.0771639
0.145354
0.1604789
0.0298622
0.0691614
0.0622313
0.0734671
0.064659
0.080441
0.1075856
0.1058106
0.0256175
0.0397083
0.0757935
0.1230448
0.1559261
0.0736337
0.1470916
0.0821561
0.1362794
0.1576894
0.1606557
0.0514135
0.1421712
0.1706342
0.1021844
0.091208
0.1093644
0.0279407
0.1085029
0.1407233
0.0755962
0.0449278
0.0770432
0.1483665
0.119446
0.0694162
0.0910196
0.063907
0.1548963
0.1472246
0.1056658
0.1089518
0.0742924
0.101478
0.0966512
0.1196643
0.1072855
0.1104587
0.1358523
