0.4074439
0.4580384
0.4477535
0.4579468
0.3161177
0.2088498
0.4532133
0.3784925
0.3011417
0.392469
0.4439244
0.4752976
0.3118923
0.3121681
0.4519366
0.3844442
0.5669162
0.2884007
0.3155625
0.5178096
0.3918803
0.3593801
0.3124388
0.2691276
0.2212809
0.4195211
0.3838447
0.2925122
0.3629814
0.3561798
0.2702527
0.3181736
0.5512975
0.3853291
0.3621394
0.2781245
0.3594434
0.4706598
0.1224493
0.2742262
0.4579679
0.5584542
0.2246228
0.3275897
0.3839938
0.4131526
0.2868506
0.5668935
0.3978682
0.4165937
0.5110268
0.3236903
0.3777886
0.5213376
0.376402
0.4688903
0.3087548
0.4577401
0.3399558
0.476384
0.3712121
0.3932965
0.3883266
0.4520974
0.4266807
0.3674239
0.6348779
0.1987801
0.4189361
0.4000623
0.4994938
0.4420949
0.2939646
0.467802
0.2967838
0.4182927
0.4651588
0.2564643
0.3757137
0.3025273
0.237163
0.3172385
0.378493
0.3144057
0.3254958
0.3056324
0.5320304
0.4079919
0.4404036
0.4474637
0.2912776
0.2392021
0.6196046
0.3200296
0.3017379
0.5725783
0.3896415
0.4161903
0.4007981
0.1985281
