0.159448
0.0437974
0.1555834
0.1168958
0.0415466
0.0817589
0.0779327
0.1105169
0.1168287
0.0801064
0.0109862
0.0352632
0.1898109
0.119042
0.0351639
0.1128343
0.0329871
0.0047637
0.1922112
0.1128494
0.0778938
0.1145473
0.1106256
0.0864052
0.080242
0.0801926
0.0755971
0.0026322
0.0755471
0.0818279
0.1532552
0.0777925
0.1594839
0.0352007
0.0863087
0.0755517
0.1835511
0.0437682
0.083995
0.0778486
0.0352647
0.159506
0.0863264
0.0088136
0.1168791
0.0778931
0.1190053
0.1190395
0.1859297
0.0374932
0.1595807
0.0415583
0.0780542
0.1144375
0.1616772
0.0375444
0.0777824
0.1616653
0.1881371
0.1922452
0.1594286
0.0778324
0.1106562
0.0802117
0.1897943
0.1531975
0.116872
0.1594308
0.1144945
0.0840299
0.1593682
0.0864936
0.0413977
0.0818228
0.185851
0.008799
0.0778103
0.0863173
0.0863182
0.1858219
0.1144774
0.1082827
0.039147
0.002618
0.1106584
0.0841571
0.1555281
0.1836678
0.0087336
0.0840037
0.1082164
0.1554758
0.1168127
0.1167779
0.1083093
0.1106186
0.1859686
0.0414412
0.0026235
0.1858982
