0.0159437
0.0159362
0.0166814
0.0159039
0.0325497
6.66e-05
0.0166261
0.0318375
0.0166251
0.0166403
0.0166633
0.0007811
0.0159037
0.0166476
0.0325106
0.0007879
3.38e-05
0.0159149
0.0317819
0.0007907
0.0318286
0.0325328
0.0325041
0.0166686
0.0317753
0.0159466
0.016659
0.0008033
0.000745
0.0159503
0.0007589
0.0166527
0.0318364
0.0166238
0.0159402
0.0318295
0.0166209
0.0159426
3.22e-05
0.0159535
7.35e-05
0.0159102
0.0166741
0.0317827
0.0159577
0.0317871
0.0159079
2.17e-05
0.01666
0.0325149
0.0166311
0.0166271
0.0007907
0.0159569
0.0159519
0.0159555
0.0159214
0.0166368
0.0325299
0.0159466
8.15e-05
0.031771
0.0317837
0.0159482
0.016638
7.32e-05
0.0166659
0.0166828
0.0159466
0.0007874
0.032517
0.0166374
0.0325129
0.0159212
0.0166358
0.0166679
0.0325036
0.0318145
0.0166539
0.0317961
0.0007642
0.0007614
0.0159484
0.0007975
0.0317819
0.000754
0.0318278
4.06e-05
0.0166374
0.015943
4.27e-05
0.016638
0.0158937
0.0159166
0.0166686
0.0325119
0.000756
0.0317911
0.0166113
3.02e-05
