0.295566
0.2006861
0.3137501
0.2021336
0.2283302
0.3414968
0.3468079
0.4271986
0.2745809
0.3459519
0.2134753
0.3277889
0.4388844
0.4271957
0.1229679
0.3605876
0.2074368
0.2606075
0.3739189
0.2926357
0.4004366
0.250265
0.4626626
0.1972796
0.4766085
0.2474581
0.2843513
0.2245002
0.2371433
0.3645948
0.2215448
0.3225445
0.2109386
0.3296244
0.4473887
0.176885
0.5325559
0.4532286
0.3401117
0.3824947
0.2903996
0.2728772
0.2228446
0.2039027
0.24391
0.2933357
0.3949294
0.41906
0.3813187
0.0880324
0.2732945
0.1151139
0.3915057
0.449385
0.137713
0.3734921
0.3901319
0.2072893
0.3909004
0.4091361
0.1293862
0.2364707
0.3744664
0.2985283
0.1940731
0.3677805
0.2316264
0.2128997
0.3575149
0.2899737
0.3068498
0.3152091
0.1815676
0.0869277
0.2663058
0.3458199
0.2310889
0.2543384
0.2995646
0.3145618
0.2756947
0.2415229
0.2450869
0.2902178
0.2962151
0.3929411
0.4860174
0.2069039
0.4352514
0.269402
0.4177384
0.5621575
0.3822375
0.3177396
0.1589624
0.217975
0.4959277
0.3036038
0.2026755
0.2869922
