0.0472414
0.0466623
0.0134015
0.0929416
0.0518031
0.0896935
0.1298583
0.11176
0.0540831
0.0496563
0.134857
0.1041571
0.0688648
0.0725315
0.0183233
0.1288019
0.0955579
0.0535337
0.112988
0.086839
0.0313353
0.0547805
0.0688911
0.0900108
0.0463735
0.0919752
0.1471628
0.0754108
0.0791265
0.1488909
0.0886383
0.0653753
0.0946335
0.0505766
0.0889866
0.0869303
0.0959629
0.0075008
0.0495816
0.0548304
0.0921859
0.0553757
0.0659833
0.0521808
0.092125
0.0687201
0.0577689
0.0863216
0.0370874
0.0959313
0.0748463
0.108971
0.0545672
0.114318
0.0353954
0.0743584
0.1282305
0.0952158
0.0516364
0.0500749
0.0484024
0.1327378
0.0999089
0.0744342
0.1276592
0.0859725
0.0660261
0.0502178
0.1024212
0.0333785
0.0575786
0.0776355
0.0720712
0.1293502
0.1146189
0.033559
0.1208638
0.1142625
0.0947499
0.0712793
0.0899078
0.0606103
0.114588
0.0744212
0.1268558
0.1343552
0.0281786
0.0062127
0.0736497
0.0175827
0.0565366
0.1068631
0.0937823
0.0653802
0.1190026
0.0775005
0.1083138
0.0928067
0.0539082
0.0504793
