0.396628
0.4835018
0.4723826
0.4489815
0.5682572
0.3428476
0.4792872
0.4233914
0.6084309
0.5486029
0.4747528
0.5651714
0.5236305
0.4155328
0.4279458
0.5547891
0.5355707
0.4448575
0.4927383
0.3850594
0.637471
0.236851
0.5002686
0.5866963
0.4440457
0.4102884
0.5275732
0.47809
0.5152275
0.4281897
0.2358384
0.5734147
0.4648906
0.5524346
0.5316456
0.4960222
0.5010273
0.4819204
0.4107325
0.4847279
0.6318828
0.6529502
0.6271842
0.4719217
0.3042568
0.5349086
0.7029915
0.4176216
0.3902241
0.4715615
0.3441343
0.3237311
0.3743797
0.3199551
0.4751496
0.5657272
0.4609615
0.4863565
0.5368427
0.4648429
0.6120737
0.3437466
0.4808582
0.5120487
0.5266754
0.6133477
0.4350661
0.5386556
0.5497309
0.4541137
0.6158155
0.5157161
0.3736888
0.3795382
0.4586317
0.490084
0.463684
0.6047811
0.4689477
0.5107673
0.5177945
0.430156
0.3422574
0.4276561
0.6111513
0.3385797
0.5135215
0.5439205
0.552158
0.4950193
0.4423471
0.4092455
0.4298211
0.391738
0.4934316
0.5268636
0.3598081
0.4502791
0.5905411
0.472459
