0.2282188
0.037865
0.2000191
0.2905334
0.1282654
0.1377274
0.1904602
0.0001543
0.0378918
0.0001675
0.1378386
0.1000631
0.1905874
0.1000772
0.0999697
0.3282464
0.2904061
0.1378016
0.2904228
0.1283846
0.128422
0.1000869
0.1284019
0.0999592
0.0905525
0.1000875
0.2283249
0.1378286
0.1999904
0.0001286
0.2000036
0.2283308
0.2905192
0.1905939
0.0999651
0.0001384
0.0905476
0.290398
0.0906619
0.1000798
0.1282852
0.0377882
0.2283106
0.2281932
0.3282649
0.2282024
0.1000588
0.100073
0.1000517
0.1906061
0.290405
0.2282246
0.1905686
0.0905387
0.0001426
0.2282129
0.3281238
0.1376982
0.1904773
0.3282865
0.2905417
0.099946
0.1378148
0.0378873
0.1904835
0.328144
0.0905606
0.137808
0.2905017
0.0999676
0.1904491
0.2904086
0.2282032
0.1378016
0.1905802
0.0377744
0.0377705
0.1282843
0.0001241
0.1999141
0.0001414
0.1998999
0.1284281
0.1904706
0.1905923
0.037774
0.1283914
0.2376092
0.0378769
0.1378183
0.2283415
0.2283546
0.1284162
0.3281614
0.0377752
0.2376467
0.2903925
0.090647
0.0379097
0.3281604
