0.534141
0.7102454
0.4692508
0.4040837
0.4825787
0.5521717
0.4319595
0.5300583
0.6551215
0.521804
0.5772986
0.556184
0.5406651
0.4715156
0.7172153
0.5379638
0.5732812
0.4882745
0.7258773
0.5323015
0.381716
0.5177931
0.6607913
0.5894942
0.5381665
0.4731241
0.5054039
0.5430058
0.5295658
0.4328269
0.437502
0.6628626
0.4809644
0.3944744
0.7066008
0.4516469
0.7409358
0.5657397
0.5568788
0.551367
0.5562222
0.6305619
0.4922192
0.3713411
0.5263587
0.48466
0.4507992
0.5050403
0.58565
0.5298814
0.4500167
0.5661994
0.3759482
0.6427609
0.566905
0.5656877
0.4992518
0.5957846
0.6275597
0.5296691
0.469899
0.6249681
0.4283996
0.3171964
0.4442638
0.5977261
0.5443519
0.6544186
0.3890856
0.5614927
0.6070444
0.6373423
0.441596
0.4626402
0.4272862
0.5827889
0.4824606
0.5811434
0.395425
0.7230009
0.5525127
0.5557151
0.5433238
0.5036392
0.5767107
0.345695
0.5371376
0.5593857
0.4160273
0.6275172
0.5711954
0.3633523
0.5596104
0.629585
0.5641637
0.7300166
0.6100421
0.5295262
0.5585539
0.4810725
