0.7606189
0.6641132
0.4757528
0.6494448
0.4514449
0.4679601
0.595844
0.6323181
0.6280131
0.5727344
0.46883
0.5619252
0.5236454
0.6121768
0.587382
0.6663918
0.5237189
0.6231505
0.5360809
0.6156729
0.4549223
0.4124317
0.4933592
0.5392158
0.6809138
0.5163651
0.6010427
0.5580885
0.4358768
0.6618655
0.6976504
0.5246321
0.5539068
0.6217738
0.7659
0.4452597
0.5738867
0.5109392
0.4880895
0.6333558
0.4833203
0.6777837
0.5808781
0.4265918
0.5601939
0.5930184
0.4848593
0.5394271
0.4986751
0.6405377
0.6617684
0.4839411
0.5289596
0.4038431
0.477686
0.6372078
0.6574078
0.5899309
0.4429377
0.3006999
0.6713093
0.7645464
0.4241117
0.5587545
0.6206847
0.5910574
0.4312508
0.3803707
0.4751544
0.5756823
0.5054657
0.529526
0.719029
0.5478985
0.4515467
0.5671203
0.6530708
0.5808077
0.5276271
0.4116772
0.8187585
0.5709509
0.6342826
0.5207591
0.5179893
0.5333353
0.5182129
0.4128665
0.4883249
0.4634314
0.5341371
0.5402496
0.5887973
0.6916632
0.5618199
0.5850005
0.5172556
0.4404553
0.5674357
0.4986518
