0.0114125
0.0145748
0.045885
0.0477272
0.0365386
0.0352422
0.0670077
0.0488932
0.0454097
0.030322
0.0383512
0.035747
0.0344398
0.0257251
0.0172732
0.0425996
0.0393912
0.0096944
0.0273566
0.0419522
0.0413016
0.0345476
0.0318569
0.066042
0.0530513
0.0732163
0.0218434
0.0657847
0.0479626
0.0426702
0.0329605
0.0404083
0.0609057
0.0556288
0.0312256
0.0395742
0.010152
0.0378737
0.0324857
0.0373153
0.0369797
0.0607053
0.0235917
0.0243386
0.0470042
0.0601648
0.0416121
0.0409677
0.0232796
0.0274704
0.0494493
0.0148908
0.0462449
0.0608395
0.0175116
0.0415602
0.0453731
0.0121987
0.0658918
0.0307147
0.0227348
0.0167629
0.0285159
0.0106777
0.0291982
0.0647865
0.0425208
0.0702981
0.0620139
0.0520694
0.034966
0.0421113
0.0389926
0.0641095
0.0380517
0.0415099
0.0289289
0.0164383
0.0654272
0.0359102
0.0629142
0.0657185
0.0606645
0.0329775
0.0183081
0.0351097
0.0608068
0.0473499
0.0191762
0.059344
0.0345001
0.0132483
0.0330422
0.0453355
0.0342112
0.0452404
0.0474879
0.0631848
0.0103249
0.0612146
