0.1133192
0.0587958
0.1519342
0.1585724
0.0599781
0.1105987
0.1613499
0.0529679
0.1040556
0.0615785
0.2024633
0.1735911
0.1030445
0.235562
0.0674176
0.114276
0.1416443
0.1012314
0.0440834
0.0904731
0.1718105
0.1584097
0.1243823
0.1611767
0.0216319
0.0561922
0.1709351
0.2041287
0.1509236
0.1495063
0.1474302
0.1226118
0.1097235
0.2016714
0.1695751
0.2822193
0.1888746
0.1036901
0.0945533
0.2361159
0.0150666
0.1483319
0.1265976
0.055881
0.2102491
0.1553216
0.1504811
0.1608594
0.1079451
0.1128377
0.1157226
0.1018599
0.1115542
0.1030925
0.2084086
0.0537111
0.2113667
0.1482315
0.1689223
0.1499839
0.110386
0.1517882
0.1538683
0.1504845
0.1381402
0.1558165
0.2017609
0.1500993
0.1739572
0.0082871
0.2105932
0.1975789
0.2484882
0.0469076
0.1484097
0.1405395
0.2435188
0.1600131
0.1229653
0.1603493
0.1180702
0.1610675
0.0692273
0.1599289
0.1643407
0.2824698
0.1624504
0.2075029
0.2079603
0.156736
0.2563744
0.1033147
0.0161167
0.0933638
0.1628565
0.1401554
0.1620093
0.158698
0.2588509
0.1633974
