0.1952146
0.2638181
0.0646289
0.1550388
0.0332728
0.1523136
0.0867142
0.2069765
0.1283256
0.1605368
0.0183712
0.2559923
0.082505
0.1644477
0.0972688
0.1453195
0.191329
0.0865771
0.1311061
0.1984203
0.1373585
0.1522932
0.2638801
0.0903662
0.0971958
0.0540216
0.2651909
0.1495349
0.1963582
0.1492269
0.1284386
0.1517397
0.1521463
0.1583953
0.1664309
0.1610272
0.157151
0.1429339
0.1657652
0.0576834
0.0699633
0.1919093
0.1635381
0.0918646
0.1261009
0.0923874
0.0980912
0.1346194
0.2056879
0.0935798
0.1541508
0.1346888
0.1357134
0.0600019
0.1621644
0.0937224
0.1567357
0.0928507
0.2006022
0.1652415
0.1567691
0.0638703
0.1680395
0.0997533
0.1338115
0.0882834
0.140095
0.0194233
0.1640426
0.1595953
0.1576425
0.0704734
0.1358619
0.1996308
0.2092691
0.0936689
0.1528302
0.1562892
0.1624378
0.1345032
0.2637823
0.0924725
0.2274494
0.2270753
0.1501912
0.2002753
0.1643143
0.2748782
0.1508034
0.0641481
0.2057383
0.1344424
0.0641042
0.0249899
0.1476848
0.0985502
0.1350235
0.1333706
0.0944641
0.1288052
