0.0111347
0.0508899
0.0050995
0.0747619
0.0514247
0.0677378
0.0141988
0.0990139
0.110803
0.0990241
0.0653023
0.0515129
0.0610787
0.0734186
0.0170574
0.0274004
0.0513655
0.0631814
0.0513861
0.0617306
0.0273775
0.026502
0.0748658
0.1123135
0.0597757
0.1206513
0.0529527
0.0171856
0.1113328
0.0298358
0.0487977
0.0748413
0.0298149
0.102099
0.1135147
0.0592591
0.0976941
0.0267087
0.0649079
0.0027648
0.0617544
0.0633422
0.0111567
0.0988637
0.0769373
0.0193835
0.1114554
0.02696
0.050647
0.0990096
0.0641868
0.0733011
0.0990265
0.0167568
0.0113909
0.1114139
0.0516319
0.0529733
0.0486528
0.0506456
0.1013484
0.0631752
0.0031641
0.0748885
0.051772
0.0653874
0.0733062
0.0653795
0.0143186
0.0645478
0.1010858
0.1093383
0.0150918
0.0996274
0.0134515
0.0174045
0.0514908
0.0112757
0.061738
0.0969283
0.0156828
0.1100026
0.0998735
0.0128391
0.0162727
0.0652896
0.0530704
0.0251696
0.0049477
0.0149242
0.1152245
0.0171803
0.0630975
0.0623411
0.0594121
0.0485295
0.0976741
0.0150565
0.0537106
0.0161625
