0.1903172
0.1886886
0.2288204
0.3780912
0.1954381
0.3716537
0.190578
0.1969845
0.0897351
0.1565294
0.2895966
0.3377634
0.1959348
0.3323522
0.184091
0.0563181
0.2835499
0.1172565
0.1563133
0.1565375
0.2054935
0.1959911
0.2776588
0.2782339
0.2781656
0.1280205
0.2043724
0.2853048
0.2841288
0.1836501
0.1841487
0.1288005
0.1178203
0.2515087
0.1892137
0.1886809
0.2287321
0.2116053
0.3164581
0.2508996
0.0956974
0.316593
0.2777799
0.2505611
0.2376549
0.2440334
0.2453362
0.212048
0.1026699
0.1958374
0.1577038
0.3385967
0.1010782
0.1828912
0.1967047
0.2448254
0.338638
0.1567008
0.0015567
0.1287245
0.2768006
0.0567172
0.1436899
0.2044014
0.135891
0.0075099
0.2452843
0.1904816
0.33773
0.3169603
0.2513344
0.2841021
0.2287884
0.189753
0.0957351
0.0339004
0.2773843
0.2832636
0.2982904
0.2518485
0.1841682
0.1959724
0.2513717
0.2447167
0.3231741
0.204544
0.2385602
0.1839494
0.1499381
0.1015433
0.1111892
0.1903243
0.3387526
0.1277824
0.1507129
0.1899511
0.0568011
0.2451354
0.0406891
0.2778376
