0.0015342
0.0014642
0.0015197
0.0003785
0.0014251
0.0001067
0.0002454
0.0013615
0.0015878
0.00266
0.0015114
0.0015938
0.0013047
0.0026739
0.0014812
0.0001421
0.0027183
0.0025501
0.0012969
0.0027214
0.0012964
0.0013489
0.0027337
0.001282
0.0014271
0.0014277
0.0026428
0.0002608
0.0026744
0.0014355
0.0001081
0.0002499
0.000292
0.0015343
0.0025778
0.0001476
0.0012921
0.0014154
0.0027185
0.001419
0.0026868
0.0003758
0.0001434
0.0002818
0.0002543
0.0013394
9.64e-05
0.0014381
0.002705
0.0015066
0.0013557
0.0015186
0.0014705
0.0026564
0.0001924
0.0014097
0.0014015
0.0025563
0.0013027
0.000127
0.0026388
0.0025366
0.0001931
0.0014237
0.0027652
8.94e-05
0.0026146
0.0013278
0.0015884
0.0014266
0.0014707
0.0024986
0.0012934
0.0013579
0.0013812
0.0013919
0.000368
0.0014055
0.0015189
0.0013968
0.0014241
0.0002695
0.0013228
0.001474
0.0015432
0.0003008
0.0012982
0.0026305
0.0002119
0.0013679
0.0003211
0.0015762
0.001533
0.001436
0.0003082
0.0015095
0.001347
0.0003161
0.0002161
0.0002958
