0.0064211
0.013851
0.0117918
0.005813
0.0140766
0.0231107
0.0059969
0.0117961
0.0148442
0.005708
0.0114297
0.013737
0.0044246
0.0055695
0.0036886
0.0033184
0.0047558
0.0066856
0.0220329
0.01204
0.0016913
0.0122654
0.0118038
0.0133675
0.0031209
0.0140105
0.02324
0.0115172
0.0138411
0.0150578
0.012917
0.0039756
0.0132904
0.0050021
0.0115219
0.0246034
0.0204605
0.0051693
0.0139293
0.0132441
0.0241891
0.015636
0.0209909
0.0133386
0.0230252
0.0116831
0.0046889
0.0040473
0.0213491
0.0048604
0.0127006
0.0050982
0.0141097
0.011647
0.0052908
0.0112982
0.0132354
0.0118091
0.0215203
0.0124707
0.0217783
0.0203112
0.0212824
0.0133323
0.0100122
0.0053356
0.0205107
0.0208811
0.0121616
0.0233636
0.010059
0.0106952
0.0114937
0.0201953
0.0123772
0.0143609
0.0119858
0.0143171
0.0031785
0.0223887
0.0152538
0.0122629
0.013819
0.0057036
0.0205704
0.0116803
0.0064162
0.0209516
0.0020192
0.0150027
0.0149705
0.0114672
0.0227358
0.0226379
0.0144746
0.0230393
0.0022398
0.0131045
0.0220153
0.0035452
