-0.0011921275,-0.0076156487,0.045837,2016-08-23T17-47-57-162
-0.0043631922,-0.016321398,0.06013602,2016-08-23T17-47-57-193
-0.0061481474,-0.0046598297,0.07939704,2016-08-23T17-47-57-222
-0.016618397,-8.381824E-4,0.03276692,2016-08-23T17-47-57-253
-0.020521004,-0.00601477,0.072237454,2016-08-23T17-47-57-282
-0.007143085,0.010750657,0.06994229,2016-08-23T17-47-57-313
-0.0077418922,-0.01080942,0.08532034,2016-08-23T17-47-57-342
0.010874552,-0.022319483,0.062420674,2016-08-23T17-47-57-373
0.0048733177,-0.008138066,0.06974092,2016-08-23T17-47-57-402
-0.0013989029,0.014832359,0.047206137,2016-08-23T17-47-57-433
0.008839179,-5.5905123E-4,0.0626093,2016-08-23T17-47-57-462
0.013845582,0.014561613,0.074692756,2016-08-23T17-47-57-493
-0.0021038298,0.003363739,0.07464938,2016-08-23T17-47-57-522
-0.03322679,-0.011491026,0.057864565,2016-08-23T17-47-57-553
5.715592E-4,-0.0026115777,0.04825608,2016-08-23T17-47-57-582
0.008106463,0.0049180244,0.051888123,2016-08-23T17-47-57-613
0.01088983,-0.004587978,0.06975868,2016-08-23T17-47-57-642
0.011546078,0.0067264717,0.051892295,2016-08-23T17-47-57-673
0.011660006,0.009699903,0.10099972,2016-08-23T17-47-57-702
-9.016815E-4,-0.00761683,0.027869355,2016-08-23T17-47-57-734
0.014618373,-0.026052253,0.045621064,2016-08-23T17-47-57-762
-0.010542813,-0.009523889,0.06738938,2016-08-23T17-47-57-793
-0.016719565,-0.0017175004,0.01839274,2016-08-23T17-47-57-822
0.007845208,0.01273379,0.055546418,2016-08-23T17-47-57-853
-0.0018089272,-0.026279364,0.040885717,2016-08-23T17-47-57-882
-0.0137273595,-0.011375365,0.054218203,2016-08-23T17-47-57-913
0.007609972,-0.011853751,0.05893261,2016-08-23T17-47-57-943
0.003234548,8.7515335E-4,0.039899163,2016-08-23T17-47-57-973
0.017155636,-0.0126646515,0.061289962,2016-08-23T17-47-58-002
-0.010237765,0.012823907,0.032836933,2016-08-23T17-47-58-033
0.018506577,0.010639447,0.05187263,2016-08-23T17-47-58-062
-0.002392997,-0.008867323,0.03381871,2016-08-23T17-47-58-093
-0.017520333,-0.001044207,0.08061643,2016-08-23T17-47-58-122
0.001124101,0.0044350913,0.061451476,2016-08-23T17-47-58-153
-9.9701E-4,-0.013378873,0.052934203,2016-08-23T17-47-58-182
0.0255352,0.019265607,0.02558618,2016-08-23T17-47-58-213
-0.006321057,0.0016699985,0.059058435,2016-08-23T17-47-58-242
0.008146379,0.0028576655,0.038673624,2016-08-23T17-47-58-273
0.016914243,-0.0038755606,0.037397355,2016-08-23T17-47-58-302
-0.0023015316,-0.0035717958,0.07456956,2016-08-23T17-47-58-333
-7.257395E-4,0.0032136568,0.05786037,2016-08-23T17-47-58-362
-0.014195794,0.006248822,0.07109588,2016-08-23T17-47-58-393
0.007783236,-0.0032264884,0.020671323,2016-08-23T17-47-58-422
-0.0072682113,0.008074195,0.057921994,2016-08-23T17-47-58-453
0.010802729,-0.006287299,0.07211621,2016-08-23T17-47-58-482
-0.008400089,-0.02429961,0.062452007,2016-08-23T17-47-58-513
-0.0042954586,-0.01654212,0.051728614,2016-08-23T17-47-58-542
-0.0035190787,-0.012100958,0.045776203,2016-08-23T17-47-58-573
-0.0058993623,-0.013249476,0.06971798,2016-08-23T17-47-58-602
0.006691932,-0.013755701,0.05650535,2016-08-23T17-47-58-633
0.020183574,-0.0049911044,0.04935173,2016-08-23T17-47-58-662
-6.9630897E-4,-0.022969995,0.050466936,2016-08-23T17-47-58-693
0.0034257136,-0.008435044,0.04817765,2016-08-23T17-47-58-723
-0.005848392,-0.014377729,0.036187153,2016-08-23T17-47-58-753
-0.0014592778,-0.013797697,0.066107504,2016-08-23T17-47-58-782
0.0034062404,0.0032026356,0.06503371,2016-08-23T17-47-58-813
-0.008440863,0.00999136,0.044773687,2016-08-23T17-47-58-842
-0.013467652,0.016736465,0.04245059,2016-08-23T17-47-58-873
0.014819444,0.0042592036,0.05782377,2016-08-23T17-47-58-902
-0.009486244,-0.008685578,0.06018912,2016-08-23T17-47-58-933
0.0139410915,0.010216761,0.07104269,2016-08-23T17-47-58-962
0.017534954,0.0037051416,0.06259698,2016-08-23T17-47-58-993
0.0014715511,-0.0036498148,0.014701571,2016-08-23T17-47-59-022
-0.013629019,7.3565025E-4,0.07703656,2016-08-23T17-47-59-053
0.0015131575,0.01138095,0.039963808,2016-08-23T17-47-59-082
-0.0061230813,0.017183946,0.03405078,2016-08-23T17-47-59-113
0.016326185,-0.0011691548,0.05298344,2016-08-23T17-47-59-142
0.011426807,-0.007977052,0.05892961,2016-08-23T17-47-59-173
0.019838199,0.0024212394,0.041029774,2016-08-23T17-47-59-202
0.005316566,0.016514683,0.055556342,2016-08-23T17-47-59-233
0.024201248,-0.0034326732,0.032588843,2016-08-23T17-47-59-262
0.008284996,-0.009577684,0.043364894,2016-08-23T17-47-59-293
0.0071657402,0.013801814,0.035184808,2016-08-23T17-47-59-322
0.01947089,-0.019842742,0.043249488,2016-08-23T17-47-59-353
0.007941381,0.005951419,0.0051894514,2016-08-23T17-47-59-382
-0.004374823,-0.013777359,0.026611608,2016-08-23T17-47-59-413
-0.0015639629,-0.007932365,0.067353345,2016-08-23T17-47-59-443
0.026382037,-0.008308605,0.04332602,2016-08-23T17-47-59-473
-0.005055771,0.009304268,0.03278842,2016-08-23T17-47-59-502
-0.01301192,-0.002952122,0.08059734,2016-08-23T17-47-59-534
-0.0071404795,0.001484348,0.05547749,2016-08-23T17-47-59-562
0.0054765707,-0.0024490312,0.030266749,2016-08-23T17-47-59-592
0.008876486,-0.0056206165,0.026638959,2016-08-23T17-47-59-622
0.013914847,0.009546003,0.05188807,2016-08-23T17-47-59-653
0.004541789,0.010263274,0.035162546,2016-08-23T17-47-59-682
-0.0010989634,-9.360227E-4,0.0590303,2016-08-23T17-47-59-713
0.028500142,0.0034383037,0.06855577,2016-08-23T17-47-59-742
-0.025430063,-0.012201471,0.03506892,2016-08-23T17-47-59-773
0.008871289,0.026114484,0.06042157,2016-08-23T17-47-59-802
0.015040362,-0.004723681,0.011065736,2016-08-23T17-47-59-832
-0.0025991676,-0.007921792,0.045812238,2016-08-23T17-47-59-862
0.013064756,0.003264948,0.021915663,2016-08-23T17-47-59-893
-0.006108072,-0.008285857,0.04941211,2016-08-23T17-47-59-922
-0.019096948,0.012632549,0.041245814,2016-08-23T17-47-59-957
0.0054871356,0.00698339,0.054292306,2016-08-23T17-47-59-988
0.012606673,-0.008054072,0.03140309,2016-08-23T17-48-00-016
-0.001843452,-0.009449522,0.057771612,2016-08-23T17-48-00-044
0.011398925,0.0059709884,0.04708692,2016-08-23T17-48-00-073
0.012362528,0.006319371,0.09018527,2016-08-23T17-48-00-102
-0.0054941066,0.0022417167,0.04471264,2016-08-23T17-48-00-133
-0.011376653,-0.0053010727,0.026710967,2016-08-23T17-48-00-163
0.024155794,0.009894316,0.0853912,2016-08-23T17-48-00-193
-0.0018875359,1.6706728E-4,0.08658595,2016-08-23T17-48-00-222
-0.010590207,0.020607334,0.06762783,2016-08-23T17-48-00-254
0.01284503,0.029391494,0.06523598,2016-08-23T17-48-00-282
0.0037471387,0.003080902,0.050678518,2016-08-23T17-48-00-313
-0.0064533134,0.009737732,0.039990403,2016-08-23T17-48-00-342
0.025281543,-0.006127693,0.06131302,2016-08-23T17-48-00-373
-0.018053796,0.009441176,0.048405252,2016-08-23T17-48-00-402
8.5992075E-4,-0.0040705325,0.06379916,2016-08-23T17-48-00-433
0.010163741,0.0052396073,0.06983524,2016-08-23T17-48-00-462
0.0024076342,0.024821674,0.061641734,2016-08-23T17-48-00-493
0.0114532495,-0.01603788,0.08402003,2016-08-23T17-48-00-522
0.0050716535,0.0120052835,0.044768423,2016-08-23T17-48-00-553
0.012968981,-0.0058224294,0.06255255,2016-08-23T17-48-00-582
-0.003788426,-0.012915996,0.068530545,2016-08-23T17-48-00-613
0.018582525,0.00249699,0.03386834,2016-08-23T17-48-00-642
-6.413134E-5,0.010484696,0.062719725,2016-08-23T17-48-00-673
-0.0021690528,0.02411558,0.031715345,2016-08-23T17-48-00-702
-0.004542184,0.0029293587,0.02196796,2016-08-23T17-48-00-733
-0.014311939,-0.012565916,0.03742996,2016-08-23T17-48-00-762
0.007560375,0.0014407428,0.024315793,2016-08-23T17-48-00-793
-0.0031335433,-0.013457683,0.06851609,2016-08-23T17-48-00-823
0.009146176,0.012886868,0.066307396,2016-08-23T17-48-00-853
0.0059232893,-0.007189173,0.032628648,2016-08-23T17-48-00-882
0.015640976,0.02829817,0.03768759,2016-08-23T17-48-00-913
0.0022873392,0.0046125054,0.024357459,2016-08-23T17-48-00-942
-9.293964E-4,0.005845932,0.065081395,2016-08-23T17-48-00-973
0.003252337,-0.0033641085,0.032671005,2016-08-23T17-48-01-002
0.011472046,0.015238682,0.05674581,2016-08-23T17-48-01-033
0.008455154,-0.0069260616,0.061357826,2016-08-23T17-48-01-062
-0.0011343922,0.010729555,0.043577984,2016-08-23T17-48-01-093
-0.00854926,-0.0076058474,0.08175329,2016-08-23T17-48-01-122
3.2889977E-5,-0.009029875,0.06256361,2016-08-23T17-48-01-153
7.863173E-4,-0.014895738,0.030190408,2016-08-23T17-48-01-182
0.0012927339,0.017880935,0.059197474,2016-08-23T17-48-01-213
-0.01873795,-0.01283159,0.048220437,2016-08-23T17-48-01-242
-0.0012256727,0.0069024707,0.043549217,2016-08-23T17-48-01-273
-0.0127471415,-0.012293165,0.075743444,2016-08-23T17-48-01-302
-0.0011591975,0.006697172,0.041155554,2016-08-23T17-48-01-333
-9.1933465E-4,-0.004970269,0.019507762,2016-08-23T17-48-01-362
-0.0017637557,5.599699E-4,0.04709267,2016-08-23T17-48-01-393
-0.006933068,-0.001010733,0.0339242,2016-08-23T17-48-01-422
0.019326521,0.0067350636,0.04947881,2016-08-23T17-48-01-454
0.0149785895,-0.004155525,0.012288943,2016-08-23T17-48-01-482
0.01675702,-0.009364207,0.013437267,2016-08-23T17-48-01-513
0.020342391,-0.009682296,0.06370406,2016-08-23T17-48-01-542
0.0013853149,0.022224162,0.058045372,2016-08-23T17-48-01-573
-0.024405926,-0.007790932,0.05547033,2016-08-23T17-48-01-603
-0.0032337047,0.0016885754,0.0519,2016-08-23T17-48-01-633
-0.00994136,-0.001845481,0.059071496,2016-08-23T17-48-01-662
-0.008305848,-0.0035809577,0.057855915,2016-08-23T17-48-01-693
-0.0056779,0.0041051414,0.044746377,2016-08-23T17-48-01-722
-0.009924376,2.4104971E-5,0.020780738,2016-08-23T17-48-01-753
9.838671E-4,0.0042203255,0.03275714,2016-08-23T17-48-01-782
-0.010793657,-0.002811662,0.027944103,2016-08-23T17-48-01-813
0.021198608,0.012313097,0.062701166,2016-08-23T17-48-01-842
-0.01657836,-0.009307593,0.050652713,2016-08-23T17-48-01-873
-0.0034563134,0.006177161,0.050747205,2016-08-23T17-48-01-902
0.006640658,0.008113608,0.037566125,2016-08-23T17-48-01-933
-0.018717498,0.0027108267,0.020832602,2016-08-23T17-48-01-978
0.006104302,-0.011488696,0.026626432,2016-08-23T17-48-01-998
-0.0058704503,-0.0050586965,0.03988412,2016-08-23T17-48-02-022
0.011931493,-0.010911647,0.049360786,2016-08-23T17-48-02-053
-6.593049E-4,-0.022114357,0.060074102,2016-08-23T17-48-02-082
-0.008468758,-0.005943101,0.04826416,2016-08-23T17-48-02-113
0.017990375,-0.008257713,0.061337326,2016-08-23T17-48-02-144
-0.017555166,-0.008727349,0.06263211,2016-08-23T17-48-02-173
-0.011630077,-0.01404683,0.009894838,2016-08-23T17-48-02-202
0.013698679,-0.0024394398,0.06738535,2016-08-23T17-48-02-233
-0.001756788,0.011341431,0.025648067,2016-08-23T17-48-02-263
-0.002362481,0.005061925,0.056722082,2016-08-23T17-48-02-293
-0.020784937,-2.972426E-4,0.044759233,2016-08-23T17-48-02-322
0.01665377,-0.0066744857,0.062552966,2016-08-23T17-48-02-353
0.008437199,-0.025424965,0.064809635,2016-08-23T17-48-02-382
-0.0021534597,-2.9886543E-4,0.080620125,2016-08-23T17-48-02-413
-0.02307157,-0.013708181,0.04344526,2016-08-23T17-48-02-442
0.014873324,0.0026837252,0.065019496,2016-08-23T17-48-02-473
0.0073003746,-0.004880415,0.047020733,2016-08-23T17-48-02-502
0.004461349,0.009890415,0.014828857,2016-08-23T17-48-02-533
0.0045989575,0.0050460687,0.013589534,2016-08-23T17-48-02-562
-0.004434897,-0.009564849,0.043420285,2016-08-23T17-48-02-593
0.021109413,-8.009233E-4,0.05778267,2016-08-23T17-48-02-622
-0.0016029925,-0.015487998,0.06491046,2016-08-23T17-48-02-653
-0.013435933,-0.008876168,0.07457891,2016-08-23T17-48-02-682
0.009625576,-0.016089914,0.063673645,2016-08-23T17-48-02-713
0.0032968803,0.0034359682,0.038717616,2016-08-23T17-48-02-742
-0.008524802,0.006752447,0.037583373,2016-08-23T17-48-02-773
0.012871052,-0.008849625,0.021824986,2016-08-23T17-48-02-803
-0.006731437,0.018207166,0.0963338,2016-08-23T17-48-02-833
0.026274731,0.013308401,0.050698873,2016-08-23T17-48-02-862
0.007283042,-0.0033458504,0.088926315,2016-08-23T17-48-02-893
0.005741812,-0.018198114,0.049300548,2016-08-23T17-48-02-922
0.010929037,-0.014881719,0.07445311,2016-08-23T17-48-02-955
-9.4505766E-4,-0.01157584,0.056559708,2016-08-23T17-48-02-983
0.007603715,-0.013328542,0.07686996,2016-08-23T17-48-03-013
0.0053737788,0.019415462,0.013701255,2016-08-23T17-48-03-043
-0.018976064,0.014635882,0.059226703,2016-08-23T17-48-03-074
0.013971923,0.006118437,0.024335954,2016-08-23T17-48-03-102
0.008829356,0.022712523,0.07476909,2016-08-23T17-48-03-133
0.013248257,-0.0066023977,0.03500573,2016-08-23T17-48-03-163
-0.008163593,0.034226004,0.079706945,2016-08-23T17-48-03-193
0.010869496,0.0059888368,0.043499462,2016-08-23T17-48-03-222
-0.0021941708,0.0017189882,0.037511006,2016-08-23T17-48-03-253
0.0115631865,-0.0015504204,0.044626243,2016-08-23T17-48-03-283
0.0050415485,-0.0035507504,0.070967205,2016-08-23T17-48-03-313
-0.009415509,-0.01782797,0.034975097,2016-08-23T17-48-03-343
0.023445565,-0.0033185256,0.08049204,2016-08-23T17-48-03-374
0.018779708,-0.01822302,0.0504533,2016-08-23T17-48-03-402
-0.022996288,-0.002559155,0.044717006,2016-08-23T17-48-03-433
0.0026308775,-0.0040989267,0.0661793,2016-08-23T17-48-03-462
0.014593949,-2.964754E-4,0.043429203,2016-08-23T17-48-03-493
0.00782571,0.009677863,0.063882776,2016-08-23T17-48-03-522
0.01643702,-0.0051476513,0.045777455,2016-08-23T17-48-03-553
-0.004769099,0.0059678745,0.033957157,2016-08-23T17-48-03-582
-9.591277E-4,-0.01800077,0.072057664,2016-08-23T17-48-03-613
-0.0030049013,-0.0023656148,0.02071464,2016-08-23T17-48-03-642
0.012426724,-0.0042108987,0.056569096,2016-08-23T17-48-03-673
0.006525293,-0.00692753,0.075717896,2016-08-23T17-48-03-702
-0.020670468,0.009750856,0.06516319,2016-08-23T17-48-03-733
0.012428659,9.617034E-4,0.054216716,2016-08-23T17-48-03-762
-0.01460529,0.0071252612,0.07589768,2016-08-23T17-48-03-793
0.0092805475,-0.004220861,0.061366837,2016-08-23T17-48-03-822
-0.009274251,-9.7252626E-4,0.048280757,2016-08-23T17-48-03-853
-0.012408876,-0.009733221,0.06976843,2016-08-23T17-48-03-882
-0.0066036177,0.0015597842,0.053083085,2016-08-23T17-48-03-914
-0.018283568,0.00652653,0.056751475,2016-08-23T17-48-03-942
0.014970994,-0.012356131,0.028960735,2016-08-23T17-48-03-973
0.009197342,-0.010386063,0.088852435,2016-08-23T17-48-04-002
0.0056568095,-9.571569E-5,0.0602172,2016-08-23T17-48-04-033
-0.0045015747,0.008341845,0.047149066,2016-08-23T17-48-04-062
0.0022826379,0.011940248,0.041171994,2016-08-23T17-48-04-093
0.01891634,-0.010545519,0.04931395,2016-08-23T17-48-04-122
-0.012480798,-0.003238263,0.055456586,2016-08-23T17-48-04-153
0.029022027,-0.005222708,0.054112636,2016-08-23T17-48-04-183
-0.010885666,0.0035736966,0.053112466,2016-08-23T17-48-04-213
-4.5513274E-4,-0.018529454,0.07205442,2016-08-23T17-48-04-242
0.001923443,-0.009358679,0.084093854,2016-08-23T17-48-04-273
-0.0034091573,-0.0023735112,0.03149414,2016-08-23T17-48-04-309
0.004301853,-0.004969243,0.050603177,2016-08-23T17-48-04-333
-0.0019993414,0.012828699,0.029220652,2016-08-23T17-48-04-362
0.003937819,0.0149259195,0.092667006,2016-08-23T17-48-04-393
0.011489335,0.009634777,0.045911167,2016-08-23T17-48-04-422
-0.012073585,-0.0043812403,0.054249343,2016-08-23T17-48-04-454
0.009137664,-0.0034227876,0.07454397,2016-08-23T17-48-04-482
-0.007973662,-1.6873507E-4,0.054271184,2016-08-23T17-48-04-513
0.022314172,0.008763165,0.055448305,2016-08-23T17-48-04-542
-0.017458595,0.009185355,0.06155823,2016-08-23T17-48-04-573
0.023384925,0.011755888,0.04350165,2016-08-23T17-48-04-602
0.010146714,0.0010679523,0.076972015,2016-08-23T17-48-04-633
-0.0010293062,-0.00317418,0.043448694,2016-08-23T17-48-04-662
-0.0028087255,0.0068212138,0.060296983,2016-08-23T17-48-04-693
-0.008009781,0.0036541896,0.033947743,2016-08-23T17-48-04-722
-0.007964174,0.008698177,0.047157206,2016-08-23T17-48-04-753
0.009794864,0.016210174,0.071113005,2016-08-23T17-48-04-782
-0.013147816,0.020238727,0.059239503,2016-08-23T17-48-04-813
-0.008506164,0.003923532,0.07585393,2016-08-23T17-48-04-843
-0.004525462,0.0188394,0.028080316,2016-08-23T17-48-04-874
-0.006833743,0.0075550103,0.057921838,2016-08-23T17-48-04-902
0.0015460707,-0.0022903064,0.033872467,2016-08-23T17-48-04-933
0.0047528697,0.012769688,0.04237047,2016-08-23T17-48-04-962
-0.0017358938,6.061823E-4,0.06024638,2016-08-23T17-48-04-993
0.011701922,0.010995816,0.04473075,2016-08-23T17-48-05-022
-0.00970706,0.021723082,0.03530504,2016-08-23T17-48-05-053
0.005774721,0.004633811,0.0698367,2016-08-23T17-48-05-082
-0.017624987,-0.015940199,0.054169238,2016-08-23T17-48-05-113
-0.0086804,0.010176653,0.07471464,2016-08-23T17-48-05-142
-0.020550702,-0.0066277995,0.04108681,2016-08-23T17-48-05-173
-0.005125157,-0.01156865,0.05776068,2016-08-23T17-48-05-202
0.0012534627,0.012305331,0.05674463,2016-08-23T17-48-05-233
-0.0060368297,-0.0068744877,0.027873231,2016-08-23T17-48-05-262
0.008259116,0.0023941172,0.06502048,2016-08-23T17-48-05-293
-0.0028893242,0.0030384886,0.044707224,2016-08-23T17-48-05-322
-0.004009421,0.0123381745,0.04478779,2016-08-23T17-48-05-353
-0.002961035,-0.0053248964,0.03266673,2016-08-23T17-48-05-382
0.0071434802,-0.006955185,0.030229937,2016-08-23T17-48-05-413
-0.0023818277,0.007378978,0.0219969,2016-08-23T17-48-05-442
-0.008124226,0.0077092107,0.06750791,2016-08-23T17-48-05-473
-0.0056496863,1.7833512E-4,0.059056804,2016-08-23T17-48-05-515
-0.005720912,0.0018605071,0.042313416,2016-08-23T17-48-05-534
0.021380434,-0.0013776973,0.058970187,2016-08-23T17-48-05-562
-0.011485496,-0.01645505,0.06252893,2016-08-23T17-48-05-593
-0.004291017,0.011727845,0.04478794,2016-08-23T17-48-05-622
-0.0057930066,-3.9471404E-4,0.056663297,2016-08-23T17-48-05-653
-0.004796296,0.0015969835,0.09618487,2016-08-23T17-48-05-682
0.0067331335,0.012466889,0.030400965,2016-08-23T17-48-05-713
-0.0064763455,-0.004965014,0.06859963,2016-08-23T17-48-05-742
-0.0026470097,0.016307315,0.05320663,2016-08-23T17-48-05-773
-7.3850906E-4,0.0131776035,0.036415223,2016-08-23T17-48-05-802
0.00629774,-0.0070243524,0.033830438,2016-08-23T17-48-05-833
0.0062760217,-0.0072604325,0.052982852,2016-08-23T17-48-05-862
-0.012394009,-0.00425972,0.07580547,2016-08-23T17-48-05-893
-0.0041380925,-0.0057455865,0.04703916,2016-08-23T17-48-05-922
-8.827953E-4,0.007837202,0.03876557,2016-08-23T17-48-05-953
-0.012938275,-0.028740048,0.042082872,2016-08-23T17-48-05-983
-0.013941352,-0.00945199,0.0530228,2016-08-23T17-48-06-014
-0.005275895,-0.019389829,0.049322918,2016-08-23T17-48-06-042
0.0097515555,-0.008962994,0.050565757,2016-08-23T17-48-06-073
7.512127E-4,-0.010233806,0.07691793,2016-08-23T17-48-06-102
-0.002897877,-0.0065437146,0.026680622,2016-08-23T17-48-06-133
-0.008616759,-0.012625471,0.04460103,2016-08-23T17-48-06-163
1.9210439E-4,0.022005295,0.059235625,2016-08-23T17-48-06-194
-0.00524804,-0.007652944,0.06259096,2016-08-23T17-48-06-222
0.012550192,-0.0050463933,0.08291386,2016-08-23T17-48-06-254
0.009914076,0.0044459184,0.06624184,2016-08-23T17-48-06-282
0.009760416,0.014799898,0.03400748,2016-08-23T17-48-06-313
-0.014345708,-0.01380278,0.05658117,2016-08-23T17-48-06-343
-0.013086392,0.0049426053,0.04476317,2016-08-23T17-48-06-374
-0.0055575315,0.013945659,0.08432567,2016-08-23T17-48-06-402
0.01175612,-0.011051986,0.07328898,2016-08-23T17-48-06-434
0.013362314,-0.0011756087,0.09132739,2016-08-23T17-48-06-463
-0.022126583,-0.0033106154,0.078242,2016-08-23T17-48-06-494
0.008925468,0.00816073,0.063885584,2016-08-23T17-48-06-522
-0.001894613,-0.013081479,0.048172962,2016-08-23T17-48-06-554
-0.008048602,0.016100798,0.081960715,2016-08-23T17-48-06-583
-0.0087028835,-0.009819534,0.025476594,2016-08-23T17-48-06-614
-1.5128189E-4,0.005398942,0.04952504,2016-08-23T17-48-06-643
0.015922682,0.0030495054,0.03509436,2016-08-23T17-48-06-673
-0.0018325136,0.0017936435,0.06386586,2016-08-23T17-48-06-702
0.0018208891,-0.0118086785,0.067331076,2016-08-23T17-48-06-733
0.023101121,-0.017421255,0.055252057,2016-08-23T17-48-06-762
6.691874E-4,0.016044592,0.06637621,2016-08-23T17-48-06-793
-0.017866261,-0.0042566997,0.026750064,2016-08-23T17-48-06-822
0.0067133904,-0.004993398,0.03505474,2016-08-23T17-48-06-853
-0.0033124716,-0.003299203,0.036294885,2016-08-23T17-48-06-883
-0.0038139094,-0.028196225,0.06720958,2016-08-23T17-48-06-913
-0.004918438,-0.012003729,0.052985508,2016-08-23T17-48-06-942
9.2745875E-4,-0.012953938,0.04817272,2016-08-23T17-48-06-973
0.015026035,0.0032368056,0.04946842,2016-08-23T17-48-07-005
-0.0034437282,-0.012386511,0.05657107,2016-08-23T17-48-07-033
0.020030979,0.0015999789,0.042258818,2016-08-23T17-48-07-062
-0.018870156,0.005992506,0.051985394,2016-08-23T17-48-07-093
-0.012200036,0.0028405946,0.026799325,2016-08-23T17-48-07-122
-0.004290523,-0.026801696,0.040887374,2016-08-23T17-48-07-153
-0.0021518744,0.002613354,0.061486837,2016-08-23T17-48-07-182
-0.0058211097,-0.039228246,0.08867099,2016-08-23T17-48-07-213
0.022044232,0.014256033,0.017224949,2016-08-23T17-48-07-242
-0.017426085,7.4960955E-4,0.03996565,2016-08-23T17-48-07-273
0.0012048613,0.002439865,0.078235514,2016-08-23T17-48-07-302
-0.02112075,0.016095536,0.030530091,2016-08-23T17-48-07-333
0.0064664353,0.0025560274,0.06385772,2016-08-23T17-48-07-362
0.006508534,0.0042042937,0.06028109,2016-08-23T17-48-07-393
-0.0017382728,-0.00423038,0.04347112,2016-08-23T17-48-07-422
-0.01284617,0.0064885044,0.059158165,2016-08-23T17-48-07-453
0.022090096,-0.009323129,0.06490998,2016-08-23T17-48-07-483
-0.0033061982,-0.011278167,0.05538842,2016-08-23T17-48-07-513
-0.007052322,0.017208718,0.066421,2016-08-23T17-48-07-542
-0.0072068605,0.010579291,0.032845736,2016-08-23T17-48-07-574
-0.019549312,-0.012883949,0.074577264,2016-08-23T17-48-07-602
-0.014388133,-0.017781004,0.05297183,2016-08-23T17-48-07-633
-0.0027059,0.007834393,0.06513241,2016-08-23T17-48-07-662
-0.0010860643,0.019589178,0.070019566,2016-08-23T17-48-07-693
9.636385E-4,0.004680271,0.043545347,2016-08-23T17-48-07-722
0.0049305703,0.017410763,0.037660055,2016-08-23T17-48-07-753
0.0068064323,0.0019684106,0.055478,2016-08-23T17-48-07-782
0.0020437846,-0.013515163,0.06732981,2016-08-23T17-48-07-813
0.042448558,-0.05305927,0.074050054,2016-08-23T17-48-07-842
-0.017892314,-0.018355323,0.15950833,2016-08-23T17-48-07-873
-0.0067163096,0.0030603805,0.041144706,2016-08-23T17-48-07-902
0.018692719,-0.0050599384,0.03262703,2016-08-23T17-48-07-933
-0.022777317,-0.0033594067,0.04712022,2016-08-23T17-48-07-963
0.013422438,0.009904121,0.038756426,2016-08-23T17-48-07-993
0.0067110965,0.007683558,0.08065692,2016-08-23T17-48-08-022
-0.010366263,0.010858644,0.06756233,2016-08-23T17-48-08-053
0.015154215,-0.007012643,0.020650703,2016-08-23T17-48-08-082
-0.0107202,-0.010490531,0.090124466,2016-08-23T17-48-08-114
7.3807436E-4,0.0016312483,0.05787676,2016-08-23T17-48-08-142
-0.012016429,-0.0064398116,0.08178296,2016-08-23T17-48-08-173
-0.0038341342,-0.007599797,0.017107356,2016-08-23T17-48-08-202
0.0071301474,0.0015697423,0.05067791,2016-08-23T17-48-08-233
-0.008960283,-0.0026638203,0.025543002,2016-08-23T17-48-08-262
0.009394471,0.0057311337,0.05429895,2016-08-23T17-48-08-293
-0.0033165202,0.009493611,0.071127534,2016-08-23T17-48-08-322
-0.009845241,-0.0107977055,0.057799596,2016-08-23T17-48-08-353
-0.014461799,0.008831734,0.041220468,2016-08-23T17-48-08-382
0.016914964,0.021524172,0.07357278,2016-08-23T17-48-08-413
0.026798384,-0.050870158,-0.06355616,2016-08-23T17-48-08-442
0.009437911,0.0052745,0.07225539,2016-08-23T17-48-08-473
-0.009263381,0.0019002296,0.024390135,2016-08-23T17-48-08-503
-0.017710287,0.006419651,0.057972923,2016-08-23T17-48-08-533
-0.016743805,-0.018328112,0.045780804,2016-08-23T17-48-08-562
-0.011828776,-0.0047175963,0.020745123,2016-08-23T17-48-08-593
0.0031862983,0.013384588,0.087900706,2016-08-23T17-48-08-622
0.005182134,-0.010066487,0.052975737,2016-08-23T17-48-08-654
-0.009529175,0.0025840874,0.02679084,2016-08-23T17-48-08-682
0.00333731,-0.011547047,0.017055932,2016-08-23T17-48-08-713
0.0049251537,-0.005336781,0.06738497,2016-08-23T17-48-08-742
0.00974609,0.008340161,0.068686984,2016-08-23T17-48-08-773
0.016828006,-0.0069599547,0.078112245,2016-08-23T17-48-08-802
-0.012990214,-0.0015538399,0.065075,2016-08-23T17-48-08-833
-0.006285031,3.6706543E-4,0.049509607,2016-08-23T17-48-08-862
-0.006924669,-0.0105104,0.04223373,2016-08-23T17-48-08-893
0.00709663,0.0025186106,0.026745489,2016-08-23T17-48-08-923
-0.004698107,0.007039344,0.07230818,2016-08-23T17-48-08-953
-0.003995214,0.0133226765,0.04961349,2016-08-23T17-48-08-982
0.007315279,-0.0077367257,0.055386715,2016-08-23T17-48-09-013
0.0061442098,-6.264131E-5,0.03031559,2016-08-23T17-48-09-043
0.010382802,-0.005853599,0.030253958,2016-08-23T17-48-09-073
-0.032680113,-8.0369366E-4,0.071117505,2016-08-23T17-48-09-102
-0.013347291,-0.004467928,0.027936589,2016-08-23T17-48-09-133
0.0060368152,0.019689217,0.095133655,2016-08-23T17-48-09-162
-0.013092255,-0.01159516,0.060197443,2016-08-23T17-48-09-193
0.0035083906,0.010717534,0.05196539,2016-08-23T17-48-09-223
-0.010686509,0.007796666,0.055572614,2016-08-23T17-48-09-253
-0.014692707,-0.01854043,0.06014322,2016-08-23T17-48-09-282
-0.0019964224,0.0024999026,0.0854323,2016-08-23T17-48-09-313
-0.012157452,-0.004099663,0.049487878,2016-08-23T17-48-09-342
0.017503336,-0.011401409,0.051738724,2016-08-23T17-48-09-373
0.002757209,0.019475155,0.07958242,2016-08-23T17-48-09-402
0.019223098,-0.0048284126,0.06855064,2016-08-23T17-48-09-433
-0.008770814,-0.009376291,0.05182912,2016-08-23T17-48-09-462
-0.0094355475,-0.025588168,0.057674933,2016-08-23T17-48-09-494
-6.436255E-4,0.002423943,0.037545886,2016-08-23T17-48-09-522
0.004292168,0.015739419,0.05441066,2016-08-23T17-48-09-553
-0.0047742655,0.0028603587,0.05192973,2016-08-23T17-48-09-583
0.008212837,-0.012948829,0.049359933,2016-08-23T17-48-09-613
0.0023293388,-0.0036346654,0.05664009,2016-08-23T17-48-09-642
0.004997068,0.004057587,0.06268537,2016-08-23T17-48-09-673
-0.0023117296,-0.008602087,0.06259427,2016-08-23T17-48-09-702
0.009477146,0.013275172,0.09627222,2016-08-23T17-48-09-733
0.018464865,-0.003343496,0.091312945,2016-08-23T17-48-09-763
-0.015571361,-0.0017919539,0.03635553,2016-08-23T17-48-09-793
0.011919108,-0.016482314,0.025375152,2016-08-23T17-48-09-822
0.016093727,-0.0023220899,0.051824264,2016-08-23T17-48-09-853
0.0010248795,0.002433026,0.08183643,2016-08-23T17-48-09-882
-0.0015512661,0.0050903438,0.055531174,2016-08-23T17-48-09-913
-0.007215909,-0.0125035215,0.033845227,2016-08-23T17-48-09-942
-0.005231158,-0.017920855,0.084072314,2016-08-23T17-48-09-973
-0.019855246,-0.0033248253,0.045932166,2016-08-23T17-48-10-002
-0.0038591626,0.0044535846,0.053135592,2016-08-23T17-48-10-033
-0.013019581,-0.0031251032,0.042322423,2016-08-23T17-48-10-062
0.00909862,3.9208034E-4,0.07101989,2016-08-23T17-48-10-093
0.0085290605,-0.013700059,0.05174404,2016-08-23T17-48-10-123
0.004038788,0.0074467575,0.06391033,2016-08-23T17-48-10-153
-0.0053164186,0.005165871,0.036383364,2016-08-23T17-48-10-182
0.021200906,-0.015727682,0.05647568,2016-08-23T17-48-10-213
0.006503792,0.007194367,0.033969305,2016-08-23T17-48-10-242
0.02197207,0.0056764176,0.03151741,2016-08-23T17-48-10-274
0.00799604,-0.018983746,0.030148467,2016-08-23T17-48-10-303
0.021402564,0.0028565486,0.062620826,2016-08-23T17-48-10-333
0.007073266,-0.0012846254,0.03748692,2016-08-23T17-48-10-362
-0.004676623,0.005346705,0.051944904,2016-08-23T17-48-10-393
0.0086869635,0.022729738,0.020927751,2016-08-23T17-48-10-422
-0.016998991,-0.015634254,0.02785806,2016-08-23T17-48-10-453
0.004222857,0.0056153163,0.07705716,2016-08-23T17-48-10-482
9.109631E-4,-0.011037803,0.048192214,2016-08-23T17-48-10-513
0.007804991,-0.0077492287,0.079325795,2016-08-23T17-48-10-543
0.0044131908,-0.00586529,0.06019687,2016-08-23T17-48-10-573
0.0011860228,-0.005783408,0.06260128,2016-08-23T17-48-10-602
0.010476255,-0.0030289947,0.045836624,2016-08-23T17-48-10-633
0.028080113,-0.018524349,0.060007967,2016-08-23T17-48-10-663
0.016750846,6.5339456E-4,0.06738577,2016-08-23T17-48-10-693
-0.0042306455,-0.012726612,0.08768671,2016-08-23T17-48-10-722
-0.00687286,-0.011653623,0.05657812,2016-08-23T17-48-10-753
0.012125427,0.01501192,0.047169123,2016-08-23T17-48-10-782
0.007993195,0.0054369634,0.06266429,2016-08-23T17-48-10-814
0.014160875,-0.011947333,0.034964267,2016-08-23T17-48-10-843
0.02169894,-0.009467051,0.045739256,2016-08-23T17-48-10-873
6.771448E-4,-0.013930269,0.046958838,2016-08-23T17-48-10-902
-0.01074484,0.008763653,0.03880388,2016-08-23T17-48-10-933
0.010425998,0.0011314595,0.05783253,2016-08-23T17-48-10-962
0.009063852,-0.024509689,0.07557735,2016-08-23T17-48-10-994
0.01226578,-0.017278353,0.044502206,2016-08-23T17-48-11-022
0.007851019,-0.0063885637,0.057775732,2016-08-23T17-48-11-053
0.009294106,-0.0063681304,0.049391646,2016-08-23T17-48-11-083
-0.007003118,0.0026724385,0.045923695,2016-08-23T17-48-11-113
-0.004503732,0.0017161549,0.054288752,2016-08-23T17-48-11-143
-0.014530055,-0.012093496,0.060186777,2016-08-23T17-48-11-173
0.014021508,0.0053568734,0.06384318,2016-08-23T17-48-11-203
0.0025777167,-0.0203518,0.081615984,2016-08-23T17-48-11-233
-4.8809624E-4,0.0061780633,0.05191922,2016-08-23T17-48-11-262
0.016224466,0.011323922,0.054310605,2016-08-23T17-48-11-293
-0.0036982426,-0.0180045,0.076864615,2016-08-23T17-48-11-322
-0.0031094996,-0.0049066413,0.021906396,2016-08-23T17-48-11-354
-0.002955073,-0.010388342,0.0517888,2016-08-23T17-48-11-382
0.010231617,0.008557976,0.044728126,2016-08-23T17-48-11-413
0.004743139,-0.0061676083,0.07454901,2016-08-23T17-48-11-442
0.008018226,0.0020147557,0.10453765,2016-08-23T17-48-11-473
2.1896706E-4,0.006354817,0.061500125,2016-08-23T17-48-11-506
0.00462555,-0.006271051,0.060183555,2016-08-23T17-48-11-533
-0.009810078,-0.0020645773,0.031529352,2016-08-23T17-48-11-563
5.423207E-4,-0.019025674,0.04332775,2016-08-23T17-48-11-594
-0.0037131247,-0.020128489,0.057695925,2016-08-23T17-48-11-623
-0.002371,0.010439227,0.05795249,2016-08-23T17-48-11-654
0.0062855505,0.0020187045,0.057857413,2016-08-23T17-48-11-682
-0.008974743,-0.008300617,0.025490949,2016-08-23T17-48-11-714
-0.01014876,0.010557338,0.060375422,2016-08-23T17-48-11-742
-0.028221492,0.0131967645,0.019743674,2016-08-23T17-48-11-773
-0.01375672,0.0018731263,0.06988681,2016-08-23T17-48-11-802
0.0065882863,-0.009430627,0.04818465,2016-08-23T17-48-11-833
0.0029587876,0.008779533,0.081870995,2016-08-23T17-48-11-862
-0.0028630903,-0.003923326,0.08177797,2016-08-23T17-48-11-893
-0.0022089302,0.0054332335,0.08664397,2016-08-23T17-48-11-923
-0.0030937481,0.0065101366,0.04954481,2016-08-23T17-48-11-953
0.00287498,-0.0058421935,0.027873501,2016-08-23T17-48-11-982
-4.2859418E-4,-0.0061460286,0.057808373,2016-08-23T17-48-12-013
-0.0038555723,3.2190315E-4,0.07104297,2016-08-23T17-48-12-042
-0.028491594,0.0060830098,0.041232415,2016-08-23T17-48-12-073
-0.0013273279,0.009608763,0.060343742,2016-08-23T17-48-12-102
-0.0064225337,-0.0022079528,0.048283145,2016-08-23T17-48-12-134
-0.016574787,-0.010764968,0.033872273,2016-08-23T17-48-12-163
-0.0075009307,0.0017737552,0.06747453,2016-08-23T17-48-12-193
-0.008358801,-9.4498624E-4,0.078228444,2016-08-23T17-48-12-223
0.0025314302,0.0037667374,0.05788636,2016-08-23T17-48-12-253
-0.010100811,-0.0042059906,0.06982379,2016-08-23T17-48-12-282
-0.0077923792,0.016943969,0.06640994,2016-08-23T17-48-12-313
-0.008784749,0.017889196,0.04487168,2016-08-23T17-48-12-342
0.0067214975,0.0026824835,0.06624804,2016-08-23T17-48-12-374
-0.011327309,0.010425119,0.031645156,2016-08-23T17-48-12-403
0.008464295,-0.010863333,0.06732362,2016-08-23T17-48-12-433
4.232042E-4,0.0217638,0.08199346,2016-08-23T17-48-12-462
0.008165892,0.009340282,0.062711075,2016-08-23T17-48-12-493
-0.014298141,-0.01744094,0.07092189,2016-08-23T17-48-12-523
-0.009688596,0.0064506656,0.048370134,2016-08-23T17-48-12-553
-0.015282509,-0.006665949,0.080595784,2016-08-23T17-48-12-582
-0.007112241,0.012176846,0.0687652,2016-08-23T17-48-12-613
0.011587772,0.012503366,0.0699147,2016-08-23T17-48-12-642
0.005281311,-0.020942057,0.037317395,2016-08-23T17-48-12-674
0.010251525,-0.0041945954,0.057800736,2016-08-23T17-48-12-702
0.01627335,-0.013630596,0.07326661,2016-08-23T17-48-12-733
0.018674832,0.0025195344,0.0781873,2016-08-23T17-48-12-762
0.0058568623,0.0103223985,0.044768084,2016-08-23T17-48-12-793
0.00610257,-0.0032448177,0.06500162,2016-08-23T17-48-12-822
-0.008354618,0.0061402996,0.03279947,2016-08-23T17-48-12-854
-0.010792712,-0.003424552,0.049483176,2016-08-23T17-48-12-882
0.009463306,-0.009748179,0.048176058,2016-08-23T17-48-12-913
-0.007740225,0.015458146,0.0508333,2016-08-23T17-48-12-942
-0.006663176,-0.0020004362,0.049480453,2016-08-23T17-48-12-974
0.0065816212,-0.028161716,0.087527744,2016-08-23T17-48-13-008
0.010458141,-0.006608376,0.06615151,2016-08-23T17-48-13-033
0.0026590242,0.016165823,0.062775336,2016-08-23T17-48-13-063
0.0035244608,0.012229091,0.047175545,2016-08-23T17-48-13-093
-0.011639489,0.011639664,0.073549815,2016-08-23T17-48-13-123
-0.013994642,8.186437E-4,0.05670439,2016-08-23T17-48-13-153
-0.0052303257,-0.002764537,0.09376175,2016-08-23T17-48-13-183
-0.0010673515,0.017057892,0.085538685,2016-08-23T17-48-13-213
-0.011836611,0.00458139,0.060321707,2016-08-23T17-48-13-243
0.006089691,-9.97927E-4,0.057827666,2016-08-23T17-48-13-273
0.0043839333,7.9081784E-4,0.061438307,2016-08-23T17-48-13-302
0.012978265,-0.005664712,0.046993803,2016-08-23T17-48-13-333
-0.009791689,-0.010289291,0.055398777,2016-08-23T17-48-13-363
0.019967383,-6.095048E-4,0.06976256,2016-08-23T17-48-13-393
0.019091588,-0.0065094186,0.056547366,2016-08-23T17-48-13-423
-0.0044707013,-0.006803487,0.05182276,2016-08-23T17-48-13-453
0.0013871848,0.0077075865,0.0471403,2016-08-23T17-48-13-482
-0.0027264957,1.5037743E-4,0.050678812,2016-08-23T17-48-13-514
0.0020051752,-0.02449204,0.0779911,2016-08-23T17-48-13-542
0.0026446618,-0.0065990435,0.073350705,2016-08-23T17-48-13-574
0.009084345,0.014236884,0.031608284,2016-08-23T17-48-13-603
-0.011174951,0.017032422,0.0676039,2016-08-23T17-48-13-634
0.007808236,0.0019245278,0.092561014,2016-08-23T17-48-13-663
-0.011781188,-0.002345392,0.05547146,2016-08-23T17-48-13-693
0.02193431,0.008280166,0.05666109,2016-08-23T17-48-13-722
9.325986E-4,-0.0048044617,0.049428705,2016-08-23T17-48-13-753
0.006037918,-0.006435495,0.050598152,2016-08-23T17-48-13-782
0.008410797,0.0045416825,0.041107785,2016-08-23T17-48-13-813
-0.012572264,-0.008443433,0.039860442,2016-08-23T17-48-13-842
0.0023719748,0.017108295,0.03764072,2016-08-23T17-48-13-874
0.006630289,0.010971033,0.06989986,2016-08-23T17-48-13-902
0.0026858477,-0.00652925,0.03025651,2016-08-23T17-48-13-934
0.0071894275,-0.02583389,0.03486827,2016-08-23T17-48-13-963
-0.013585209,0.009064732,0.069940716,2016-08-23T17-48-13-993
0.005295746,-0.009280852,0.06853359,2016-08-23T17-48-14-022
-0.0116428165,-0.0028561617,0.07222924,2016-08-23T17-48-14-053
-0.013683155,0.0024128514,0.029183155,2016-08-23T17-48-14-083
-0.0018062232,-0.0025131945,0.039881486,2016-08-23T17-48-14-113
0.004948014,8.7752263E-4,0.05066594,2016-08-23T17-48-14-142
-0.001459802,-0.01474158,0.075691774,2016-08-23T17-48-14-174
-0.010071904,-0.0013043516,0.06505724,2016-08-23T17-48-14-203
0.0083675245,0.004215474,0.053078223,2016-08-23T17-48-14-233
6.931756E-4,0.009800415,0.06272677,2016-08-23T17-48-14-263
-0.0097336685,0.023431944,0.035337716,2016-08-23T17-48-14-293
0.015967138,-0.0015942989,0.04343111,2016-08-23T17-48-14-322
-0.0036715309,0.020521428,0.07121183,2016-08-23T17-48-14-354
0.012627582,0.0046994807,0.067438915,2016-08-23T17-48-14-383
0.01014469,-0.009585638,0.04218469,2016-08-23T17-48-14-413
-0.003611199,0.011931634,0.077124186,2016-08-23T17-48-14-442
-0.0035591454,0.00706374,0.043564443,2016-08-23T17-48-14-473
-4.904903E-4,0.008934986,0.01962774,2016-08-23T17-48-14-503
0.025735592,0.008083992,0.063840605,2016-08-23T17-48-14-534
-0.00666473,0.014736651,0.0077248244,2016-08-23T17-48-14-563
0.024368316,-0.012307195,0.04451765,2016-08-23T17-48-14-593
0.017480582,-4.079175E-4,0.036259446,2016-08-23T17-48-14-623
-6.4289E-4,0.01842127,0.064005755,2016-08-23T17-48-14-654
0.009723016,0.0033514784,0.061453685,2016-08-23T17-48-14-682
-0.011141965,-0.006451396,0.06621939,2016-08-23T17-48-14-713
0.014003504,0.009236326,0.055508282,2016-08-23T17-48-14-743
-0.0266998,0.018610062,0.0796473,2016-08-23T17-48-14-773
0.0029912207,0.012632497,0.030443722,2016-08-23T17-48-14-803
0.013445609,0.0056828,0.07584598,2016-08-23T17-48-14-834
0.010018648,0.009151148,0.054336634,2016-08-23T17-48-14-863
0.0013104958,0.020015508,0.04489593,2016-08-23T17-48-14-894
-0.009045297,-0.018410053,0.056553517,2016-08-23T17-48-14-922
0.014457023,-0.007744978,0.037430905,2016-08-23T17-48-14-953
0.0058175996,-0.0013293935,0.0638476,2016-08-23T17-48-14-983
-0.005724376,-0.014923109,0.05059019,2016-08-23T17-48-15-013
0.009900726,0.019708036,0.0927561,2016-08-23T17-48-15-042
0.008597813,-0.013949435,0.05175801,2016-08-23T17-48-15-074
-0.015185126,-0.007389061,0.029135732,2016-08-23T17-48-15-103
0.0045319465,-0.015110253,0.08767179,2016-08-23T17-48-15-133
0.001756084,-0.005664599,0.0769887,2016-08-23T17-48-15-162
0.008210056,0.009997947,0.03999925,2016-08-23T17-48-15-194
0.0060793925,-0.006386249,0.07816751,2016-08-23T17-48-15-223
-0.012368035,-0.009802474,0.06860905,2016-08-23T17-48-15-254
-0.003704392,-0.011781024,0.10568071,2016-08-23T17-48-15-282
-0.012303164,-0.0014575325,0.08185327,2016-08-23T17-48-15-313
-0.0029875704,0.0012455621,0.06988089,2016-08-23T17-48-15-342
0.001613086,-0.014426503,0.04099699,2016-08-23T17-48-15-374
0.015196885,0.008059532,0.033974636,2016-08-23T17-48-15-403
0.007561203,0.013662226,0.057988837,2016-08-23T17-48-15-433
0.0027732253,0.006679504,0.073502906,2016-08-23T17-48-15-463
-0.004537307,-0.01758828,0.03739396,2016-08-23T17-48-15-493
0.01542383,0.0028094163,0.036323853,2016-08-23T17-48-15-523
-0.0020850566,-0.0034666518,0.04709243,2016-08-23T17-48-15-553
0.010700082,-0.0139852455,0.029003404,2016-08-23T17-48-15-582
0.01075047,-0.007610817,0.07455213,2016-08-23T17-48-15-614
0.017312229,-0.0093121985,0.056548305,2016-08-23T17-48-15-642
0.015003782,-0.016872417,0.04571492,2016-08-23T17-48-15-673
-0.016084645,-0.023240581,0.07087947,2016-08-23T17-48-15-703
-0.011245361,0.0024555384,0.06151358,2016-08-23T17-48-15-733
0.0025801396,-0.019251179,0.04931564,2016-08-23T17-48-15-763
-0.004016736,-0.02766474,0.040880024,2016-08-23T17-48-15-793
0.0027265195,-0.011026012,0.096074134,2016-08-23T17-48-15-822
6.022705E-4,0.010112969,0.02323645,2016-08-23T17-48-15-853
0.0075953063,0.013361878,0.06753778,2016-08-23T17-48-15-882
0.0163207,-0.0051152864,0.06496044,2016-08-23T17-48-15-913
-0.0047751954,-0.0062699066,0.056629326,2016-08-23T17-48-15-943
-0.0048118136,0.002237352,0.06029383,2016-08-23T17-48-15-973
-0.009836882,-0.006244908,0.06262701,2016-08-23T17-48-16-002
0.001111505,0.0050605414,0.045935296,2016-08-23T17-48-16-033
0.018330388,-0.003221177,0.052999686,2016-08-23T17-48-16-063
-0.0136433765,-0.0020408789,0.07584323,2016-08-23T17-48-16-093
-0.0052700853,0.013468545,0.07475588,2016-08-23T17-48-16-123
0.0042318525,-0.0041255075,0.078167744,2016-08-23T17-48-16-154
-0.0018639228,0.015527884,0.06398683,2016-08-23T17-48-16-182
0.017754562,0.0015969654,0.043461155,2016-08-23T17-48-16-214
0.005857949,0.011421154,0.055551674,2016-08-23T17-48-16-242
-0.007565375,0.009394364,0.06275528,2016-08-23T17-48-16-274
-0.0063376087,-0.010056804,0.070963934,2016-08-23T17-48-16-303
-0.015138759,0.0020224408,0.038769122,2016-08-23T17-48-16-334
-0.012484185,0.0044364715,0.06631618,2016-08-23T17-48-16-363
-0.005772856,0.007950923,0.06273578,2016-08-23T17-48-16-394
0.009613516,0.003008502,0.06384794,2016-08-23T17-48-16-423
0.021486213,-0.016910426,0.020547075,2016-08-23T17-48-16-453
-0.014731251,0.016210865,0.035299186,2016-08-23T17-48-16-482
-0.0018088701,0.008566136,0.05315589,2016-08-23T17-48-16-514
-0.0051717837,0.008294258,0.06154429,2016-08-23T17-48-16-542
0.017704988,0.0045092856,0.04827895,2016-08-23T17-48-16-574
-0.0016409374,-0.0036636554,0.045870315,2016-08-23T17-48-16-602
0.0049453713,0.0017027156,0.032729574,2016-08-23T17-48-16-634
-0.007523197,-0.015155785,0.08170181,2016-08-23T17-48-16-663
-0.006670745,-0.009196141,0.063795544,2016-08-23T17-48-16-694
-0.025631005,0.0022860041,0.055569336,2016-08-23T17-48-16-722
-0.008636719,-0.0026745663,0.05308527,2016-08-23T17-48-16-753
-0.0061045876,0.006731361,0.04837175,2016-08-23T17-48-16-783
-0.02103263,-0.02237853,0.058933295,2016-08-23T17-48-16-813
-9.484471E-4,-0.010055529,0.038633842,2016-08-23T17-48-16-843
-0.016355358,-0.0035215027,0.032747824,2016-08-23T17-48-16-873
0.005751742,-0.0033594694,0.04226627,2016-08-23T17-48-16-903
0.0041652797,-0.006795444,0.038649857,2016-08-23T17-48-16-933
-0.016980488,-0.008263433,0.0638364,2016-08-23T17-48-16-963
0.0076033287,-0.0038354276,0.075778976,2016-08-23T17-48-16-994
0.010090945,-0.0045977584,0.0769624,2016-08-23T17-48-17-023
-0.004497882,0.0013225819,0.036352944,2016-08-23T17-48-17-054
0.002628818,-0.014080036,0.060142085,2016-08-23T17-48-17-083
-0.0036132499,0.0057208524,0.020826366,2016-08-23T17-48-17-113
3.1093202E-4,-0.014986887,0.05415494,2016-08-23T17-48-17-142
-0.010789125,9.7488845E-4,0.049538624,2016-08-23T17-48-17-173
0.003687524,-0.014749951,0.024220811,2016-08-23T17-48-17-203
0.001741464,0.013792136,0.05679924,2016-08-23T17-48-17-233
0.012528097,-0.024569815,0.02530501,2016-08-23T17-48-17-263
-0.008481691,0.020595893,0.040103022,2016-08-23T17-48-17-294
-0.0056541828,0.0061373445,0.06989949,2016-08-23T17-48-17-322
-0.0026816195,-0.013442958,0.06972425,2016-08-23T17-48-17-354
-0.0022024536,0.011453585,0.041205537,2016-08-23T17-48-17-382
0.021738367,0.0048875436,0.066223904,2016-08-23T17-48-17-414
6.071001E-4,0.0036809244,0.07225562,2016-08-23T17-48-17-442
0.008258711,-1.8596809E-4,0.033894077,2016-08-23T17-48-17-473
-0.015409878,-0.0024060467,0.06386596,2016-08-23T17-48-17-502
0.0016787719,-0.015738038,0.050538518,2016-08-23T17-48-17-533
-0.019161325,-0.02724199,0.08162107,2016-08-23T17-48-17-563
0.01846553,0.00496067,0.051867235,2016-08-23T17-48-17-594
-0.0019082003,0.011713991,0.044794563,2016-08-23T17-48-17-623
0.0053530806,-0.006872738,0.0697566,2016-08-23T17-48-17-654
-4.6046718E-4,-0.0039505465,0.041064,2016-08-23T17-48-17-683
0.029150672,-0.0041335598,0.031403325,2016-08-23T17-48-17-714
-0.0014946982,0.015516933,0.048415143,2016-08-23T17-48-17-742
0.012205349,0.017304286,0.060364544,2016-08-23T17-48-17-774
-0.010357394,0.0011757123,0.05310512,2016-08-23T17-48-17-803
0.0032012903,7.530456E-6,0.02552206,2016-08-23T17-48-17-834
-0.0034665891,0.00969057,0.06872106,2016-08-23T17-48-17-863
0.004155086,0.004281461,0.03872348,2016-08-23T17-48-17-894
0.0111031635,-0.009100601,0.03140831,2016-08-23T17-48-17-923
0.014699893,-0.014545157,0.08043495,2016-08-23T17-48-17-954
0.014464108,0.007959985,0.03034525,2016-08-23T17-48-17-982
0.020297233,0.020765651,0.036423407,2016-08-23T17-48-18-013
0.011382528,-0.0025644174,0.0589972,2016-08-23T17-48-18-043
-0.008708341,-0.002776581,0.057855334,2016-08-23T17-48-18-074
-0.01308088,-0.0016044953,0.03872134,2016-08-23T17-48-18-103
0.002337461,-0.00840579,0.06854867,2016-08-23T17-48-18-134
0.003952215,3.9832864E-4,0.05784238,2016-08-23T17-48-18-163
-0.007904303,-0.006233277,0.020708438,2016-08-23T17-48-18-194
0.021528568,0.005292783,0.009947781,2016-08-23T17-48-18-222
-0.0062583624,0.012038962,0.047197524,2016-08-23T17-48-18-254
0.015557395,-0.014104672,0.09240388,2016-08-23T17-48-18-283
0.009643916,-0.0061976747,0.05657427,2016-08-23T17-48-18-313
-0.0047700508,0.0045760805,0.057903584,2016-08-23T17-48-18-343
0.01122105,0.016044741,0.030419733,2016-08-23T17-48-18-374
0.011651186,-0.014383783,0.025373915,2016-08-23T17-48-18-403
0.0015125081,-0.006185532,0.048218578,2016-08-23T17-48-18-433
0.0034627193,-0.021495942,0.060056135,2016-08-23T17-48-18-463
0.006209025,0.009439796,0.019602677,2016-08-23T17-48-18-494
0.01573556,-1.1506965E-4,0.047031134,2016-08-23T17-48-18-522
0.009679288,0.020875802,0.056802448,2016-08-23T17-48-18-553
0.015644524,0.004867452,0.0674237,2016-08-23T17-48-18-582
0.0042706877,0.02088311,0.04724039,2016-08-23T17-48-18-614
-0.011313102,-0.007398683,0.051837366,2016-08-23T17-48-18-643
-0.002195342,4.9527246E-4,0.018358098,2016-08-23T17-48-18-674
-0.0022919802,0.010500109,0.03640021,2016-08-23T17-48-18-703
0.010613695,0.0011647451,0.061423685,2016-08-23T17-48-18-734
-0.0053623063,-0.009912838,0.0422225,2016-08-23T17-48-18-763
0.004854407,-0.0015517904,0.05423603,2016-08-23T17-48-18-794
0.006268467,0.02064409,0.043645132,2016-08-23T17-48-18-822
0.0024953382,-0.012491984,0.06013619,2016-08-23T17-48-18-853
0.0061724875,0.016952058,0.07114915,2016-08-23T17-48-18-883
0.0013120206,1.91573E-4,0.0602457,2016-08-23T17-48-18-914
0.006604023,-0.019953847,0.031330425,2016-08-23T17-48-18-943
0.0071412,0.004301008,0.049491324,2016-08-23T17-48-18-974
-0.007045133,0.0028325615,0.0890279,2016-08-23T17-48-19-003
-0.0020720183,0.0015897608,0.04470764,2016-08-23T17-48-19-034
-0.008772384,0.0048180507,0.060317297,2016-08-23T17-48-19-062
0.008156791,-0.00200482,0.07816746,2016-08-23T17-48-19-094
0.010482548,0.0043224744,0.035117008,2016-08-23T17-48-19-123
0.007267461,0.0076043946,0.059095986,2016-08-23T17-48-19-153
0.002813348,0.013713861,0.0388094,2016-08-23T17-48-19-183
-0.013653966,-0.013654081,0.03383753,2016-08-23T17-48-19-214
-0.0011666211,0.007685826,0.043558676,2016-08-23T17-48-19-243
-0.0026146355,-0.012787342,0.050573036,2016-08-23T17-48-19-274
0.0027274895,0.020444214,0.043655157,2016-08-23T17-48-19-303
-0.0012392397,0.0108446,0.06154313,2016-08-23T17-48-19-333
-0.011648408,0.014232798,0.0436447,2016-08-23T17-48-19-363
-0.006294502,0.0060853884,0.0495436,2016-08-23T17-48-19-393
-0.008544014,-0.010184311,0.067370415,2016-08-23T17-48-19-423
-0.0068928683,-0.013282462,0.036214083,2016-08-23T17-48-19-453
0.014123089,-6.927347E-4,0.07696228,2016-08-23T17-48-19-483
-0.0020532669,-0.005141142,0.074577205,2016-08-23T17-48-19-513
-0.01568294,-0.011941617,0.05540391,2016-08-23T17-48-19-543
-0.0032455027,0.0026150416,0.039929114,2016-08-23T17-48-19-574
-0.007262905,-0.010132116,0.055394795,2016-08-23T17-48-19-603
-0.003646091,0.014928313,0.01967976,2016-08-23T17-48-19-634
0.0035597943,-0.0022969702,0.05782254,2016-08-23T17-48-19-663
-0.008082224,-0.010881123,0.060178634,2016-08-23T17-48-19-693
-0.010647691,-0.011804135,0.047010202,2016-08-23T17-48-19-722
-0.004995108,0.0127153685,0.07832504,2016-08-23T17-48-19-753
0.005926723,0.008773575,0.054317407,2016-08-23T17-48-19-783
0.003621885,0.0011987842,0.04468389,2016-08-23T17-48-19-813
-0.013374031,-0.0023768204,0.05547598,2016-08-23T17-48-19-843
0.017649114,0.007272792,0.07701527,2016-08-23T17-48-19-874
0.0031892336,-0.002227992,0.05662645,2016-08-23T17-48-19-903
0.009957409,-0.0022642394,0.08174585,2016-08-23T17-48-19-933
0.009881737,-0.002339177,0.0817455,2016-08-23T17-48-19-963
0.010683922,0.007450582,0.03513742,2016-08-23T17-48-19-993
0.0237246,-0.013771587,0.046894167,2016-08-23T17-48-20-022
0.002442908,1.7560367E-4,0.055453807,2016-08-23T17-48-20-053
0.006475818,0.0063512875,0.039929822,2016-08-23T17-48-20-082
0.0032240346,-5.707566E-4,0.05185266,2016-08-23T17-48-20-114
-0.01540466,-0.0043570264,0.057859264,2016-08-23T17-48-20-143
0.0062096342,0.011015438,0.07229348,2016-08-23T17-48-20-174
0.0097768195,-6.5657124E-4,0.048242696,2016-08-23T17-48-20-203
-0.011108251,-0.01731201,0.06133152,2016-08-23T17-48-20-234
-0.0071923044,0.0040674587,0.033967044,2016-08-23T17-48-20-262
0.009108851,-0.01202273,0.054136463,2016-08-23T17-48-20-293
-4.6776445E-4,-0.004532474,0.053029314,2016-08-23T17-48-20-323
-0.0013513743,0.0065276716,0.044746395,2016-08-23T17-48-20-353
-0.009697478,0.009886231,0.05078405,2016-08-23T17-48-20-383
-0.0030725785,0.010274867,0.025626596,2016-08-23T17-48-20-414
0.017608227,-0.01832532,0.0313131,2016-08-23T17-48-20-443
-0.0036254989,4.8354446E-4,0.054278772,2016-08-23T17-48-20-474
0.018139679,-8.349619E-4,0.0398402,2016-08-23T17-48-20-503
0.014967962,-0.0062320144,0.06255015,2016-08-23T17-48-20-534
7.401905E-4,-0.00905195,0.079326145,2016-08-23T17-48-20-563
0.014270663,-0.0021967406,0.084136315,2016-08-23T17-48-20-594
0.014413184,-0.0021792664,0.08413585,2016-08-23T17-48-20-623
-0.003384732,0.010509673,0.06274557,2016-08-23T17-48-20-653
-0.002086212,-0.00736359,0.0757589,2016-08-23T17-48-20-683
0.0046265046,-0.006940136,0.05538993,2016-08-23T17-48-20-713
0.008927254,-0.009507816,0.06612977,2016-08-23T17-48-20-743
-0.013800103,-0.007051176,0.044668738,2016-08-23T17-48-20-774
-0.01276959,-0.0095682675,0.04344864,2016-08-23T17-48-20-803
-0.008394418,-0.0055739544,0.087763,2016-08-23T17-48-20-834
-0.016048182,-0.007786236,0.045866568,2016-08-23T17-48-20-863
-0.0026199007,0.0061507937,0.049534414,2016-08-23T17-48-20-894
7.558298E-4,0.009775988,0.06272067,2016-08-23T17-48-20-923
0.0024025168,0.009931857,0.04715443,2016-08-23T17-48-20-953
0.006858831,7.2936655E-4,0.050655536,2016-08-23T17-48-20-983
-0.0037664536,-0.010332263,0.047002696,2016-08-23T17-48-21-013
0.006193256,0.0034421764,0.05426889,2016-08-23T17-48-21-043
0.02328188,1.8993113E-4,0.060177762,2016-08-23T17-48-21-074
0.006909722,-0.025440281,0.07557407,2016-08-23T17-48-21-103
0.007144537,0.017941369,0.060373407,2016-08-23T17-48-21-134
0.0078034666,-0.019178972,0.045695283,2016-08-23T17-48-21-163
-0.014614697,0.009230163,0.050789367,2016-08-23T17-48-21-193
0.018573485,0.0053194114,0.0889636,2016-08-23T17-48-21-223
0.0046624728,0.024122,0.03409456,2016-08-23T17-48-21-254
0.0043246723,0.0010708332,0.06742317,2016-08-23T17-48-21-283
0.0025077772,0.0013851239,0.02672882,2016-08-23T17-48-21-314
0.008100637,0.02917336,0.054477204,2016-08-23T17-48-21-343
-0.021005467,-6.912291E-4,0.030374264,2016-08-23T17-48-21-374
0.0111172,0.0031431462,0.033899456,2016-08-23T17-48-21-403
-0.013102533,-0.003511447,0.08659183,2016-08-23T17-48-21-433
-3.752662E-4,-0.013965565,0.043368313,2016-08-23T17-48-21-463
0.011397212,0.0013205415,0.067402355,2016-08-23T17-48-21-493
0.004616726,0.0029965632,0.048283804,2016-08-23T17-48-21-522
0.010782527,-0.004446975,0.06496232,2016-08-23T17-48-21-554
-0.015172729,-0.017565582,0.07690389,2016-08-23T17-48-21-583
0.027583364,-0.003887078,0.05413739,2016-08-23T17-48-21-614
0.0015135866,-2.659109E-4,0.0805865,2016-08-23T17-48-21-643
0.0056455317,-0.002374781,0.03626202,2016-08-23T17-48-21-674
-0.0012711653,0.012812836,0.03880214,2016-08-23T17-48-21-703
-0.0051564043,-8.929393E-5,0.06504512,2016-08-23T17-48-21-734
0.02376468,-0.011145544,0.030144466,2016-08-23T17-48-21-763
0.024504384,0.007848285,0.088960044,2016-08-23T17-48-21-794
0.004189087,0.009722906,0.048335355,2016-08-23T17-48-21-822
0.0056031975,-0.011692318,0.08287118,2016-08-23T17-48-21-853
0.0028860215,0.0014226236,0.04467823,2016-08-23T17-48-21-882
-0.0062278123,-0.0011262067,0.047080994,2016-08-23T17-48-21-914
0.0048309546,0.0014529865,0.05305341,2016-08-23T17-48-21-942
0.020282393,-0.01162837,0.03374112,2016-08-23T17-48-21-973
0.0058096615,-0.0027929968,0.07456354,2016-08-23T17-48-22-002
0.006657301,-0.0017020375,0.055414464,2016-08-23T17-48-22-033
0.0041046003,-6.2262604E-4,0.031487588,2016-08-23T17-48-22-063
0.009939049,-0.0028603706,0.014689156,2016-08-23T17-48-22-094
0.008958706,0.017815111,0.07232461,2016-08-23T17-48-22-123
-0.0050636353,-0.0019427887,0.07220866,2016-08-23T17-48-22-153
-0.015729863,-0.026723783,0.062464073,2016-08-23T17-48-22-183
0.027096996,-0.013268577,0.039691325,2016-08-23T17-48-22-214
0.0098652495,0.020042982,0.05678285,2016-08-23T17-48-22-242
-0.008570682,0.0030138223,0.035152767,2016-08-23T17-48-22-274
0.022557952,0.010923788,0.030331548,2016-08-23T17-48-22-303
0.020369641,-0.0071052033,0.05652741,2016-08-23T17-48-22-333
-7.710725E-6,-5.231884E-4,0.05066069,2016-08-23T17-48-22-363
0.013481162,0.006594992,0.042294685,2016-08-23T17-48-22-394
-0.008711024,0.012595204,0.08671067,2016-08-23T17-48-22-423
0.0015166202,0.006056262,0.077046834,2016-08-23T17-48-22-453
-0.005388154,0.011180597,0.05915376,2016-08-23T17-48-22-482
-0.021671016,-0.023162372,0.07807782,2016-08-23T17-48-22-513
0.005139603,-0.002351472,0.05901024,2016-08-23T17-48-22-542
0.018322663,0.014896757,0.026789328,2016-08-23T17-48-22-574
-0.024715336,0.0048543946,0.045997757,2016-08-23T17-48-22-603
0.027877156,-0.00116673,0.050567802,2016-08-23T17-48-22-633
-0.00598762,-0.005175974,0.055431798,2016-08-23T17-48-22-663
0.027210768,-0.021167409,0.08631953,2016-08-23T17-48-22-693
-0.007916487,0.009779326,0.077110924,2016-08-23T17-48-22-723
-0.006786262,-0.0063977614,0.09014211,2016-08-23T17-48-22-753
0.0055039227,0.015180581,0.06274707,2016-08-23T17-48-22-782
0.0048445477,-9.241951E-4,0.045857083,2016-08-23T17-48-22-813
0.019240553,-0.004526902,0.00507666,2016-08-23T17-48-22-843
0.007639196,-0.008484353,0.04339146,2016-08-23T17-48-22-874
9.126157E-4,-2.9647548E-4,0.0734085,2016-08-23T17-48-22-903
-0.020312177,0.0038892247,0.049568657,2016-08-23T17-48-22-934
0.0011098793,0.0063582873,0.09860378,2016-08-23T17-48-22-963
-0.00664644,0.002377035,0.03634526,2016-08-23T17-48-22-993
0.01459544,-2.2517808E-4,0.07336678,2016-08-23T17-48-23-023
0.0111145135,-0.0051787565,0.04101465,2016-08-23T17-48-23-054
0.004710298,-0.020751918,0.062454745,2016-08-23T17-48-23-083
0.009690778,-0.0071383584,0.07212817,2016-08-23T17-48-23-114
0.00652007,-0.019014409,0.060070395,2016-08-23T17-48-23-142
-0.0014869255,0.00887082,0.06990361,2016-08-23T17-48-23-173
-0.016678896,0.0038025877,0.05913476,2016-08-23T17-48-23-203
0.014645355,0.0100649,0.066268355,2016-08-23T17-48-23-234
-0.0077037085,-0.0065269233,0.07697947,2016-08-23T17-48-23-263
-0.015395395,-0.0021164191,0.050703723,2016-08-23T17-48-23-294
0.0072071357,0.009290095,0.025585426,2016-08-23T17-48-23-323
0.0026468628,-0.015043168,0.074482545,2016-08-23T17-48-23-354
0.0057710456,0.013572769,0.08189514,2016-08-23T17-48-23-383
0.01684105,-0.0037892433,0.043405082,2016-08-23T17-48-23-414
0.0033206623,6.8385224E-4,0.073417336,2016-08-23T17-48-23-443
0.008250362,0.0060188966,0.05189757,2016-08-23T17-48-23-474
0.013527307,-0.010898313,0.051738624,2016-08-23T17-48-23-502
0.017493695,0.0067788456,0.053071633,2016-08-23T17-48-23-533
0.019745078,-0.020545272,0.07558166,2016-08-23T17-48-23-563
4.1831651E-4,-0.011575621,0.06613186,2016-08-23T17-48-23-594
0.008011056,-0.011477062,0.060114656,2016-08-23T17-48-23-623
-0.0067126094,9.814173E-4,0.06265379,2016-08-23T17-48-23-654
-0.0067319893,-0.0041121803,0.055429325,2016-08-23T17-48-23-683
0.030585667,-0.008719706,0.049299456,2016-08-23T17-48-23-713
-0.002006963,0.011027288,0.059132643,2016-08-23T17-48-23-742
0.022984367,-0.013363149,0.0851971,2016-08-23T17-48-23-774
0.010654222,0.020364737,0.069949806,2016-08-23T17-48-23-802
0.009979108,0.0077161393,0.06266362,2016-08-23T17-48-23-833
0.011693694,0.0062018596,0.035112496,2016-08-23T17-48-23-863
-0.004169103,-0.0053354995,0.07935655,2016-08-23T17-48-23-894
-0.0046631256,0.028761938,0.05928802,2016-08-23T17-48-23-923
-0.020538494,0.007393836,0.04598879,2016-08-23T17-48-23-953
0.0075282925,-0.0013404714,0.018302364,2016-08-23T17-48-23-983
0.010974156,-0.0030811175,0.03024902,2016-08-23T17-48-24-013
-0.0013297392,-0.018024454,0.06487923,2016-08-23T17-48-24-043
0.005055527,0.0027687093,0.03749685,2016-08-23T17-48-24-074
9.94032E-4,-0.005364259,0.08293316,2016-08-23T17-48-24-103
0.015343289,-0.009080545,0.046947252,2016-08-23T17-48-24-133
-0.010130274,6.259637E-4,0.045905,2016-08-23T17-48-24-162
0.00711074,-0.011354195,0.09244393,2016-08-23T17-48-24-193
0.00864336,-0.006162408,0.063751966,2016-08-23T17-48-24-223
0.019527731,0.0016312178,0.06258851,2016-08-23T17-48-24-253
-0.006208571,0.016365737,0.049618497,2016-08-23T17-48-24-283
-0.0043127006,0.0077081146,0.075878575,2016-08-23T17-48-24-314
0.013204081,0.014246807,0.04355863,2016-08-23T17-48-24-343
0.010016113,3.7955988E-4,0.06739528,2016-08-23T17-48-24-374
-0.020727547,0.013658184,0.043650854,2016-08-23T17-48-24-403
0.010051604,-0.004578859,0.052988082,2016-08-23T17-48-24-433
0.0058731195,-0.0022294198,0.05900599,2016-08-23T17-48-24-463
0.008365409,0.0055210204,0.0566696,2016-08-23T17-48-24-493
0.012114911,-0.026523858,0.039631065,2016-08-23T17-48-24-523
-0.008369762,-0.005389349,0.0901476,2016-08-23T17-48-24-554
0.0016391834,-0.0017198345,0.056631375,2016-08-23T17-48-24-583
5.150046E-4,0.014152852,0.07113338,2016-08-23T17-48-24-614
-3.3020508E-5,0.0015746502,0.055466864,2016-08-23T17-48-24-643
-0.009223166,-0.017961795,0.046949122,2016-08-23T17-48-24-674
-3.1144376E-4,4.3248583E-5,0.05425504,2016-08-23T17-48-24-703
0.0026566077,0.023962544,0.034095455,2016-08-23T17-48-24-734
0.0023885132,-0.009143303,0.035017036,2016-08-23T17-48-24-763
-0.008902364,0.009990712,0.06393985,2016-08-23T17-48-24-794
-0.012072427,0.0029830236,0.077060156,2016-08-23T17-48-24-823
0.0115967365,0.0018101315,0.05782853,2016-08-23T17-48-24-854
0.013352237,-0.013497806,0.051710807,2016-08-23T17-48-24-883
-0.0029422655,-9.86745E-4,0.044678595,2016-08-23T17-48-24-914
-0.021581776,-0.011354617,0.036264826,2016-08-23T17-48-24-942
3.6923218E-4,-0.0029280903,0.06261128,2016-08-23T17-48-24-974
-3.315086E-4,-0.011964931,0.037397563,2016-08-23T17-48-25-003
0.011327597,0.0068591344,0.043507047,2016-08-23T17-48-25-034
6.8169466E-4,-0.0023637821,0.03986631,2016-08-23T17-48-25-062
0.0073615564,0.0060923793,0.053086814,2016-08-23T17-48-25-093
-4.353218E-4,0.015633801,0.019668713,2016-08-23T17-48-25-123
-0.004369949,0.0077169305,0.05672555,2016-08-23T17-48-25-154
0.0026105875,0.0060262033,0.06866234,2016-08-23T17-48-25-184
0.0044662748,0.012624507,0.085474506,2016-08-23T17-48-25-214
0.0046059936,0.0028033,0.054264724,2016-08-23T17-48-25-242
-0.008330458,0.02544629,0.065266415,2016-08-23T17-48-25-274
0.003952298,0.0021478902,0.038698383,2016-08-23T17-48-25-303
-0.012808308,-0.0066831727,0.051842827,2016-08-23T17-48-25-334
0.027042137,-1.8391552E-4,0.055372134,2016-08-23T17-48-25-362
0.0030631192,0.006590862,0.020779595,2016-08-23T17-48-25-393
-8.27229E-4,-0.0046807597,0.054217253,2016-08-23T17-48-25-423
0.009385881,-0.0046855547,0.07334138,2016-08-23T17-48-25-454
0.005886278,0.0073670363,0.06986018,2016-08-23T17-48-25-483
0.022108104,0.008447655,0.071017675,2016-08-23T17-48-25-514
-0.0029983155,-0.0069074263,0.041036557,2016-08-23T17-48-25-543
1.3365406E-4,0.016543634,0.07713581,2016-08-23T17-48-25-574
-6.3921104E-4,0.01742222,0.08073696,2016-08-23T17-48-25-603
0.0011888916,0.009097706,0.057917424,2016-08-23T17-48-25-634
-0.021529881,-0.0055332934,0.05427151,2016-08-23T17-48-25-663
0.0040373644,-0.008746456,0.07092955,2016-08-23T17-48-25-693
0.0053340765,0.025304902,0.06761529,2016-08-23T17-48-25-723
0.0049503497,7.932584E-4,0.07100493,2016-08-23T17-48-25-753
-0.008822723,0.009327305,0.037597213,2016-08-23T17-48-25-783
0.010072155,0.002780759,0.044668026,2016-08-23T17-48-25-813
0.0062615667,-0.011661143,0.061319686,2016-08-23T17-48-25-842
0.010148076,0.011245155,0.062694035,2016-08-23T17-48-25-874
-0.0032463523,0.0025250167,0.068648435,2016-08-23T17-48-25-903
-0.0064823544,6.971535E-4,0.06265974,2016-08-23T17-48-25-934
-0.007921311,-0.0028535805,0.07939542,2016-08-23T17-48-25-963
0.0012749133,-0.006739939,0.0458147,2016-08-23T17-48-25-994
0.0027557698,0.013613712,0.053161077,2016-08-23T17-48-26-023
0.00907634,-0.003850387,0.04461662,2016-08-23T17-48-26-054
-0.003302385,-0.019917943,0.01938248,2016-08-23T17-48-26-083
0.005167397,-0.009785387,0.04697443,2016-08-23T17-48-26-114
-0.012730538,-0.0041658953,0.060244624,2016-08-23T17-48-26-143
0.0037543662,0.016478479,0.04240621,2016-08-23T17-48-26-174
-0.010547667,0.008597914,0.056751255,2016-08-23T17-48-26-203
0.0013570427,0.005384043,0.0578847,2016-08-23T17-48-26-234
0.007894658,0.022195203,0.066384636,2016-08-23T17-48-26-262
0.004589375,0.00881569,0.049522813,2016-08-23T17-48-26-293
0.017128127,0.023079518,0.069955274,2016-08-23T17-48-26-322
-0.004525604,0.004217607,0.067471534,2016-08-23T17-48-26-354
-0.013695146,-0.01200121,0.057788607,2016-08-23T17-48-26-383
0.012572091,-0.014391824,0.0792366,2016-08-23T17-48-26-414
-4.294971E-4,2.9236602E-5,0.051861543,2016-08-23T17-48-26-443
-3.791054E-4,-0.0068758065,0.05898657,2016-08-23T17-48-26-474
0.009963278,-0.013586158,0.061295595,2016-08-23T17-48-26-503
0.013910482,-8.6106185E-4,0.05660047,2016-08-23T17-48-26-534
-0.0027083736,-0.011410629,0.081704035,2016-08-23T17-48-26-563
0.0031700898,-0.01363044,0.054132856,2016-08-23T17-48-26-594
-0.0024500997,0.015062346,0.046008993,2016-08-23T17-48-26-623
-0.0025247897,0.015137719,0.046008755,2016-08-23T17-48-26-654
0.013853249,-8.353075E-4,0.0625855,2016-08-23T17-48-26-683
-0.013286966,-0.0012526724,0.044708967,2016-08-23T17-48-26-714
0.0032962083,0.014418354,0.030422388,2016-08-23T17-48-26-743
-0.0014894517,6.9176644E-4,0.03630955,2016-08-23T17-48-26-774
0.003572569,5.3765444E-4,0.053053275,2016-08-23T17-48-26-802
-0.0076758377,0.0062110224,0.045953505,2016-08-23T17-48-26-834
0.004927214,4.222626E-4,0.035092786,2016-08-23T17-48-26-863
0.02460387,0.0063860477,0.0841651,2016-08-23T17-48-26-894
0.004916982,6.020825E-4,0.031502623,2016-08-23T17-48-26-923
0.023016432,-0.00690223,0.0505391,2016-08-23T17-48-26-954
0.009393773,0.008111548,0.054296385,2016-08-23T17-48-26-983
-0.016777257,0.00693897,0.053170048,2016-08-23T17-48-27-014
-0.022567075,-8.195138E-4,0.059108753,2016-08-23T17-48-27-042
-0.006313104,-0.015329767,0.08407942,2016-08-23T17-48-27-074
0.012066516,3.3329462E-4,0.060211748,2016-08-23T17-48-27-103
0.004892012,-0.017457427,0.06607,2016-08-23T17-48-27-134
0.0037565706,0.00181509,0.06982674,2016-08-23T17-48-27-163
0.017329648,-0.002650216,0.03023998,2016-08-23T17-48-27-194
4.4398784E-4,0.010210226,0.062724695,2016-08-23T17-48-27-223
-0.0041976674,-0.011583831,0.045797687,2016-08-23T17-48-27-254
0.015204832,-0.01020551,0.03497184,2016-08-23T17-48-27-283
-0.0112159075,0.012067103,0.06516906,2016-08-23T17-48-27-314
0.005333646,-0.0073517957,0.07094301,2016-08-23T17-48-27-343
0.005193397,0.0062845955,0.06866222,2016-08-23T17-48-27-374
9.798743E-4,0.0038520372,0.04112159,2016-08-23T17-48-27-403
-0.0077327276,0.015627785,0.04124705,2016-08-23T17-48-27-434
0.008648709,-0.0069599184,0.048188023,2016-08-23T17-48-27-463
0.00876521,-0.0069947126,0.061356205,2016-08-23T17-48-27-493
0.0018314293,0.014957532,0.048393566,2016-08-23T17-48-27-523
-0.0011997169,-0.0019967915,0.054246765,2016-08-23T17-48-27-554
0.02245544,2.2475878E-4,0.025459262,2016-08-23T17-48-27-583
0.00916489,2.0029984E-5,0.03387998,2016-08-23T17-48-27-614
0.010240359,-0.0043525742,0.061374772,2016-08-23T17-48-27-643
0.0025110373,0.0030138479,0.08659967,2016-08-23T17-48-27-673
-8.1890303E-4,-0.008559919,0.047008775,2016-08-23T17-48-27-703
-0.004957997,-0.007783846,0.056604818,2016-08-23T17-48-27-734
0.0050882837,0.0109228,0.06510863,2016-08-23T17-48-27-763
-5.626556E-4,-0.003057047,0.039868448,2016-08-23T17-48-27-794
-0.002371695,0.0036053052,0.059081715,2016-08-23T17-48-27-823
0.003521142,0.0047427663,0.05308548,2016-08-23T17-48-27-854
0.01207349,-0.0033314873,0.039821543,2016-08-23T17-48-27-883
0.011056011,0.007396305,0.06265916,2016-08-23T17-48-27-914
-0.0040316116,-0.0011912966,0.06742492,2016-08-23T17-48-27-943
-0.0058250832,0.0025570223,0.029152839,2016-08-23T17-48-27-973
-0.006766441,0.008095728,0.07469229,2016-08-23T17-48-28-002
-0.0073477863,-0.00289377,0.0805896,2016-08-23T17-48-28-034
0.0036933292,-0.0033678904,0.06498641,2016-08-23T17-48-28-063
-0.006129382,-0.016904717,0.06251295,2016-08-23T17-48-28-094
-0.0024699501,0.0196919,0.038857356,2016-08-23T17-48-28-123
0.008883839,0.007053018,0.035127163,2016-08-23T17-48-28-154
-0.004696535,0.00856557,0.031593334,2016-08-23T17-48-28-183
0.006731699,-0.0057972814,0.075730555,2016-08-23T17-48-28-214
0.024714816,0.015736202,0.036352154,2016-08-23T17-48-28-242
-0.0062739262,9.808422E-4,0.024353946,2016-08-23T17-48-28-274
-0.023665134,-0.008965472,0.07700032,2016-08-23T17-48-28-303
0.003912309,0.012817437,0.04477246,2016-08-23T17-48-28-334
-1.4943926E-4,0.0068921247,0.045933884,2016-08-23T17-48-28-363
0.004128809,0.0060220854,0.05668737,2016-08-23T17-48-28-394
-0.0010130005,0.014501283,0.0543778,2016-08-23T17-48-28-423
-0.010085782,0.026704686,0.0964088,2016-08-23T17-48-28-454
-0.0037473275,0.0043978337,0.049515396,2016-08-23T17-48-28-483
0.004208186,0.0050151134,0.08541183,2016-08-23T17-48-28-513
0.003368955,0.001134149,0.04946755,2016-08-23T17-48-28-543
0.011016816,6.284719E-4,0.031480264,2016-08-23T17-48-28-574
0.018069396,0.002292567,0.056610648,2016-08-23T17-48-28-603
-0.0069114473,-0.02501278,0.054071408,2016-08-23T17-48-28-634
0.025005685,-4.3149112E-4,0.06255248,2016-08-23T17-48-28-663
0.018278098,-4.2952973E-4,0.057784025,2016-08-23T17-48-28-694
0.01052867,0.008733181,0.06147475,2016-08-23T17-48-28-723
0.011695728,0.002601889,0.09015189,2016-08-23T17-48-28-753
0.011370163,0.009975999,0.017188145,2016-08-23T17-48-28-783
0.015173908,-0.005427906,0.052963186,2016-08-23T17-48-28-813
-0.0078647835,-0.02975565,0.07557912,2016-08-23T17-48-28-842
-0.0150701795,-0.01758368,0.04217975,2016-08-23T17-48-28-874
-0.0016599568,0.0077190143,0.07826257,2016-08-23T17-48-28-903
0.012018066,0.0029743551,0.07219509,2016-08-23T17-48-28-934
0.01725087,-0.0035741818,0.06374474,2016-08-23T17-48-28-962
0.004344187,0.012765269,0.026806854,2016-08-23T17-48-28-994
-0.025324244,-0.026775496,0.043334357,2016-08-23T17-48-29-023
0.004765469,0.005822408,0.056676757,2016-08-23T17-48-29-053
-0.0025545966,-0.006984405,0.06497469,2016-08-23T17-48-29-083
0.0051432876,-0.01574032,0.0229777,2016-08-23T17-48-29-114
9.0951775E-4,-0.008492733,0.060162053,2016-08-23T17-48-29-143
-0.016200915,-0.0017775509,0.03512973,2016-08-23T17-48-29-174
0.02200829,0.001142654,0.06855428,2016-08-23T17-48-29-203
4.0869236E-5,-6.488522E-4,0.048257105,2016-08-23T17-48-29-234
0.014300996,0.01546114,0.062709905,2016-08-23T17-48-29-262
0.018655363,0.014666901,0.07346352,2016-08-23T17-48-29-294
-0.013328258,-0.0025413749,0.04708685,2016-08-23T17-48-29-323
0.0015254891,0.018061928,0.049601283,2016-08-23T17-48-29-354
4.3402438E-4,-0.014399529,0.08285954,2016-08-23T17-48-29-383
0.005949336,0.01205884,0.057919584,2016-08-23T17-48-29-414
0.0058596223,0.017166302,0.054369964,2016-08-23T17-48-29-443
0.016938299,0.007932241,0.056654487,2016-08-23T17-48-29-473
0.0144916,0.008585417,0.06624656,2016-08-23T17-48-29-503
0.009244537,0.011804738,0.07706273,2016-08-23T17-48-29-534
0.017109878,-0.0071354522,0.03617936,2016-08-23T17-48-29-563
0.01469481,-0.0063927285,0.026617438,2016-08-23T17-48-29-594
-0.0071359235,-0.0069697076,0.0637926,2016-08-23T17-48-29-623
0.011300563,0.017104127,0.04477795,2016-08-23T17-48-29-654
-0.01625551,-0.016159859,0.031425152,2016-08-23T17-48-29-683
0.018061072,0.018955627,0.055545382,2016-08-23T17-48-29-713
0.011796283,-0.0015699582,0.06856505,2016-08-23T17-48-29-743
-0.0020684805,0.0154541945,0.049593322,2016-08-23T17-48-29-774
0.012272959,0.01970959,0.055569835,2016-08-23T17-48-29-802
0.013469031,0.005541573,0.05066018,2016-08-23T17-48-29-833
0.001586618,0.01221327,0.049554974,2016-08-23T17-48-29-863
0.0015753275,0.013866712,0.054357085,2016-08-23T17-48-29-894
-0.0024358626,0.007664319,0.07108096,2016-08-23T17-48-29-923
2.4984413E-4,-0.001195507,0.048251994,2016-08-23T17-48-29-953
0.021549243,-1.4123478E-4,0.07213427,2016-08-23T17-48-29-983
0.0032169393,-0.008922641,0.049378037,2016-08-23T17-48-30-013
0.006179926,0.020276371,0.03286217,2016-08-23T17-48-30-043
-0.010536267,0.01115841,0.061565943,2016-08-23T17-48-30-073
-0.010362412,-0.0040444313,0.039890215,2016-08-23T17-48-30-103
-0.01194281,-0.015854312,0.040992074,2016-08-23T17-48-30-134
-0.0137155745,-0.0077145863,0.085358895,2016-08-23T17-48-30-163
-0.012313636,0.014902117,0.026884498,2016-08-23T17-48-30-194
-0.0033804611,-0.017327093,0.066093735,2016-08-23T17-48-30-223
-0.017918589,-0.011600891,0.07216674,2016-08-23T17-48-30-253
-0.0067659677,0.022938574,0.0125678815,2016-08-23T17-48-30-283
0.008986664,-0.0074232835,0.027831176,2016-08-23T17-48-30-314
0.018335832,0.0138263265,0.05431785,2016-08-23T17-48-30-343
-0.011919753,-1.9930984E-4,0.055485155,2016-08-23T17-48-30-374
-0.008631946,0.0053680777,0.029183587,2016-08-23T17-48-30-403
-0.00767676,0.0026426178,0.053101014,2016-08-23T17-48-30-434
-0.018314434,-0.0068881256,0.0769944,2016-08-23T17-48-30-463
-0.014975337,-0.0031758226,0.053072892,2016-08-23T17-48-30-494
0.0010463314,0.011421757,0.05793654,2016-08-23T17-48-30-523
0.011467833,-0.0055074617,0.05896302,2016-08-23T17-48-30-554
0.0055775885,-0.0012127791,0.067395285,2016-08-23T17-48-30-583
0.012204774,0.0044436133,0.01953604,2016-08-23T17-48-30-614
-1.2882729E-4,-0.0018674724,0.060222246,2016-08-23T17-48-30-643
-0.0012406658,0.0077264234,0.05072583,2016-08-23T17-48-30-674
-0.023638558,-0.0054727397,0.086595766,2016-08-23T17-48-30-703
0.005436348,0.018242503,0.047199175,2016-08-23T17-48-30-734
0.012316982,0.011849627,0.023183083,2016-08-23T17-48-30-763
0.0013910861,0.013891035,0.06273772,2016-08-23T17-48-30-794
0.004387716,-0.01716329,0.026559826,2016-08-23T17-48-30-823
-0.0028941242,0.016535293,0.03284486,2016-08-23T17-48-30-854
0.015724411,0.018450014,0.04118583,2016-08-23T17-48-30-883
0.027092837,6.0204294E-4,0.07093336,2016-08-23T17-48-30-914
-0.002590792,0.006386351,0.03395717,2016-08-23T17-48-30-943
0.009531391,-0.0037497464,0.07214529,2016-08-23T17-48-30-973
-0.011379684,-0.011490123,0.064960726,2016-08-23T17-48-31-003
0.0023817697,0.016998194,0.032829486,2016-08-23T17-48-31-034
0.007447754,0.015269154,0.038786784,2016-08-23T17-48-31-063
-0.014372864,0.0080307815,0.07111424,2016-08-23T17-48-31-093
-0.007705193,0.0054640593,-0.006742713,2016-08-23T17-48-31-123
0.0070545794,-0.005862465,0.060161576,2016-08-23T17-48-31-154
0.010384109,0.00933589,0.071051076,2016-08-23T17-48-31-183
0.010577004,-0.0019714043,0.023069985,2016-08-23T17-48-31-213
0.013184182,0.0036823417,0.05184076,2016-08-23T17-48-31-243
-0.026857812,0.019168619,0.048496697,2016-08-23T17-48-31-274
0.02523107,-0.0014030846,0.06612927,2016-08-23T17-48-31-303
0.009359943,-0.012204523,0.028977048,2016-08-23T17-48-31-334
-0.0058178506,-5.715089E-4,0.037498742,2016-08-23T17-48-31-363
0.012315319,-0.014912058,0.056480158,2016-08-23T17-48-31-394
-0.012974065,-0.015303814,0.064935066,2016-08-23T17-48-31-423
0.011764081,0.022519352,0.04242198,2016-08-23T17-48-31-454
0.008785881,0.0054382225,0.06383961,2016-08-23T17-48-31-483
0.008037508,-0.0018635625,0.032656003,2016-08-23T17-48-31-513
-0.013307434,0.015333872,0.06279067,2016-08-23T17-48-31-543
0.012214089,-0.0011134236,0.043424312,2016-08-23T17-48-31-574
0.0063437996,0.001508631,0.049447317,2016-08-23T17-48-31-603
-0.010687141,0.014715027,0.06636796,2016-08-23T17-48-31-634
0.0014105944,-4.564462E-4,0.06381326,2016-08-23T17-48-31-663
0.0019091008,0.02926608,0.053280763,2016-08-23T17-48-31-694
-8.818168E-4,-0.0063115875,0.041028548,2016-08-23T17-48-31-723
-0.0017993159,0.0046839905,0.049500372,2016-08-23T17-48-31-753
0.0054181837,-0.014015764,0.08045172,2016-08-23T17-48-31-783
0.018360136,0.021851096,0.06753429,2016-08-23T17-48-31-814
0.002690849,-0.0049086926,0.091308475,2016-08-23T17-48-31-843
0.012803759,0.007387597,0.06743377,2016-08-23T17-48-31-874
-0.0064330287,-0.003798069,0.061417934,2016-08-23T17-48-31-903
-0.0059745777,0.027646208,0.047306545,2016-08-23T17-48-31-934
0.011179725,0.00934926,0.04949617,2016-08-23T17-48-31-962
0.0028010025,0.012629879,0.0459586,2016-08-23T17-48-31-993
0.008289857,-0.007835888,0.07450634,2016-08-23T17-48-32-023
-0.004867232,0.011829202,0.025624309,2016-08-23T17-48-32-053
0.0053432942,0.011733685,0.066293456,2016-08-23T17-48-32-083
0.0027789273,0.012569064,0.0627167,2016-08-23T17-48-32-114
-0.0022339183,0.0027257104,0.032723323,2016-08-23T17-48-32-143
0.018836329,0.011954424,0.074632704,2016-08-23T17-48-32-175
-0.018675283,-0.02167994,0.068492286,2016-08-23T17-48-32-203
0.013015932,0.002926879,0.03746512,2016-08-23T17-48-32-233
-0.011341533,0.0017854403,0.044714782,2016-08-23T17-48-32-263
-0.010106039,-0.015986837,0.05534234,2016-08-23T17-48-32-294
0.019378055,-0.0010869447,0.058958065,2016-08-23T17-48-32-323
-0.0059611895,-0.0062853773,0.032660685,2016-08-23T17-48-32-354
0.016117185,-0.009372385,0.038550384,2016-08-23T17-48-32-382
-0.008364923,0.001180999,0.06505187,2016-08-23T17-48-32-414
0.0059747756,0.0074837855,0.055478126,2016-08-23T17-48-32-443
0.011698776,0.015021543,0.07706854,2016-08-23T17-48-32-474
-0.010920828,-0.006246539,0.045845017,2016-08-23T17-48-32-503
0.002591326,0.005688212,0.07103724,2016-08-23T17-48-32-533
0.0043707592,-0.0044821687,0.09489089,2016-08-23T17-48-32-563
-0.0018763031,0.0018080443,0.047073677,2016-08-23T17-48-32-594
0.017489577,0.004957109,0.027881524,2016-08-23T17-48-32-622
0.0048647295,0.00560329,0.036307313,2016-08-23T17-48-32-653
0.0050868317,-0.0029182003,0.035041552,2016-08-23T17-48-32-683
0.016980574,0.012060989,0.09976813,2016-08-23T17-48-32-714
-0.005831665,0.0062273303,0.04233325,2016-08-23T17-48-32-743
0.022502828,-0.017869165,0.04204891,2016-08-23T17-48-32-774
0.001957058,-0.0063871895,0.056572065,2016-08-23T17-48-32-803
0.016392916,-0.0039363746,0.07809396,2016-08-23T17-48-32-834
0.0069544977,0.00707102,0.06863524,2016-08-23T17-48-32-863
0.009454225,-1.1405458E-4,0.019487066,2016-08-23T17-48-32-894
0.005126039,0.019084724,0.04599203,2016-08-23T17-48-32-923
0.010903209,-0.01972121,0.04925405,2016-08-23T17-48-32-954
0.01047587,0.010985341,0.019571956,2016-08-23T17-48-32-983
0.017509574,-0.0013100446,0.088885896,2016-08-23T17-48-33-013
0.00994989,-0.008788381,0.046951402,2016-08-23T17-48-33-043
-0.010262979,-6.9637556E-4,0.07222113,2016-08-23T17-48-33-074
9.1633736E-4,-0.011791054,0.09603876,2016-08-23T17-48-33-103
-0.02048807,-0.009345612,0.05662363,2016-08-23T17-48-33-134
0.014783795,0.013410803,0.032747917,2016-08-23T17-48-33-163
0.007796277,-0.014841272,0.06726125,2016-08-23T17-48-33-194
0.008819458,-0.020696549,0.06960506,2016-08-23T17-48-33-223
2.1622532E-4,-0.0036963304,0.06258569,2016-08-23T17-48-33-254
0.023757169,0.0054540285,0.032651857,2016-08-23T17-48-33-283
0.016746735,0.023939094,0.02683668,2016-08-23T17-48-33-314
0.008767544,0.005238951,0.041079964,2016-08-23T17-48-33-343
-0.0011148332,0.008045153,0.093809664,2016-08-23T17-48-33-373
0.009833007,0.022758942,0.08311434,2016-08-23T17-48-33-403
0.0148406215,0.005574549,0.05064118,2016-08-23T17-48-33-434
0.0048097773,0.0053647505,0.066234015,2016-08-23T17-48-33-463
0.009137301,-0.0034881206,0.026642956,2016-08-23T17-48-33-494
0.0030358913,0.010682079,0.042338226,2016-08-23T17-48-33-523
0.015926648,-0.0054268185,0.070899114,2016-08-23T17-48-33-554
0.011696423,6.08538E-4,0.07694518,2016-08-23T17-48-33-583
-0.0043524364,-0.0054171802,0.057794187,2016-08-23T17-48-33-614
0.0031428912,-0.0010372517,0.06378966,2016-08-23T17-48-33-643
-0.0081752585,0.013395524,0.036406893,2016-08-23T17-48-33-674
-4.2458033E-4,0.011003482,0.04234857,2016-08-23T17-48-33-703
-0.003758804,0.012557594,0.043569557,2016-08-23T17-48-33-734
0.027338326,-0.014168701,0.061214503,2016-08-23T17-48-33-763
0.015274635,-0.0056928624,0.036180902,2016-08-23T17-48-33-794
0.0012533241,-0.013776127,0.06609104,2016-08-23T17-48-33-823
0.026022203,0.019166809,0.036343317,2016-08-23T17-48-33-854
-0.015917161,0.0012946501,0.0710539,2016-08-23T17-48-33-883
0.030810654,0.0030375267,0.060142014,2016-08-23T17-48-33-914
-0.016593026,9.348449E-4,0.026758693,2016-08-23T17-48-33-943
0.0040157954,0.0028907754,0.033890206,2016-08-23T17-48-33-974
0.015270177,0.0035306877,0.09371575,2016-08-23T17-48-34-003
9.258836E-4,-0.007132721,0.031427283,2016-08-23T17-48-34-034
0.013538412,0.0035986155,0.08175009,2016-08-23T17-48-34-063
0.0020586816,0.0334245,0.03413811,2016-08-23T17-48-34-094
0.01240084,-0.016430492,0.061244067,2016-08-23T17-48-34-123
0.018265177,-0.008606998,0.056496713,2016-08-23T17-48-34-154
0.027368775,-0.022348264,0.04677794,2016-08-23T17-48-34-186
-0.006938217,0.014392916,0.04238496,2016-08-23T17-48-34-214
0.010295966,0.0026233294,0.056605116,2016-08-23T17-48-34-243
-0.004677803,-0.0026211552,0.06618733,2016-08-23T17-48-34-274
-0.0036912977,-0.0031361296,0.03505505,2016-08-23T17-48-34-303
-0.0062732887,0.0042060176,0.036320694,2016-08-23T17-48-34-334
0.01732078,0.01648497,0.04112918,2016-08-23T17-48-34-363
0.004077125,0.004507633,0.057836004,2016-08-23T17-48-34-394
-0.010440434,0.0152822,0.04838989,2016-08-23T17-48-34-423
0.004533536,0.03233602,0.04488605,2016-08-23T17-48-34-454
-0.018793233,0.0049063275,0.050731104,2016-08-23T17-48-34-482
0.008172085,0.012133717,0.047109623,2016-08-23T17-48-34-514
0.008468585,-0.0135181965,0.058879405,2016-08-23T17-48-34-543
0.0072438624,0.009469405,0.032727234,2016-08-23T17-48-34-574
-0.0065461826,-0.022326857,0.06484449,2016-08-23T17-48-34-603
-0.008028856,0.014202956,0.04598211,2016-08-23T17-48-34-634
0.0014267163,0.010183659,0.047117077,2016-08-23T17-48-34-663
0.0015312256,0.0016827572,0.061414737,2016-08-23T17-48-34-694
0.003122073,0.00857395,0.03991567,2016-08-23T17-48-34-723
0.0140233105,0.013064749,0.029141933,2016-08-23T17-48-34-753
0.0092810225,0.0010315246,0.05180851,2016-08-23T17-48-34-783
0.002986344,0.023657575,0.04961282,2016-08-23T17-48-34-814
0.010262406,0.009987244,0.06983492,2016-08-23T17-48-34-842
0.0033057325,0.022085879,0.024461634,2016-08-23T17-48-34-874
0.017059335,0.012191603,0.013578522,2016-08-23T17-48-34-903
0.010170868,0.013473634,0.032765757,2016-08-23T17-48-34-934
0.009184298,0.0058659194,0.020735785,2016-08-23T17-48-34-963
-7.0024095E-4,-0.004473097,0.032653525,2016-08-23T17-48-34-994
-0.014482787,0.007028728,0.039971735,2016-08-23T17-48-35-023
0.007585455,0.0054376973,0.051864482,2016-08-23T17-48-35-054
-1.689727E-4,0.021334264,0.041244876,2016-08-23T17-48-35-083
0.01347871,0.008169515,0.030320419,2016-08-23T17-48-35-114
-0.008312313,-0.0039766436,0.014727155,2016-08-23T17-48-35-143
-0.0020954784,-0.010330784,0.07930289,2016-08-23T17-48-35-174
-0.0022486087,-0.006777208,0.041024387,2016-08-23T17-48-35-203
0.016127462,0.008760952,0.039896216,2016-08-23T17-48-35-234
-2.2465964E-4,0.023011273,0.025696326,2016-08-23T17-48-35-263
0.01389314,-5.15206E-4,0.04820691,2016-08-23T17-48-35-294
0.0015486645,0.01453519,0.038789883,2016-08-23T17-48-35-323
0.008705391,-0.0024202708,0.047011603,2016-08-23T17-48-35-354
-0.0032928907,6.324604E-4,0.06503057,2016-08-23T17-48-35-382
-0.009316075,-2.852405E-4,0.053069524,2016-08-23T17-48-35-414
-0.0039057806,-0.012163526,0.07570265,2016-08-23T17-48-35-443
-0.0024271216,2.5634945E-6,0.04826137,2016-08-23T17-48-35-474
0.005009408,0.016009502,0.0723113,2016-08-23T17-48-35-503
-0.004398295,0.011670156,0.06751625,2016-08-23T17-48-35-534
-0.0086264135,0.015825165,0.060381576,2016-08-23T17-48-35-563
0.010294029,-8.94528E-4,0.07096216,2016-08-23T17-48-35-594
0.012123398,-0.02433159,0.042034123,2016-08-23T17-48-35-623
0.016045772,0.0067773936,0.08417482,2016-08-23T17-48-35-653
0.0023334145,-0.0012135939,0.008730508,2016-08-23T17-48-35-683
-0.0017528915,-0.0041007698,0.043436483,2016-08-23T17-48-35-714
-0.02567292,0.017318215,0.06044445,2016-08-23T17-48-35-743
-0.026290378,0.0044379085,0.06393368,2016-08-23T17-48-35-774
-2.2916932E-4,0.0023394185,0.04228913,2016-08-23T17-48-35-803
-0.006861066,-0.0012576102,0.045873586,2016-08-23T17-48-35-834
0.003254384,-0.002883794,0.048223417,2016-08-23T17-48-35-863
0.0190896,0.01165694,0.042309616,2016-08-23T17-48-35-894
-0.002899257,0.0062785745,0.043528236,2016-08-23T17-48-35-923
0.020182874,-0.002894855,0.07091811,2016-08-23T17-48-35-954
-0.008214661,0.014665576,0.03403662,2016-08-23T17-48-35-983
0.019813742,0.004029544,0.03386534,2016-08-23T17-48-36-013
0.004070622,-0.01415427,0.052918326,2016-08-23T17-48-36-043
9.554254E-4,0.025446909,0.07001207,2016-08-23T17-48-36-074
0.031632893,0.010781515,0.0590248,2016-08-23T17-48-36-103
-0.012530148,0.015080863,0.060391694,2016-08-23T17-48-36-134
0.024826072,0.0037910964,0.055399694,2016-08-23T17-48-36-163
0.0022071449,-0.010976348,0.057740286,2016-08-23T17-48-36-194
0.008955062,-0.0091867875,0.058931638,2016-08-23T17-48-36-223
-0.0106961755,-0.005349363,0.069795854,2016-08-23T17-48-36-254
2.4012763E-5,9.876213E-4,0.03150718,2016-08-23T17-48-36-283
-0.010514107,0.0048427284,0.030374499,2016-08-23T17-48-36-314
-0.011480632,0.018898856,0.06880268,2016-08-23T17-48-36-343
-0.015534264,0.0023729783,0.096210934,2016-08-23T17-48-36-374
0.014818309,0.01157016,0.07465555,2016-08-23T17-48-36-403
-0.0102417385,-0.009027778,0.051808372,2016-08-23T17-48-36-434
0.0013215307,0.00975829,0.054326586,2016-08-23T17-48-36-463
0.015892515,0.0021781817,0.07696911,2016-08-23T17-48-36-494
0.016577488,0.020063728,0.06514587,2016-08-23T17-48-36-523
-0.0039897105,0.028422726,0.048510093,2016-08-23T17-48-36-554
0.003249316,0.018729474,0.04124958,2016-08-23T17-48-36-583
0.006459791,-7.747265E-4,0.048268728,2016-08-23T17-48-36-614
-0.010783319,0.017396398,0.061641917,2016-08-23T17-48-36-643
-0.0056865597,0.005945771,0.032796096,2016-08-23T17-48-36-674
0.0021170382,0.0067443014,0.051937286,2016-08-23T17-48-36-703
0.011617746,-0.002239749,0.039861247,2016-08-23T17-48-36-734
0.021215247,-0.014755316,0.044515707,2016-08-23T17-48-36-763
0.015915848,0.0022703786,0.032706674,2016-08-23T17-48-36-794
-0.021457344,0.01353165,0.024522517,2016-08-23T17-48-36-823
0.010494466,-0.010854426,0.062535785,2016-08-23T17-48-36-854
0.005863974,0.010131375,0.06632356,2016-08-23T17-48-36-883
0.0040495866,0.0072783427,0.027991688,2016-08-23T17-48-36-914
0.01880006,-0.008939943,0.06971239,2016-08-23T17-48-36-943
-0.010731574,-0.010338526,0.07097566,2016-08-23T17-48-36-975
0.017230755,-0.007274538,0.06973169,2016-08-23T17-48-37-003
-0.0010710001,0.027257457,0.048531335,2016-08-23T17-48-37-034
-0.007385058,0.0015732954,0.06987371,2016-08-23T17-48-37-063
0.023765689,0.0013140079,0.05901424,2016-08-23T17-48-37-094
0.003385275,0.006355591,0.035168733,2016-08-23T17-48-37-123
0.004321962,-0.006460868,0.050617587,2016-08-23T17-48-37-154
-0.00394019,-0.018494917,0.056520164,2016-08-23T17-48-37-183
-0.005847776,0.0032201598,0.07826321,2016-08-23T17-48-37-214
-0.021713106,-0.0062471163,0.075829,2016-08-23T17-48-37-243
-0.002265498,-0.0017142992,0.09377357,2016-08-23T17-48-37-274
0.011888262,0.008437028,0.031570487,2016-08-23T17-48-37-303
0.0060297735,0.01567249,0.07354807,2016-08-23T17-48-37-334
-0.009171178,0.0040815775,0.016024893,2016-08-23T17-48-37-363
0.012962847,0.002403622,0.054260314,2016-08-23T17-48-37-394
-0.007991655,-0.0119344415,0.020671755,2016-08-23T17-48-37-423
-0.017685201,0.015752316,0.04846968,2016-08-23T17-48-37-454
0.006463522,-0.009430133,0.0673422,2016-08-23T17-48-37-483
-4.6727472E-4,-8.275575E-4,0.054265153,2016-08-23T17-48-37-514
0.0038197907,0.0051602437,0.056700107,2016-08-23T17-48-37-543
0.005852098,-0.0066729328,0.05779038,2016-08-23T17-48-37-574
-0.0070707845,0.019399418,0.07121778,2016-08-23T17-48-37-603
0.016337635,-0.013048743,0.056508254,2016-08-23T17-48-37-634
-0.006558834,0.0026465077,0.05072202,2016-08-23T17-48-37-663
-0.0029455095,-0.005900755,0.05782093,2016-08-23T17-48-37-694
-0.020488847,-0.02250176,0.07688105,2016-08-23T17-48-37-723
-0.006295355,-0.017640525,0.030195076,2016-08-23T17-48-37-754
0.015172897,0.026533447,0.060445465,2016-08-23T17-48-37-783
-0.0012953958,-0.0054404126,0.04225592,2016-08-23T17-48-37-814
-0.011439063,0.004413236,0.08426687,2016-08-23T17-48-37-843
0.030753685,0.008533377,0.08538311,2016-08-23T17-48-37-874
0.032345545,0.010948155,0.030326761,2016-08-23T17-48-37-903
-0.0035874774,-0.0044301734,0.08775756,2016-08-23T17-48-37-934
-0.018058116,0.0034541148,0.04955524,2016-08-23T17-48-37-963
-0.007975932,0.015426328,0.06279795,2016-08-23T17-48-37-994
0.0101252375,-0.0035799912,0.049416147,2016-08-23T17-48-38-023
0.0059764055,-0.006318127,0.06496808,2016-08-23T17-48-38-054
-0.021175843,0.0034338962,0.07111225,2016-08-23T17-48-38-083
0.010555291,0.020910338,0.06638252,2016-08-23T17-48-38-114
0.0038747273,0.010860598,0.041175924,2016-08-23T17-48-38-143
-0.0043266993,0.0037871324,0.06987022,2016-08-23T17-48-38-174
0.006377251,0.0119679775,0.032796957,2016-08-23T17-48-38-203
0.014546152,-0.009123367,0.056537446,2016-08-23T17-48-38-234
-0.00940217,0.0059165633,0.053137913,2016-08-23T17-48-38-263
-0.016531834,0.0196384,0.028133564,2016-08-23T17-48-38-294
0.013535108,0.0039045769,0.042282578,2016-08-23T17-48-38-323
-0.0059990394,-0.03377715,0.056385357,2016-08-23T17-48-38-354
-0.014141229,0.005874719,0.06632,2016-08-23T17-48-38-383
0.009474497,0.0049708704,0.03392142,2016-08-23T17-48-38-414
-0.004575418,-0.009976835,0.07334096,2016-08-23T17-48-38-443
0.016704738,-0.014035041,0.092401065,2016-08-23T17-48-38-474
0.00525352,0.009200096,0.03516572,2016-08-23T17-48-38-503
-0.009611556,-0.0066575017,0.080566585,2016-08-23T17-48-38-534
-0.022666829,8.704073E-4,0.049540214,2016-08-23T17-48-38-563
0.010582349,-0.014647057,0.044527303,2016-08-23T17-48-38-594
0.0049225925,0.015590285,0.062755376,2016-08-23T17-48-38-623
-0.007525636,0.0043797637,0.055514507,2016-08-23T17-48-38-654
0.0042039254,0.0044772546,0.06625555,2016-08-23T17-48-38-683
0.006247081,-0.008997842,0.06134855,2016-08-23T17-48-38-714
0.009653732,0.0011205245,0.07219818,2016-08-23T17-48-38-743
0.010193469,0.009009264,0.03275768,2016-08-23T17-48-38-774
0.006155528,-0.00917209,0.0553636,2016-08-23T17-48-38-803
0.0034300801,0.0066660293,0.07944802,2016-08-23T17-48-38-834
-0.0017516427,0.0068996316,0.042352714,2016-08-23T17-48-38-863
0.019614916,0.009478472,0.07703135,2016-08-23T17-48-38-894
0.011486677,-0.019076724,0.034912568,2016-08-23T17-48-38-923
0.0025689777,-0.0039327494,0.012321524,2016-08-23T17-48-38-954
0.015043782,0.011949008,0.050729927,2016-08-23T17-48-38-983
0.005008135,0.0046692044,0.083019584,2016-08-23T17-48-39-013
0.021496104,0.015488824,0.036376722,2016-08-23T17-48-39-043
0.014249568,-0.01104412,0.048143774,2016-08-23T17-48-39-074
0.008128366,-0.0050441893,0.0350419,2016-08-23T17-48-39-103
-0.014334419,0.023005145,0.054498468,2016-08-23T17-48-39-134
-0.005744216,0.014695354,0.05201034,2016-08-23T17-48-39-163
0.008896415,0.0020639163,0.07101698,2016-08-23T17-48-39-193
0.009672857,-2.756374E-4,0.031490277,2016-08-23T17-48-39-223
0.0013186544,-0.0071901283,0.032651268,2016-08-23T17-48-39-254
0.018193955,0.003205792,0.04466423,2016-08-23T17-48-39-283
-0.012050571,0.004098597,0.08426205,2016-08-23T17-48-39-314
0.012423553,0.003986243,0.060249247,2016-08-23T17-48-39-343
