0.4815275
0.565249
0.4390819
0.5534891
0.6351315
0.5070907
0.5103288
0.5596544
0.519396
0.4535105
0.5159198
0.4708856
0.6998092
0.4943982
0.5091911
0.4985018
0.454512
0.6445005
0.5772774
0.5013695
0.6849974
0.4357393
0.3584472
0.5870192
0.5312874
0.5539469
0.4788864
0.4249948
0.4607874
0.5251422
0.4990146
0.4773978
0.5159566
0.3274613
0.5563534
0.4126109
0.4932094
0.6826269
0.5986683
0.4285909
0.4187202
0.4621615
0.4721282
0.417507
0.4995742
0.4361714
0.3828748
0.5492615
0.4673796
0.5117164
0.490753
0.5743407
0.4254806
0.5304068
0.5009855
0.4523677
0.5018757
0.4769782
0.5744111
0.5823015
0.6211583
0.5770575
0.5153965
0.5810359
0.6457064
0.5131545
0.5019341
0.4800495
0.5286189
0.6132286
0.4507081
0.6377145
0.6798616
0.4978629
0.3895516
0.564313
0.4043943
0.5101854
0.6298026
0.4736342
0.648523
0.4521598
0.5061702
0.4207809
0.5691517
0.6048225
0.4272609
0.5587123
0.523863
0.505982
0.5355844
0.4314604
0.3392767
0.5291193
0.5626886
0.5953226
0.5552017
0.6348281
0.6081049
0.4679753
