0,0,0.0,757.0,1331.0,0.26250002,0.20000002,8043630
0,2,0.0,757.0,1332.0,0.275,0.20000002,8043640
0,2,0.0,757.0,1333.0,0.32500002,0.20000002,8043658
0,2,0.0,758.0,1337.0,0.35,0.20000002,8043674
0,2,0.0,760.0,1340.0,0.35,0.20000002,8043674
0,2,0.0,763.0,1344.0,0.3125,0.13333334,8043691
0,2,0.0,766.0,1347.0,0.3125,0.13333334,8043691
0,2,0.0,770.0,1353.0,0.3375,0.13333334,8043708
0,2,0.0,774.0,1356.0,0.35,0.13333334,8043708
0,2,0.0,780.0,1365.0,0.35,0.13333334,8043724
0,2,0.0,784.0,1373.0,0.35,0.20000002,8043725
0,2,0.0,787.0,1377.0,0.38750002,0.20000002,8043742
0,2,0.0,792.0,1386.0,0.3625,0.20000002,8043742
0,2,0.0,795.0,1390.0,0.375,0.20000002,8043758
0,2,0.0,797.0,1393.0,0.375,0.20000002,8043758
0,2,0.0,800.0,1399.0,0.35,0.20000002,8043775
0,2,0.0,802.0,1403.0,0.35,0.20000002,8043776
0,2,0.0,804.0,1405.0,0.35,0.20000002,8043792
0,2,0.0,805.0,1406.0,0.3125,0.20000002,8043792
0,2,0.0,807.0,1410.0,0.3375,0.20000002,8043809
0,2,0.0,808.0,1411.0,0.35,0.20000002,8043809
0,2,0.0,809.0,1411.0,0.32500002,0.20000002,8043826
0,2,0.0,811.0,1414.0,0.3375,0.20000002,8043827
0,2,0.0,812.0,1414.0,0.3625,0.20000002,8043843
0,2,0.0,814.0,1418.0,0.3375,0.20000002,8043860
0,2,0.0,815.0,1420.0,0.3375,0.20000002,8043878
0,2,0.0,816.0,1423.0,0.32500002,0.20000002,8043878
0,2,0.0,817.0,1425.0,0.32500002,0.20000002,8043928
0,2,0.0,817.0,1426.0,0.35,0.20000002,8043928
0,2,0.0,818.0,1429.0,0.35,0.20000002,8043929
0,2,0.0,818.0,1430.0,0.35,0.20000002,8043929
0,2,0.0,818.0,1432.0,0.35,0.20000002,8043945
0,2,0.0,818.0,1430.0,0.32500002,0.20000002,8043945
0,2,0.0,818.0,1429.0,0.32500002,0.20000002,8043963
0,2,0.0,817.0,1427.0,0.35,0.20000002,8043963
0,2,0.0,816.0,1419.0,0.35,0.20000002,8043981
0,2,0.0,815.0,1418.0,0.375,0.20000002,8043981
0,2,0.0,812.0,1416.0,0.375,0.20000002,8043996
0,2,0.0,804.0,1404.0,0.3625,0.20000002,8043996
0,2,0.0,792.0,1386.0,0.3625,0.20000002,8044030
0,2,0.0,787.0,1378.0,0.32500002,0.20000002,8044030
0,2,0.0,772.0,1357.0,0.35,0.20000002,8044031
0,2,0.0,746.0,1313.0,0.3625,0.20000002,8044033
0,2,0.0,731.0,1298.0,0.38750002,0.20000002,8044055
0,2,0.0,724.0,1291.0,0.35,0.20000002,8044055
0,2,0.0,694.0,1254.0,0.3375,0.20000002,8044074
0,2,0.0,671.0,1231.0,0.3625,0.20000002,8044074
0,2,0.0,652.0,1214.0,0.3625,0.20000002,8044095
0,2,0.0,636.0,1196.0,0.3625,0.20000002,8044096
0,2,0.0,612.0,1163.0,0.375,0.20000002,8044107
0,2,0.0,593.0,1140.0,0.375,0.20000002,8044108
0,2,0.0,570.0,1105.0,0.35,0.20000002,8044119
0,2,0.0,556.0,1084.0,0.32500002,0.20000002,8044119
0,2,0.0,539.0,1036.0,0.35,0.20000002,8044134
0,2,0.0,527.0,1002.0,0.3625,0.20000002,8044135
0,2,0.0,514.0,961.0,0.38750002,0.20000002,8044151
0,2,0.0,505.0,934.0,0.38750002,0.20000002,8044151
0,2,0.0,499.0,921.0,0.38750002,0.20000002,8044168
0,2,0.0,486.0,878.0,0.38750002,0.20000002,8044168
0,2,0.0,479.0,855.0,0.35,0.20000002,8044185
0,2,0.0,471.0,829.0,0.375,0.20000002,8044185
0,2,0.0,465.0,811.0,0.375,0.20000002,8044202
0,2,0.0,457.0,794.0,0.375,0.20000002,8044212
0,2,0.0,449.0,780.0,0.375,0.20000002,8044225
0,2,0.0,441.0,770.0,0.38750002,0.20000002,8044225
0,2,0.0,426.0,745.0,0.38750002,0.20000002,8044239
0,2,0.0,419.0,737.0,0.3625,0.20000002,8044239
0,2,0.0,411.0,724.0,0.3375,0.20000002,8044253
0,2,0.0,404.0,714.0,0.3375,0.20000002,8044254
0,2,0.0,395.0,699.0,0.3625,0.20000002,8044270
0,2,0.0,388.0,689.0,0.3625,0.20000002,8044270
0,2,0.0,381.0,680.0,0.375,0.20000002,8044289
0,2,0.0,372.0,666.0,0.375,0.20000002,8044289
0,2,0.0,366.0,655.0,0.375,0.20000002,8044305
0,2,0.0,361.0,644.0,0.375,0.20000002,8044305
0,2,0.0,356.0,635.0,0.375,0.20000002,8044321
0,2,0.0,350.0,622.0,0.35,0.20000002,8044329
0,2,0.0,344.0,605.0,0.35,0.20000002,8044344
0,2,0.0,340.0,588.0,0.3625,0.20000002,8044344
0,2,0.0,337.0,580.0,0.3625,0.20000002,8044362
0,2,0.0,333.0,570.0,0.35,0.20000002,8044362
0,2,0.0,329.0,559.0,0.35,0.20000002,8044375
0,2,0.0,326.0,551.0,0.35,0.20000002,8044375
0,2,0.0,323.0,541.0,0.35,0.20000002,8044390
0,2,0.0,320.0,529.0,0.35,0.20000002,8044390
0,2,0.0,317.0,524.0,0.375,0.20000002,8044406
0,2,0.0,313.0,513.0,0.375,0.20000002,8044407
0,2,0.0,309.0,504.0,0.375,0.20000002,8044433
0,2,0.0,307.0,502.0,0.375,0.20000002,8044434
0,2,0.0,304.0,496.0,0.375,0.20000002,8044447
0,2,0.0,300.0,488.0,0.375,0.20000002,8044448
0,2,0.0,298.0,480.0,0.375,0.20000002,8044462
0,2,0.0,294.0,469.0,0.375,0.20000002,8044462
0,2,0.0,293.0,468.0,0.3375,0.20000002,8044475
0,2,0.0,292.0,467.0,0.32500002,0.20000002,8044475
0,2,0.0,289.0,461.0,0.35,0.20000002,8044492
0,2,0.0,288.0,459.0,0.3625,0.20000002,8044492
0,2,0.0,286.0,453.0,0.38750002,0.20000002,8044517
0,2,0.0,284.0,443.0,0.38750002,0.20000002,8044518
0,2,0.0,284.0,433.0,0.38750002,0.20000002,8044530
0,1,0.0,284.0,433.0,0.38750002,0.20000002,8044531
