0,2,0.0,901.0,985.0,0.5625,0.26666668,7744191
0,2,0.0,904.0,977.0,0.5625,0.26666668,7744208
0,2,0.0,907.0,968.0,0.5625,0.26666668,7744208
0,2,0.0,909.0,960.0,0.5625,0.26666668,7744223
0,2,0.0,912.0,952.0,0.5625,0.26666668,7744223
0,2,0.0,915.0,945.0,0.5625,0.26666668,7744241
0,2,0.0,917.0,938.0,0.5625,0.26666668,7744242
0,2,0.0,919.0,932.0,0.5625,0.26666668,7744263
0,2,0.0,922.0,926.0,0.5625,0.26666668,7744263
0,2,0.0,924.0,920.0,0.5625,0.26666668,7744275
0,2,0.0,927.0,914.0,0.5625,0.26666668,7744276
0,2,0.0,930.0,908.0,0.5625,0.26666668,7744295
0,2,0.0,932.0,902.0,0.5625,0.26666668,7744295
0,2,0.0,934.0,898.0,0.5625,0.26666668,7744311
0,2,0.0,936.0,893.0,0.5625,0.26666668,7744312
0,2,0.0,937.0,889.0,0.5625,0.26666668,7744335
0,2,0.0,938.0,886.0,0.5625,0.26666668,7744336
0,2,0.0,939.0,883.0,0.5625,0.26666668,7744348
0,2,0.0,940.0,880.0,0.5625,0.26666668,7744349
0,2,0.0,940.0,878.0,0.5625,0.26666668,7744360
0,2,0.0,941.0,876.0,0.5625,0.26666668,7744361
0,2,0.0,942.0,874.0,0.5625,0.26666668,7744377
0,2,0.0,942.0,873.0,0.5625,0.26666668,7744377
0,2,0.0,943.0,871.0,0.55,0.26666668,7744396
0,1,0.0,943.0,871.0,0.55,0.26666668,7744397
0,0,0.0,894.0,1165.0,0.5,0.20000002,7745224
0,2,0.0,894.0,1163.0,0.55,0.20000002,7745240
0,2,0.0,894.0,1160.0,0.55,0.20000002,7745240
0,2,0.0,895.0,1155.0,0.55,0.20000002,7745240
0,2,0.0,897.0,1147.0,0.55,0.20000002,7745240
0,2,0.0,901.0,1136.0,0.55,0.20000002,7745241
0,2,0.0,903.0,1129.0,0.55,0.20000002,7745241
0,2,0.0,906.0,1121.0,0.55,0.20000002,7745241
0,2,0.0,909.0,1112.0,0.55,0.20000002,7745259
0,2,0.0,912.0,1104.0,0.55,0.20000002,7745259
0,2,0.0,914.0,1097.0,0.55,0.20000002,7745276
0,2,0.0,917.0,1089.0,0.55,0.20000002,7745276
0,2,0.0,920.0,1081.0,0.55,0.20000002,7745291
0,2,0.0,923.0,1073.0,0.55,0.20000002,7745291
0,2,0.0,925.0,1064.0,0.55,0.20000002,7745308
0,2,0.0,927.0,1055.0,0.55,0.20000002,7745308
0,2,0.0,930.0,1045.0,0.55,0.20000002,7745334
0,2,0.0,933.0,1035.0,0.55,0.20000002,7745335
0,2,0.0,935.0,1027.0,0.55,0.20000002,7745353
0,2,0.0,938.0,1018.0,0.55,0.20000002,7745354
0,2,0.0,941.0,1008.0,0.55,0.20000002,7745367
0,2,0.0,944.0,999.0,0.55,0.20000002,7745368
0,2,0.0,947.0,990.0,0.55,0.20000002,7745380
0,2,0.0,950.0,980.0,0.5625,0.20000002,7745381
0,2,0.0,953.0,971.0,0.5625,0.20000002,7745394
0,2,0.0,955.0,962.0,0.5625,0.20000002,7745395
0,2,0.0,957.0,954.0,0.5625,0.20000002,7745412
0,2,0.0,959.0,947.0,0.5625,0.20000002,7745413
0,2,0.0,962.0,940.0,0.5625,0.20000002,7745430
0,2,0.0,964.0,933.0,0.5625,0.20000002,7745430
0,2,0.0,966.0,926.0,0.5625,0.20000002,7745445
0,2,0.0,968.0,920.0,0.5625,0.20000002,7745445
0,2,0.0,970.0,913.0,0.5625,0.20000002,7745465
0,2,0.0,972.0,907.0,0.5625,0.20000002,7745465
0,2,0.0,974.0,901.0,0.5625,0.20000002,7745481
0,2,0.0,977.0,895.0,0.5625,0.20000002,7745481
0,2,0.0,979.0,889.0,0.5625,0.20000002,7745497
0,2,0.0,981.0,884.0,0.5625,0.20000002,7745497
0,2,0.0,983.0,880.0,0.5625,0.20000002,7745527
0,2,0.0,984.0,876.0,0.5625,0.20000002,7745527
0,2,0.0,986.0,872.0,0.5625,0.20000002,7745540
0,2,0.0,987.0,869.0,0.5625,0.20000002,7745541
0,2,0.0,988.0,866.0,0.5625,0.20000002,7745555
0,2,0.0,989.0,864.0,0.5625,0.20000002,7745555
0,2,0.0,990.0,862.0,0.5625,0.20000002,7745583
0,2,0.0,991.0,860.0,0.5625,0.20000002,7745583
0,2,0.0,993.0,859.0,0.5625,0.20000002,7745583
0,2,0.0,994.0,858.0,0.55,0.20000002,7745583
0,2,0.0,995.0,857.0,0.4625,0.20000002,7745600
0,1,0.0,995.0,857.0,0.4625,0.20000002,7745600
0,0,0.0,910.0,1145.0,0.4,0.20000002,7746311
0,2,0.0,909.0,1144.0,0.4625,0.20000002,7746326
0,2,0.0,907.0,1142.0,0.5375,0.20000002,7746326
0,2,0.0,906.0,1139.0,0.5375,0.20000002,7746327
0,2,0.0,906.0,1134.0,0.5375,0.20000002,7746327
0,2,0.0,906.0,1126.0,0.5375,0.20000002,7746327
0,2,0.0,906.0,1115.0,0.5625,0.20000002,7746327
0,2,0.0,907.0,1108.0,0.5625,0.20000002,7746328
0,2,0.0,907.0,1101.0,0.5625,0.20000002,7746328
0,2,0.0,907.0,1093.0,0.5625,0.20000002,7746344
0,2,0.0,908.0,1085.0,0.5625,0.20000002,7746345
0,2,0.0,909.0,1076.0,0.5625,0.20000002,7746394
0,2,0.0,910.0,1067.0,0.5625,0.20000002,7746394
0,2,0.0,911.0,1057.0,0.5625,0.20000002,7746395
0,2,0.0,912.0,1047.0,0.5625,0.20000002,7746395
0,2,0.0,914.0,1038.0,0.5625,0.20000002,7746395
0,2,0.0,915.0,1028.0,0.5625,0.20000002,7746395
0,2,0.0,917.0,1019.0,0.5625,0.20000002,7746427
0,2,0.0,919.0,1010.0,0.5625,0.20000002,7746427
0,2,0.0,921.0,1001.0,0.5625,0.20000002,7746427
0,2,0.0,923.0,993.0,0.5625,0.20000002,7746427
0,2,0.0,924.0,985.0,0.5625,0.20000002,7746460
0,2,0.0,926.0,978.0,0.5625,0.20000002,7746461
0,2,0.0,928.0,971.0,0.5625,0.20000002,7746461
0,2,0.0,930.0,964.0,0.5625,0.20000002,7746462
0,2,0.0,932.0,958.0,0.5625,0.20000002,7746494
0,2,0.0,934.0,952.0,0.5625,0.20000002,7746495
0,2,0.0,936.0,947.0,0.5625,0.20000002,7746495
0,2,0.0,938.0,942.0,0.5625,0.20000002,7746495
0,2,0.0,941.0,936.0,0.5625,0.20000002,7746512
0,2,0.0,943.0,931.0,0.5625,0.20000002,7746513
0,2,0.0,945.0,926.0,0.5625,0.20000002,7746529
0,2,0.0,947.0,921.0,0.5625,0.20000002,7746530
0,2,0.0,949.0,916.0,0.5625,0.20000002,7746557
0,2,0.0,951.0,911.0,0.5625,0.20000002,7746557
0,2,0.0,953.0,907.0,0.5625,0.20000002,7746572
0,2,0.0,955.0,903.0,0.5625,0.20000002,7746572
0,2,0.0,957.0,899.0,0.5625,0.20000002,7746591
0,2,0.0,959.0,895.0,0.5625,0.20000002,7746659
0,2,0.0,960.0,892.0,0.5625,0.20000002,7746659
0,2,0.0,962.0,888.0,0.5625,0.20000002,7746660
0,2,0.0,963.0,886.0,0.5625,0.20000002,7746660
0,2,0.0,964.0,884.0,0.5625,0.20000002,7746660
0,2,0.0,965.0,882.0,0.5625,0.20000002,7746660
0,2,0.0,966.0,880.0,0.5625,0.20000002,7746661
0,2,0.0,966.0,879.0,0.5375,0.20000002,7746661
0,1,0.0,966.0,879.0,0.5375,0.20000002,7746661
0,0,0.0,911.0,1136.0,0.38750002,0.26666668,7747377
0,2,0.0,910.0,1135.0,0.52500004,0.26666668,7747394
0,2,0.0,910.0,1132.0,0.55,0.20000002,7747394
0,2,0.0,910.0,1125.0,0.55,0.20000002,7747394
0,2,0.0,910.0,1115.0,0.55,0.20000002,7747395
0,2,0.0,910.0,1101.0,0.55,0.20000002,7747395
0,2,0.0,910.0,1093.0,0.55,0.20000002,7747395
0,2,0.0,911.0,1085.0,0.55,0.20000002,7747396
0,2,0.0,912.0,1075.0,0.55,0.20000002,7747413
0,2,0.0,913.0,1065.0,0.55,0.20000002,7747414
0,2,0.0,914.0,1054.0,0.55,0.20000002,7747442
0,2,0.0,916.0,1043.0,0.55,0.20000002,7747442
0,2,0.0,917.0,1033.0,0.55,0.20000002,7747455
0,2,0.0,918.0,1025.0,0.55,0.20000002,7747455
0,2,0.0,919.0,1017.0,0.55,0.20000002,7747469
0,2,0.0,920.0,1008.0,0.55,0.20000002,7747469
0,2,0.0,921.0,1001.0,0.55,0.20000002,7747481
0,2,0.0,922.0,993.0,0.55,0.20000002,7747482
0,2,0.0,923.0,985.0,0.55,0.20000002,7747498
0,2,0.0,924.0,977.0,0.55,0.20000002,7747498
0,2,0.0,925.0,970.0,0.55,0.20000002,7747515
0,2,0.0,926.0,963.0,0.55,0.20000002,7747515
0,2,0.0,927.0,956.0,0.55,0.20000002,7747531
0,2,0.0,928.0,949.0,0.55,0.20000002,7747532
0,2,0.0,929.0,943.0,0.55,0.20000002,7747549
0,2,0.0,930.0,937.0,0.55,0.20000002,7747550
0,2,0.0,930.0,931.0,0.55,0.20000002,7747567
0,2,0.0,930.0,925.0,0.55,0.20000002,7747567
0,2,0.0,931.0,919.0,0.55,0.20000002,7747597
0,2,0.0,932.0,912.0,0.55,0.20000002,7747597
0,2,0.0,933.0,906.0,0.55,0.20000002,7747597
0,2,0.0,934.0,900.0,0.55,0.20000002,7747598
0,2,0.0,935.0,895.0,0.55,0.20000002,7747614
0,2,0.0,936.0,889.0,0.55,0.20000002,7747614
0,2,0.0,937.0,884.0,0.55,0.20000002,7747631
0,2,0.0,938.0,879.0,0.55,0.20000002,7747631
0,2,0.0,939.0,874.0,0.55,0.20000002,7747652
0,2,0.0,940.0,870.0,0.55,0.20000002,7747652
0,2,0.0,941.0,866.0,0.55,0.20000002,7747668
0,2,0.0,942.0,863.0,0.55,0.20000002,7747668
0,2,0.0,944.0,859.0,0.55,0.20000002,7747685
0,2,0.0,945.0,856.0,0.55,0.20000002,7747685
0,2,0.0,947.0,853.0,0.55,0.20000002,7747705
0,2,0.0,948.0,851.0,0.55,0.20000002,7747705
0,2,0.0,949.0,849.0,0.55,0.20000002,7747718
0,2,0.0,950.0,847.0,0.45000002,0.20000002,7747719
0,1,0.0,950.0,847.0,0.45000002,0.20000002,7747755
0,0,0.0,904.0,1159.0,0.3,0.20000002,7748413
0,2,0.0,904.0,1157.0,0.4625,0.20000002,7748429
0,2,0.0,904.0,1154.0,0.5125,0.20000002,7748429
0,2,0.0,904.0,1150.0,0.5375,0.20000002,7748429
0,2,0.0,904.0,1143.0,0.5375,0.20000002,7748430
0,2,0.0,904.0,1134.0,0.5375,0.20000002,7748430
0,2,0.0,905.0,1127.0,0.5375,0.20000002,7748430
0,2,0.0,906.0,1119.0,0.5375,0.20000002,7748431
0,2,0.0,907.0,1111.0,0.5375,0.20000002,7748447
0,2,0.0,908.0,1103.0,0.5375,0.20000002,7748447
0,2,0.0,909.0,1095.0,0.5375,0.20000002,7748464
0,2,0.0,910.0,1087.0,0.5375,0.20000002,7748464
0,2,0.0,912.0,1078.0,0.5375,0.20000002,7748480
0,2,0.0,914.0,1069.0,0.5375,0.20000002,7748481
0,2,0.0,916.0,1059.0,0.55,0.20000002,7748497
0,2,0.0,918.0,1049.0,0.55,0.20000002,7748498
0,2,0.0,920.0,1038.0,0.55,0.20000002,7748513
0,2,0.0,922.0,1029.0,0.55,0.20000002,7748514
0,2,0.0,924.0,1020.0,0.55,0.20000002,7748530
0,2,0.0,926.0,1010.0,0.55,0.20000002,7748531
0,2,0.0,929.0,999.0,0.55,0.20000002,7748547
0,2,0.0,931.0,988.0,0.55,0.20000002,7748548
0,2,0.0,933.0,978.0,0.55,0.20000002,7748565
0,2,0.0,935.0,967.0,0.55,0.20000002,7748565
0,2,0.0,937.0,958.0,0.55,0.20000002,7748592
0,2,0.0,939.0,950.0,0.55,0.20000002,7748592
0,2,0.0,941.0,942.0,0.55,0.20000002,7748612
0,2,0.0,943.0,934.0,0.55,0.20000002,7748613
0,2,0.0,945.0,927.0,0.55,0.20000002,7748624
0,2,0.0,946.0,920.0,0.55,0.20000002,7748624
0,2,0.0,947.0,912.0,0.55,0.20000002,7748636
0,2,0.0,948.0,905.0,0.55,0.20000002,7748636
0,2,0.0,949.0,899.0,0.55,0.20000002,7748650
0,2,0.0,950.0,892.0,0.55,0.20000002,7748650
0,2,0.0,951.0,886.0,0.55,0.20000002,7748666
0,2,0.0,952.0,881.0,0.55,0.20000002,7748666
0,2,0.0,953.0,876.0,0.55,0.20000002,7748687
0,2,0.0,954.0,871.0,0.55,0.20000002,7748687
0,2,0.0,955.0,867.0,0.55,0.20000002,7748702
0,2,0.0,956.0,863.0,0.55,0.20000002,7748702
0,2,0.0,957.0,860.0,0.55,0.20000002,7748718
0,2,0.0,958.0,858.0,0.55,0.20000002,7748718
0,2,0.0,958.0,856.0,0.55,0.20000002,7748746
0,2,0.0,958.0,855.0,0.55,0.20000002,7748747
0,2,0.0,958.0,854.0,0.55,0.20000002,7748759
0,2,0.0,958.0,853.0,0.4875,0.20000002,7748759
0,1,0.0,958.0,853.0,0.4875,0.20000002,7748771
0,0,0.0,912.0,1148.0,0.4125,0.20000002,7749464
0,2,0.0,912.0,1147.0,0.5375,0.20000002,7749480
0,2,0.0,912.0,1145.0,0.5375,0.20000002,7749480
0,2,0.0,912.0,1142.0,0.5375,0.20000002,7749480
0,2,0.0,913.0,1138.0,0.5375,0.20000002,7749481
0,2,0.0,915.0,1130.0,0.5375,0.20000002,7749481
0,2,0.0,917.0,1119.0,0.5375,0.20000002,7749481
0,2,0.0,918.0,1113.0,0.5375,0.20000002,7749482
0,2,0.0,919.0,1107.0,0.5375,0.20000002,7749482
0,2,0.0,921.0,1100.0,0.5375,0.20000002,7749514
0,2,0.0,923.0,1093.0,0.5375,0.20000002,7749514
0,2,0.0,924.0,1087.0,0.5375,0.20000002,7749515
0,2,0.0,926.0,1080.0,0.5375,0.20000002,7749515
0,2,0.0,928.0,1073.0,0.55,0.20000002,7749548
0,2,0.0,929.0,1066.0,0.55,0.20000002,7749548
0,2,0.0,930.0,1059.0,0.55,0.20000002,7749549
0,2,0.0,931.0,1052.0,0.55,0.20000002,7749549
0,2,0.0,933.0,1045.0,0.55,0.20000002,7749598
0,2,0.0,934.0,1037.0,0.55,0.20000002,7749598
0,2,0.0,935.0,1030.0,0.55,0.20000002,7749598
0,2,0.0,937.0,1023.0,0.55,0.20000002,7749599
0,2,0.0,938.0,1016.0,0.55,0.20000002,7749599
0,2,0.0,940.0,1009.0,0.55,0.20000002,7749599
0,2,0.0,942.0,1002.0,0.55,0.20000002,7749632
0,2,0.0,944.0,994.0,0.55,0.20000002,7749633
0,2,0.0,946.0,986.0,0.55,0.20000002,7749633
0,2,0.0,948.0,977.0,0.55,0.20000002,7749633
0,2,0.0,949.0,968.0,0.55,0.20000002,7749666
0,2,0.0,951.0,959.0,0.55,0.20000002,7749666
0,2,0.0,952.0,951.0,0.55,0.20000002,7749667
0,2,0.0,953.0,943.0,0.55,0.20000002,7749667
0,2,0.0,955.0,936.0,0.575,0.20000002,7749683
0,2,0.0,957.0,928.0,0.575,0.20000002,7749683
0,2,0.0,959.0,920.0,0.575,0.20000002,7749700
0,2,0.0,961.0,912.0,0.575,0.20000002,7749700
0,2,0.0,962.0,904.0,0.575,0.20000002,7749717
0,2,0.0,964.0,896.0,0.575,0.20000002,7749718
0,2,0.0,966.0,889.0,0.575,0.20000002,7749734
0,2,0.0,968.0,882.0,0.575,0.20000002,7749735
0,2,0.0,969.0,877.0,0.575,0.20000002,7749765
0,2,0.0,971.0,872.0,0.575,0.20000002,7749765
0,2,0.0,972.0,867.0,0.575,0.20000002,7749779
0,2,0.0,974.0,863.0,0.575,0.20000002,7749780
0,2,0.0,975.0,859.0,0.575,0.20000002,7749797
0,2,0.0,976.0,856.0,0.575,0.20000002,7749797
0,2,0.0,977.0,853.0,0.575,0.20000002,7749818
0,2,0.0,978.0,851.0,0.575,0.20000002,7749821
0,2,0.0,979.0,849.0,0.575,0.20000002,7749822
0,2,0.0,980.0,847.0,0.575,0.20000002,7749822
0,2,0.0,982.0,845.0,0.55,0.20000002,7749836
0,2,0.0,983.0,844.0,0.4375,0.20000002,7749837
0,1,0.0,983.0,844.0,0.4375,0.20000002,7749861
0,0,0.0,907.0,1146.0,0.4125,0.20000002,7750514
0,2,0.0,905.0,1143.0,0.5375,0.20000002,7750531
0,2,0.0,904.0,1138.0,0.5375,0.20000002,7750532
0,2,0.0,904.0,1131.0,0.5375,0.20000002,7750532
0,2,0.0,904.0,1120.0,0.5375,0.20000002,7750532
0,2,0.0,904.0,1112.0,0.5375,0.20000002,7750534
0,2,0.0,904.0,1104.0,0.5375,0.20000002,7750534
0,2,0.0,904.0,1096.0,0.5375,0.20000002,7750549
0,2,0.0,905.0,1087.0,0.55,0.20000002,7750549
0,2,0.0,906.0,1078.0,0.55,0.20000002,7750566
0,2,0.0,907.0,1068.0,0.55,0.20000002,7750568
0,2,0.0,908.0,1058.0,0.55,0.20000002,7750586
0,2,0.0,909.0,1047.0,0.55,0.20000002,7750586
0,2,0.0,909.0,1036.0,0.55,0.20000002,7750602
0,2,0.0,910.0,1026.0,0.55,0.20000002,7750612
0,2,0.0,911.0,1016.0,0.55,0.20000002,7750625
0,2,0.0,912.0,1005.0,0.55,0.20000002,7750625
0,2,0.0,913.0,995.0,0.55,0.20000002,7750638
0,2,0.0,914.0,983.0,0.55,0.20000002,7750638
0,2,0.0,915.0,973.0,0.55,0.20000002,7750653
0,2,0.0,916.0,962.0,0.55,0.20000002,7750653
0,2,0.0,917.0,953.0,0.55,0.20000002,7750668
0,2,0.0,919.0,943.0,0.55,0.20000002,7750668
0,2,0.0,920.0,933.0,0.575,0.20000002,7750687
0,2,0.0,921.0,924.0,0.575,0.20000002,7750687
0,2,0.0,922.0,915.0,0.575,0.20000002,7750703
0,2,0.0,923.0,907.0,0.575,0.20000002,7750704
0,2,0.0,924.0,899.0,0.575,0.20000002,7750720
0,2,0.0,926.0,892.0,0.575,0.20000002,7750721
0,2,0.0,927.0,885.0,0.575,0.20000002,7750737
0,2,0.0,928.0,878.0,0.575,0.20000002,7750737
0,2,0.0,929.0,872.0,0.575,0.20000002,7750754
0,2,0.0,930.0,867.0,0.575,0.20000002,7750754
0,2,0.0,931.0,862.0,0.575,0.20000002,7750770
0,2,0.0,932.0,858.0,0.575,0.20000002,7750771
0,2,0.0,933.0,854.0,0.575,0.20000002,7750788
0,2,0.0,934.0,851.0,0.575,0.20000002,7750788
0,2,0.0,935.0,848.0,0.575,0.20000002,7750805
0,2,0.0,935.0,846.0,0.575,0.20000002,7750805
0,2,0.0,935.0,844.0,0.575,0.20000002,7750826
0,2,0.0,935.0,843.0,0.55,0.20000002,7750826
0,2,0.0,935.0,842.0,0.4625,0.20000002,7750840
0,1,0.0,935.0,842.0,0.4625,0.20000002,7750840
0,0,0.0,903.0,1156.0,0.4125,0.20000002,7751561
0,2,0.0,903.0,1154.0,0.52500004,0.20000002,7751566
0,2,0.0,903.0,1151.0,0.5375,0.20000002,7751566
0,2,0.0,903.0,1145.0,0.5375,0.20000002,7751567
0,2,0.0,904.0,1136.0,0.5375,0.20000002,7751567
0,2,0.0,907.0,1121.0,0.5375,0.20000002,7751567
0,2,0.0,909.0,1112.0,0.5375,0.20000002,7751568
0,2,0.0,911.0,1102.0,0.5375,0.20000002,7751568
0,2,0.0,913.0,1093.0,0.5375,0.20000002,7751603
0,2,0.0,915.0,1082.0,0.5375,0.20000002,7751609
0,2,0.0,917.0,1070.0,0.55,0.20000002,7751609
0,2,0.0,919.0,1058.0,0.55,0.20000002,7751610
0,2,0.0,921.0,1046.0,0.55,0.20000002,7751617
0,2,0.0,923.0,1034.0,0.55,0.20000002,7751617
0,2,0.0,925.0,1024.0,0.55,0.20000002,7751651
0,2,0.0,927.0,1013.0,0.55,0.20000002,7751651
0,2,0.0,929.0,1001.0,0.55,0.20000002,7751651
0,2,0.0,931.0,990.0,0.55,0.20000002,7751652
0,2,0.0,932.0,979.0,0.55,0.20000002,7751684
0,2,0.0,934.0,969.0,0.55,0.20000002,7751684
0,2,0.0,936.0,959.0,0.55,0.20000002,7751684
0,2,0.0,937.0,950.0,0.55,0.20000002,7751685
0,2,0.0,939.0,940.0,0.55,0.20000002,7751718
0,2,0.0,941.0,930.0,0.55,0.20000002,7751718
0,2,0.0,943.0,921.0,0.55,0.20000002,7751718
0,2,0.0,946.0,912.0,0.55,0.20000002,7751719
0,2,0.0,949.0,903.0,0.55,0.20000002,7751752
0,2,0.0,952.0,894.0,0.55,0.20000002,7751752
0,2,0.0,955.0,886.0,0.55,0.20000002,7751752
0,2,0.0,957.0,880.0,0.55,0.20000002,7751753
0,2,0.0,959.0,874.0,0.55,0.20000002,7751786
0,2,0.0,961.0,869.0,0.55,0.20000002,7751786
0,2,0.0,963.0,865.0,0.55,0.20000002,7751786
0,2,0.0,964.0,861.0,0.55,0.20000002,7751786
0,2,0.0,965.0,858.0,0.55,0.20000002,7751820
0,2,0.0,966.0,855.0,0.55,0.20000002,7751820
0,2,0.0,967.0,853.0,0.55,0.20000002,7751820
0,2,0.0,968.0,851.0,0.55,0.20000002,7751820
0,2,0.0,969.0,849.0,0.55,0.20000002,7751837
0,2,0.0,969.0,848.0,0.55,0.20000002,7751837
0,2,0.0,969.0,847.0,0.55,0.20000002,7751854
0,2,0.0,969.0,846.0,0.55,0.20000002,7751854
0,1,0.0,969.0,846.0,0.55,0.20000002,7751887
0,0,0.0,919.0,1149.0,0.4125,0.20000002,7752498
0,2,0.0,919.0,1148.0,0.475,0.20000002,7752515
0,2,0.0,919.0,1146.0,0.5375,0.20000002,7752516
0,2,0.0,919.0,1143.0,0.5375,0.20000002,7752516
0,2,0.0,919.0,1138.0,0.5375,0.20000002,7752516
0,2,0.0,920.0,1129.0,0.5375,0.20000002,7752517
0,2,0.0,922.0,1116.0,0.5375,0.20000002,7752517
0,2,0.0,923.0,1108.0,0.5375,0.20000002,7752517
0,2,0.0,924.0,1099.0,0.5375,0.20000002,7752518
0,2,0.0,926.0,1090.0,0.5375,0.20000002,7752533
0,2,0.0,928.0,1079.0,0.55,0.20000002,7752533
0,2,0.0,930.0,1067.0,0.55,0.20000002,7752568
0,2,0.0,932.0,1055.0,0.55,0.20000002,7752568
0,2,0.0,935.0,1043.0,0.55,0.20000002,7752569
0,2,0.0,938.0,1031.0,0.55,0.20000002,7752569
0,2,0.0,941.0,1020.0,0.55,0.20000002,7752584
0,2,0.0,944.0,1010.0,0.55,0.20000002,7752584
0,2,0.0,946.0,998.0,0.55,0.20000002,7752601
0,2,0.0,949.0,986.0,0.55,0.20000002,7752601
0,2,0.0,952.0,974.0,0.55,0.20000002,7752618
0,2,0.0,955.0,962.0,0.55,0.20000002,7752618
0,2,0.0,957.0,951.0,0.55,0.20000002,7752637
0,2,0.0,959.0,940.0,0.55,0.20000002,7752637
0,2,0.0,961.0,930.0,0.55,0.20000002,7752654
0,2,0.0,963.0,919.0,0.55,0.20000002,7752659
0,2,0.0,965.0,908.0,0.55,0.20000002,7752675
0,2,0.0,966.0,898.0,0.55,0.20000002,7752675
0,2,0.0,968.0,888.0,0.55,0.20000002,7752702
0,2,0.0,970.0,880.0,0.55,0.20000002,7752702
0,2,0.0,971.0,872.0,0.55,0.20000002,7752702
0,2,0.0,972.0,865.0,0.55,0.20000002,7752703
0,2,0.0,973.0,857.0,0.55,0.20000002,7752719
0,2,0.0,975.0,850.0,0.55,0.20000002,7752719
0,2,0.0,976.0,845.0,0.55,0.20000002,7752736
0,2,0.0,977.0,840.0,0.55,0.20000002,7752736
0,2,0.0,978.0,836.0,0.55,0.20000002,7752756
0,2,0.0,979.0,832.0,0.55,0.20000002,7752756
0,2,0.0,980.0,829.0,0.55,0.20000002,7752773
0,2,0.0,981.0,826.0,0.55,0.20000002,7752773
0,2,0.0,982.0,824.0,0.55,0.20000002,7752788
0,2,0.0,983.0,822.0,0.55,0.20000002,7752789
0,2,0.0,984.0,821.0,0.55,0.20000002,7752807
0,2,0.0,984.0,820.0,0.55,0.20000002,7752807
0,2,0.0,984.0,819.0,0.4125,0.20000002,7752824
0,1,0.0,984.0,819.0,0.4125,0.20000002,7752824
0,0,0.0,933.0,1139.0,0.5125,0.26666668,7753466
0,2,0.0,933.0,1137.0,0.5375,0.26666668,7753482
0,2,0.0,933.0,1134.0,0.5375,0.26666668,7753483
0,2,0.0,933.0,1129.0,0.5375,0.26666668,7753483
0,2,0.0,934.0,1120.0,0.5375,0.26666668,7753483
0,2,0.0,936.0,1107.0,0.5375,0.26666668,7753484
0,2,0.0,937.0,1100.0,0.5375,0.26666668,7753485
0,2,0.0,938.0,1093.0,0.5375,0.26666668,7753485
0,2,0.0,939.0,1085.0,0.5375,0.26666668,7753499
0,2,0.0,941.0,1077.0,0.5375,0.26666668,7753499
0,2,0.0,943.0,1067.0,0.5625,0.26666668,7753516
0,2,0.0,945.0,1057.0,0.5625,0.26666668,7753516
0,2,0.0,947.0,1046.0,0.5625,0.26666668,7753567
0,2,0.0,949.0,1036.0,0.5625,0.26666668,7753567
0,2,0.0,950.0,1026.0,0.5625,0.26666668,7753567
0,2,0.0,952.0,1015.0,0.5625,0.26666668,7753568
0,2,0.0,954.0,1004.0,0.5625,0.26666668,7753568
0,2,0.0,956.0,993.0,0.5625,0.26666668,7753568
0,2,0.0,958.0,982.0,0.5625,0.26666668,7753600
0,2,0.0,960.0,972.0,0.5625,0.26666668,7753600
0,2,0.0,962.0,962.0,0.5625,0.26666668,7753601
0,2,0.0,964.0,953.0,0.5625,0.26666668,7753602
0,2,0.0,966.0,945.0,0.5625,0.26666668,7753650
0,2,0.0,968.0,937.0,0.5625,0.26666668,7753651
0,2,0.0,970.0,930.0,0.5625,0.26666668,7753651
0,2,0.0,972.0,922.0,0.5625,0.26666668,7753651
0,2,0.0,974.0,915.0,0.5625,0.26666668,7753652
0,2,0.0,976.0,909.0,0.5625,0.26666668,7753652
0,2,0.0,978.0,903.0,0.5625,0.26666668,7753684
0,2,0.0,979.0,898.0,0.5625,0.26666668,7753684
0,2,0.0,980.0,894.0,0.5625,0.26666668,7753685
0,2,0.0,981.0,890.0,0.5625,0.26666668,7753685
0,2,0.0,982.0,887.0,0.5625,0.26666668,7753718
0,2,0.0,983.0,884.0,0.5625,0.26666668,7753718
0,2,0.0,984.0,881.0,0.5625,0.26666668,7753719
0,2,0.0,985.0,879.0,0.5625,0.26666668,7753719
0,2,0.0,986.0,877.0,0.5625,0.26666668,7753752
0,2,0.0,987.0,875.0,0.5625,0.26666668,7753752
0,2,0.0,988.0,873.0,0.5375,0.20000002,7753753
0,2,0.0,989.0,871.0,0.4375,0.20000002,7753753
0,1,0.0,989.0,871.0,0.4375,0.20000002,7753784
0,0,0.0,948.0,1135.0,0.475,0.26666668,7754414
0,2,0.0,947.0,1134.0,0.52500004,0.26666668,7754431
0,2,0.0,947.0,1131.0,0.5375,0.26666668,7754431
0,2,0.0,947.0,1126.0,0.5375,0.20000002,7754434
0,2,0.0,947.0,1117.0,0.5375,0.20000002,7754434
0,2,0.0,949.0,1102.0,0.5375,0.20000002,7754434
0,2,0.0,950.0,1094.0,0.5375,0.20000002,7754434
0,2,0.0,951.0,1085.0,0.5375,0.20000002,7754434
0,2,0.0,953.0,1074.0,0.5375,0.20000002,7754448
0,2,0.0,955.0,1063.0,0.5375,0.20000002,7754448
0,2,0.0,957.0,1052.0,0.5625,0.20000002,7754467
0,2,0.0,959.0,1040.0,0.5625,0.20000002,7754467
0,2,0.0,961.0,1030.0,0.5625,0.20000002,7754481
0,2,0.0,962.0,1020.0,0.5625,0.20000002,7754482
0,2,0.0,964.0,1011.0,0.5625,0.20000002,7754501
0,2,0.0,965.0,1002.0,0.5625,0.20000002,7754514
0,2,0.0,967.0,994.0,0.5625,0.20000002,7754526
0,2,0.0,969.0,985.0,0.5625,0.20000002,7754526
0,2,0.0,971.0,976.0,0.5625,0.20000002,7754538
0,2,0.0,972.0,967.0,0.5625,0.20000002,7754538
0,2,0.0,974.0,959.0,0.5625,0.20000002,7754551
0,2,0.0,976.0,951.0,0.5625,0.20000002,7754552
0,2,0.0,978.0,944.0,0.5625,0.20000002,7754569
0,2,0.0,980.0,936.0,0.5625,0.20000002,7754570
0,2,0.0,982.0,929.0,0.5625,0.20000002,7754585
0,2,0.0,984.0,922.0,0.5625,0.20000002,7754585
0,2,0.0,986.0,915.0,0.5625,0.20000002,7754603
0,2,0.0,988.0,908.0,0.5625,0.20000002,7754603
0,2,0.0,989.0,903.0,0.5625,0.20000002,7754620
0,2,0.0,990.0,898.0,0.5625,0.20000002,7754620
0,2,0.0,991.0,893.0,0.5625,0.20000002,7754636
0,2,0.0,992.0,889.0,0.5625,0.20000002,7754636
0,2,0.0,993.0,885.0,0.5625,0.20000002,7754654
0,2,0.0,994.0,882.0,0.5625,0.20000002,7754655
0,2,0.0,994.0,880.0,0.5625,0.20000002,7754671
0,2,0.0,994.0,878.0,0.5625,0.20000002,7754671
0,2,0.0,994.0,876.0,0.5625,0.20000002,7754687
0,2,0.0,994.0,875.0,0.5625,0.20000002,7754687
0,2,0.0,994.0,874.0,0.52500004,0.20000002,7754705
0,1,0.0,994.0,874.0,0.52500004,0.20000002,7754705
0,0,0.0,941.0,1154.0,0.4625,0.26666668,7755296
0,2,0.0,939.0,1152.0,0.52500004,0.26666668,7755312
0,2,0.0,939.0,1148.0,0.55,0.26666668,7755313
0,2,0.0,939.0,1141.0,0.55,0.26666668,7755314
0,2,0.0,940.0,1130.0,0.55,0.26666668,7755314
0,2,0.0,941.0,1122.0,0.55,0.26666668,7755314
0,2,0.0,942.0,1113.0,0.55,0.26666668,7755314
0,2,0.0,944.0,1103.0,0.55,0.26666668,7755340
0,2,0.0,946.0,1093.0,0.55,0.26666668,7755340
0,2,0.0,948.0,1083.0,0.55,0.26666668,7755359
0,2,0.0,950.0,1072.0,0.55,0.26666668,7755360
0,2,0.0,952.0,1060.0,0.55,0.26666668,7755379
0,2,0.0,954.0,1048.0,0.55,0.26666668,7755379
0,2,0.0,956.0,1037.0,0.55,0.26666668,7755391
0,2,0.0,958.0,1027.0,0.55,0.26666668,7755391
0,2,0.0,960.0,1017.0,0.55,0.26666668,7755403
0,2,0.0,962.0,1007.0,0.55,0.26666668,7755404
0,2,0.0,964.0,997.0,0.55,0.26666668,7755415
0,2,0.0,966.0,986.0,0.55,0.26666668,7755415
0,2,0.0,968.0,976.0,0.55,0.26666668,7755434
0,2,0.0,970.0,966.0,0.55,0.26666668,7755434
0,2,0.0,972.0,957.0,0.55,0.26666668,7755451
0,2,0.0,974.0,948.0,0.55,0.26666668,7755451
0,2,0.0,976.0,940.0,0.55,0.26666668,7755466
0,2,0.0,978.0,933.0,0.55,0.26666668,7755466
0,2,0.0,980.0,926.0,0.55,0.26666668,7755485
0,2,0.0,981.0,919.0,0.55,0.26666668,7755485
0,2,0.0,982.0,913.0,0.55,0.26666668,7755501
0,2,0.0,983.0,907.0,0.55,0.26666668,7755501
0,2,0.0,984.0,902.0,0.55,0.26666668,7755517
0,2,0.0,985.0,897.0,0.55,0.26666668,7755517
0,2,0.0,986.0,893.0,0.55,0.26666668,7755535
0,2,0.0,987.0,889.0,0.55,0.26666668,7755535
0,2,0.0,988.0,885.0,0.55,0.26666668,7755552
0,2,0.0,988.0,882.0,0.55,0.26666668,7755552
0,2,0.0,989.0,879.0,0.55,0.26666668,7755568
0,2,0.0,989.0,877.0,0.55,0.26666668,7755568
0,2,0.0,989.0,875.0,0.55,0.26666668,7755599
0,2,0.0,989.0,873.0,0.55,0.26666668,7755599
0,2,0.0,989.0,872.0,0.55,0.26666668,7755611
0,2,0.0,989.0,871.0,0.55,0.26666668,7755611
0,2,0.0,990.0,870.0,0.55,0.20000002,7755624
0,2,0.0,991.0,869.0,0.475,0.20000002,7755624
0,1,0.0,991.0,869.0,0.475,0.20000002,7755637
0,0,0.0,955.0,1153.0,0.45000002,0.20000002,7756264
0,2,0.0,953.0,1151.0,0.5375,0.20000002,7756280
0,2,0.0,952.0,1148.0,0.5375,0.20000002,7756280
0,2,0.0,952.0,1143.0,0.5375,0.20000002,7756280
0,2,0.0,952.0,1134.0,0.5375,0.20000002,7756280
0,2,0.0,952.0,1119.0,0.55,0.20000002,7756280
0,2,0.0,952.0,1110.0,0.55,0.20000002,7756281
0,2,0.0,952.0,1100.0,0.55,0.20000002,7756282
0,2,0.0,953.0,1090.0,0.55,0.20000002,7756297
0,2,0.0,954.0,1079.0,0.55,0.20000002,7756297
0,2,0.0,955.0,1066.0,0.55,0.20000002,7756316
0,2,0.0,956.0,1053.0,0.55,0.20000002,7756316
0,2,0.0,957.0,1040.0,0.55,0.20000002,7756331
0,2,0.0,958.0,1028.0,0.55,0.20000002,7756331
0,2,0.0,959.0,1017.0,0.55,0.20000002,7756349
0,2,0.0,960.0,1005.0,0.55,0.20000002,7756349
0,2,0.0,961.0,993.0,0.55,0.20000002,7756366
0,2,0.0,962.0,981.0,0.55,0.20000002,7756366
0,2,0.0,963.0,970.0,0.55,0.20000002,7756390
0,2,0.0,964.0,959.0,0.55,0.20000002,7756391
0,2,0.0,966.0,949.0,0.55,0.20000002,7756409
0,2,0.0,968.0,939.0,0.55,0.20000002,7756409
0,2,0.0,970.0,929.0,0.55,0.20000002,7756436
0,2,0.0,972.0,919.0,0.55,0.20000002,7756436
0,2,0.0,975.0,908.0,0.55,0.20000002,7756436
0,2,0.0,977.0,898.0,0.55,0.20000002,7756437
0,2,0.0,979.0,890.0,0.55,0.20000002,7756451
0,2,0.0,981.0,883.0,0.55,0.20000002,7756451
0,2,0.0,983.0,876.0,0.55,0.20000002,7756466
0,2,0.0,985.0,870.0,0.55,0.20000002,7756467
0,2,0.0,986.0,865.0,0.55,0.20000002,7756485
0,2,0.0,987.0,860.0,0.55,0.20000002,7756485
0,2,0.0,988.0,856.0,0.55,0.20000002,7756501
0,2,0.0,989.0,852.0,0.55,0.20000002,7756501
0,2,0.0,990.0,849.0,0.55,0.20000002,7756519
0,2,0.0,991.0,847.0,0.55,0.20000002,7756520
0,2,0.0,992.0,845.0,0.55,0.20000002,7756536
0,2,0.0,993.0,843.0,0.55,0.20000002,7756536
0,2,0.0,994.0,842.0,0.4375,0.20000002,7756551
0,1,0.0,994.0,842.0,0.4375,0.20000002,7756552
0,0,0.0,951.0,1153.0,0.4125,0.20000002,7757196
0,2,0.0,950.0,1152.0,0.475,0.20000002,7757212
0,2,0.0,948.0,1150.0,0.5125,0.20000002,7757212
0,2,0.0,947.0,1147.0,0.5375,0.20000002,7757213
0,2,0.0,946.0,1143.0,0.5375,0.20000002,7757214
0,2,0.0,946.0,1136.0,0.5375,0.20000002,7757214
0,2,0.0,946.0,1125.0,0.5375,0.20000002,7757214
0,2,0.0,946.0,1118.0,0.5375,0.20000002,7757215
0,2,0.0,946.0,1111.0,0.5375,0.20000002,7757216
0,2,0.0,946.0,1103.0,0.5375,0.20000002,7757229
0,2,0.0,946.0,1095.0,0.5375,0.20000002,7757230
0,2,0.0,947.0,1086.0,0.5375,0.20000002,7757248
0,2,0.0,948.0,1077.0,0.5375,0.20000002,7757248
0,2,0.0,949.0,1068.0,0.55,0.20000002,7757263
0,2,0.0,950.0,1057.0,0.55,0.20000002,7757263
0,2,0.0,951.0,1047.0,0.55,0.20000002,7757280
0,2,0.0,953.0,1037.0,0.55,0.20000002,7757280
0,2,0.0,955.0,1027.0,0.55,0.20000002,7757313
0,2,0.0,957.0,1017.0,0.55,0.20000002,7757313
0,2,0.0,959.0,1006.0,0.55,0.20000002,7757314
0,2,0.0,961.0,996.0,0.55,0.20000002,7757314
0,2,0.0,963.0,986.0,0.55,0.20000002,7757347
0,2,0.0,965.0,975.0,0.55,0.20000002,7757347
0,2,0.0,967.0,965.0,0.55,0.20000002,7757347
0,2,0.0,968.0,956.0,0.55,0.20000002,7757348
0,2,0.0,970.0,948.0,0.55,0.20000002,7757380
0,2,0.0,972.0,939.0,0.55,0.20000002,7757381
0,2,0.0,974.0,930.0,0.55,0.20000002,7757381
0,2,0.0,977.0,922.0,0.55,0.20000002,7757381
0,2,0.0,980.0,913.0,0.55,0.20000002,7757414
0,2,0.0,983.0,903.0,0.55,0.20000002,7757415
0,2,0.0,986.0,894.0,0.55,0.20000002,7757415
0,2,0.0,989.0,885.0,0.55,0.20000002,7757415
0,2,0.0,992.0,877.0,0.55,0.20000002,7757448
0,2,0.0,995.0,870.0,0.5625,0.26666668,7757449
0,2,0.0,997.0,863.0,0.575,0.26666668,7757449
0,2,0.0,999.0,857.0,0.575,0.26666668,7757449
0,2,0.0,1001.0,852.0,0.575,0.26666668,7757482
0,2,0.0,1002.0,847.0,0.575,0.26666668,7757483
0,2,0.0,1003.0,843.0,0.575,0.26666668,7757483
0,2,0.0,1004.0,840.0,0.575,0.26666668,7757483
0,2,0.0,1005.0,837.0,0.5625,0.26666668,7757516
0,2,0.0,1006.0,835.0,0.5625,0.26666668,7757517
0,2,0.0,1007.0,833.0,0.5625,0.26666668,7757517
0,2,0.0,1009.0,832.0,0.55,0.26666668,7757517
0,2,0.0,1011.0,831.0,0.4875,0.26666668,7757550
0,2,0.0,1012.0,830.0,0.2,0.20000002,7757550
0,1,0.0,1012.0,830.0,0.2,0.20000002,7757551
0,0,0.0,940.0,1157.0,0.475,0.26666668,7758178
0,2,0.0,940.0,1156.0,0.52500004,0.26666668,7758194
0,2,0.0,940.0,1154.0,0.5375,0.26666668,7758195
0,2,0.0,940.0,1151.0,0.5375,0.26666668,7758195
0,2,0.0,940.0,1146.0,0.5375,0.26666668,7758195
0,2,0.0,941.0,1139.0,0.5375,0.26666668,7758195
0,2,0.0,944.0,1126.0,0.5625,0.26666668,7758195
0,2,0.0,946.0,1118.0,0.5625,0.26666668,7758196
0,2,0.0,948.0,1109.0,0.5625,0.26666668,7758196
0,2,0.0,950.0,1100.0,0.5625,0.26666668,7758229
0,2,0.0,951.0,1091.0,0.5625,0.26666668,7758229
0,2,0.0,953.0,1082.0,0.5625,0.26666668,7758229
0,2,0.0,954.0,1072.0,0.5625,0.26666668,7758230
0,2,0.0,955.0,1061.0,0.5625,0.26666668,7758263
0,2,0.0,956.0,1051.0,0.5625,0.26666668,7758263
0,2,0.0,957.0,1040.0,0.5625,0.26666668,7758263
0,2,0.0,958.0,1030.0,0.5625,0.26666668,7758264
0,2,0.0,959.0,1020.0,0.5625,0.26666668,7758297
0,2,0.0,960.0,1009.0,0.5625,0.26666668,7758297
0,2,0.0,961.0,997.0,0.5625,0.26666668,7758298
0,2,0.0,962.0,985.0,0.5625,0.26666668,7758298
0,2,0.0,963.0,972.0,0.5625,0.26666668,7758313
0,2,0.0,964.0,961.0,0.5625,0.26666668,7758313
0,2,0.0,966.0,951.0,0.5625,0.26666668,7758330
0,2,0.0,968.0,941.0,0.5625,0.26666668,7758330
0,2,0.0,970.0,933.0,0.5625,0.26666668,7758347
0,2,0.0,972.0,924.0,0.5625,0.26666668,7758347
0,2,0.0,974.0,915.0,0.5625,0.26666668,7758364
0,2,0.0,976.0,907.0,0.5625,0.26666668,7758364
0,2,0.0,978.0,900.0,0.5625,0.26666668,7758381
0,2,0.0,979.0,894.0,0.5625,0.26666668,7758381
0,2,0.0,980.0,889.0,0.5625,0.26666668,7758410
0,2,0.0,982.0,884.0,0.5625,0.26666668,7758410
0,2,0.0,983.0,880.0,0.5625,0.26666668,7758424
0,2,0.0,984.0,876.0,0.5625,0.26666668,7758424
0,2,0.0,985.0,873.0,0.5625,0.26666668,7758438
0,2,0.0,986.0,871.0,0.5625,0.26666668,7758438
0,2,0.0,987.0,869.0,0.5625,0.26666668,7758452
0,2,0.0,987.0,867.0,0.5625,0.26666668,7758452
0,2,0.0,987.0,866.0,0.5625,0.26666668,7758469
0,2,0.0,988.0,865.0,0.5625,0.26666668,7758469
0,2,0.0,989.0,864.0,0.5625,0.26666668,7758486
0,2,0.0,990.0,864.0,0.52500004,0.20000002,7758486
0,2,0.0,991.0,864.0,0.425,0.20000002,7758502
0,1,0.0,991.0,864.0,0.425,0.20000002,7758503
0,0,0.0,943.0,1185.0,0.5125,0.26666668,7759178
0,2,0.0,941.0,1183.0,0.5375,0.26666668,7759194
0,2,0.0,941.0,1179.0,0.5375,0.26666668,7759195
0,2,0.0,941.0,1174.0,0.5375,0.26666668,7759195
0,2,0.0,941.0,1167.0,0.5375,0.26666668,7759195
0,2,0.0,941.0,1158.0,0.5375,0.26666668,7759195
0,2,0.0,941.0,1153.0,0.5375,0.26666668,7759195
0,2,0.0,941.0,1147.0,0.5375,0.26666668,7759196
0,2,0.0,942.0,1140.0,0.5625,0.26666668,7759214
0,2,0.0,943.0,1132.0,0.5625,0.26666668,7759214
0,2,0.0,944.0,1123.0,0.5625,0.26666668,7759229
0,2,0.0,946.0,1114.0,0.5625,0.26666668,7759229
0,2,0.0,948.0,1105.0,0.5625,0.26666668,7759246
0,2,0.0,950.0,1096.0,0.5625,0.26666668,7759246
0,2,0.0,952.0,1086.0,0.5625,0.26666668,7759273
0,2,0.0,955.0,1075.0,0.5625,0.26666668,7759274
0,2,0.0,958.0,1063.0,0.5625,0.26666668,7759288
0,2,0.0,960.0,1052.0,0.5625,0.26666668,7759288
0,2,0.0,963.0,1041.0,0.5625,0.26666668,7759304
0,2,0.0,965.0,1031.0,0.5625,0.26666668,7759304
0,2,0.0,968.0,1022.0,0.5625,0.26666668,7759319
0,2,0.0,970.0,1013.0,0.5625,0.26666668,7759319
0,2,0.0,973.0,1004.0,0.5625,0.26666668,7759337
0,2,0.0,976.0,995.0,0.5625,0.26666668,7759337
0,2,0.0,978.0,986.0,0.5625,0.26666668,7759349
0,2,0.0,981.0,977.0,0.5625,0.26666668,7759350
0,2,0.0,983.0,968.0,0.5625,0.26666668,7759367
0,2,0.0,985.0,960.0,0.5625,0.26666668,7759367
0,2,0.0,987.0,953.0,0.5625,0.26666668,7759386
0,2,0.0,989.0,946.0,0.5625,0.26666668,7759386
0,2,0.0,990.0,941.0,0.5625,0.26666668,7759407
0,2,0.0,992.0,935.0,0.5625,0.26666668,7759408
0,2,0.0,993.0,930.0,0.5625,0.26666668,7759420
0,2,0.0,994.0,925.0,0.5625,0.26666668,7759421
0,2,0.0,995.0,921.0,0.5625,0.26666668,7759435
0,2,0.0,996.0,917.0,0.5625,0.26666668,7759435
0,2,0.0,997.0,914.0,0.575,0.26666668,7759463
0,2,0.0,998.0,911.0,0.575,0.26666668,7759464
0,2,0.0,999.0,908.0,0.575,0.26666668,7759477
0,2,0.0,1000.0,905.0,0.575,0.26666668,7759477
0,2,0.0,1001.0,903.0,0.575,0.26666668,7759494
0,2,0.0,1002.0,901.0,0.575,0.26666668,7759494
0,2,0.0,1003.0,899.0,0.575,0.26666668,7759519
0,2,0.0,1004.0,897.0,0.5625,0.26666668,7759519
0,2,0.0,1005.0,895.0,0.5625,0.26666668,7759519
0,2,0.0,1006.0,894.0,0.5625,0.26666668,7759520
0,2,0.0,1008.0,893.0,0.5625,0.26666668,7759536
0,2,0.0,1010.0,892.0,0.425,0.20000002,7759537
0,1,0.0,1010.0,892.0,0.425,0.20000002,7759552
0,0,0.0,927.0,1136.0,0.52500004,0.26666668,7760162
0,2,0.0,925.0,1134.0,0.5375,0.26666668,7760178
0,2,0.0,925.0,1130.0,0.5375,0.26666668,7760178
0,2,0.0,925.0,1123.0,0.55,0.26666668,7760178
0,2,0.0,927.0,1110.0,0.55,0.26666668,7760178
0,2,0.0,928.0,1102.0,0.55,0.26666668,7760179
0,2,0.0,929.0,1094.0,0.55,0.26666668,7760179
0,2,0.0,931.0,1085.0,0.55,0.26666668,7760212
0,2,0.0,933.0,1075.0,0.55,0.26666668,7760213
0,2,0.0,935.0,1064.0,0.55,0.26666668,7760213
0,2,0.0,938.0,1052.0,0.55,0.26666668,7760213
0,2,0.0,941.0,1041.0,0.55,0.26666668,7760229
0,2,0.0,944.0,1030.0,0.55,0.26666668,7760229
0,2,0.0,946.0,1020.0,0.55,0.26666668,7760246
0,2,0.0,948.0,1010.0,0.55,0.26666668,7760246
0,2,0.0,950.0,999.0,0.55,0.26666668,7760263
0,2,0.0,952.0,987.0,0.55,0.26666668,7760263
0,2,0.0,954.0,976.0,0.55,0.26666668,7760280
0,2,0.0,956.0,966.0,0.55,0.26666668,7760280
0,2,0.0,958.0,956.0,0.55,0.26666668,7760299
0,2,0.0,960.0,947.0,0.55,0.26666668,7760300
0,2,0.0,962.0,938.0,0.55,0.26666668,7760316
0,2,0.0,963.0,928.0,0.55,0.26666668,7760331
0,2,0.0,964.0,918.0,0.55,0.26666668,7760348
0,2,0.0,966.0,909.0,0.575,0.26666668,7760348
0,2,0.0,968.0,900.0,0.575,0.26666668,7760348
0,2,0.0,969.0,893.0,0.575,0.26666668,7760349
0,2,0.0,970.0,886.0,0.575,0.26666668,7760365
0,2,0.0,971.0,880.0,0.575,0.26666668,7760365
0,2,0.0,972.0,875.0,0.575,0.26666668,7760383
0,2,0.0,973.0,871.0,0.575,0.26666668,7760383
0,2,0.0,974.0,867.0,0.575,0.26666668,7760432
0,2,0.0,975.0,863.0,0.575,0.26666668,7760432
0,2,0.0,976.0,860.0,0.575,0.26666668,7760433
0,2,0.0,977.0,858.0,0.575,0.26666668,7760433
0,2,0.0,978.0,856.0,0.575,0.26666668,7760433
0,2,0.0,979.0,854.0,0.575,0.26666668,7760433
0,2,0.0,979.0,853.0,0.575,0.26666668,7760466
0,2,0.0,980.0,852.0,0.575,0.26666668,7760466
0,2,0.0,981.0,851.0,0.575,0.26666668,7760466
0,2,0.0,982.0,850.0,0.575,0.26666668,7760467
0,2,0.0,983.0,850.0,0.5625,0.26666668,7760483
0,1,0.0,983.0,850.0,0.5625,0.26666668,7760500
0,0,0.0,951.0,1139.0,0.475,0.26666668,7761112
0,2,0.0,949.0,1137.0,0.5375,0.26666668,7761127
0,2,0.0,947.0,1135.0,0.5375,0.26666668,7761127
0,2,0.0,945.0,1132.0,0.5375,0.26666668,7761128
0,2,0.0,943.0,1128.0,0.5375,0.26666668,7761128
0,2,0.0,943.0,1119.0,0.5375,0.20000002,7761128
0,2,0.0,944.0,1106.0,0.5625,0.20000002,7761128
0,2,0.0,945.0,1099.0,0.5625,0.20000002,7761129
0,2,0.0,946.0,1091.0,0.5625,0.20000002,7761130
0,2,0.0,948.0,1082.0,0.5625,0.20000002,7761156
0,2,0.0,949.0,1072.0,0.5625,0.20000002,7761157
0,2,0.0,951.0,1061.0,0.5625,0.20000002,7761173
0,2,0.0,953.0,1050.0,0.5625,0.20000002,7761173
0,2,0.0,955.0,1038.0,0.5625,0.20000002,7761188
0,2,0.0,957.0,1028.0,0.5625,0.20000002,7761189
0,2,0.0,959.0,1018.0,0.5625,0.20000002,7761199
0,2,0.0,961.0,1007.0,0.5625,0.20000002,7761199
0,2,0.0,962.0,996.0,0.5625,0.20000002,7761216
0,2,0.0,964.0,984.0,0.5625,0.20000002,7761217
0,2,0.0,966.0,972.0,0.5625,0.20000002,7761231
0,2,0.0,968.0,961.0,0.5625,0.20000002,7761232
0,2,0.0,970.0,951.0,0.5625,0.20000002,7761247
0,2,0.0,972.0,942.0,0.5625,0.20000002,7761247
0,2,0.0,974.0,933.0,0.5625,0.20000002,7761265
0,2,0.0,976.0,925.0,0.5625,0.20000002,7761266
0,2,0.0,978.0,916.0,0.5625,0.20000002,7761282
0,2,0.0,980.0,908.0,0.5625,0.20000002,7761283
0,2,0.0,982.0,901.0,0.5625,0.20000002,7761298
0,2,0.0,984.0,894.0,0.5625,0.20000002,7761299
0,2,0.0,986.0,888.0,0.5625,0.20000002,7761317
0,2,0.0,988.0,882.0,0.5625,0.20000002,7761317
0,2,0.0,990.0,876.0,0.5625,0.20000002,7761334
0,2,0.0,992.0,872.0,0.5625,0.20000002,7761334
0,2,0.0,994.0,868.0,0.5625,0.20000002,7761349
0,2,0.0,995.0,865.0,0.5625,0.26666668,7761350
0,2,0.0,996.0,862.0,0.5625,0.26666668,7761368
0,2,0.0,997.0,860.0,0.5625,0.26666668,7761368
0,2,0.0,998.0,858.0,0.5625,0.26666668,7761385
0,2,0.0,1000.0,856.0,0.5625,0.26666668,7761385
0,2,0.0,1002.0,855.0,0.55,0.26666668,7761401
0,2,0.0,1004.0,855.0,0.45000002,0.20000002,7761401
0,1,0.0,1004.0,855.0,0.45000002,0.20000002,7761430
0,0,0.0,944.0,1130.0,0.4875,0.26666668,7762095
0,2,0.0,942.0,1128.0,0.5375,0.26666668,7762111
0,2,0.0,940.0,1125.0,0.5375,0.20000002,7762111
0,2,0.0,938.0,1119.0,0.5375,0.20000002,7762111
0,2,0.0,938.0,1108.0,0.5375,0.20000002,7762112
0,2,0.0,938.0,1092.0,0.5375,0.20000002,7762112
0,2,0.0,939.0,1081.0,0.55,0.20000002,7762112
0,2,0.0,940.0,1070.0,0.55,0.20000002,7762114
0,2,0.0,941.0,1058.0,0.55,0.20000002,7762129
0,2,0.0,943.0,1047.0,0.55,0.20000002,7762130
0,2,0.0,945.0,1035.0,0.55,0.20000002,7762149
0,2,0.0,947.0,1024.0,0.55,0.20000002,7762149
0,2,0.0,949.0,1013.0,0.55,0.20000002,7762162
0,2,0.0,951.0,1001.0,0.55,0.20000002,7762162
0,2,0.0,953.0,987.0,0.55,0.20000002,7762183
0,2,0.0,956.0,975.0,0.55,0.20000002,7762183
0,2,0.0,958.0,964.0,0.55,0.20000002,7762197
0,2,0.0,960.0,954.0,0.575,0.20000002,7762203
0,2,0.0,963.0,943.0,0.575,0.20000002,7762213
0,2,0.0,966.0,933.0,0.575,0.20000002,7762213
0,2,0.0,969.0,922.0,0.575,0.20000002,7762231
0,2,0.0,972.0,912.0,0.575,0.20000002,7762232
0,2,0.0,975.0,902.0,0.575,0.20000002,7762249
0,2,0.0,977.0,895.0,0.575,0.20000002,7762249
0,2,0.0,979.0,888.0,0.575,0.20000002,7762265
0,2,0.0,981.0,881.0,0.575,0.20000002,7762266
0,2,0.0,982.0,876.0,0.575,0.20000002,7762283
0,2,0.0,983.0,871.0,0.575,0.20000002,7762283
0,2,0.0,984.0,867.0,0.575,0.20000002,7762309
0,2,0.0,985.0,864.0,0.575,0.20000002,7762310
0,2,0.0,986.0,861.0,0.575,0.20000002,7762324
0,2,0.0,987.0,859.0,0.575,0.20000002,7762324
0,2,0.0,988.0,857.0,0.575,0.20000002,7762338
0,2,0.0,989.0,856.0,0.5625,0.20000002,7762338
0,2,0.0,990.0,854.0,0.5125,0.20000002,7762350
0,1,0.0,990.0,854.0,0.5125,0.20000002,7762351
0,0,0.0,963.0,1155.0,0.425,0.20000002,7763061
0,2,0.0,962.0,1154.0,0.5125,0.20000002,7763077
0,2,0.0,960.0,1152.0,0.55,0.20000002,7763077
0,2,0.0,958.0,1149.0,0.55,0.20000002,7763077
0,2,0.0,956.0,1144.0,0.55,0.20000002,7763077
0,2,0.0,955.0,1134.0,0.55,0.20000002,7763078
0,2,0.0,955.0,1117.0,0.55,0.20000002,7763078
0,2,0.0,956.0,1107.0,0.55,0.20000002,7763078
0,2,0.0,957.0,1096.0,0.55,0.20000002,7763079
0,2,0.0,959.0,1084.0,0.55,0.20000002,7763111
0,2,0.0,961.0,1073.0,0.55,0.20000002,7763111
0,2,0.0,963.0,1060.0,0.55,0.20000002,7763111
0,2,0.0,965.0,1047.0,0.55,0.20000002,7763112
0,2,0.0,967.0,1035.0,0.55,0.20000002,7763145
0,2,0.0,969.0,1024.0,0.55,0.20000002,7763145
0,2,0.0,971.0,1013.0,0.55,0.20000002,7763146
0,2,0.0,974.0,1001.0,0.55,0.20000002,7763146
0,2,0.0,976.0,988.0,0.55,0.20000002,7763179
0,2,0.0,979.0,975.0,0.55,0.20000002,7763179
0,2,0.0,981.0,962.0,0.55,0.20000002,7763180
0,2,0.0,984.0,950.0,0.55,0.20000002,7763180
0,2,0.0,987.0,937.0,0.55,0.20000002,7763213
0,2,0.0,990.0,925.0,0.55,0.20000002,7763214
0,2,0.0,993.0,913.0,0.55,0.20000002,7763214
0,2,0.0,996.0,902.0,0.575,0.26666668,7763228
0,2,0.0,999.0,890.0,0.575,0.26666668,7763230
0,2,0.0,1001.0,881.0,0.5625,0.26666668,7763230
0,2,0.0,1003.0,873.0,0.5625,0.26666668,7763247
0,2,0.0,1005.0,867.0,0.5625,0.26666668,7763247
0,2,0.0,1006.0,861.0,0.575,0.26666668,7763264
0,2,0.0,1007.0,856.0,0.575,0.26666668,7763264
0,2,0.0,1008.0,852.0,0.5625,0.26666668,7763281
0,2,0.0,1009.0,849.0,0.5625,0.26666668,7763281
0,2,0.0,1010.0,846.0,0.5625,0.26666668,7763298
0,2,0.0,1011.0,844.0,0.5625,0.26666668,7763298
0,2,0.0,1012.0,842.0,0.5625,0.26666668,7763315
0,2,0.0,1014.0,840.0,0.5625,0.26666668,7763315
0,2,0.0,1016.0,838.0,0.3,0.20000002,7763332
0,1,0.0,1016.0,838.0,0.3,0.20000002,7763332
0,0,0.0,945.0,1128.0,0.475,0.26666668,7763994
0,2,0.0,944.0,1126.0,0.5375,0.26666668,7764010
0,2,0.0,943.0,1120.0,0.5625,0.26666668,7764010
0,2,0.0,943.0,1109.0,0.5625,0.26666668,7764010
0,2,0.0,944.0,1093.0,0.5625,0.26666668,7764011
0,2,0.0,945.0,1082.0,0.5625,0.26666668,7764011
0,2,0.0,946.0,1070.0,0.5625,0.26666668,7764011
0,2,0.0,948.0,1057.0,0.5625,0.26666668,7764044
0,2,0.0,950.0,1043.0,0.5625,0.26666668,7764044
0,2,0.0,952.0,1031.0,0.5625,0.26666668,7764044
0,2,0.0,955.0,1019.0,0.5625,0.26666668,7764045
0,2,0.0,958.0,1006.0,0.5625,0.26666668,7764061
0,2,0.0,961.0,992.0,0.5625,0.26666668,7764061
0,2,0.0,963.0,979.0,0.5625,0.26666668,7764078
0,2,0.0,966.0,966.0,0.5625,0.26666668,7764079
0,2,0.0,969.0,955.0,0.5625,0.26666668,7764109
0,2,0.0,971.0,944.0,0.5625,0.26666668,7764110
0,2,0.0,973.0,934.0,0.5625,0.26666668,7764126
0,2,0.0,976.0,924.0,0.5625,0.26666668,7764126
0,2,0.0,978.0,915.0,0.5625,0.26666668,7764144
0,2,0.0,980.0,906.0,0.5625,0.26666668,7764144
0,2,0.0,982.0,898.0,0.5625,0.26666668,7764158
0,2,0.0,984.0,889.0,0.5625,0.26666668,7764159
0,2,0.0,986.0,882.0,0.5625,0.26666668,7764172
0,2,0.0,987.0,875.0,0.5625,0.26666668,7764172
0,2,0.0,988.0,869.0,0.5625,0.26666668,7764199
0,2,0.0,989.0,864.0,0.5625,0.26666668,7764200
0,2,0.0,990.0,859.0,0.5625,0.26666668,7764200
0,2,0.0,991.0,855.0,0.5625,0.26666668,7764200
0,2,0.0,992.0,851.0,0.5625,0.26666668,7764215
0,2,0.0,993.0,847.0,0.5625,0.26666668,7764215
0,2,0.0,994.0,844.0,0.5625,0.26666668,7764233
0,2,0.0,995.0,841.0,0.5625,0.26666668,7764233
0,2,0.0,996.0,838.0,0.5625,0.26666668,7764250
0,2,0.0,996.0,836.0,0.5625,0.26666668,7764250
0,2,0.0,997.0,834.0,0.575,0.26666668,7764266
0,2,0.0,998.0,832.0,0.5625,0.26666668,7764266
0,2,0.0,999.0,830.0,0.5625,0.26666668,7764286
0,2,0.0,1001.0,828.0,0.4375,0.20000002,7764287
0,1,0.0,1001.0,828.0,0.4375,0.20000002,7764300
0,0,0.0,926.0,1142.0,0.4875,0.26666668,7764943
0,2,0.0,924.0,1140.0,0.5375,0.26666668,7764959
0,2,0.0,923.0,1137.0,0.5375,0.26666668,7764959
0,2,0.0,921.0,1132.0,0.5375,0.26666668,7764960
0,2,0.0,921.0,1123.0,0.55,0.26666668,7764960
0,2,0.0,921.0,1107.0,0.55,0.26666668,7764960
0,2,0.0,921.0,1097.0,0.55,0.26666668,7764960
0,2,0.0,921.0,1086.0,0.55,0.26666668,7764981
0,2,0.0,922.0,1074.0,0.55,0.26666668,7765014
0,2,0.0,924.0,1058.0,0.55,0.26666668,7765014
0,2,0.0,926.0,1042.0,0.55,0.26666668,7765015
0,2,0.0,929.0,1026.0,0.55,0.26666668,7765015
0,2,0.0,932.0,1010.0,0.55,0.26666668,7765027
0,2,0.0,935.0,993.0,0.55,0.26666668,7765027
0,2,0.0,938.0,977.0,0.55,0.26666668,7765028
0,2,0.0,940.0,963.0,0.55,0.26666668,7765028
0,2,0.0,942.0,951.0,0.55,0.26666668,7765045
0,2,0.0,944.0,940.0,0.575,0.26666668,7765045
0,2,0.0,946.0,929.0,0.575,0.26666668,7765061
0,2,0.0,948.0,919.0,0.575,0.26666668,7765081
0,2,0.0,950.0,910.0,0.575,0.26666668,7765081
0,2,0.0,951.0,902.0,0.575,0.26666668,7765081
0,2,0.0,952.0,895.0,0.575,0.26666668,7765100
0,2,0.0,954.0,889.0,0.575,0.26666668,7765100
0,2,0.0,955.0,883.0,0.575,0.26666668,7765115
0,2,0.0,956.0,878.0,0.575,0.26666668,7765115
0,2,0.0,957.0,873.0,0.575,0.26666668,7765131
0,2,0.0,958.0,870.0,0.575,0.26666668,7765131
0,2,0.0,959.0,867.0,0.575,0.26666668,7765149
0,2,0.0,960.0,864.0,0.575,0.26666668,7765149
0,2,0.0,961.0,862.0,0.575,0.26666668,7765166
0,2,0.0,962.0,860.0,0.575,0.26666668,7765166
0,2,0.0,962.0,859.0,0.575,0.26666668,7765182
0,2,0.0,963.0,858.0,0.575,0.26666668,7765182
0,2,0.0,964.0,857.0,0.575,0.26666668,7765200
0,2,0.0,965.0,856.0,0.4875,0.26666668,7765201
0,1,0.0,965.0,856.0,0.4875,0.26666668,7765217
0,0,0.0,930.0,1146.0,0.5,0.26666668,7765859
0,2,0.0,928.0,1144.0,0.55,0.26666668,7765889
0,2,0.0,926.0,1140.0,0.55,0.26666668,7765890
0,2,0.0,923.0,1132.0,0.55,0.26666668,7765890
0,2,0.0,920.0,1114.0,0.55,0.26666668,7765891
0,2,0.0,919.0,1103.0,0.55,0.26666668,7765892
0,2,0.0,919.0,1091.0,0.55,0.26666668,7765893
0,2,0.0,920.0,1077.0,0.55,0.26666668,7765909
0,2,0.0,922.0,1062.0,0.55,0.26666668,7765909
0,2,0.0,924.0,1045.0,0.55,0.26666668,7765910
0,2,0.0,926.0,1030.0,0.55,0.26666668,7765910
0,2,0.0,930.0,1013.0,0.55,0.26666668,7765932
0,2,0.0,933.0,996.0,0.55,0.26666668,7765933
0,2,0.0,937.0,979.0,0.55,0.26666668,7765946
0,2,0.0,941.0,964.0,0.55,0.26666668,7765947
0,2,0.0,944.0,951.0,0.5625,0.26666668,7765963
0,2,0.0,948.0,937.0,0.5625,0.26666668,7765963
0,2,0.0,951.0,925.0,0.5625,0.26666668,7765978
0,2,0.0,955.0,913.0,0.5625,0.26666668,7765979
0,2,0.0,958.0,903.0,0.5625,0.26666668,7765997
0,2,0.0,961.0,893.0,0.5625,0.26666668,7765997
0,2,0.0,964.0,884.0,0.5625,0.26666668,7766015
0,2,0.0,966.0,876.0,0.5625,0.26666668,7766015
0,2,0.0,968.0,869.0,0.5625,0.26666668,7766030
0,2,0.0,970.0,862.0,0.5625,0.26666668,7766031
0,2,0.0,973.0,856.0,0.5625,0.26666668,7766049
0,2,0.0,975.0,851.0,0.5625,0.26666668,7766050
0,2,0.0,977.0,846.0,0.5625,0.26666668,7766065
0,2,0.0,979.0,841.0,0.5625,0.26666668,7766065
0,2,0.0,981.0,837.0,0.5625,0.26666668,7766081
0,2,0.0,983.0,833.0,0.5625,0.26666668,7766081
0,2,0.0,985.0,830.0,0.5625,0.26666668,7766099
0,2,0.0,987.0,827.0,0.5625,0.26666668,7766113
0,2,0.0,988.0,825.0,0.5625,0.26666668,7766129
0,2,0.0,989.0,823.0,0.5625,0.26666668,7766130
0,2,0.0,991.0,821.0,0.575,0.26666668,7766130
0,2,0.0,993.0,819.0,0.575,0.26666668,7766130
0,2,0.0,995.0,818.0,0.575,0.26666668,7766163
0,2,0.0,998.0,817.0,0.5625,0.26666668,7766164
0,2,0.0,1000.0,817.0,0.5125,0.26666668,7766164
0,1,0.0,1000.0,817.0,0.5125,0.26666668,7766164
0,0,0.0,919.0,1154.0,0.45000002,0.20000002,7766774
0,2,0.0,919.0,1152.0,0.5375,0.20000002,7766790
0,2,0.0,919.0,1149.0,0.5375,0.20000002,7766791
0,2,0.0,919.0,1144.0,0.5375,0.20000002,7766792
0,2,0.0,919.0,1135.0,0.55,0.20000002,7766792
0,2,0.0,921.0,1121.0,0.55,0.20000002,7766792
0,2,0.0,922.0,1112.0,0.55,0.20000002,7766793
0,2,0.0,924.0,1101.0,0.55,0.20000002,7766793
0,2,0.0,925.0,1090.0,0.55,0.20000002,7766808
0,2,0.0,927.0,1079.0,0.55,0.20000002,7766808
0,2,0.0,929.0,1066.0,0.55,0.20000002,7766841
0,2,0.0,932.0,1052.0,0.55,0.20000002,7766842
0,2,0.0,935.0,1038.0,0.55,0.20000002,7766842
0,2,0.0,938.0,1025.0,0.55,0.20000002,7766843
0,2,0.0,941.0,1011.0,0.55,0.20000002,7766875
0,2,0.0,944.0,998.0,0.55,0.20000002,7766875
0,2,0.0,948.0,984.0,0.55,0.20000002,7766876
0,2,0.0,951.0,972.0,0.55,0.20000002,7766876
0,2,0.0,954.0,961.0,0.55,0.20000002,7766909
0,2,0.0,957.0,952.0,0.575,0.20000002,7766909
0,2,0.0,960.0,942.0,0.575,0.20000002,7766910
0,2,0.0,962.0,933.0,0.575,0.20000002,7766910
0,2,0.0,964.0,924.0,0.575,0.20000002,7766939
0,2,0.0,966.0,915.0,0.575,0.20000002,7766940
0,2,0.0,968.0,907.0,0.575,0.20000002,7766956
0,2,0.0,970.0,899.0,0.575,0.20000002,7766956
0,2,0.0,972.0,892.0,0.575,0.20000002,7766970
0,2,0.0,974.0,886.0,0.575,0.20000002,7766971
0,2,0.0,975.0,880.0,0.575,0.20000002,7766986
0,2,0.0,976.0,875.0,0.575,0.20000002,7766987
0,2,0.0,977.0,871.0,0.575,0.20000002,7767002
0,2,0.0,978.0,867.0,0.575,0.20000002,7767002
0,2,0.0,979.0,863.0,0.575,0.20000002,7767015
0,2,0.0,979.0,860.0,0.575,0.20000002,7767015
0,2,0.0,979.0,858.0,0.575,0.20000002,7767031
0,2,0.0,979.0,856.0,0.575,0.20000002,7767032
0,2,0.0,979.0,855.0,0.575,0.20000002,7767048
0,2,0.0,979.0,854.0,0.52500004,0.20000002,7767048
0,1,0.0,979.0,854.0,0.52500004,0.20000002,7767063
0,0,0.0,937.0,1161.0,0.425,0.26666668,7767740
0,2,0.0,935.0,1159.0,0.52500004,0.26666668,7767756
0,2,0.0,933.0,1156.0,0.52500004,0.26666668,7767757
0,2,0.0,929.0,1151.0,0.55,0.26666668,7767757
0,2,0.0,926.0,1141.0,0.55,0.26666668,7767757
0,2,0.0,924.0,1126.0,0.55,0.26666668,7767758
0,2,0.0,924.0,1116.0,0.55,0.26666668,7767758
0,2,0.0,924.0,1106.0,0.55,0.26666668,7767759
0,2,0.0,924.0,1096.0,0.55,0.26666668,7767789
0,2,0.0,925.0,1086.0,0.55,0.26666668,7767789
0,2,0.0,926.0,1075.0,0.55,0.26666668,7767803
0,2,0.0,928.0,1063.0,0.55,0.26666668,7767803
0,2,0.0,930.0,1051.0,0.55,0.26666668,7767820
0,2,0.0,932.0,1039.0,0.55,0.26666668,7767820
0,2,0.0,934.0,1028.0,0.55,0.26666668,7767833
0,2,0.0,936.0,1017.0,0.55,0.26666668,7767833
0,2,0.0,938.0,1006.0,0.5625,0.26666668,7767849
0,2,0.0,940.0,994.0,0.5625,0.26666668,7767849
0,2,0.0,943.0,982.0,0.5625,0.26666668,7767861
0,2,0.0,946.0,971.0,0.5625,0.26666668,7767862
0,2,0.0,949.0,960.0,0.5625,0.26666668,7767878
0,2,0.0,952.0,949.0,0.5625,0.26666668,7767878
0,2,0.0,955.0,940.0,0.5625,0.26666668,7767895
0,2,0.0,958.0,930.0,0.5625,0.26666668,7767895
0,2,0.0,961.0,920.0,0.5625,0.26666668,7767913
0,2,0.0,964.0,911.0,0.5625,0.26666668,7767913
0,2,0.0,967.0,903.0,0.5625,0.26666668,7767928
0,2,0.0,970.0,896.0,0.5625,0.26666668,7767928
0,2,0.0,973.0,889.0,0.5625,0.26666668,7767947
0,2,0.0,975.0,883.0,0.5625,0.26666668,7767947
0,2,0.0,977.0,878.0,0.5625,0.26666668,7767964
0,2,0.0,979.0,874.0,0.5625,0.26666668,7767964
0,2,0.0,981.0,870.0,0.5625,0.26666668,7767979
0,2,0.0,983.0,866.0,0.5625,0.26666668,7767979
0,2,0.0,984.0,863.0,0.5625,0.26666668,7767997
0,2,0.0,985.0,861.0,0.5625,0.26666668,7767998
0,2,0.0,986.0,859.0,0.5625,0.26666668,7768016
0,2,0.0,987.0,857.0,0.5625,0.26666668,7768016
0,2,0.0,988.0,855.0,0.5625,0.26666668,7768030
0,2,0.0,989.0,854.0,0.5625,0.26666668,7768030
0,2,0.0,991.0,853.0,0.5625,0.26666668,7768049
0,2,0.0,993.0,852.0,0.5625,0.26666668,7768061
0,2,0.0,995.0,852.0,0.38750002,0.20000002,7768074
0,1,0.0,995.0,852.0,0.38750002,0.20000002,7768075
0,0,0.0,953.0,1136.0,0.5125,0.26666668,7768623
0,2,0.0,951.0,1134.0,0.5375,0.26666668,7768639
0,2,0.0,949.0,1130.0,0.5375,0.26666668,7768639
0,2,0.0,946.0,1123.0,0.5375,0.20000002,7768639
0,2,0.0,942.0,1110.0,0.5375,0.20000002,7768640
0,2,0.0,941.0,1102.0,0.5375,0.20000002,7768641
0,2,0.0,940.0,1093.0,0.5375,0.20000002,7768641
0,2,0.0,939.0,1082.0,0.5625,0.20000002,7768657
0,2,0.0,938.0,1069.0,0.5625,0.20000002,7768657
0,2,0.0,938.0,1054.0,0.5625,0.20000002,7768675
0,2,0.0,938.0,1039.0,0.5625,0.20000002,7768675
0,2,0.0,939.0,1024.0,0.5625,0.20000002,7768691
0,2,0.0,940.0,1008.0,0.5625,0.20000002,7768691
0,2,0.0,942.0,991.0,0.5625,0.20000002,7768710
0,2,0.0,944.0,975.0,0.5625,0.20000002,7768711
0,2,0.0,946.0,961.0,0.5625,0.20000002,7768727
0,2,0.0,948.0,949.0,0.5625,0.20000002,7768727
0,2,0.0,950.0,937.0,0.5625,0.20000002,7768743
0,2,0.0,952.0,925.0,0.5625,0.20000002,7768744
0,2,0.0,954.0,913.0,0.5625,0.20000002,7768762
0,2,0.0,956.0,903.0,0.5625,0.20000002,7768762
0,2,0.0,958.0,893.0,0.5625,0.20000002,7768778
0,2,0.0,960.0,885.0,0.5625,0.20000002,7768779
0,2,0.0,962.0,878.0,0.5625,0.20000002,7768798
0,2,0.0,964.0,871.0,0.5625,0.20000002,7768798
0,2,0.0,966.0,865.0,0.5625,0.20000002,7768826
0,2,0.0,968.0,860.0,0.5625,0.20000002,7768826
0,2,0.0,969.0,855.0,0.5625,0.20000002,7768827
0,2,0.0,970.0,851.0,0.5625,0.20000002,7768827
0,2,0.0,971.0,847.0,0.5625,0.20000002,7768851
0,2,0.0,972.0,844.0,0.5625,0.20000002,7768851
0,2,0.0,973.0,842.0,0.5625,0.20000002,7768865
0,2,0.0,974.0,840.0,0.5625,0.20000002,7768865
0,2,0.0,975.0,838.0,0.5625,0.20000002,7768880
0,2,0.0,976.0,837.0,0.5625,0.20000002,7768880
0,2,0.0,977.0,836.0,0.5625,0.20000002,7768896
0,2,0.0,978.0,835.0,0.5625,0.20000002,7768897
0,2,0.0,978.0,834.0,0.4375,0.20000002,7768913
0,1,0.0,978.0,834.0,0.4375,0.20000002,7768913
0,0,0.0,938.0,1164.0,0.4625,0.26666668,7769573
0,2,0.0,936.0,1161.0,0.55,0.26666668,7769588
0,2,0.0,935.0,1156.0,0.55,0.26666668,7769589
0,2,0.0,935.0,1147.0,0.55,0.26666668,7769589
0,2,0.0,937.0,1132.0,0.55,0.26666668,7769589
0,2,0.0,939.0,1122.0,0.55,0.26666668,7769589
0,2,0.0,941.0,1110.0,0.55,0.26666668,7769590
0,2,0.0,944.0,1098.0,0.55,0.26666668,7769606
0,2,0.0,947.0,1085.0,0.55,0.26666668,7769606
0,2,0.0,951.0,1071.0,0.55,0.26666668,7769627
0,2,0.0,955.0,1056.0,0.55,0.26666668,7769627
0,2,0.0,959.0,1042.0,0.55,0.26666668,7769642
0,2,0.0,963.0,1028.0,0.55,0.26666668,7769643
0,2,0.0,966.0,1014.0,0.55,0.26666668,7769658
0,2,0.0,970.0,1000.0,0.55,0.26666668,7769659
0,2,0.0,974.0,985.0,0.55,0.26666668,7769677
0,2,0.0,977.0,971.0,0.55,0.26666668,7769677
0,2,0.0,981.0,957.0,0.55,0.26666668,7769694
0,2,0.0,984.0,944.0,0.55,0.26666668,7769695
0,2,0.0,987.0,930.0,0.55,0.26666668,7769710
0,2,0.0,990.0,917.0,0.55,0.26666668,7769724
0,2,0.0,992.0,906.0,0.55,0.26666668,7769741
0,2,0.0,994.0,896.0,0.55,0.26666668,7769741
0,2,0.0,996.0,888.0,0.55,0.26666668,7769741
0,2,0.0,997.0,881.0,0.55,0.26666668,7769742
0,2,0.0,998.0,875.0,0.55,0.26666668,7769758
0,2,0.0,999.0,870.0,0.5625,0.26666668,7769758
0,2,0.0,1000.0,866.0,0.5625,0.26666668,7769775
0,2,0.0,1001.0,863.0,0.5625,0.26666668,7769776
0,2,0.0,1002.0,861.0,0.55,0.26666668,7769795
0,2,0.0,1002.0,859.0,0.4,0.20000002,7769795
0,1,0.0,1002.0,859.0,0.4,0.20000002,7769810
0,0,0.0,930.0,1138.0,0.5,0.26666668,7770521
0,2,0.0,929.0,1137.0,0.52500004,0.26666668,7770538
0,2,0.0,928.0,1135.0,0.55,0.26666668,7770538
0,2,0.0,928.0,1130.0,0.55,0.26666668,7770538
0,2,0.0,928.0,1121.0,0.55,0.26666668,7770539
0,2,0.0,930.0,1105.0,0.55,0.26666668,7770539
0,2,0.0,931.0,1095.0,0.55,0.26666668,7770539
0,2,0.0,933.0,1083.0,0.55,0.26666668,7770539
0,2,0.0,935.0,1069.0,0.55,0.26666668,7770555
0,2,0.0,938.0,1054.0,0.55,0.26666668,7770555
0,2,0.0,941.0,1039.0,0.55,0.26666668,7770606
0,2,0.0,944.0,1024.0,0.55,0.26666668,7770606
0,2,0.0,948.0,1009.0,0.5625,0.26666668,7770606
0,2,0.0,951.0,995.0,0.5625,0.26666668,7770607
0,2,0.0,955.0,980.0,0.5625,0.26666668,7770607
0,2,0.0,959.0,966.0,0.5625,0.26666668,7770607
0,2,0.0,962.0,954.0,0.5625,0.26666668,7770640
0,2,0.0,965.0,942.0,0.5625,0.26666668,7770641
0,2,0.0,969.0,931.0,0.5625,0.26666668,7770641
0,2,0.0,972.0,919.0,0.5625,0.26666668,7770641
0,2,0.0,975.0,909.0,0.5625,0.26666668,7770674
0,2,0.0,978.0,900.0,0.5625,0.26666668,7770674
0,2,0.0,981.0,892.0,0.5625,0.26666668,7770675
0,2,0.0,984.0,884.0,0.5625,0.26666668,7770675
0,2,0.0,986.0,877.0,0.5625,0.26666668,7770707
0,2,0.0,988.0,871.0,0.5625,0.26666668,7770707
0,2,0.0,990.0,866.0,0.5625,0.26666668,7770708
0,2,0.0,992.0,862.0,0.5625,0.26666668,7770708
0,2,0.0,993.0,859.0,0.5625,0.26666668,7770741
0,2,0.0,994.0,857.0,0.5625,0.26666668,7770741
0,2,0.0,995.0,855.0,0.55,0.26666668,7770742
0,2,0.0,997.0,853.0,0.55,0.26666668,7770742
0,2,0.0,999.0,851.0,0.4,0.20000002,7770770
0,1,0.0,999.0,851.0,0.4,0.20000002,7770770
0,0,0.0,965.0,1129.0,0.55,0.26666668,7771403
0,2,0.0,964.0,1128.0,0.55,0.26666668,7771419
0,2,0.0,963.0,1125.0,0.55,0.20000002,7771419
0,2,0.0,963.0,1119.0,0.55,0.20000002,7771419
0,2,0.0,963.0,1109.0,0.5625,0.20000002,7771420
0,2,0.0,965.0,1094.0,0.5625,0.20000002,7771420
0,2,0.0,966.0,1084.0,0.5625,0.20000002,7771421
0,2,0.0,967.0,1073.0,0.5625,0.20000002,7771421
0,2,0.0,969.0,1060.0,0.5625,0.20000002,7771469
0,2,0.0,971.0,1046.0,0.5625,0.20000002,7771470
0,2,0.0,973.0,1032.0,0.5625,0.20000002,7771470
0,2,0.0,975.0,1018.0,0.5625,0.20000002,7771470
0,2,0.0,977.0,1002.0,0.5625,0.20000002,7771471
0,2,0.0,980.0,986.0,0.5625,0.20000002,7771471
0,2,0.0,982.0,971.0,0.5625,0.20000002,7771487
0,2,0.0,984.0,957.0,0.5625,0.20000002,7771487
0,2,0.0,986.0,944.0,0.5625,0.20000002,7771504
0,2,0.0,988.0,931.0,0.5625,0.20000002,7771519
0,2,0.0,990.0,917.0,0.5625,0.20000002,7771535
0,2,0.0,992.0,905.0,0.5625,0.20000002,7771535
0,2,0.0,994.0,893.0,0.5625,0.20000002,7771555
0,2,0.0,996.0,883.0,0.5625,0.26666668,7771556
0,2,0.0,998.0,874.0,0.575,0.26666668,7771556
0,2,0.0,1000.0,866.0,0.575,0.26666668,7771556
0,2,0.0,1001.0,859.0,0.575,0.26666668,7771572
0,2,0.0,1002.0,852.0,0.575,0.26666668,7771573
0,2,0.0,1003.0,846.0,0.575,0.26666668,7771589
0,2,0.0,1004.0,841.0,0.575,0.26666668,7771589
0,2,0.0,1005.0,837.0,0.575,0.26666668,7771606
0,2,0.0,1006.0,834.0,0.5625,0.26666668,7771606
0,2,0.0,1007.0,831.0,0.5625,0.26666668,7771623
0,2,0.0,1009.0,828.0,0.45000002,0.20000002,7771623
0,1,0.0,1009.0,828.0,0.45000002,0.20000002,7771642
0,0,0.0,925.0,1134.0,0.5375,0.26666668,7772319
0,2,0.0,925.0,1132.0,0.55,0.26666668,7772335
0,2,0.0,925.0,1129.0,0.55,0.26666668,7772335
0,2,0.0,925.0,1123.0,0.55,0.26666668,7772335
0,2,0.0,927.0,1111.0,0.55,0.26666668,7772335
0,2,0.0,930.0,1091.0,0.55,0.26666668,7772336
0,2,0.0,932.0,1078.0,0.55,0.26666668,7772336
0,2,0.0,935.0,1062.0,0.55,0.26666668,7772336
0,2,0.0,938.0,1045.0,0.55,0.26666668,7772353
0,2,0.0,941.0,1030.0,0.55,0.26666668,7772353
0,2,0.0,945.0,1012.0,0.55,0.26666668,7772386
0,2,0.0,949.0,994.0,0.55,0.26666668,7772386
0,2,0.0,953.0,976.0,0.55,0.26666668,7772386
0,2,0.0,956.0,962.0,0.55,0.26666668,7772399
0,2,0.0,960.0,947.0,0.5625,0.26666668,7772421
0,2,0.0,963.0,934.0,0.5625,0.26666668,7772421
0,2,0.0,966.0,921.0,0.5625,0.26666668,7772421
0,2,0.0,969.0,909.0,0.5625,0.26666668,7772422
0,2,0.0,972.0,899.0,0.5625,0.26666668,7772436
0,2,0.0,974.0,889.0,0.5625,0.26666668,7772437
0,2,0.0,976.0,880.0,0.5625,0.26666668,7772453
0,2,0.0,978.0,872.0,0.5625,0.26666668,7772454
0,2,0.0,980.0,865.0,0.5625,0.26666668,7772472
0,2,0.0,982.0,859.0,0.5625,0.26666668,7772472
0,2,0.0,983.0,853.0,0.5625,0.26666668,7772487
0,2,0.0,984.0,848.0,0.5625,0.26666668,7772488
0,2,0.0,985.0,844.0,0.5625,0.26666668,7772505
0,2,0.0,986.0,840.0,0.5625,0.26666668,7772506
0,2,0.0,987.0,837.0,0.5625,0.26666668,7772524
0,2,0.0,988.0,835.0,0.5625,0.26666668,7772524
0,2,0.0,988.0,833.0,0.52500004,0.20000002,7772541
0,1,0.0,988.0,833.0,0.52500004,0.20000002,7772541
0,0,0.0,950.0,1159.0,0.4125,0.20000002,7773250
0,2,0.0,948.0,1157.0,0.5375,0.20000002,7773267
0,2,0.0,947.0,1154.0,0.5375,0.20000002,7773268
0,2,0.0,947.0,1149.0,0.5375,0.20000002,7773268
0,2,0.0,947.0,1140.0,0.5375,0.20000002,7773268
0,2,0.0,948.0,1123.0,0.55,0.20000002,7773268
0,2,0.0,949.0,1112.0,0.55,0.20000002,7773269
0,2,0.0,950.0,1100.0,0.55,0.20000002,7773269
0,2,0.0,951.0,1087.0,0.55,0.20000002,7773285
0,2,0.0,952.0,1073.0,0.55,0.20000002,7773286
0,2,0.0,954.0,1057.0,0.55,0.20000002,7773302
0,2,0.0,956.0,1041.0,0.55,0.20000002,7773302
0,2,0.0,958.0,1026.0,0.55,0.20000002,7773318
0,2,0.0,960.0,1011.0,0.55,0.20000002,7773333
0,2,0.0,963.0,995.0,0.55,0.20000002,7773345
0,2,0.0,966.0,980.0,0.55,0.20000002,7773345
0,2,0.0,969.0,965.0,0.55,0.20000002,7773357
0,2,0.0,972.0,953.0,0.575,0.20000002,7773358
0,2,0.0,975.0,940.0,0.575,0.20000002,7773374
0,2,0.0,978.0,928.0,0.575,0.20000002,7773374
0,2,0.0,980.0,916.0,0.575,0.20000002,7773387
0,2,0.0,983.0,905.0,0.575,0.20000002,7773387
0,2,0.0,985.0,895.0,0.575,0.20000002,7773404
0,2,0.0,987.0,887.0,0.575,0.20000002,7773404
0,2,0.0,989.0,880.0,0.575,0.20000002,7773423
0,2,0.0,990.0,874.0,0.575,0.20000002,7773423
0,2,0.0,991.0,870.0,0.575,0.20000002,7773438
0,2,0.0,992.0,866.0,0.575,0.20000002,7773438
0,2,0.0,993.0,863.0,0.575,0.20000002,7773454
0,2,0.0,994.0,860.0,0.575,0.20000002,7773454
0,2,0.0,994.0,857.0,0.575,0.20000002,7773477
0,2,0.0,995.0,854.0,0.575,0.20000002,7773477
0,2,0.0,995.0,852.0,0.575,0.20000002,7773490
0,2,0.0,995.0,851.0,0.5625,0.26666668,7773490
0,2,0.0,996.0,849.0,0.5625,0.26666668,7773505
0,2,0.0,997.0,848.0,0.55,0.26666668,7773505
0,2,0.0,999.0,847.0,0.52500004,0.26666668,7773523
0,2,0.0,1001.0,846.0,0.35,0.20000002,7773523
0,1,0.0,1001.0,846.0,0.35,0.20000002,7773540
0,0,0.0,942.0,1157.0,0.4625,0.26666668,7774149
0,2,0.0,941.0,1156.0,0.55,0.26666668,7774166
0,2,0.0,939.0,1154.0,0.55,0.26666668,7774166
0,2,0.0,937.0,1152.0,0.55,0.26666668,7774166
0,2,0.0,936.0,1148.0,0.55,0.26666668,7774178
0,2,0.0,935.0,1140.0,0.55,0.26666668,7774179
0,2,0.0,935.0,1124.0,0.55,0.26666668,7774179
0,2,0.0,935.0,1113.0,0.55,0.26666668,7774180
0,2,0.0,935.0,1100.0,0.55,0.26666668,7774180
0,2,0.0,936.0,1086.0,0.55,0.26666668,7774197
0,2,0.0,937.0,1070.0,0.55,0.26666668,7774197
0,2,0.0,939.0,1053.0,0.55,0.26666668,7774215
0,2,0.0,941.0,1036.0,0.55,0.26666668,7774220
0,2,0.0,944.0,1020.0,0.5625,0.26666668,7774235
0,2,0.0,947.0,1003.0,0.5625,0.26666668,7774235
0,2,0.0,950.0,986.0,0.5625,0.26666668,7774235
0,2,0.0,953.0,970.0,0.5625,0.26666668,7774236
0,2,0.0,956.0,955.0,0.5625,0.26666668,7774252
0,2,0.0,959.0,940.0,0.5625,0.26666668,7774252
0,2,0.0,962.0,924.0,0.5625,0.26666668,7774272
0,2,0.0,965.0,909.0,0.5625,0.26666668,7774272
0,2,0.0,967.0,896.0,0.5625,0.26666668,7774287
0,2,0.0,969.0,885.0,0.5625,0.26666668,7774287
0,2,0.0,971.0,874.0,0.5625,0.26666668,7774303
0,2,0.0,973.0,863.0,0.5625,0.26666668,7774304
0,2,0.0,974.0,854.0,0.5625,0.26666668,7774322
0,2,0.0,976.0,845.0,0.5625,0.26666668,7774322
0,2,0.0,977.0,838.0,0.5625,0.26666668,7774338
0,2,0.0,978.0,831.0,0.5625,0.26666668,7774339
0,2,0.0,979.0,825.0,0.5625,0.26666668,7774355
0,2,0.0,980.0,821.0,0.5625,0.26666668,7774355
0,2,0.0,981.0,817.0,0.5625,0.26666668,7774370
0,2,0.0,981.0,814.0,0.5625,0.26666668,7774371
0,2,0.0,981.0,812.0,0.5625,0.26666668,7774389
0,2,0.0,981.0,811.0,0.5625,0.26666668,7774389
0,2,0.0,981.0,810.0,0.55,0.26666668,7774405
0,2,0.0,981.0,809.0,0.4375,0.20000002,7774418
0,1,0.0,981.0,809.0,0.4375,0.20000002,7774430
0,0,0.0,941.0,1179.0,0.4125,0.26666668,7775049
0,2,0.0,939.0,1177.0,0.5375,0.26666668,7775065
0,2,0.0,939.0,1173.0,0.5375,0.26666668,7775065
0,2,0.0,939.0,1166.0,0.5375,0.26666668,7775065
0,2,0.0,942.0,1153.0,0.5375,0.26666668,7775066
0,2,0.0,944.0,1143.0,0.55,0.26666668,7775066
0,2,0.0,948.0,1131.0,0.55,0.26666668,7775067
0,2,0.0,952.0,1118.0,0.55,0.26666668,7775099
0,2,0.0,956.0,1105.0,0.55,0.26666668,7775099
0,2,0.0,960.0,1091.0,0.55,0.26666668,7775100
0,2,0.0,964.0,1076.0,0.55,0.26666668,7775100
0,2,0.0,968.0,1060.0,0.575,0.26666668,7775132
0,2,0.0,972.0,1045.0,0.575,0.26666668,7775133
0,2,0.0,975.0,1031.0,0.575,0.26666668,7775133
0,2,0.0,978.0,1016.0,0.575,0.26666668,7775133
0,2,0.0,981.0,1002.0,0.575,0.26666668,7775166
0,2,0.0,984.0,988.0,0.575,0.26666668,7775166
0,2,0.0,987.0,975.0,0.575,0.26666668,7775167
0,2,0.0,990.0,962.0,0.575,0.26666668,7775167
0,2,0.0,992.0,950.0,0.575,0.26666668,7775199
0,2,0.0,994.0,939.0,0.575,0.26666668,7775200
0,2,0.0,996.0,927.0,0.575,0.26666668,7775200
0,2,0.0,998.0,914.0,0.575,0.26666668,7775200
0,2,0.0,1000.0,903.0,0.575,0.26666668,7775233
0,2,0.0,1002.0,891.0,0.575,0.26666668,7775233
0,2,0.0,1003.0,881.0,0.5625,0.26666668,7775234
0,2,0.0,1004.0,872.0,0.575,0.26666668,7775234
0,2,0.0,1005.0,863.0,0.575,0.26666668,7775267
0,2,0.0,1006.0,856.0,0.575,0.26666668,7775267
0,2,0.0,1007.0,850.0,0.575,0.26666668,7775279
0,2,0.0,1008.0,845.0,0.575,0.26666668,7775280
0,2,0.0,1009.0,841.0,0.5625,0.26666668,7775284
0,2,0.0,1010.0,837.0,0.5625,0.26666668,7775284
0,2,0.0,1011.0,835.0,0.5625,0.26666668,7775301
0,2,0.0,1014.0,833.0,0.4125,0.20000002,7775302
0,1,0.0,1014.0,833.0,0.4125,0.20000002,7775318
0,0,0.0,939.0,1160.0,0.55,0.26666668,7776015
0,2,0.0,938.0,1159.0,0.55,0.26666668,7776030
0,2,0.0,936.0,1156.0,0.55,0.26666668,7776031
0,2,0.0,935.0,1149.0,0.55,0.26666668,7776031
0,2,0.0,935.0,1136.0,0.5625,0.26666668,7776031
0,2,0.0,935.0,1126.0,0.5625,0.26666668,7776032
0,2,0.0,936.0,1115.0,0.5625,0.26666668,7776032
0,2,0.0,937.0,1104.0,0.5625,0.26666668,7776065
0,2,0.0,938.0,1092.0,0.5625,0.26666668,7776065
0,2,0.0,940.0,1078.0,0.5625,0.26666668,7776065
0,2,0.0,942.0,1063.0,0.5625,0.26666668,7776066
0,2,0.0,944.0,1048.0,0.5625,0.26666668,7776099
0,2,0.0,947.0,1034.0,0.5625,0.26666668,7776099
0,2,0.0,950.0,1020.0,0.5625,0.26666668,7776099
0,2,0.0,953.0,1005.0,0.5625,0.26666668,7776099
0,2,0.0,957.0,990.0,0.5625,0.26666668,7776150
0,2,0.0,960.0,977.0,0.5625,0.26666668,7776150
0,2,0.0,963.0,964.0,0.5625,0.26666668,7776150
0,2,0.0,965.0,954.0,0.5625,0.26666668,7776150
0,2,0.0,967.0,945.0,0.5625,0.26666668,7776166
0,2,0.0,969.0,936.0,0.5625,0.26666668,7776166
0,2,0.0,971.0,928.0,0.5625,0.26666668,7776167
0,2,0.0,973.0,920.0,0.5625,0.26666668,7776167
0,2,0.0,975.0,913.0,0.5625,0.26666668,7776199
0,2,0.0,977.0,907.0,0.5625,0.26666668,7776200
0,2,0.0,978.0,902.0,0.5625,0.26666668,7776200
0,2,0.0,979.0,898.0,0.5625,0.26666668,7776200
0,2,0.0,980.0,894.0,0.5625,0.26666668,7776233
0,2,0.0,981.0,891.0,0.5625,0.26666668,7776233
0,2,0.0,982.0,888.0,0.5625,0.26666668,7776234
0,2,0.0,983.0,886.0,0.5625,0.26666668,7776234
0,2,0.0,985.0,884.0,0.5625,0.26666668,7776267
0,2,0.0,986.0,882.0,0.3125,0.20000002,7776267
0,1,0.0,986.0,882.0,0.3125,0.20000002,7776268
0,0,0.0,961.0,1169.0,0.425,0.20000002,7776984
0,2,0.0,960.0,1168.0,0.55,0.20000002,7776998
0,2,0.0,958.0,1166.0,0.55,0.20000002,7776999
0,2,0.0,956.0,1161.0,0.55,0.20000002,7776999
0,2,0.0,955.0,1153.0,0.55,0.20000002,7777000
0,2,0.0,955.0,1140.0,0.55,0.20000002,7777000
0,2,0.0,955.0,1131.0,0.55,0.20000002,7777000
0,2,0.0,956.0,1121.0,0.55,0.20000002,7777000
0,2,0.0,957.0,1110.0,0.55,0.20000002,7777015
0,2,0.0,958.0,1099.0,0.55,0.20000002,7777015
0,2,0.0,959.0,1089.0,0.55,0.20000002,7777047
0,2,0.0,960.0,1078.0,0.5625,0.20000002,7777047
0,2,0.0,961.0,1065.0,0.5625,0.20000002,7777048
0,2,0.0,962.0,1053.0,0.5625,0.20000002,7777048
0,2,0.0,963.0,1040.0,0.5625,0.20000002,7777081
0,2,0.0,964.0,1028.0,0.5625,0.20000002,7777081
0,2,0.0,966.0,1016.0,0.5625,0.20000002,7777095
0,2,0.0,968.0,1004.0,0.5625,0.20000002,7777095
0,2,0.0,970.0,991.0,0.5625,0.20000002,7777098
0,2,0.0,972.0,978.0,0.5625,0.20000002,7777098
0,2,0.0,974.0,965.0,0.5625,0.20000002,7777115
0,2,0.0,976.0,953.0,0.5625,0.20000002,7777116
0,2,0.0,978.0,941.0,0.5625,0.20000002,7777132
0,2,0.0,981.0,930.0,0.5625,0.20000002,7777133
0,2,0.0,983.0,919.0,0.5625,0.20000002,7777149
0,2,0.0,986.0,908.0,0.5625,0.20000002,7777149
0,2,0.0,988.0,899.0,0.5625,0.20000002,7777166
0,2,0.0,990.0,890.0,0.5625,0.20000002,7777167
0,2,0.0,992.0,883.0,0.5625,0.20000002,7777183
0,2,0.0,994.0,877.0,0.575,0.26666668,7777183
0,2,0.0,996.0,872.0,0.5625,0.26666668,7777203
0,2,0.0,997.0,868.0,0.5625,0.26666668,7777203
0,2,0.0,998.0,865.0,0.5625,0.26666668,7777219
0,2,0.0,999.0,862.0,0.5625,0.26666668,7777219
0,2,0.0,1001.0,860.0,0.5625,0.26666668,7777238
0,2,0.0,1004.0,858.0,0.5625,0.26666668,7777238
0,2,0.0,1007.0,857.0,0.45000002,0.20000002,7777254
0,1,0.0,1007.0,857.0,0.45000002,0.20000002,7777254
0,0,0.0,957.0,1176.0,0.55,0.20000002,7777880
0,2,0.0,956.0,1175.0,0.55,0.20000002,7777895
0,2,0.0,956.0,1172.0,0.55,0.20000002,7777895
0,2,0.0,956.0,1166.0,0.55,0.20000002,7777895
0,2,0.0,957.0,1155.0,0.5625,0.20000002,7777896
0,2,0.0,960.0,1136.0,0.5625,0.20000002,7777896
0,2,0.0,962.0,1123.0,0.5625,0.20000002,7777897
0,2,0.0,964.0,1109.0,0.5625,0.20000002,7777897
0,2,0.0,966.0,1096.0,0.5625,0.20000002,7777925
0,2,0.0,969.0,1082.0,0.5625,0.20000002,7777925
0,2,0.0,972.0,1066.0,0.5625,0.20000002,7777941
0,2,0.0,975.0,1050.0,0.5625,0.20000002,7777942
0,2,0.0,978.0,1035.0,0.5625,0.20000002,7777957
0,2,0.0,980.0,1021.0,0.5625,0.20000002,7777958
0,2,0.0,983.0,1006.0,0.5625,0.20000002,7777971
0,2,0.0,986.0,990.0,0.5625,0.20000002,7777972
0,2,0.0,989.0,974.0,0.5625,0.20000002,7777988
0,2,0.0,992.0,960.0,0.5625,0.20000002,7777988
0,2,0.0,994.0,946.0,0.5625,0.20000002,7778007
0,2,0.0,996.0,933.0,0.5625,0.20000002,7778008
0,2,0.0,998.0,919.0,0.575,0.26666668,7778022
0,2,0.0,1001.0,906.0,0.575,0.26666668,7778022
0,2,0.0,1003.0,894.0,0.5625,0.26666668,7778037
0,2,0.0,1005.0,884.0,0.5625,0.26666668,7778037
0,2,0.0,1006.0,875.0,0.5625,0.26666668,7778052
0,2,0.0,1007.0,867.0,0.575,0.26666668,7778052
0,2,0.0,1008.0,861.0,0.575,0.26666668,7778066
0,2,0.0,1009.0,856.0,0.575,0.26666668,7778067
0,2,0.0,1010.0,851.0,0.575,0.26666668,7778084
0,2,0.0,1011.0,847.0,0.5625,0.26666668,7778084
0,2,0.0,1012.0,844.0,0.5625,0.26666668,7778100
0,2,0.0,1012.0,842.0,0.5625,0.26666668,7778100
0,2,0.0,1013.0,840.0,0.5625,0.26666668,7778116
0,2,0.0,1015.0,838.0,0.55,0.26666668,7778117
0,2,0.0,1017.0,837.0,0.5,0.26666668,7778134
0,2,0.0,1019.0,836.0,0.275,0.20000002,7778135
0,1,0.0,1019.0,836.0,0.275,0.20000002,7778152
0,0,0.0,957.0,1180.0,0.375,0.20000002,7778709
0,2,0.0,956.0,1178.0,0.5375,0.20000002,7778726
0,2,0.0,956.0,1175.0,0.5375,0.20000002,7778726
0,2,0.0,956.0,1170.0,0.5375,0.20000002,7778739
0,2,0.0,956.0,1161.0,0.5375,0.20000002,7778739
0,2,0.0,956.0,1148.0,0.5375,0.20000002,7778740
0,2,0.0,956.0,1139.0,0.55,0.20000002,7778740
0,2,0.0,956.0,1128.0,0.55,0.20000002,7778740
0,2,0.0,957.0,1116.0,0.55,0.20000002,7778753
0,2,0.0,958.0,1105.0,0.55,0.20000002,7778753
0,2,0.0,959.0,1093.0,0.55,0.20000002,7778765
0,2,0.0,960.0,1081.0,0.55,0.20000002,7778766
0,2,0.0,961.0,1068.0,0.55,0.20000002,7778780
0,2,0.0,963.0,1054.0,0.55,0.20000002,7778780
0,2,0.0,965.0,1040.0,0.55,0.20000002,7778804
0,2,0.0,967.0,1026.0,0.55,0.20000002,7778804
0,2,0.0,969.0,1012.0,0.55,0.20000002,7778816
0,2,0.0,971.0,998.0,0.55,0.20000002,7778817
0,2,0.0,974.0,982.0,0.575,0.20000002,7778829
0,2,0.0,977.0,968.0,0.575,0.20000002,7778829
0,2,0.0,980.0,954.0,0.575,0.20000002,7778847
0,2,0.0,982.0,942.0,0.575,0.20000002,7778847
0,2,0.0,985.0,930.0,0.575,0.20000002,7778865
0,2,0.0,988.0,917.0,0.575,0.20000002,7778865
0,2,0.0,990.0,905.0,0.575,0.20000002,7778879
0,2,0.0,992.0,894.0,0.575,0.20000002,7778880
0,2,0.0,994.0,885.0,0.575,0.20000002,7778898
0,2,0.0,996.0,877.0,0.575,0.20000002,7778898
0,2,0.0,997.0,871.0,0.5625,0.26666668,7778914
0,2,0.0,998.0,865.0,0.575,0.26666668,7778915
0,2,0.0,999.0,860.0,0.575,0.26666668,7778930
0,2,0.0,1000.0,856.0,0.575,0.26666668,7778931
0,2,0.0,1001.0,853.0,0.5625,0.26666668,7778957
0,2,0.0,1002.0,851.0,0.5625,0.26666668,7778958
0,2,0.0,1003.0,849.0,0.55,0.26666668,7778972
0,2,0.0,1004.0,847.0,0.32500002,0.20000002,7778972
0,1,0.0,1004.0,847.0,0.32500002,0.20000002,7778984
0,0,0.0,962.0,1169.0,0.4375,0.20000002,7779626
0,2,0.0,960.0,1167.0,0.5375,0.20000002,7779642
0,2,0.0,958.0,1165.0,0.5375,0.20000002,7779642
0,2,0.0,956.0,1161.0,0.5375,0.20000002,7779643
0,2,0.0,954.0,1151.0,0.5375,0.20000002,7779643
0,2,0.0,952.0,1131.0,0.5625,0.20000002,7779643
0,2,0.0,952.0,1118.0,0.5625,0.20000002,7779644
0,2,0.0,952.0,1104.0,0.5625,0.20000002,7779644
0,2,0.0,953.0,1090.0,0.5625,0.20000002,7779662
0,2,0.0,954.0,1075.0,0.5625,0.20000002,7779662
0,2,0.0,955.0,1059.0,0.5625,0.20000002,7779676
0,2,0.0,957.0,1044.0,0.5625,0.20000002,7779676
0,2,0.0,959.0,1030.0,0.5625,0.20000002,7779709
0,2,0.0,961.0,1017.0,0.5625,0.20000002,7779710
0,2,0.0,964.0,1002.0,0.5625,0.20000002,7779710
0,2,0.0,967.0,987.0,0.5625,0.20000002,7779710
0,2,0.0,970.0,974.0,0.5625,0.20000002,7779743
0,2,0.0,973.0,962.0,0.5625,0.20000002,7779744
0,2,0.0,976.0,951.0,0.5625,0.20000002,7779744
0,2,0.0,979.0,941.0,0.5625,0.20000002,7779744
0,2,0.0,982.0,931.0,0.5625,0.20000002,7779776
0,2,0.0,985.0,922.0,0.5625,0.20000002,7779777
0,2,0.0,988.0,912.0,0.5625,0.20000002,7779777
0,2,0.0,990.0,904.0,0.5625,0.20000002,7779777
0,2,0.0,992.0,897.0,0.5625,0.20000002,7779810
0,2,0.0,994.0,890.0,0.5625,0.26666668,7779811
0,2,0.0,996.0,885.0,0.5625,0.26666668,7779811
0,2,0.0,998.0,881.0,0.5375,0.26666668,7779812
0,2,0.0,1000.0,878.0,0.3125,0.20000002,7779851
0,1,0.0,1000.0,878.0,0.3125,0.20000002,7779852
0,0,0.0,931.0,1147.0,0.55,0.26666668,7780576
0,2,0.0,931.0,1146.0,0.55,0.26666668,7780592
0,2,0.0,931.0,1142.0,0.55,0.26666668,7780592
0,2,0.0,933.0,1133.0,0.5625,0.26666668,7780592
0,2,0.0,937.0,1116.0,0.5625,0.26666668,7780592
0,2,0.0,940.0,1105.0,0.5625,0.26666668,7780593
0,2,0.0,943.0,1094.0,0.5625,0.26666668,7780593
0,2,0.0,946.0,1081.0,0.5625,0.26666668,7780610
0,2,0.0,949.0,1067.0,0.5625,0.26666668,7780611
0,2,0.0,952.0,1053.0,0.5625,0.26666668,7780625
0,2,0.0,955.0,1039.0,0.5625,0.26666668,7780626
0,2,0.0,958.0,1026.0,0.5625,0.26666668,7780642
0,2,0.0,961.0,1014.0,0.5625,0.26666668,7780643
0,2,0.0,964.0,1000.0,0.5625,0.26666668,7780659
0,2,0.0,967.0,987.0,0.5625,0.26666668,7780659
0,2,0.0,970.0,973.0,0.5625,0.26666668,7780679
0,2,0.0,973.0,960.0,0.5625,0.26666668,7780679
0,2,0.0,976.0,947.0,0.5625,0.26666668,7780696
0,2,0.0,979.0,935.0,0.5625,0.26666668,7780696
0,2,0.0,982.0,923.0,0.5625,0.26666668,7780712
0,2,0.0,985.0,912.0,0.5625,0.26666668,7780712
0,2,0.0,987.0,903.0,0.5625,0.26666668,7780730
0,2,0.0,990.0,894.0,0.5625,0.26666668,7780730
0,2,0.0,992.0,886.0,0.5625,0.26666668,7780747
0,2,0.0,994.0,880.0,0.5625,0.26666668,7780747
0,2,0.0,996.0,875.0,0.5625,0.26666668,7780764
0,2,0.0,998.0,871.0,0.55,0.26666668,7780764
0,2,0.0,1000.0,867.0,0.4125,0.26666668,7780793
0,1,0.0,1000.0,867.0,0.4125,0.26666668,7780802
0,0,0.0,935.0,1156.0,0.52500004,0.26666668,7781542
0,2,0.0,934.0,1155.0,0.5375,0.26666668,7781558
0,2,0.0,932.0,1152.0,0.5375,0.26666668,7781558
0,2,0.0,931.0,1145.0,0.5375,0.26666668,7781558
0,2,0.0,931.0,1130.0,0.55,0.26666668,7781558
0,2,0.0,931.0,1119.0,0.55,0.26666668,7781559
0,2,0.0,932.0,1107.0,0.55,0.26666668,7781559
0,2,0.0,933.0,1093.0,0.55,0.26666668,7781592
0,2,0.0,934.0,1076.0,0.55,0.26666668,7781592
0,2,0.0,936.0,1057.0,0.55,0.26666668,7781593
0,2,0.0,938.0,1040.0,0.55,0.26666668,7781593
0,2,0.0,940.0,1022.0,0.55,0.26666668,7781626
0,2,0.0,942.0,1004.0,0.55,0.26666668,7781626
0,2,0.0,945.0,986.0,0.55,0.26666668,7781627
0,2,0.0,947.0,970.0,0.55,0.26666668,7781627
0,2,0.0,949.0,956.0,0.55,0.26666668,7781659
0,2,0.0,951.0,942.0,0.575,0.26666668,7781659
0,2,0.0,953.0,929.0,0.575,0.26666668,7781660
0,2,0.0,955.0,918.0,0.575,0.26666668,7781660
0,2,0.0,956.0,907.0,0.575,0.26666668,7781693
0,2,0.0,957.0,898.0,0.575,0.26666668,7781697
0,2,0.0,958.0,890.0,0.575,0.26666668,7781697
0,2,0.0,959.0,883.0,0.575,0.26666668,7781697
0,2,0.0,960.0,877.0,0.575,0.26666668,7781726
0,2,0.0,961.0,872.0,0.575,0.26666668,7781727
0,2,0.0,962.0,868.0,0.5625,0.20000002,7781727
0,2,0.0,963.0,865.0,0.4625,0.20000002,7781727
0,1,0.0,963.0,865.0,0.4625,0.20000002,7781743
0,0,0.0,953.0,1178.0,0.3375,0.20000002,7782423
0,2,0.0,952.0,1178.0,0.45000002,0.20000002,7782438
0,2,0.0,950.0,1178.0,0.5125,0.20000002,7782462
0,2,0.0,948.0,1178.0,0.5375,0.20000002,7782462
0,2,0.0,946.0,1177.0,0.5375,0.20000002,7782462
0,2,0.0,944.0,1175.0,0.5375,0.20000002,7782462
0,2,0.0,942.0,1173.0,0.5375,0.20000002,7782463
0,2,0.0,941.0,1169.0,0.5375,0.20000002,7782463
0,2,0.0,941.0,1161.0,0.5375,0.20000002,7782463
0,2,0.0,942.0,1148.0,0.5375,0.20000002,7782463
0,2,0.0,943.0,1139.0,0.55,0.20000002,7782464
0,2,0.0,945.0,1129.0,0.55,0.20000002,7782465
0,2,0.0,947.0,1118.0,0.55,0.20000002,7782476
0,2,0.0,949.0,1106.0,0.55,0.20000002,7782476
0,2,0.0,951.0,1095.0,0.55,0.20000002,7782477
0,2,0.0,954.0,1083.0,0.55,0.20000002,7782477
0,2,0.0,957.0,1070.0,0.55,0.20000002,7782507
0,2,0.0,960.0,1057.0,0.55,0.20000002,7782507
0,2,0.0,963.0,1044.0,0.55,0.20000002,7782508
0,2,0.0,966.0,1032.0,0.55,0.20000002,7782508
0,2,0.0,969.0,1020.0,0.55,0.20000002,7782540
0,2,0.0,972.0,1007.0,0.55,0.20000002,7782540
0,2,0.0,975.0,993.0,0.55,0.20000002,7782541
0,2,0.0,978.0,980.0,0.55,0.20000002,7782541
0,2,0.0,980.0,968.0,0.55,0.20000002,7782574
0,2,0.0,982.0,957.0,0.55,0.20000002,7782574
0,2,0.0,984.0,947.0,0.55,0.20000002,7782575
0,2,0.0,985.0,939.0,0.55,0.20000002,7782575
0,2,0.0,986.0,932.0,0.55,0.20000002,7782608
0,2,0.0,987.0,925.0,0.55,0.20000002,7782608
0,2,0.0,988.0,919.0,0.55,0.20000002,7782608
0,2,0.0,989.0,914.0,0.55,0.20000002,7782609
0,2,0.0,990.0,909.0,0.55,0.20000002,7782642
0,2,0.0,991.0,905.0,0.55,0.20000002,7782655
0,2,0.0,992.0,901.0,0.55,0.20000002,7782655
0,2,0.0,993.0,898.0,0.55,0.20000002,7782656
0,2,0.0,994.0,895.0,0.55,0.20000002,7782659
0,2,0.0,995.0,893.0,0.5625,0.20000002,7782659
0,2,0.0,997.0,890.0,0.4125,0.20000002,7782676
0,1,0.0,997.0,890.0,0.4125,0.20000002,7782677
0,0,0.0,931.0,1186.0,0.52500004,0.26666668,7783320
0,2,0.0,930.0,1184.0,0.5375,0.26666668,7783337
0,2,0.0,930.0,1178.0,0.5375,0.26666668,7783337
0,2,0.0,930.0,1169.0,0.5375,0.26666668,7783337
0,2,0.0,931.0,1154.0,0.55,0.26666668,7783338
0,2,0.0,932.0,1144.0,0.55,0.26666668,7783338
0,2,0.0,934.0,1132.0,0.55,0.26666668,7783338
0,2,0.0,936.0,1119.0,0.55,0.26666668,7783357
0,2,0.0,938.0,1106.0,0.55,0.26666668,7783357
0,2,0.0,941.0,1093.0,0.55,0.26666668,7783371
0,2,0.0,943.0,1079.0,0.55,0.26666668,7783371
0,2,0.0,946.0,1064.0,0.55,0.26666668,7783405
0,2,0.0,949.0,1049.0,0.55,0.26666668,7783411
0,2,0.0,951.0,1035.0,0.55,0.26666668,7783411
0,2,0.0,954.0,1021.0,0.55,0.26666668,7783412
0,2,0.0,957.0,1006.0,0.55,0.26666668,7783439
0,2,0.0,959.0,991.0,0.55,0.26666668,7783439
0,2,0.0,961.0,977.0,0.55,0.26666668,7783440
0,2,0.0,963.0,964.0,0.55,0.26666668,7783440
0,2,0.0,965.0,953.0,0.55,0.26666668,7783456
0,2,0.0,967.0,942.0,0.575,0.26666668,7783456
0,2,0.0,969.0,932.0,0.575,0.26666668,7783490
0,2,0.0,971.0,923.0,0.575,0.26666668,7783490
0,2,0.0,973.0,914.0,0.575,0.26666668,7783490
0,2,0.0,975.0,906.0,0.575,0.26666668,7783491
0,2,0.0,977.0,899.0,0.575,0.26666668,7783520
0,2,0.0,978.0,894.0,0.575,0.26666668,7783520
0,2,0.0,979.0,889.0,0.575,0.26666668,7783535
0,2,0.0,980.0,885.0,0.575,0.26666668,7783535
0,2,0.0,981.0,882.0,0.575,0.26666668,7783552
0,2,0.0,982.0,880.0,0.575,0.26666668,7783553
0,2,0.0,983.0,878.0,0.5125,0.20000002,7783566
0,1,0.0,983.0,878.0,0.5125,0.20000002,7783566
0,0,0.0,937.0,1169.0,0.55,0.26666668,7784186
0,2,0.0,937.0,1167.0,0.55,0.26666668,7784201
0,2,0.0,937.0,1163.0,0.55,0.26666668,7784202
0,2,0.0,937.0,1156.0,0.55,0.26666668,7784203
0,2,0.0,940.0,1141.0,0.5625,0.26666668,7784204
0,2,0.0,942.0,1130.0,0.5625,0.26666668,7784204
0,2,0.0,945.0,1118.0,0.5625,0.26666668,7784204
0,2,0.0,948.0,1105.0,0.5625,0.26666668,7784222
0,2,0.0,951.0,1092.0,0.5625,0.26666668,7784223
0,2,0.0,954.0,1078.0,0.5625,0.26666668,7784253
0,2,0.0,957.0,1063.0,0.5625,0.26666668,7784256
0,2,0.0,960.0,1048.0,0.5625,0.26666668,7784256
0,2,0.0,963.0,1034.0,0.5625,0.26666668,7784256
0,2,0.0,966.0,1021.0,0.5625,0.26666668,7784270
0,2,0.0,969.0,1009.0,0.5625,0.26666668,7784271
0,2,0.0,972.0,997.0,0.5625,0.26666668,7784286
0,2,0.0,974.0,985.0,0.5625,0.26666668,7784287
0,2,0.0,976.0,974.0,0.5625,0.26666668,7784304
0,2,0.0,978.0,963.0,0.5625,0.26666668,7784304
0,2,0.0,980.0,952.0,0.5625,0.26666668,7784320
0,2,0.0,982.0,943.0,0.5625,0.26666668,7784321
0,2,0.0,984.0,934.0,0.5625,0.26666668,7784344
0,2,0.0,986.0,924.0,0.5625,0.26666668,7784344
0,2,0.0,988.0,915.0,0.5625,0.26666668,7784372
0,2,0.0,990.0,906.0,0.5625,0.26666668,7784372
0,2,0.0,992.0,898.0,0.5625,0.26666668,7784373
0,2,0.0,994.0,890.0,0.5625,0.26666668,7784373
0,2,0.0,996.0,884.0,0.5625,0.26666668,7784388
0,2,0.0,997.0,880.0,0.5625,0.26666668,7784389
0,2,0.0,998.0,877.0,0.55,0.26666668,7784406
0,2,0.0,1000.0,874.0,0.425,0.20000002,7784406
0,1,0.0,1000.0,874.0,0.425,0.20000002,7784424
0,0,0.0,971.0,1152.0,0.4625,0.20000002,7785033
0,2,0.0,969.0,1150.0,0.55,0.20000002,7785049
0,2,0.0,967.0,1147.0,0.55,0.20000002,7785049
0,2,0.0,963.0,1140.0,0.55,0.20000002,7785050
0,2,0.0,958.0,1127.0,0.55,0.20000002,7785050
0,2,0.0,955.0,1117.0,0.55,0.20000002,7785050
0,2,0.0,952.0,1105.0,0.55,0.20000002,7785051
0,2,0.0,950.0,1092.0,0.55,0.20000002,7785066
0,2,0.0,948.0,1077.0,0.55,0.20000002,7785067
0,2,0.0,947.0,1062.0,0.55,0.20000002,7785084
0,2,0.0,947.0,1045.0,0.55,0.20000002,7785084
0,2,0.0,947.0,1030.0,0.55,0.20000002,7785101
0,2,0.0,948.0,1016.0,0.55,0.20000002,7785101
0,2,0.0,949.0,1001.0,0.55,0.20000002,7785122
0,2,0.0,950.0,986.0,0.55,0.20000002,7785122
0,2,0.0,952.0,972.0,0.55,0.20000002,7785153
0,2,0.0,954.0,960.0,0.55,0.20000002,7785153
0,2,0.0,956.0,949.0,0.55,0.20000002,7785153
0,2,0.0,958.0,938.0,0.55,0.20000002,7785153
0,2,0.0,960.0,928.0,0.55,0.20000002,7785168
0,2,0.0,962.0,919.0,0.55,0.20000002,7785169
0,2,0.0,965.0,911.0,0.5625,0.20000002,7785185
0,2,0.0,967.0,903.0,0.5625,0.20000002,7785185
0,2,0.0,969.0,897.0,0.5625,0.20000002,7785203
0,2,0.0,971.0,891.0,0.5625,0.20000002,7785203
0,2,0.0,973.0,886.0,0.5625,0.20000002,7785221
0,2,0.0,975.0,881.0,0.5625,0.20000002,7785221
0,2,0.0,977.0,878.0,0.5625,0.20000002,7785238
0,2,0.0,979.0,875.0,0.5625,0.20000002,7785238
0,2,0.0,981.0,872.0,0.52500004,0.20000002,7785254
0,1,0.0,981.0,872.0,0.52500004,0.20000002,7785254
0,0,0.0,938.0,1172.0,0.55,0.26666668,7785914
0,2,0.0,937.0,1171.0,0.55,0.26666668,7785931
0,2,0.0,936.0,1168.0,0.55,0.26666668,7785931
0,2,0.0,936.0,1161.0,0.55,0.26666668,7785932
0,2,0.0,937.0,1149.0,0.5625,0.26666668,7785932
0,2,0.0,940.0,1126.0,0.5625,0.26666668,7785932
0,2,0.0,943.0,1113.0,0.5625,0.26666668,7785933
0,2,0.0,946.0,1099.0,0.5625,0.26666668,7785933
0,2,0.0,950.0,1085.0,0.5625,0.26666668,7785948
0,2,0.0,955.0,1069.0,0.5625,0.26666668,7785951
0,2,0.0,960.0,1053.0,0.5625,0.26666668,7785979
0,2,0.0,965.0,1038.0,0.5625,0.26666668,7785980
0,2,0.0,970.0,1024.0,0.5625,0.26666668,7785994
0,2,0.0,975.0,1010.0,0.5625,0.26666668,7785994
0,2,0.0,980.0,996.0,0.5625,0.26666668,7786008
0,2,0.0,985.0,981.0,0.5625,0.26666668,7786008
0,2,0.0,989.0,967.0,0.5625,0.26666668,7786023
0,2,0.0,993.0,955.0,0.5625,0.26666668,7786038
0,2,0.0,996.0,944.0,0.575,0.26666668,7786050
0,2,0.0,999.0,934.0,0.575,0.26666668,7786050
0,2,0.0,1001.0,924.0,0.575,0.26666668,7786051
0,2,0.0,1003.0,915.0,0.575,0.26666668,7786051
0,2,0.0,1005.0,907.0,0.5625,0.26666668,7786066
0,2,0.0,1007.0,900.0,0.5625,0.26666668,7786067
0,2,0.0,1009.0,894.0,0.55,0.26666668,7786083
0,2,0.0,1011.0,888.0,0.4375,0.20000002,7786083
0,2,0.0,1012.0,884.0,0.2875,0.20000002,7786101
0,1,0.0,1012.0,884.0,0.2875,0.20000002,7786102
0,0,0.0,937.0,1163.0,0.5625,0.26666668,7786796
0,2,0.0,936.0,1162.0,0.55,0.26666668,7786813
0,2,0.0,935.0,1159.0,0.55,0.26666668,7786813
0,2,0.0,935.0,1154.0,0.55,0.26666668,7786813
0,2,0.0,935.0,1144.0,0.55,0.26666668,7786814
0,2,0.0,935.0,1124.0,0.5625,0.26666668,7786814
0,2,0.0,936.0,1111.0,0.5625,0.26666668,7786814
0,2,0.0,937.0,1097.0,0.5625,0.26666668,7786815
0,2,0.0,938.0,1081.0,0.5625,0.26666668,7786829
0,2,0.0,940.0,1063.0,0.5625,0.26666668,7786830
0,2,0.0,942.0,1047.0,0.5625,0.26666668,7786849
0,2,0.0,944.0,1032.0,0.5625,0.26666668,7786849
0,2,0.0,946.0,1017.0,0.5625,0.26666668,7786864
0,2,0.0,948.0,1003.0,0.5625,0.26666668,7786864
0,2,0.0,950.0,988.0,0.5625,0.26666668,7786883
0,2,0.0,952.0,975.0,0.5625,0.26666668,7786884
0,2,0.0,953.0,963.0,0.5625,0.26666668,7786899
0,2,0.0,955.0,952.0,0.5625,0.26666668,7786902
0,2,0.0,956.0,943.0,0.5625,0.26666668,7786934
0,2,0.0,957.0,934.0,0.5625,0.26666668,7786934
0,2,0.0,958.0,924.0,0.5625,0.26666668,7786934
0,2,0.0,960.0,915.0,0.5625,0.26666668,7786935
0,2,0.0,961.0,906.0,0.5625,0.26666668,7786948
0,2,0.0,962.0,899.0,0.5625,0.26666668,7786949
0,2,0.0,963.0,893.0,0.5625,0.26666668,7786965
0,2,0.0,964.0,888.0,0.5625,0.26666668,7786965
0,2,0.0,965.0,883.0,0.5625,0.26666668,7786989
0,2,0.0,966.0,880.0,0.5625,0.26666668,7786989
0,2,0.0,967.0,877.0,0.475,0.20000002,7787003
0,1,0.0,967.0,877.0,0.475,0.20000002,7787004
0,0,0.0,930.0,1169.0,0.55,0.26666668,7787627
0,2,0.0,930.0,1168.0,0.55,0.26666668,7787644
0,2,0.0,930.0,1164.0,0.55,0.26666668,7787644
0,2,0.0,932.0,1157.0,0.55,0.26666668,7787644
0,2,0.0,936.0,1144.0,0.5625,0.26666668,7787645
0,2,0.0,939.0,1134.0,0.5625,0.26666668,7787645
0,2,0.0,942.0,1123.0,0.5625,0.26666668,7787645
0,2,0.0,946.0,1111.0,0.5625,0.26666668,7787661
0,2,0.0,950.0,1099.0,0.5625,0.26666668,7787664
0,2,0.0,954.0,1086.0,0.5625,0.26666668,7787679
0,2,0.0,958.0,1072.0,0.5625,0.26666668,7787680
0,2,0.0,962.0,1057.0,0.5625,0.26666668,7787698
0,2,0.0,966.0,1042.0,0.5625,0.26666668,7787698
0,2,0.0,969.0,1029.0,0.5625,0.26666668,7787712
0,2,0.0,973.0,1016.0,0.5625,0.26666668,7787712
0,2,0.0,976.0,1002.0,0.5625,0.26666668,7787730
0,2,0.0,979.0,989.0,0.5625,0.26666668,7787730
0,2,0.0,981.0,976.0,0.5625,0.26666668,7787749
0,2,0.0,983.0,964.0,0.5625,0.26666668,7787749
0,2,0.0,984.0,954.0,0.5625,0.26666668,7787765
0,2,0.0,985.0,946.0,0.5625,0.26666668,7787766
0,2,0.0,986.0,938.0,0.5625,0.26666668,7787796
0,2,0.0,987.0,930.0,0.5625,0.26666668,7787797
0,2,0.0,988.0,923.0,0.5625,0.26666668,7787797
0,2,0.0,989.0,917.0,0.5625,0.26666668,7787797
0,2,0.0,990.0,911.0,0.5625,0.26666668,7787814
0,2,0.0,991.0,906.0,0.5625,0.26666668,7787819
0,2,0.0,992.0,902.0,0.5625,0.26666668,7787832
0,2,0.0,993.0,898.0,0.5625,0.26666668,7787832
0,2,0.0,994.0,895.0,0.5625,0.26666668,7787847
0,2,0.0,995.0,892.0,0.5625,0.26666668,7787847
0,2,0.0,995.0,890.0,0.5625,0.20000002,7787868
0,2,0.0,996.0,888.0,0.5625,0.20000002,7787868
0,2,0.0,997.0,887.0,0.3,0.20000002,7787886
0,1,0.0,997.0,887.0,0.3,0.20000002,7787886
0,0,0.0,961.0,1161.0,0.5,0.20000002,7788527
0,2,0.0,959.0,1159.0,0.52500004,0.20000002,7788543
0,2,0.0,957.0,1155.0,0.55,0.20000002,7788543
0,2,0.0,955.0,1150.0,0.55,0.20000002,7788543
0,2,0.0,953.0,1141.0,0.55,0.20000002,7788543
0,2,0.0,951.0,1125.0,0.55,0.20000002,7788543
0,2,0.0,950.0,1115.0,0.55,0.20000002,7788544
0,2,0.0,949.0,1103.0,0.55,0.20000002,7788544
0,2,0.0,949.0,1089.0,0.55,0.20000002,7788576
0,2,0.0,949.0,1074.0,0.55,0.20000002,7788577
0,2,0.0,949.0,1057.0,0.55,0.20000002,7788577
0,2,0.0,949.0,1041.0,0.55,0.20000002,7788577
0,2,0.0,950.0,1027.0,0.55,0.20000002,7788610
0,2,0.0,951.0,1012.0,0.5625,0.20000002,7788611
0,2,0.0,952.0,998.0,0.5625,0.20000002,7788611
0,2,0.0,954.0,983.0,0.5625,0.20000002,7788628
0,2,0.0,956.0,970.0,0.5625,0.20000002,7788645
0,2,0.0,958.0,958.0,0.5625,0.20000002,7788645
0,2,0.0,960.0,947.0,0.5625,0.20000002,7788645
0,2,0.0,962.0,937.0,0.5625,0.20000002,7788646
0,2,0.0,964.0,926.0,0.5625,0.20000002,7788661
0,2,0.0,966.0,916.0,0.5625,0.20000002,7788661
0,2,0.0,968.0,907.0,0.5625,0.20000002,7788694
0,2,0.0,970.0,899.0,0.5625,0.20000002,7788694
0,2,0.0,971.0,892.0,0.5625,0.20000002,7788695
0,2,0.0,972.0,885.0,0.5625,0.20000002,7788695
0,2,0.0,973.0,879.0,0.5625,0.20000002,7788728
0,2,0.0,974.0,875.0,0.5625,0.20000002,7788728
0,2,0.0,975.0,871.0,0.5625,0.20000002,7788729
0,2,0.0,976.0,868.0,0.5625,0.20000002,7788729
0,2,0.0,977.0,865.0,0.5625,0.20000002,7788745
0,2,0.0,978.0,863.0,0.5625,0.20000002,7788745
0,2,0.0,979.0,861.0,0.5,0.20000002,7788763
0,1,0.0,979.0,861.0,0.5,0.20000002,7788763
0,0,0.0,939.0,1144.0,0.55,0.26666668,7789408
0,2,0.0,938.0,1143.0,0.55,0.26666668,7789424
0,2,0.0,936.0,1141.0,0.55,0.26666668,7789425
0,2,0.0,934.0,1136.0,0.5625,0.26666668,7789426
0,2,0.0,933.0,1128.0,0.5625,0.26666668,7789426
0,2,0.0,933.0,1114.0,0.5625,0.26666668,7789426
0,2,0.0,933.0,1105.0,0.5625,0.26666668,7789427
0,2,0.0,934.0,1095.0,0.5625,0.26666668,7789427
0,2,0.0,936.0,1083.0,0.5625,0.26666668,7789441
0,2,0.0,938.0,1068.0,0.5625,0.26666668,7789442
0,2,0.0,941.0,1051.0,0.5625,0.26666668,7789458
0,2,0.0,945.0,1036.0,0.5625,0.26666668,7789458
0,2,0.0,949.0,1020.0,0.5625,0.26666668,7789475
0,2,0.0,953.0,1003.0,0.5625,0.26666668,7789487
0,2,0.0,957.0,985.0,0.5625,0.26666668,7789500
0,2,0.0,961.0,969.0,0.5625,0.26666668,7789500
0,2,0.0,965.0,954.0,0.5625,0.26666668,7789514
0,2,0.0,969.0,941.0,0.5625,0.26666668,7789514
0,2,0.0,973.0,926.0,0.5625,0.26666668,7789528
0,2,0.0,977.0,913.0,0.5625,0.26666668,7789528
0,2,0.0,980.0,902.0,0.5625,0.26666668,7789543
0,2,0.0,983.0,890.0,0.5625,0.26666668,7789544
0,2,0.0,986.0,881.0,0.5625,0.26666668,7789561
0,2,0.0,988.0,873.0,0.5625,0.26666668,7789562
0,2,0.0,990.0,866.0,0.5625,0.26666668,7789578
0,2,0.0,992.0,860.0,0.5625,0.26666668,7789579
0,2,0.0,993.0,855.0,0.5625,0.26666668,7789595
0,2,0.0,994.0,850.0,0.5625,0.26666668,7789595
0,2,0.0,995.0,846.0,0.5625,0.26666668,7789612
0,2,0.0,996.0,843.0,0.5625,0.26666668,7789613
0,2,0.0,997.0,841.0,0.3375,0.20000002,7789634
0,1,0.0,997.0,841.0,0.3375,0.20000002,7789634
0,0,0.0,940.0,1150.0,0.5375,0.26666668,7790271
0,2,0.0,939.0,1149.0,0.55,0.26666668,7790288
0,2,0.0,937.0,1146.0,0.55,0.26666668,7790288
0,2,0.0,937.0,1141.0,0.55,0.26666668,7790288
0,2,0.0,937.0,1131.0,0.55,0.26666668,7790289
0,2,0.0,938.0,1113.0,0.55,0.26666668,7790289
0,2,0.0,940.0,1102.0,0.55,0.26666668,7790289
0,2,0.0,942.0,1090.0,0.55,0.26666668,7790290
0,2,0.0,945.0,1076.0,0.55,0.26666668,7790322
0,2,0.0,948.0,1060.0,0.55,0.26666668,7790322
0,2,0.0,951.0,1044.0,0.55,0.26666668,7790323
0,2,0.0,955.0,1029.0,0.5625,0.26666668,7790335
