0,2,0.0,770.94354,936.39044,0.26666668,0.3254902,8053468
0,2,0.0,771.52374,934.6494,0.26666668,0.32941177,8053508
0,2,0.0,780.8513,905.32623,0.26666668,0.32941177,8053509
0,2,0.0,791.5114,876.0031,0.26666668,0.32941177,8053509
0,2,0.0,800.839,852.0114,0.26666668,0.32941177,8053510
0,2,0.0,810.16656,828.0198,0.26666668,0.32941177,8053510
0,2,0.0,818.8279,805.36096,0.26666668,0.32941177,8053511
0,2,0.0,822.9636,793.77783,0.26666668,0.32941177,8053518
0,2,0.0,825.4905,786.70074,0.26666668,0.3254902,8053559
0,2,0.0,830.8205,772.7056,0.3,0.32941177,8053560
0,2,0.0,834.81805,761.3762,0.26666668,0.3254902,8053560
0,2,0.0,838.1493,752.7126,0.26666668,0.32941177,8053560
0,2,0.0,840.81433,745.3818,0.26666668,0.3254902,8053561
0,2,0.0,842.8131,739.38385,0.26666668,0.32941177,8053561
0,2,0.0,843.4865,737.81226,0.26666668,0.32941177,8053562
0,2,0.0,844.8119,734.7188,0.26666668,0.32941177,8053595
0,2,0.0,846.14435,730.7202,0.26666668,0.32941177,8053596
0,2,0.0,847.47687,728.05444,0.26666668,0.3254902,8053596
0,2,0.0,848.1431,726.0552,0.26666668,0.3254902,8053596
0,2,0.0,848.22327,725.89484,0.26666668,0.3254902,8053597
0,2,0.0,848.8094,724.7223,0.26666668,0.32156864,8053629
0,2,0.0,849.47565,724.05585,0.26666668,0.30980393,8053630
0,1,0.0,849.47565,724.05585,0.26666668,0.30980393,8053631
0,0,0.0,687.57556,1489.7899,0.26666668,0.30588236,8054028
0,2,0.0,687.57556,1487.1243,0.26666668,0.3254902,8054119
0,2,0.0,687.57556,1482.7836,0.26666668,0.3254902,8054119
0,2,0.0,687.57556,1482.4591,0.26666668,0.3254902,8054135
0,2,0.0,688.2418,1475.7948,0.26666668,0.32941177,8054136
0,2,0.0,688.7967,1468.0247,0.26666668,0.32941177,8054136
0,2,0.0,688.9081,1466.4647,0.26666668,0.32941177,8054167
0,2,0.0,689.57434,1449.8038,0.26666668,0.32941177,8054168
0,2,0.0,690.0598,1433.294,0.26666668,0.32941177,8054168
0,2,0.0,690.2406,1427.145,0.26666668,0.32941177,8054199
0,2,0.0,690.90686,1403.1533,0.26666668,0.32941177,8054200
0,2,0.0,692.2394,1369.1652,0.26666668,0.32941177,8054200
0,2,0.0,694.23816,1337.1763,0.26666668,0.32941177,8054200
0,2,0.0,695.9875,1316.8784,0.26666668,0.32941177,8054201
0,2,0.0,697.5694,1298.5231,0.26666668,0.33333334,8054233
0,2,0.0,700.9007,1260.5363,0.26666668,0.33333334,8054233
0,2,0.0,706.897,1219.2173,0.26666668,0.33333334,8054234
0,2,0.0,714.2258,1179.8976,0.26666668,0.33333334,8054234
0,2,0.0,717.23224,1165.0763,0.26666668,0.33333334,8054235
0,2,0.0,723.5534,1133.9136,0.26666668,0.33333334,8054279
0,2,0.0,733.54724,1093.9274,0.26666668,0.33333334,8054279
0,2,0.0,743.541,1047.9434,0.26666668,0.33333334,8054280
0,2,0.0,752.2024,1011.2894,0.26666668,0.32941177,8054280
0,2,0.0,761.52997,969.97046,0.26666668,0.32941177,8054281
0,2,0.0,770.1913,937.3151,0.26666668,0.33333334,8054281
0,2,0.0,770.4283,936.53625,0.26666668,0.33333334,8054282
0,2,0.0,779.51886,906.6591,0.26666668,0.33333334,8054316
0,2,0.0,788.84644,876.66956,0.26666668,0.33333334,8054316
0,2,0.0,796.8415,854.01074,0.26666668,0.33333334,8054317
0,2,0.0,802.9218,836.87067,0.26666668,0.33333334,8054318
0,2,0.0,804.1703,833.35126,0.26666668,0.33333334,8054350
0,2,0.0,810.8328,813.35815,0.26666668,0.33333334,8054350
0,2,0.0,816.82916,796.0309,0.26666668,0.32941177,8054351
0,2,0.0,821.4929,782.70215,0.26666668,0.33333334,8054351
0,2,0.0,823.9173,776.2355,0.26666668,0.33333334,8054352
0,2,0.0,825.4905,772.0392,0.26666668,0.32941177,8054384
0,2,0.0,828.15546,764.042,0.3,0.32941177,8054385
0,2,0.0,830.15424,758.04407,0.3,0.32941177,8054385
0,2,0.0,831.48676,753.379,0.3,0.32941177,8054386
0,2,0.0,832.0421,751.9902,0.3,0.32941177,8054386
0,2,0.0,832.8193,750.0468,0.3,0.32941177,8054426
0,2,0.0,834.1518,748.04755,0.3,0.32941177,8054427
0,2,0.0,834.81805,746.71466,0.26666668,0.3254902,8054427
0,2,0.0,835.4843,746.0482,0.26666668,0.3137255,8054428
0,1,0.0,835.4843,746.0482,0.26666668,0.3137255,8054428
0,0,0.0,695.5707,1493.1221,0.26666668,0.3137255,8054910
0,2,0.0,689.57434,1443.8059,0.26666668,0.32941177,8054983
0,2,0.0,689.0672,1428.0802,0.26666668,0.32941177,8054983
0,2,0.0,688.9081,1423.1465,0.26666668,0.32941177,8054999
0,2,0.0,688.9081,1400.4877,0.26666668,0.33333334,8054999
0,2,0.0,689.34186,1379.6613,0.26666668,0.33333334,8055000
0,2,0.0,689.57434,1368.4988,0.26666668,0.33333334,8055032
0,2,0.0,690.90686,1338.5092,0.26666668,0.33333334,8055033
0,2,0.0,692.75476,1318.1771,0.26666668,0.33333334,8055033
0,2,0.0,694.23816,1301.8552,0.26666668,0.33333334,8055065
0,2,0.0,698.9019,1263.8684,0.26666668,0.33333334,8055065
0,2,0.0,705.5645,1225.2152,0.26666668,0.33333334,8055066
0,2,0.0,714.2258,1185.229,0.26666668,0.33333334,8055067
0,2,0.0,718.0352,1170.2255,0.26666668,0.33333334,8055068
0,2,0.0,724.88586,1143.2437,0.26666668,0.33333334,8055100
0,2,0.0,735.54596,1104.5903,0.26666668,0.33333334,8055101
0,2,0.0,746.20605,1064.6042,0.26666668,0.33333334,8055102
0,2,0.0,755.5336,1026.6174,0.3,0.32941177,8055102
0,2,0.0,764.8612,989.9635,0.26666668,0.33333334,8055103
0,2,0.0,774.1888,952.6432,0.26666668,0.33333334,8055103
0,2,0.0,774.7527,950.3871,0.26666668,0.33333334,8055103
0,2,0.0,783.51636,920.65424,0.26666668,0.33333334,8055141
0,2,0.0,793.5102,886.6661,0.26666668,0.33333334,8055142
0,2,0.0,801.50525,860.00867,0.26666668,0.33333334,8055142
0,2,0.0,807.79065,840.57574,0.26666668,0.33333334,8055142
0,2,0.0,808.83405,837.34985,0.26666668,0.33333334,8055177
0,2,0.0,814.8304,814.0246,0.26666668,0.33333334,8055178
0,2,0.0,819.49414,794.698,0.26666668,0.33333334,8055178
0,2,0.0,823.4917,780.03644,0.26666668,0.33333334,8055179
0,2,0.0,825.23065,772.644,0.26666668,0.33333334,8055179
0,2,0.0,826.15674,768.70703,0.3,0.33333334,8055212
0,2,0.0,828.15546,760.04333,0.26666668,0.33333334,8055213
0,2,0.0,830.15424,754.0454,0.26666668,0.33333334,8055213
0,2,0.0,831.48676,749.3804,0.26666668,0.32941177,8055214
0,2,0.0,832.0937,747.8626,0.26666668,0.32941177,8055214
0,2,0.0,832.8193,746.0482,0.26666668,0.32941177,8055249
0,2,0.0,833.48553,743.38245,0.26666668,0.32941177,8055250
0,2,0.0,834.1518,741.3832,0.26666668,0.3254902,8055250
0,2,0.0,834.81805,740.71674,0.26666668,0.3137255,8055251
0,1,0.0,834.81805,740.71674,0.26666668,0.3137255,8055252
0,0,0.0,686.90936,1456.4681,0.26666668,0.3137255,8055706
0,2,0.0,686.2431,1437.808,0.26666668,0.32941177,8055780
0,2,0.0,686.8935,1422.8452,0.26666668,0.32941177,8055780
0,2,0.0,686.90936,1422.48,0.26666668,0.32941177,8055796
0,2,0.0,687.57556,1405.8191,0.26666668,0.32941177,8055797
0,2,0.0,688.7418,1386.5709,0.26666668,0.32941177,8055797
0,2,0.0,688.9081,1383.8268,0.26666668,0.32941177,8055830
0,2,0.0,691.5731,1355.8364,0.26666668,0.32941177,8055830
0,2,0.0,694.23816,1330.512,0.26666668,0.32941177,8055831
0,2,0.0,698.9019,1297.8566,0.26666668,0.33333334,8055831
0,2,0.0,702.5414,1275.1038,0.26666668,0.33333334,8055831
0,2,0.0,704.232,1264.5348,0.3,0.33333334,8055863
0,2,0.0,710.2283,1229.8802,0.26666668,0.33333334,8055864
0,2,0.0,718.2233,1190.5605,0.3,0.33333334,8055864
0,2,0.0,726.88464,1152.5737,0.26666668,0.32941177,8055865
0,2,0.0,731.75165,1133.1005,0.26666668,0.32941177,8055865
0,2,0.0,736.8785,1112.5876,0.26666668,0.33333334,8055906
0,2,0.0,746.20605,1075.2672,0.26666668,0.33333334,8055906
0,2,0.0,755.5336,1036.614,0.26666668,0.32941177,8055908
0,2,0.0,764.19495,1004.6251,0.26666668,0.33333334,8055908
0,2,0.0,766.8595,994.34485,0.26666668,0.33333334,8055908
0,2,0.0,773.5225,968.6376,0.26666668,0.32941177,8055952
0,2,0.0,782.18384,939.31445,0.26666668,0.33333334,8055953
0,2,0.0,790.84515,911.32416,0.26666668,0.33333334,8055953
0,2,0.0,800.1727,883.33386,0.26666668,0.33333334,8055953
0,2,0.0,808.16785,859.3422,0.3,0.33333334,8055954
0,2,0.0,815.3528,839.7415,0.3,0.33333334,8055954
0,2,0.0,815.49664,839.3491,0.26666668,0.32941177,8055986
0,2,0.0,822.1592,818.68964,0.26666668,0.33333334,8055987
0,2,0.0,828.15546,799.36304,0.26666668,0.32941177,8055987
0,2,0.0,832.8193,783.3686,0.26666668,0.32941177,8055988
0,2,0.0,835.93225,773.50806,0.26666668,0.32941177,8055988
0,2,0.0,836.8168,770.7063,0.3,0.32941177,8056023
0,2,0.0,840.1481,760.7098,0.26666668,0.32941177,8056023
0,2,0.0,842.8131,752.04614,0.26666668,0.32941177,8056024
0,2,0.0,845.47815,744.71533,0.26666668,0.32941177,8056024
0,2,0.0,846.61914,741.6717,0.26666668,0.32941177,8056025
0,2,0.0,847.47687,739.38385,0.26666668,0.32941177,8056059
0,2,0.0,848.8094,734.7188,0.26666668,0.32941177,8056059
0,2,0.0,850.1419,731.38666,0.26666668,0.32941177,8056060
0,2,0.0,851.4744,729.3873,0.26666668,0.32941177,8056060
0,2,0.0,851.7205,728.895,0.26666668,0.32941177,8056061
0,2,0.0,852.1407,728.05444,0.26666668,0.3254902,8056097
0,2,0.0,852.80695,727.38806,0.26666668,0.31764707,8056097
0,2,0.0,854.13947,727.38806,0.3,0.29803923,8056098
0,1,0.0,854.13947,727.38806,0.3,0.29803923,8056099
0,0,0.0,682.9118,1475.7948,0.26666668,0.3137255,8056545
0,2,0.0,681.5793,1466.4647,0.26666668,0.32941177,8056610
0,2,0.0,681.57715,1466.4498,0.26666668,0.32941177,8056611
0,2,0.0,680.913,1457.801,0.26666668,0.32941177,8056627
0,2,0.0,680.913,1444.5651,0.26666668,0.32941177,8056627
0,2,0.0,680.913,1443.1395,0.26666668,0.32941177,8056670
0,2,0.0,682.24554,1424.4792,0.26666668,0.32941177,8056671
0,2,0.0,683.57806,1404.4862,0.26666668,0.32941177,8056671
0,2,0.0,686.2431,1376.496,0.26666668,0.32941177,8056672
0,2,0.0,688.6224,1354.6003,0.26666668,0.32941177,8056672
0,2,0.0,689.57434,1345.84,0.3,0.32941177,8056714
0,2,0.0,694.23816,1313.8511,0.26666668,0.32941177,8056715
0,2,0.0,699.5682,1273.865,0.26666668,0.32941177,8056715
0,2,0.0,706.897,1235.2117,0.26666668,0.33333334,8056716
0,2,0.0,715.5583,1191.2269,0.3,0.33333334,8056717
0,2,0.0,724.21967,1149.2416,0.26666668,0.32941177,8056718
0,2,0.0,728.46027,1131.1434,0.26666668,0.32941177,8056719
0,2,0.0,734.21344,1106.5897,0.26666668,0.33333334,8056761
0,2,0.0,743.541,1063.9379,0.26666668,0.33333334,8056762
0,2,0.0,752.2024,1023.95166,0.26666668,0.32941177,8056762
0,2,0.0,760.19745,983.2992,0.26666668,0.32941177,8056762
0,2,0.0,767.52625,947.31165,0.3,0.32941177,8056763
0,2,0.0,773.54803,924.22186,0.3,0.32941177,8056763
0,2,0.0,775.5213,916.65564,0.26666668,0.33333334,8056804
0,2,0.0,783.51636,885.99963,0.26666668,0.33333334,8056805
0,2,0.0,790.1789,862.00793,0.3,0.33333334,8056805
0,2,0.0,796.8415,842.0149,0.26666668,0.33333334,8056806
0,2,0.0,802.201,827.00415,0.26666668,0.33333334,8056806
0,2,0.0,803.504,823.35474,0.26666668,0.33333334,8056839
0,2,0.0,809.5003,805.36096,0.26666668,0.33333334,8056839
0,2,0.0,814.1641,790.6994,0.26666668,0.33333334,8056840
0,2,0.0,818.1616,778.70355,0.26666668,0.33333334,8056840
0,2,0.0,820.4955,772.167,0.26666668,0.33333334,8056840
0,2,0.0,821.4929,769.3735,0.26666668,0.33333334,8056873
0,2,0.0,824.15796,762.04266,0.3,0.32941177,8056874
0,2,0.0,826.823,756.7112,0.3,0.32941177,8056875
0,2,0.0,828.8217,752.7126,0.3,0.32941177,8056875
0,2,0.0,829.5079,751.33984,0.3,0.32941177,8056875
0,2,0.0,830.15424,750.0468,0.3,0.3254902,8056917
0,2,0.0,831.48676,748.04755,0.3,0.31764707,8056918
0,2,0.0,832.153,747.3811,0.26666668,0.3019608,8056918
0,1,0.0,832.153,747.3811,0.26666668,0.3019608,8056919
0,0,0.0,652.26404,1543.7712,0.26666668,0.31764707,8057357
0,2,0.0,650.9315,1540.439,0.26666668,0.33333334,8057424
0,2,0.0,649.599,1536.4404,0.26666668,0.33333334,8057424
0,2,0.0,649.39703,1535.8344,0.26666668,0.33333334,8057425
0,2,0.0,648.9328,1530.4425,0.26666668,0.33333334,8057440
0,2,0.0,648.26654,1521.1124,0.26666668,0.33333334,8057441
0,2,0.0,648.23047,1520.6077,0.26666668,0.33333334,8057441
0,2,0.0,648.26654,1509.1166,0.26666668,0.33333334,8057474
0,2,0.0,648.26654,1494.455,0.3,0.3372549,8057474
0,2,0.0,648.9328,1477.1277,0.26666668,0.3372549,8057475
0,2,0.0,650.64734,1455.4036,0.26666668,0.3372549,8057475
0,2,0.0,650.9315,1451.8031,0.26666668,0.33333334,8057507
0,2,0.0,654.2628,1424.4792,0.3,0.3372549,8057507
0,2,0.0,657.26373,1402.4669,0.3,0.3372549,8057508
0,2,0.0,658.2604,1395.1561,0.26666668,0.3372549,8057552
0,2,0.0,664.25665,1358.5022,0.26666668,0.33333334,8057553
0,2,0.0,670.9192,1323.8475,0.26666668,0.33333334,8057553
0,2,0.0,678.248,1280.5293,0.26666668,0.33333334,8057553
0,2,0.0,685.57684,1243.2089,0.26666668,0.33333334,8057554
0,2,0.0,694.23816,1197.8914,0.26666668,0.33333334,8057554
0,2,0.0,698.61725,1179.1187,0.26666668,0.33333334,8057555
0,2,0.0,703.56573,1157.9052,0.26666668,0.33333334,8057600
0,2,0.0,714.8921,1112.5876,0.3,0.33333334,8057600
0,2,0.0,726.2184,1071.935,0.26666668,0.33333334,8057601
0,2,0.0,736.8785,1032.6154,0.26666668,0.33333334,8057601
0,2,0.0,746.20605,999.2936,0.26666668,0.33333334,8057601
0,2,0.0,754.8674,963.30615,0.26666668,0.32941177,8057602
0,2,0.0,756.01715,958.4757,0.26666668,0.32941177,8057602
0,2,0.0,761.52997,935.3158,0.26666668,0.32941177,8057634
0,2,0.0,769.525,904.6598,0.26666668,0.33333334,8057634
0,2,0.0,778.18634,875.3367,0.26666668,0.33333334,8057635
0,2,0.0,785.1649,853.7607,0.26666668,0.33333334,8057635
0,2,0.0,785.51514,852.67786,0.26666668,0.33333334,8057667
0,2,0.0,792.84393,832.0184,0.26666668,0.33333334,8057668
0,2,0.0,800.1727,811.3589,0.26666668,0.33333334,8057668
0,2,0.0,806.8353,794.03156,0.26666668,0.33333334,8057669
0,2,0.0,811.307,783.59485,0.26666668,0.33333334,8057670
0,2,0.0,812.8316,780.03644,0.26666668,0.33333334,8057713
0,2,0.0,817.4954,768.70703,0.3,0.32941177,8057713
0,2,0.0,821.4929,760.04333,0.26666668,0.32941177,8057713
0,2,0.0,824.8242,753.379,0.26666668,0.32941177,8057714
0,2,0.0,827.4892,748.04755,0.26666668,0.3254902,8057714
0,2,0.0,829.488,744.71533,0.26666668,0.32156864,8057714
0,2,0.0,830.04834,743.87463,0.26666668,0.32156864,8057715
0,2,0.0,830.8205,742.71606,0.26666668,0.30980393,8057715
0,1,0.0,830.8205,742.71606,0.26666668,0.30980393,8057716
0,0,0.0,672.91797,1539.7726,0.26666668,0.3137255,8058336
0,2,0.0,672.2517,1536.4404,0.26666668,0.32941177,8058421
0,2,0.0,671.58545,1531.7754,0.26666668,0.32941177,8058421
0,2,0.0,671.42426,1530.6469,0.26666668,0.32941177,8058421
0,2,0.0,670.2529,1524.4446,0.26666668,0.32941177,8058437
0,2,0.0,669.5867,1514.448,0.26666668,0.32941177,8058437
0,2,0.0,669.4884,1512.9738,0.26666668,0.32941177,8058438
0,2,0.0,668.9204,1502.4523,0.26666668,0.33333334,8058471
0,2,0.0,668.25415,1489.1235,0.26666668,0.33333334,8058471
0,2,0.0,668.25415,1473.129,0.26666668,0.33333334,8058471
0,2,0.0,669.52264,1451.5593,0.26666668,0.33333334,8058472
0,2,0.0,669.5867,1450.4702,0.26666668,0.33333334,8058515
0,2,0.0,670.9192,1425.1458,0.26666668,0.33333334,8058515
0,2,0.0,674.2505,1397.8219,0.26666668,0.33333334,8058516
0,2,0.0,678.248,1359.8351,0.26666668,0.32941177,8058516
0,2,0.0,680.2774,1342.9187,0.26666668,0.32941177,8058517
0,2,0.0,682.24554,1326.5133,0.26666668,0.33333334,8058558
0,2,0.0,687.57556,1283.1951,0.26666668,0.32941177,8058559
0,2,0.0,692.90564,1248.5404,0.26666668,0.33333334,8058559
0,2,0.0,699.5682,1207.2214,0.26666668,0.33333334,8058560
0,2,0.0,706.2307,1171.9004,0.26666668,0.33333334,8058560
0,2,0.0,715.5583,1131.9142,0.26666668,0.33333334,8058560
0,2,0.0,719.5968,1116.3773,0.26666668,0.33333334,8058561
0,2,0.0,724.21967,1098.5924,0.26666668,0.33333334,8058593
0,2,0.0,732.881,1063.2714,0.26666668,0.33333334,8058593
0,2,0.0,741.5423,1030.6161,0.26666668,0.33333334,8058594
0,2,0.0,749.53735,1001.95935,0.26666668,0.32941177,8058594
0,2,0.0,751.6418,993.5393,0.26666668,0.32941177,8058595
0,2,0.0,757.5324,969.97046,0.26666668,0.33333334,8058630
0,2,0.0,763.5287,943.9795,0.3,0.32941177,8058631
0,2,0.0,768.85876,923.32,0.26666668,0.33333334,8058631
0,2,0.0,773.5225,904.6598,0.26666668,0.33333334,8058632
0,2,0.0,773.7498,903.71246,0.26666668,0.33333334,8058632
0,2,0.0,777.5201,887.9989,0.26666668,0.33333334,8058675
0,2,0.0,780.8513,873.33734,0.26666668,0.33333334,8058676
0,2,0.0,784.1826,861.3415,0.26666668,0.33333334,8058676
0,2,0.0,786.84766,851.345,0.26666668,0.33333334,8058677
0,2,0.0,789.5127,842.68134,0.3,0.33333334,8058677
0,2,0.0,791.51483,837.1739,0.3,0.33333334,8058677
0,2,0.0,792.1777,835.3505,0.26666668,0.33333334,8058719
0,2,0.0,794.8427,828.68616,0.26666668,0.33333334,8058720
0,2,0.0,796.8415,822.6883,0.26666668,0.33333334,8058720
0,2,0.0,798.8403,817.3568,0.26666668,0.33333334,8058720
0,2,0.0,800.839,813.35815,0.26666668,0.33333334,8058721
0,2,0.0,802.83777,809.35956,0.26666668,0.33333334,8058721
0,2,0.0,803.76746,807.4997,0.26666668,0.33333334,8058721
0,2,0.0,804.1703,806.0274,0.26666668,0.32941177,8058754
0,2,0.0,805.5028,803.36163,0.26666668,0.32941177,8058754
0,2,0.0,806.8353,800.6959,0.26666668,0.3254902,8058755
0,2,0.0,808.16785,798.6966,0.26666668,0.31764707,8058755
0,2,0.0,808.48596,798.2193,0.26666668,0.31764707,8058756
0,2,0.0,808.83405,796.69727,0.23333335,0.2901961,8058788
0,1,0.0,808.83405,796.69727,0.23333335,0.2901961,8058789
0,0,0.0,662.2579,1507.1173,0.26666668,0.31764707,8059235
0,2,0.0,656.92786,1489.7899,0.26666668,0.33333334,8059318
0,2,0.0,655.59534,1479.127,0.26666668,0.33333334,8059318
0,2,0.0,654.4245,1465.0731,0.26666668,0.33333334,8059319
0,2,0.0,654.2628,1463.1326,0.26666668,0.33333334,8059334
0,2,0.0,654.2628,1439.8073,0.26666668,0.33333334,8059334
0,2,0.0,654.7851,1420.4775,0.26666668,0.33333334,8059334
0,2,0.0,654.9291,1415.1492,0.26666668,0.33333334,8059378
0,2,0.0,656.2616,1387.1589,0.26666668,0.33333334,8059378
0,2,0.0,658.9266,1354.5035,0.26666668,0.33333334,8059379
0,2,0.0,662.92413,1322.5146,0.26666668,0.33333334,8059379
0,2,0.0,666.86755,1297.6644,0.26666668,0.33333334,8059380
0,2,0.0,669.5867,1280.5293,0.26666668,0.33333334,8059413
0,2,0.0,676.9155,1241.876,0.26666668,0.33333334,8059414
0,2,0.0,685.57684,1195.2256,0.26666668,0.33333334,8059414
0,2,0.0,694.9044,1153.2401,0.26666668,0.33333334,8059414
0,2,0.0,699.17175,1134.8323,0.26666668,0.33333334,8059415
0,2,0.0,705.5645,1107.2561,0.3,0.33333334,8059447
0,2,0.0,716.8908,1063.2714,0.26666668,0.33333334,8059447
0,2,0.0,727.5509,1023.2853,0.26666668,0.33333334,8059448
0,2,0.0,738.211,982.6327,0.26666668,0.33333334,8059449
0,2,0.0,739.89655,975.75903,0.26666668,0.33333334,8059449
0,2,0.0,746.8723,947.31165,0.3,0.33333334,8059492
0,2,0.0,754.2011,916.65564,0.26666668,0.33333334,8059493
0,2,0.0,760.19745,885.99963,0.26666668,0.33333334,8059493
0,2,0.0,764.8612,863.3408,0.26666668,0.33333334,8059493
0,2,0.0,768.85876,845.34705,0.26666668,0.33333334,8059494
0,2,0.0,771.49756,833.73315,0.26666668,0.33333334,8059494
0,2,0.0,772.19,830.6855,0.26666668,0.33333334,8059537
0,2,0.0,774.85504,818.68964,0.26666668,0.33333334,8059537
0,2,0.0,776.8538,808.6931,0.26666668,0.33333334,8059538
0,2,0.0,778.8526,801.36237,0.26666668,0.33333334,8059538
0,2,0.0,780.1851,796.0309,0.26666668,0.33333334,8059539
0,2,0.0,780.8513,792.0322,0.26666668,0.33333334,8059539
0,2,0.0,781.5176,789.3665,0.26666668,0.33333334,8059540
0,2,0.0,781.53015,789.31635,0.26666668,0.33333334,8059540
0,2,0.0,782.18384,788.0336,0.26666668,0.32941177,8059572
0,2,0.0,782.8501,787.3672,0.26666668,0.3254902,8059572
0,2,0.0,783.51636,787.3672,0.26666668,0.30980393,8059573
0,1,0.0,783.51636,787.3672,0.26666668,0.30980393,8059573
0,0,0.0,655.59534,1589.7552,0.23333335,0.30588236,8060039
0,2,0.0,651.5978,1579.0923,0.26666668,0.33333334,8060114
0,2,0.0,648.9328,1569.0957,0.26666668,0.33333334,8060115
0,2,0.0,648.5682,1567.7279,0.26666668,0.33333334,8060115
0,2,0.0,646.26776,1555.7671,0.26666668,0.33333334,8060131
0,2,0.0,643.6027,1534.4412,0.26666668,0.33333334,8060131
0,2,0.0,643.536,1533.9075,0.26666668,0.33333334,8060131
0,2,0.0,641.60394,1507.1173,0.26666668,0.3372549,8060180
0,2,0.0,640.2714,1477.1277,0.26666668,0.3372549,8060181
0,2,0.0,640.2714,1438.4745,0.26666668,0.3372549,8060181
0,2,0.0,642.2702,1401.8206,0.26666668,0.3372549,8060182
0,2,0.0,647.6003,1357.8358,0.26666668,0.3372549,8060182
0,2,0.0,652.4334,1328.3456,0.26666668,0.3372549,8060182
0,2,0.0,654.2628,1317.1832,0.26666668,0.3372549,8060214
0,2,0.0,662.92413,1271.8656,0.3,0.3372549,8060214
0,2,0.0,672.2517,1228.5474,0.26666668,0.3372549,8060215
0,2,0.0,680.913,1185.8955,0.26666668,0.33333334,8060215
0,2,0.0,685.4927,1162.9911,0.26666668,0.33333334,8060216
0,2,0.0,689.57434,1142.5771,0.26666668,0.3372549,8060248
0,2,0.0,698.9019,1102.5911,0.26666668,0.3372549,8060249
0,2,0.0,708.2295,1063.9379,0.26666668,0.33333334,8060249
0,2,0.0,717.55707,1028.6167,0.3,0.33333334,8060250
0,2,0.0,720.6641,1018.405,0.3,0.33333334,8060250
0,2,0.0,726.88464,997.9607,0.26666668,0.33333334,8060292
0,2,0.0,736.2122,964.6389,0.26666668,0.33333334,8060293
0,2,0.0,743.541,938.648,0.26666668,0.33333334,8060293
0,2,0.0,748.6556,919.8898,0.26666668,0.33333334,8060293
0,2,0.0,749.53735,916.65564,0.26666668,0.33333334,8060336
0,2,0.0,754.2011,895.3297,0.26666668,0.33333334,8060340
0,2,0.0,758.19867,877.33594,0.26666668,0.33333334,8060341
0,2,0.0,760.8637,863.3408,0.26666668,0.33333334,8060341
0,2,0.0,762.8624,853.3443,0.26666668,0.33333334,8060342
0,2,0.0,764.8612,846.0135,0.26666668,0.33333334,8060342
0,2,0.0,765.98114,840.97253,0.26666668,0.33333334,8060342
0,2,0.0,766.1937,840.01556,0.3,0.33333334,8060375
0,2,0.0,767.52625,835.3505,0.3,0.33333334,8060375
0,2,0.0,768.1925,832.0184,0.3,0.33333334,8060376
0,2,0.0,768.85876,829.3526,0.3,0.33333334,8060376
0,2,0.0,769.2787,828.09247,0.3,0.33333334,8060377
0,2,0.0,769.525,827.35333,0.3,0.32941177,8060427
0,2,0.0,770.85754,825.354,0.3,0.3254902,8060447
0,2,0.0,772.19,824.0211,0.3,0.3137255,8060448
0,1,0.0,772.19,824.0211,0.3,0.3137255,8060448
0,2,0.0,767.52625,766.7077,0.26666668,0.30588236,8165089
0,2,0.0,773.56055,750.6119,0.26666668,0.30588236,8165090
0,2,0.0,777.5201,740.0503,0.26666668,0.30980393,8165121
0,2,0.0,786.1814,717.3915,0.26666668,0.30980393,8165121
0,2,0.0,794.17645,699.39777,0.3,0.30980393,8165121
0,2,0.0,800.1727,686.06903,0.26666668,0.30980393,8165122
0,2,0.0,804.83655,676.0725,0.26666668,0.30980393,8165122
0,2,0.0,808.20135,671.0239,0.26666668,0.30980393,8165122
0,2,0.0,808.83405,670.0746,0.26666668,0.30588236,8165153
0,2,0.0,811.4991,666.076,0.26666668,0.30588236,8165153
0,2,0.0,813.49786,664.07666,0.3,0.3019608,8165154
0,2,0.0,814.1641,664.07666,0.23333335,0.2901961,8165154
0,1,0.0,814.1641,664.07666,0.23333335,0.2901961,8165155
0,0,0.0,611.6225,1491.1228,0.26666668,0.29803923,8165537
0,2,0.0,603.6274,1478.4606,0.26666668,0.30588236,8165604
0,2,0.0,603.4321,1477.7445,0.26666668,0.30588236,8165606
0,2,0.0,599.6299,1463.799,0.26666668,0.30588236,8165620
0,2,0.0,597.6311,1438.4745,0.26666668,0.30588236,8165623
0,2,0.0,596.8581,1428.6803,0.26666668,0.30588236,8165626
0,2,0.0,598.29736,1411.1506,0.26666668,0.30588236,8165677
0,2,0.0,602.9611,1374.4967,0.26666668,0.30588236,8165680
0,2,0.0,608.95746,1333.8441,0.26666668,0.30588236,8165684
0,2,0.0,616.9525,1277.8635,0.26666668,0.30588236,8165684
0,2,0.0,631.6101,1215.885,0.26666668,0.30588236,8165685
0,2,0.0,644.1105,1173.015,0.26666668,0.30588236,8165685
0,2,0.0,650.26526,1151.9072,0.26666668,0.30588236,8165727
0,2,0.0,671.58545,1089.2623,0.26666668,0.30588236,8165727
0,2,0.0,694.23816,1023.2853,0.26666668,0.30588236,8165727
0,2,0.0,720.88837,961.97327,0.26666668,0.30588236,8165728
0,2,0.0,742.20856,910.6577,0.26666668,0.30588236,8165728
0,2,0.0,759.5312,866.0066,0.26666668,0.30588236,8165728
0,2,0.0,772.22644,837.4346,0.26666668,0.30588236,8165729
0,2,0.0,778.18634,824.0211,0.26666668,0.30588236,8165761
0,2,0.0,798.174,788.0336,0.3,0.30588236,8165762
0,2,0.0,814.1641,758.7105,0.26666668,0.30980393,8165762
0,2,0.0,830.15424,726.7216,0.26666668,0.30980393,8165763
0,2,0.0,835.78864,717.7554,0.26666668,0.30980393,8165764
0,2,0.0,844.8119,703.39636,0.3,0.30980393,8165821
0,2,0.0,858.8032,685.4026,0.26666668,0.30980393,8165822
0,2,0.0,870.1296,671.4075,0.26666668,0.30980393,8165822
0,2,0.0,879.45715,660.7445,0.26666668,0.30980393,8165823
0,2,0.0,886.78595,652.7473,0.26666668,0.30980393,8165823
0,2,0.0,892.116,648.0822,0.26666668,0.30980393,8165826
0,2,0.0,896.1135,644.75006,0.26666668,0.30980393,8165826
0,2,0.0,900.1111,642.08435,0.26666668,0.30980393,8165827
0,2,0.0,900.7438,641.8734,0.26666668,0.30980393,8165827
0,2,0.0,904.1086,640.75146,0.26666668,0.30980393,8165865
0,2,0.0,908.7724,640.085,0.26666668,0.30588236,8165866
0,2,0.0,912.7699,640.75146,0.26666668,0.29411766,8165866
0,1,0.0,912.7699,640.75146,0.26666668,0.29411766,8165867
0,0,0.0,612.2887,1491.7893,0.26666668,0.29803923,8166145
0,2,0.0,606.9587,1465.7983,0.26666668,0.30588236,8166229
0,2,0.0,606.9587,1441.1401,0.26666668,0.30588236,8166229
0,2,0.0,609.6237,1413.8163,0.26666668,0.30588236,8166229
0,2,0.0,610.95624,1400.1543,0.26666668,0.30588236,8166230
0,2,0.0,615.62,1372.4973,0.26666668,0.30588236,8166246
0,2,0.0,624.9476,1329.1791,0.26666668,0.30588236,8166246
0,2,0.0,629.6113,1307.52,0.26666668,0.30588236,8166246
0,2,0.0,641.60394,1271.8656,0.3,0.30588236,8166278
0,2,0.0,662.2579,1205.8885,0.26666668,0.30588236,8166278
0,2,0.0,663.4868,1201.199,0.26666668,0.30588236,8166278
0,2,0.0,680.24677,1137.2457,0.26666668,0.30588236,8166314
0,2,0.0,699.5682,1072.6014,0.26666668,0.30588236,8166316
0,2,0.0,720.2221,1011.2894,0.26666668,0.30588236,8166317
0,2,0.0,740.87604,949.9774,0.3,0.30588236,8166317
0,2,0.0,756.86615,893.9968,0.26666668,0.30980393,8166320
0,2,0.0,768.4714,860.6858,0.26666668,0.30980393,8166320
0,2,0.0,772.19,850.0121,0.26666668,0.30980393,8166358
0,2,0.0,789.5127,805.36096,0.26666668,0.30980393,8166364
0,2,0.0,805.5028,770.7063,0.26666668,0.30980393,8166364
0,2,0.0,818.8279,739.38385,0.26666668,0.30980393,8166365
0,2,0.0,825.4573,722.3323,0.26666668,0.30980393,8166365
0,2,0.0,828.15546,715.3922,0.26666668,0.30980393,8166398
0,2,0.0,835.4843,697.39844,0.3,0.30980393,8166398
0,2,0.0,840.81433,685.4026,0.3,0.30980393,8166399
0,2,0.0,844.8119,677.4054,0.26666668,0.30980393,8166399
0,2,0.0,848.1431,672.0739,0.26666668,0.30980393,8166400
0,2,0.0,851.4744,668.7417,0.26666668,0.30980393,8166400
0,2,0.0,855.9816,666.2826,0.26666668,0.30980393,8166400
0,2,0.0,858.8032,664.7431,0.3,0.30588236,8166401
0,1,0.0,858.8032,664.7431,0.3,0.30588236,8166401
0,0,0.0,582.9735,1549.1027,0.26666668,0.3019608,8166730
0,2,0.0,576.3109,1505.1179,0.26666668,0.30588236,8166793
0,2,0.0,577.97797,1480.1052,0.26666668,0.30588236,8166793
0,2,0.0,578.3097,1475.1284,0.26666668,0.30588236,8166808
0,2,0.0,584.9722,1433.8093,0.26666668,0.30588236,8166809
0,2,0.0,589.8506,1410.3871,0.26666668,0.30588236,8166809
0,2,0.0,594.96606,1385.826,0.26666668,0.30588236,8166845
0,2,0.0,605.62616,1329.8455,0.26666668,0.30588236,8166846
0,2,0.0,619.61755,1260.5363,0.26666668,0.30588236,8166846
0,2,0.0,644.269,1181.2305,0.26666668,0.30588236,8166847
0,2,0.0,668.1546,1109.5542,0.26666668,0.30588236,8166847
0,2,0.0,672.91797,1095.2603,0.26666668,0.30588236,8166877
0,2,0.0,702.2332,1009.95654,0.26666668,0.30588236,8166877
0,2,0.0,733.54724,933.983,0.26666668,0.30588236,8166878
0,2,0.0,758.19867,864.6737,0.26666668,0.30588236,8166878
0,2,0.0,759.0286,862.3402,0.26666668,0.30588236,8166878
0,2,0.0,784.1826,805.36096,0.26666668,0.30980393,8166913
0,2,0.0,806.8353,761.3762,0.26666668,0.30980393,8166913
0,2,0.0,823.4917,720.7237,0.26666668,0.30980393,8166913
0,2,0.0,834.81805,694.0663,0.26666668,0.30980393,8166914
0,2,0.0,835.35956,693.0191,0.26666668,0.30980393,8166914
0,2,0.0,844.8119,674.7396,0.26666668,0.30980393,8166946
0,2,0.0,852.80695,658.7452,0.3,0.3137255,8166946
0,2,0.0,859.4695,647.4158,0.3,0.3137255,8166946
0,2,0.0,863.46326,641.42346,0.3,0.3137255,8166947
0,2,0.0,864.7995,639.4186,0.3,0.3137255,8166980
0,2,0.0,869.4633,634.0871,0.3,0.3137255,8166980
0,2,0.0,874.79333,630.0885,0.26666668,0.30980393,8166981
0,2,0.0,881.45593,626.7563,0.26666668,0.30980393,8166981
0,2,0.0,887.4522,624.757,0.26666668,0.29411766,8166981
0,1,0.0,887.4522,624.757,0.26666668,0.29411766,8166982
0,0,0.0,597.6311,1553.1013,0.26666668,0.3019608,8167298
0,2,0.0,598.29736,1489.1235,0.26666668,0.30588236,8167352
0,2,0.0,602.39294,1460.8563,0.26666668,0.30588236,8167353
0,2,0.0,604.9599,1443.1395,0.26666668,0.30588236,8167369
0,2,0.0,613.6212,1391.1575,0.26666668,0.30588236,8167370
0,2,0.0,621.8224,1360.7368,0.26666668,0.30588236,8167370
0,2,0.0,629.6114,1331.8448,0.26666668,0.30588236,8167418
0,2,0.0,652.9303,1257.8705,0.26666668,0.30588236,8167418
0,2,0.0,676.9155,1180.564,0.26666668,0.30588236,8167419
0,2,0.0,701.56696,1098.5924,0.26666668,0.30588236,8167419
0,2,0.0,710.4711,1074.7725,0.26666668,0.30588236,8167420
0,2,0.0,730.21594,1021.9524,0.26666668,0.30588236,8167464
0,2,0.0,754.2011,947.31165,0.26666668,0.30588236,8167464
0,2,0.0,778.8526,879.33527,0.26666668,0.30588236,8167465
0,2,0.0,804.83655,820.0225,0.26666668,0.30588236,8167465
0,2,0.0,823.4917,774.0385,0.26666668,0.30980393,8167466
0,2,0.0,840.1054,730.8311,0.26666668,0.30980393,8167466
0,2,0.0,840.1481,730.7202,0.26666668,0.30980393,8167505
0,2,0.0,853.4732,700.0642,0.26666668,0.30980393,8167505
0,2,0.0,864.7995,678.7383,0.26666668,0.30980393,8167506
0,2,0.0,874.79333,661.41095,0.3,0.3137255,8167506
0,2,0.0,883.45465,648.0822,0.3,0.30980393,8167506
0,2,0.0,890.11725,638.75214,0.3,0.30980393,8167507
0,2,0.0,892.9516,635.6019,0.3,0.30980393,8167507
0,2,0.0,896.1135,632.08777,0.26666668,0.30980393,8167539
0,2,0.0,902.1098,627.4227,0.26666668,0.30980393,8167539
0,2,0.0,907.4399,624.0906,0.26666668,0.29803923,8167539
0,1,0.0,907.4399,624.0906,0.26666668,0.29803923,8167540
0,0,0.0,609.6237,1537.1068,0.26666668,0.3019608,8167857
0,2,0.0,608.95746,1489.7899,0.26666668,0.30588236,8167933
0,2,0.0,613.6212,1445.8052,0.26666668,0.30588236,8167934
0,2,0.0,624.9476,1391.824,0.26666668,0.30588236,8167934
0,2,0.0,627.0103,1381.9929,0.26666668,0.30588236,8167935
0,2,0.0,645.6015,1327.8462,0.26666668,0.30588236,8167948
0,2,0.0,667.4242,1261.7704,0.26666668,0.30588236,8167949
0,2,0.0,670.2529,1253.2054,0.26666668,0.30588236,8167993
0,2,0.0,696.23694,1173.8997,0.26666668,0.30588236,8167994
0,2,0.0,730.8822,1089.2623,0.26666668,0.30588236,8167994
0,2,0.0,760.8637,1007.9573,0.26666668,0.30588236,8167995
0,2,0.0,784.00464,958.88525,0.26666668,0.30588236,8167995
0,2,0.0,794.17645,937.3151,0.26666668,0.30588236,8168038
0,2,0.0,822.1592,872.6709,0.3,0.30588236,8168038
0,2,0.0,846.8106,822.02185,0.26666668,0.30980393,8168038
0,2,0.0,868.79706,782.0357,0.26666668,0.30980393,8168039
0,2,0.0,885.4534,754.0454,0.26666668,0.30980393,8168039
0,2,0.0,898.1123,729.3873,0.26666668,0.30980393,8168040
0,2,0.0,901.64825,722.0415,0.26666668,0.30980393,8168040
0,2,0.0,906.7736,711.39355,0.3,0.30980393,8168075
0,2,0.0,913.43616,699.39777,0.3,0.30980393,8168075
0,2,0.0,918.1,691.4005,0.3,0.30980393,8168076
0,2,0.0,922.0975,686.7355,0.26666668,0.30980393,8168076
0,2,0.0,927.42755,683.4033,0.26666668,0.3019608,8168076
0,1,0.0,927.42755,683.4033,0.26666668,0.3019608,8168077
0,0,0.0,601.62866,1581.758,0.26666668,0.3019608,8168372
0,2,0.0,599.6299,1520.4459,0.26666668,0.30588236,8168445
0,2,0.0,604.29364,1481.1263,0.26666668,0.30588236,8168445
0,2,0.0,611.2947,1438.0313,0.26666668,0.30588236,8168446
0,2,0.0,612.95496,1427.8115,0.26666668,0.30588236,8168461
0,2,0.0,627.6126,1365.1665,0.26666668,0.30588236,8168462
0,2,0.0,642.7072,1318.4551,0.26666668,0.30588236,8168462
0,2,0.0,648.9328,1299.1895,0.26666668,0.30588236,8168492
0,2,0.0,672.2517,1231.8795,0.26666668,0.30588236,8168492
0,2,0.0,681.8867,1204.6189,0.26666668,0.30588236,8168492
0,2,0.0,695.5707,1165.9025,0.26666668,0.30588236,8168523
0,2,0.0,724.88586,1096.5931,0.26666668,0.30588236,8168524
0,2,0.0,752.2024,1025.951,0.26666668,0.30588236,8168524
0,2,0.0,784.1826,957.9746,0.26666668,0.30980393,8168524
0,2,0.0,796.5806,934.5199,0.26666668,0.30980393,8168525
0,2,0.0,814.8304,899.99475,0.26666668,0.30588236,8168557
0,2,0.0,842.14685,854.01074,0.26666668,0.30980393,8168557
0,2,0.0,869.4633,813.35815,0.26666668,0.30980393,8168558
0,2,0.0,888.7847,783.3686,0.3,0.30980393,8168558
0,2,0.0,891.2281,779.56683,0.3,0.30980393,8168558
0,2,0.0,900.77734,764.7084,0.26666668,0.30980393,8168590
0,2,0.0,911.4374,750.71326,0.26666668,0.30980393,8168591
0,2,0.0,920.76495,740.71674,0.26666668,0.30980393,8168591
0,2,0.0,928.7112,733.4307,0.26666668,0.30980393,8168591
0,2,0.0,928.7601,733.3859,0.26666668,0.30588236,8168623
0,2,0.0,940.08636,726.7216,0.26666668,0.30588236,8168623
0,2,0.0,952.079,721.39014,0.26666668,0.29411766,8168623
0,1,0.0,952.079,721.39014,0.26666668,0.29411766,8168624
0,0,0.0,625.61383,1525.111,0.3,0.3019608,8168911
0,2,0.0,618.9513,1481.1263,0.26666668,0.30588236,8168959
0,2,0.0,619.14026,1470.5414,0.26666668,0.30588236,8168959
0,2,0.0,619.61755,1443.8059,0.26666668,0.30588236,8168976
0,2,0.0,624.9476,1395.8226,0.26666668,0.30588236,8168976
0,2,0.0,625.988,1386.4564,0.26666668,0.30588236,8168977
0,2,0.0,640.9377,1337.8428,0.26666668,0.30588236,8169009
0,2,0.0,666.25543,1264.5348,0.26666668,0.30588236,8169009
0,2,0.0,670.30286,1252.8599,0.26666668,0.30588236,8169010
0,2,0.0,694.9044,1181.8969,0.26666668,0.30588236,8169044
0,2,0.0,733.54724,1094.5939,0.26666668,0.30588236,8169046
0,2,0.0,772.19,1010.62305,0.26666668,0.30588236,8169046
0,2,0.0,809.5003,942.6466,0.26666668,0.30588236,8169047
0,2,0.0,848.1431,882.001,0.26666668,0.30588236,8169050
0,2,0.0,875.6686,841.8489,0.26666668,0.30588236,8169053
0,2,0.0,880.1234,835.3505,0.26666668,0.30588236,8169098
0,2,0.0,905.4411,794.03156,0.26666668,0.30588236,8169098
