0.1954354
0.3606564
0.2701438
0.3621101
0.3140322
0.3060776
0.4389807
0.394958
0.3055001
0.45231
0.2863165
0.5085341
0.3090764
0.2936747
0.2810004
0.2620095
0.2029911
0.2808542
0.1552798
0.2978267
0.2159286
0.210146
0.3921358
0.2122178
0.2234565
0.1716818
0.4162167
0.4010324
0.3047903
0.3142587
0.2741725
0.2167738
0.3310057
0.1779007
0.1088918
0.2232402
0.2787817
0.3491822
0.1660473
0.307321
0.2791597
0.2108717
0.232562
0.2955071
0.1130139
0.2040235
0.3145017
0.3103272
0.3969929
0.2708662
0.2692251
0.3012541
0.2696608
0.0217571
0.3568518
0.4478083
0.3622438
0.0727856
0.2737412
0.1667617
0.1133613
0.396771
0.3165458
0.1617791
0.2229689
0.5471039
0.3093173
0.2078287
0.373461
0.2655819
0.3649659
0.2619323
0.2326925
0.2571018
0.4855444
0.3267395
0.1831487
0.2444679
0.2643129
0.079901
0.177886
0.279238
0.3541714
0.2659902
0.2165053
0.1736023
0.3942592
0.393074
0.1279761
0.2668247
0.3139376
0.1750696
0.2140775
0.3075113
0.4554654
0.0746421
0.3123862
0.4558731
0.4410057
0.2074951
