0.1666715
0.2836681
0.1222942
0.1664683
0.009905
0.251592
0.0938366
0.2032062
0.2428629
0.0077554
0.1277361
0.1130454
0.1337892
0.1260192
0.1956156
0.0870249
0.0906784
0.2358619
0.1589803
0.0109575
0.04322
0.0913813
0.0928451
0.2161459
0.0079599
0.0075879
0.2194558
0.1987029
0.1201318
0.090549
0.1533265
0.0784096
0.1236638
0.2006158
0.2505781
0.1956375
0.1965642
0.2370684
0.2807886
0.2004039
0.2920756
0.1282624
0.2505399
0.1654538
0.2115347
0.1780967
0.1246482
0.0836809
0.0787068
0.1771093
0.1240418
0.1980489
0.1273013
0.1314028
0.2003205
0.239623
0.0521404
0.0483639
0.0459092
0.1320295
0.0953593
0.041975
0.2162057
0.2548747
0.2095333
0.1343476
0.2176727
0.2095593
0.0855392
0.132366
0.0913472
0.2444836
0.1364623
0.1521067
0.1223902
0.161468
0.1611368
0.0792683
0.0449552
0.2794478
0.1693193
0.2036206
0.081222
0.1242726
0.156981
0.1141916
0.1694362
0.2171642
0.0916755
0.1622605
0.0917878
0.0776538
0.1290008
0.1988434
0.1328995
0.196555
0.0930619
0.1619171
0.2515625
0.0086224
