[0, 0, 0.0, 769.0, 1481.0, 0.6, 0.26666668, 7890279]
[0, 2, 0.0, 759.0, 1458.0, 0.6, 0.26666668, 7890280]
[0, 2, 0.0, 748.0, 1432.0, 0.6, 0.26666668, 7890281]
[0, 2, 0.0, 740.0, 1416.0, 0.6, 0.26666668, 7890304]
[0, 2, 0.0, 723.0, 1375.0, 0.6, 0.26666668, 7890332]
[0, 2, 0.0, 696.0, 1284.0, 0.6, 0.26666668, 7890333]
[0, 2, 0.0, 688.0, 1244.0, 0.6, 0.26666668, 7890347]
[0, 2, 0.0, 680.0, 1203.0, 0.6, 0.26666668, 7890348]
[0, 2, 0.0, 673.0, 1163.0, 0.6, 0.26666668, 7890367]
[0, 2, 0.0, 667.0, 1127.0, 0.6, 0.26666668, 7890369]
[0, 2, 0.0, 662.0, 1092.0, 0.6, 0.26666668, 7890385]
[0, 2, 0.0, 652.0, 1018.0, 0.6, 0.26666668, 7890400]
[0, 2, 0.0, 648.0, 979.0, 0.6, 0.26666668, 7890401]
[0, 2, 0.0, 644.0, 940.0, 0.6, 0.26666668, 7890418]
[0, 2, 0.0, 640.0, 850.0, 0.6, 0.26666668, 7890436]
[0, 2, 0.0, 639.0, 768.0, 0.6, 0.26666668, 7890450]
[0, 2, 0.0, 640.0, 698.0, 0.6, 0.26666668, 7890468]
[0, 2, 0.0, 643.0, 638.0, 0.6, 0.26666668, 7890485]
[0, 2, 0.0, 653.0, 566.0, 0.6, 0.26666668, 7890501]
[0, 1, 0.0, 691.0, 399.0, 0.58750004, 0.26666668, 7890543]
[0, 0, 0.0, 765.0, 1406.0, 0.58750004, 0.26666668, 7891211]
[0, 2, 0.0, 758.0, 1392.0, 0.58750004, 0.26666668, 7891212]
[0, 2, 0.0, 746.0, 1360.0, 0.58750004, 0.26666668, 7891213]
[0, 2, 0.0, 723.0, 1299.0, 0.58750004, 0.26666668, 7891214]
[0, 2, 0.0, 711.0, 1264.0, 0.58750004, 0.26666668, 7891228]
[0, 2, 0.0, 700.0, 1227.0, 0.58750004, 0.26666668, 7891229]
[0, 2, 0.0, 690.0, 1186.0, 0.58750004, 0.26666668, 7891245]
[0, 2, 0.0, 681.0, 1145.0, 0.58750004, 0.26666668, 7891246]
[0, 2, 0.0, 673.0, 1102.0, 0.58750004, 0.26666668, 7891262]
[0, 2, 0.0, 664.0, 1021.0, 0.58750004, 0.26666668, 7891282]
[0, 2, 0.0, 661.0, 980.0, 0.58750004, 0.26666668, 7891283]
[0, 2, 0.0, 658.0, 939.0, 0.58750004, 0.26666668, 7891298]
[0, 2, 0.0, 653.0, 852.0, 0.58750004, 0.26666668, 7891316]
[0, 2, 0.0, 651.0, 739.0, 0.58750004, 0.26666668, 7891333]
[0, 2, 0.0, 653.0, 678.0, 0.58750004, 0.26666668, 7891334]
[0, 2, 0.0, 656.0, 619.0, 0.58750004, 0.26666668, 7891351]
[0, 2, 0.0, 662.0, 519.0, 0.58750004, 0.26666668, 7891367]
[0, 2, 0.0, 667.0, 481.0, 0.58750004, 0.26666668, 7891368]
[0, 2, 0.0, 672.0, 448.0, 0.58750004, 0.26666668, 7891388]
[0, 2, 0.0, 677.0, 420.0, 0.58750004, 0.26666668, 7891389]
[0, 2, 0.0, 682.0, 394.0, 0.58750004, 0.26666668, 7891403]
[0, 2, 0.0, 693.0, 344.0, 0.58750004, 0.26666668, 7891418]
[0, 2, 0.0, 701.0, 308.0, 0.58750004, 0.26666668, 7891419]
[0, 1, 0.0, 710.0, 272.0, 0.58750004, 0.26666668, 7891437]
[0, 0, 0.0, 781.0, 1502.0, 0.575, 0.26666668, 7892093]
[0, 2, 0.0, 779.0, 1499.0, 0.58750004, 0.26666668, 7892109]
[0, 2, 0.0, 774.0, 1487.0, 0.58750004, 0.26666668, 7892110]
[0, 2, 0.0, 751.0, 1415.0, 0.58750004, 0.26666668, 7892111]
[0, 2, 0.0, 736.0, 1374.0, 0.58750004, 0.26666668, 7892112]
[0, 2, 0.0, 722.0, 1334.0, 0.58750004, 0.26666668, 7892129]
[0, 2, 0.0, 702.0, 1278.0, 0.58750004, 0.26666668, 7892161]
[0, 2, 0.0, 685.0, 1226.0, 0.58750004, 0.26666668, 7892162]
[0, 2, 0.0, 666.0, 1155.0, 0.58750004, 0.26666668, 7892195]
[0, 2, 0.0, 638.0, 1032.0, 0.58750004, 0.26666668, 7892196]
[0, 2, 0.0, 630.0, 990.0, 0.58750004, 0.26666668, 7892228]
[0, 2, 0.0, 624.0, 942.0, 0.58750004, 0.26666668, 7892229]
[0, 2, 0.0, 615.0, 841.0, 0.58750004, 0.26666668, 7892230]
[0, 2, 0.0, 612.0, 788.0, 0.58750004, 0.26666668, 7892245]
[0, 2, 0.0, 611.0, 691.0, 0.58750004, 0.26666668, 7892262]
[0, 2, 0.0, 611.0, 650.0, 0.58750004, 0.26666668, 7892263]
[0, 2, 0.0, 613.0, 613.0, 0.58750004, 0.26666668, 7892296]
[0, 2, 0.0, 627.0, 515.0, 0.58750004, 0.26666668, 7892297]
[0, 2, 0.0, 633.0, 487.0, 0.58750004, 0.26666668, 7892329]
[0, 2, 0.0, 640.0, 455.0, 0.58750004, 0.26666668, 7892330]
[0, 2, 0.0, 647.0, 428.0, 0.58750004, 0.26666668, 7892331]
[0, 2, 0.0, 662.0, 378.0, 0.58750004, 0.26666668, 7892347]
[0, 1, 0.0, 683.0, 324.0, 0.58750004, 0.26666668, 7892373]
[0, 0, 0.0, 765.0, 1403.0, 0.6, 0.26666668, 7893093]
[0, 2, 0.0, 756.0, 1367.0, 0.6, 0.26666668, 7893094]
[0, 2, 0.0, 740.0, 1297.0, 0.6, 0.26666668, 7893128]
[0, 2, 0.0, 733.0, 1262.0, 0.58750004, 0.26666668, 7893129]
[0, 2, 0.0, 717.0, 1186.0, 0.58750004, 0.26666668, 7893130]
[0, 2, 0.0, 708.0, 1146.0, 0.58750004, 0.26666668, 7893160]
[0, 2, 0.0, 699.0, 1107.0, 0.58750004, 0.26666668, 7893161]
[0, 2, 0.0, 683.0, 1028.0, 0.58750004, 0.26666668, 7893162]
[0, 2, 0.0, 675.0, 991.0, 0.58750004, 0.26666668, 7893194]
[0, 2, 0.0, 668.0, 951.0, 0.58750004, 0.26666668, 7893195]
[0, 2, 0.0, 655.0, 868.0, 0.6, 0.26666668, 7893196]
[0, 2, 0.0, 650.0, 819.0, 0.6, 0.26666668, 7893228]
[0, 2, 0.0, 644.0, 767.0, 0.6, 0.26666668, 7893229]
[0, 2, 0.0, 638.0, 611.0, 0.6, 0.26666668, 7893245]
[0, 2, 0.0, 639.0, 518.0, 0.6, 0.26666668, 7893262]
[0, 2, 0.0, 642.0, 439.0, 0.6, 0.26666668, 7893279]
[0, 2, 0.0, 650.0, 371.0, 0.6, 0.26666668, 7893296]
[0, 2, 0.0, 663.0, 310.0, 0.6, 0.26666668, 7893313]
[0, 1, 0.0, 689.0, 229.0, 0.6, 0.26666668, 7893357]
[0, 0, 0.0, 779.0, 1431.0, 0.58750004, 0.26666668, 7893991]
[0, 2, 0.0, 777.0, 1427.0, 0.58750004, 0.26666668, 7893992]
[0, 2, 0.0, 764.0, 1396.0, 0.58750004, 0.26666668, 7893993]
[0, 2, 0.0, 749.0, 1359.0, 0.58750004, 0.26666668, 7894010]
[0, 2, 0.0, 739.0, 1334.0, 0.58750004, 0.26666668, 7894011]
[0, 2, 0.0, 728.0, 1304.0, 0.58750004, 0.26666668, 7894026]
[0, 2, 0.0, 716.0, 1271.0, 0.58750004, 0.26666668, 7894027]
[0, 2, 0.0, 704.0, 1236.0, 0.6, 0.26666668, 7894042]
[0, 2, 0.0, 682.0, 1158.0, 0.6, 0.26666668, 7894059]
[0, 2, 0.0, 663.0, 1079.0, 0.6, 0.26666668, 7894080]
[0, 2, 0.0, 654.0, 1037.0, 0.6, 0.26666668, 7894081]
[0, 2, 0.0, 645.0, 997.0, 0.6, 0.26666668, 7894099]
[0, 2, 0.0, 630.0, 913.0, 0.6, 0.26666668, 7894112]
[0, 2, 0.0, 623.0, 867.0, 0.6, 0.26666668, 7894113]
[0, 2, 0.0, 617.0, 818.0, 0.6, 0.26666668, 7894130]
[0, 2, 0.0, 605.0, 714.0, 0.6, 0.26666668, 7894146]
[0, 2, 0.0, 600.0, 662.0, 0.6, 0.26666668, 7894147]
[0, 2, 0.0, 597.0, 615.0, 0.6, 0.26666668, 7894163]
[0, 2, 0.0, 595.0, 570.0, 0.6, 0.26666668, 7894164]
[0, 2, 0.0, 594.0, 526.0, 0.6, 0.26666668, 7894182]
[0, 2, 0.0, 597.0, 447.0, 0.6, 0.26666668, 7894198]
[0, 2, 0.0, 606.0, 372.0, 0.6, 0.26666668, 7894214]
[0, 1, 0.0, 624.0, 283.0, 0.6, 0.26666668, 7894232]
[0, 0, 0.0, 728.0, 1337.0, 0.575, 0.26666668, 7894974]
[0, 2, 0.0, 725.0, 1333.0, 0.58750004, 0.26666668, 7894975]
[0, 2, 0.0, 701.0, 1262.0, 0.58750004, 0.26666668, 7894976]
[0, 2, 0.0, 677.0, 1184.0, 0.58750004, 0.26666668, 7894992]
[0, 2, 0.0, 651.0, 1100.0, 0.58750004, 0.26666668, 7895010]
[0, 2, 0.0, 639.0, 1059.0, 0.58750004, 0.26666668, 7895012]
[0, 2, 0.0, 628.0, 1017.0, 0.58750004, 0.26666668, 7895027]
[0, 2, 0.0, 611.0, 938.0, 0.58750004, 0.26666668, 7895045]
[0, 2, 0.0, 603.0, 897.0, 0.58750004, 0.26666668, 7895046]
[0, 2, 0.0, 595.0, 852.0, 0.58750004, 0.26666668, 7895062]
[0, 2, 0.0, 587.0, 803.0, 0.58750004, 0.26666668, 7895063]
[0, 2, 0.0, 580.0, 749.0, 0.58750004, 0.26666668, 7895079]
[0, 2, 0.0, 568.0, 632.0, 0.58750004, 0.26666668, 7895096]
[0, 2, 0.0, 565.0, 575.0, 0.58750004, 0.26666668, 7895097]
[0, 2, 0.0, 565.0, 516.0, 0.58750004, 0.26666668, 7895116]
[0, 2, 0.0, 565.0, 462.0, 0.58750004, 0.26666668, 7895117]
[0, 2, 0.0, 567.0, 413.0, 0.58750004, 0.26666668, 7895131]
[0, 2, 0.0, 571.0, 366.0, 0.58750004, 0.26666668, 7895132]
[0, 2, 0.0, 578.0, 313.0, 0.58750004, 0.26666668, 7895148]
[0, 1, 0.0, 595.0, 224.0, 0.5625, 0.26666668, 7895165]
[0, 0, 0.0, 826.0, 1497.0, 0.58750004, 0.26666668, 7895806]
[0, 2, 0.0, 824.0, 1494.0, 0.58750004, 0.26666668, 7895822]
[0, 2, 0.0, 803.0, 1458.0, 0.58750004, 0.26666668, 7895823]
[0, 2, 0.0, 775.0, 1398.0, 0.58750004, 0.26666668, 7895858]
[0, 2, 0.0, 737.0, 1311.0, 0.6, 0.26666668, 7895859]
[0, 2, 0.0, 721.0, 1274.0, 0.6, 0.26666668, 7895873]
[0, 2, 0.0, 687.0, 1185.0, 0.6, 0.26666668, 7895890]
[0, 2, 0.0, 672.0, 1142.0, 0.6, 0.26666668, 7895891]
[0, 2, 0.0, 657.0, 1101.0, 0.6, 0.26666668, 7895909]
[0, 2, 0.0, 644.0, 1060.0, 0.6, 0.26666668, 7895910]
[0, 2, 0.0, 632.0, 1019.0, 0.6, 0.26666668, 7895924]
[0, 2, 0.0, 606.0, 931.0, 0.6, 0.26666668, 7895974]
[0, 2, 0.0, 571.0, 780.0, 0.6, 0.26666668, 7895975]
[0, 2, 0.0, 556.0, 670.0, 0.6, 0.26666668, 7895976]
[0, 2, 0.0, 552.0, 619.0, 0.6, 0.26666668, 7896008]
[0, 2, 0.0, 554.0, 523.0, 0.6, 0.26666668, 7896009]
[0, 1, 0.0, 575.0, 376.0, 0.58750004, 0.26666668, 7896043]
[0, 0, 0.0, 789.0, 1395.0, 0.58750004, 0.33333334, 7896669]
[0, 2, 0.0, 787.0, 1392.0, 0.58750004, 0.33333334, 7896686]
[0, 2, 0.0, 767.0, 1319.0, 0.58750004, 0.26666668, 7896687]
[0, 2, 0.0, 758.0, 1292.0, 0.58750004, 0.26666668, 7896688]
[0, 2, 0.0, 748.0, 1262.0, 0.58750004, 0.26666668, 7896720]
[0, 2, 0.0, 737.0, 1231.0, 0.58750004, 0.26666668, 7896724]
[0, 2, 0.0, 706.0, 1154.0, 0.58750004, 0.26666668, 7896725]
[0, 2, 0.0, 691.0, 1113.0, 0.58750004, 0.26666668, 7896754]
[0, 2, 0.0, 663.0, 1029.0, 0.6, 0.26666668, 7896755]
[0, 2, 0.0, 640.0, 949.0, 0.6, 0.26666668, 7896788]
[0, 2, 0.0, 624.0, 873.0, 0.6, 0.26666668, 7896789]
[0, 2, 0.0, 613.0, 788.0, 0.6, 0.26666668, 7896821]
[0, 2, 0.0, 611.0, 689.0, 0.6, 0.26666668, 7896822]
[0, 2, 0.0, 615.0, 585.0, 0.6, 0.26666668, 7896855]
[0, 2, 0.0, 627.0, 485.0, 0.6, 0.26666668, 7896856]
[0, 2, 0.0, 641.0, 381.0, 0.6, 0.26666668, 7896889]
[0, 2, 0.0, 660.0, 289.0, 0.6, 0.26666668, 7896890]
[0, 1, 0.0, 671.0, 237.0, 0.58750004, 0.26666668, 7896906]
[0, 0, 0.0, 824.0, 1384.0, 0.58750004, 0.26666668, 7897500]
[0, 2, 0.0, 808.0, 1366.0, 0.6, 0.26666668, 7897501]
[0, 2, 0.0, 772.0, 1312.0, 0.6, 0.26666668, 7897519]
[0, 2, 0.0, 756.0, 1283.0, 0.6, 0.26666668, 7897520]
[0, 2, 0.0, 740.0, 1251.0, 0.6, 0.26666668, 7897534]
[0, 2, 0.0, 711.0, 1181.0, 0.6, 0.26666668, 7897551]
[0, 2, 0.0, 684.0, 1107.0, 0.6, 0.26666668, 7897568]
[0, 2, 0.0, 662.0, 1030.0, 0.6, 0.26666668, 7897588]
[0, 2, 0.0, 642.0, 952.0, 0.6, 0.26666668, 7897605]
[0, 2, 0.0, 632.0, 908.0, 0.6, 0.26666668, 7897606]
[0, 2, 0.0, 623.0, 860.0, 0.6, 0.26666668, 7897622]
[0, 2, 0.0, 615.0, 810.0, 0.6, 0.26666668, 7897623]
[0, 2, 0.0, 609.0, 755.0, 0.6, 0.26666668, 7897638]
[0, 2, 0.0, 605.0, 699.0, 0.6, 0.26666668, 7897639]
[0, 2, 0.0, 605.0, 644.0, 0.6, 0.26666668, 7897659]
[0, 2, 0.0, 611.0, 538.0, 0.6, 0.26666668, 7897681]
[0, 2, 0.0, 616.0, 493.0, 0.6, 0.26666668, 7897682]
[0, 2, 0.0, 624.0, 450.0, 0.6, 0.26666668, 7897697]
[0, 2, 0.0, 638.0, 379.0, 0.6, 0.26666668, 7897715]
[0, 2, 0.0, 653.0, 309.0, 0.6, 0.26666668, 7897735]
[0, 1, 0.0, 662.0, 273.0, 0.58750004, 0.26666668, 7897749]
[0, 0, 0.0, 782.0, 1345.0, 0.6125, 0.33333334, 7898364]
[0, 2, 0.0, 780.0, 1343.0, 0.6125, 0.33333334, 7898365]
[0, 2, 0.0, 765.0, 1304.0, 0.6125, 0.33333334, 7898366]
[0, 2, 0.0, 751.0, 1255.0, 0.6125, 0.33333334, 7898383]
[0, 2, 0.0, 741.0, 1224.0, 0.6125, 0.33333334, 7898384]
[0, 2, 0.0, 730.0, 1191.0, 0.6125, 0.33333334, 7898415]
[0, 2, 0.0, 720.0, 1162.0, 0.6125, 0.33333334, 7898416]
[0, 2, 0.0, 710.0, 1137.0, 0.6125, 0.33333334, 7898417]
[0, 2, 0.0, 689.0, 1081.0, 0.6125, 0.33333334, 7898433]
[0, 2, 0.0, 667.0, 1014.0, 0.6125, 0.33333334, 7898450]
[0, 2, 0.0, 648.0, 933.0, 0.6125, 0.33333334, 7898467]
[0, 2, 0.0, 629.0, 838.0, 0.6125, 0.33333334, 7898484]
[0, 2, 0.0, 611.0, 742.0, 0.6125, 0.33333334, 7898500]
[0, 2, 0.0, 597.0, 652.0, 0.6125, 0.33333334, 7898521]
[0, 2, 0.0, 588.0, 563.0, 0.6125, 0.33333334, 7898538]
[0, 2, 0.0, 587.0, 466.0, 0.6125, 0.33333334, 7898554]
[0, 2, 0.0, 600.0, 361.0, 0.6125, 0.33333334, 7898572]
[0, 2, 0.0, 614.0, 299.0, 0.6125, 0.33333334, 7898573]
[0, 2, 0.0, 629.0, 240.0, 0.6125, 0.33333334, 7898589]
[0, 1, 0.0, 666.0, 138.0, 0.6, 0.26666668, 7898605]
[0, 0, 0.0, 274.0, 951.0, 0.6, 0.33333334, 7900669]
[0, 2, 0.0, 272.0, 946.0, 0.6125, 0.33333334, 7900670]
[0, 2, 0.0, 270.0, 931.0, 0.6125, 0.33333334, 7900671]
[0, 2, 0.0, 268.0, 905.0, 0.6125, 0.33333334, 7900672]
[0, 2, 0.0, 268.0, 894.0, 0.6125, 0.33333334, 7900686]
[0, 2, 0.0, 268.0, 882.0, 0.6125, 0.33333334, 7900687]
[0, 2, 0.0, 268.0, 868.0, 0.6125, 0.33333334, 7900703]
[0, 2, 0.0, 268.0, 853.0, 0.6125, 0.33333334, 7900704]
[0, 2, 0.0, 269.0, 837.0, 0.6125, 0.33333334, 7900720]
[0, 2, 0.0, 270.0, 819.0, 0.6125, 0.33333334, 7900724]
[0, 2, 0.0, 272.0, 798.0, 0.6125, 0.33333334, 7900739]
[0, 2, 0.0, 276.0, 750.0, 0.6125, 0.33333334, 7900757]
[0, 2, 0.0, 278.0, 724.0, 0.6125, 0.33333334, 7900758]
[0, 2, 0.0, 281.0, 696.0, 0.6125, 0.33333334, 7900779]
[0, 2, 0.0, 284.0, 668.0, 0.6125, 0.33333334, 7900780]
[0, 2, 0.0, 287.0, 639.0, 0.6125, 0.33333334, 7900796]
[0, 2, 0.0, 291.0, 612.0, 0.6125, 0.33333334, 7900797]
[0, 2, 0.0, 295.0, 584.0, 0.6125, 0.33333334, 7900811]
[0, 2, 0.0, 300.0, 559.0, 0.6125, 0.33333334, 7900812]
[0, 2, 0.0, 305.0, 534.0, 0.6125, 0.33333334, 7900826]
[0, 2, 0.0, 310.0, 510.0, 0.6125, 0.33333334, 7900827]
[0, 2, 0.0, 315.0, 489.0, 0.6125, 0.33333334, 7900841]
[0, 2, 0.0, 320.0, 466.0, 0.6125, 0.33333334, 7900842]
[0, 2, 0.0, 324.0, 443.0, 0.6125, 0.33333334, 7900859]
[0, 1, 0.0, 332.0, 404.0, 0.6, 0.26666668, 7900877]
[0, 0, 0.0, 283.0, 968.0, 0.575, 0.26666668, 7901584]
[0, 2, 0.0, 280.0, 963.0, 0.575, 0.26666668, 7901585]
[0, 2, 0.0, 260.0, 920.0, 0.6, 0.26666668, 7901586]
[0, 2, 0.0, 255.0, 904.0, 0.6, 0.26666668, 7901587]
[0, 2, 0.0, 250.0, 883.0, 0.6, 0.26666668, 7901623]
[0, 2, 0.0, 242.0, 838.0, 0.6, 0.26666668, 7901624]
[0, 2, 0.0, 240.0, 813.0, 0.6, 0.26666668, 7901625]
[0, 2, 0.0, 239.0, 786.0, 0.6, 0.26666668, 7901652]
[0, 2, 0.0, 240.0, 735.0, 0.6, 0.26666668, 7901653]
[0, 2, 0.0, 245.0, 685.0, 0.6, 0.26666668, 7901669]
[0, 2, 0.0, 255.0, 629.0, 0.6, 0.26666668, 7901686]
[0, 2, 0.0, 263.0, 597.0, 0.6, 0.26666668, 7901687]
[0, 2, 0.0, 271.0, 566.0, 0.6, 0.26666668, 7901703]
[0, 2, 0.0, 280.0, 531.0, 0.6, 0.26666668, 7901704]
[0, 2, 0.0, 291.0, 498.0, 0.6, 0.26666668, 7901720]
[0, 2, 0.0, 302.0, 465.0, 0.6, 0.26666668, 7901721]
[0, 2, 0.0, 314.0, 435.0, 0.6, 0.26666668, 7901742]
[0, 2, 0.0, 334.0, 384.0, 0.6, 0.26666668, 7901757]
[0, 2, 0.0, 343.0, 364.0, 0.6, 0.26666668, 7901758]
[0, 1, 0.0, 351.0, 348.0, 0.6, 0.26666668, 7901794]
[0, 0, 0.0, 296.0, 968.0, 0.58750004, 0.26666668, 7902518]
[0, 2, 0.0, 288.0, 947.0, 0.6, 0.26666668, 7902519]
[0, 2, 0.0, 279.0, 897.0, 0.6, 0.26666668, 7902535]
[0, 2, 0.0, 273.0, 847.0, 0.6, 0.26666668, 7902554]
[0, 2, 0.0, 269.0, 795.0, 0.6, 0.26666668, 7902603]
[0, 2, 0.0, 269.0, 702.0, 0.6, 0.26666668, 7902604]
[0, 2, 0.0, 274.0, 650.0, 0.6, 0.26666668, 7902637]
[0, 2, 0.0, 292.0, 542.0, 0.6, 0.26666668, 7902638]
[0, 2, 0.0, 303.0, 503.0, 0.6, 0.26666668, 7902653]
[0, 1, 0.0, 331.0, 428.0, 0.58750004, 0.26666668, 7902671]
[0, 0, 0.0, 278.0, 980.0, 0.6125, 0.33333334, 7903332]
[0, 2, 0.0, 270.0, 931.0, 0.6125, 0.33333334, 7903333]
[0, 2, 0.0, 264.0, 882.0, 0.6125, 0.33333334, 7903350]
[0, 2, 0.0, 260.0, 854.0, 0.6125, 0.33333334, 7903352]
[0, 2, 0.0, 256.0, 824.0, 0.6125, 0.33333334, 7903367]
[0, 2, 0.0, 252.0, 794.0, 0.6125, 0.33333334, 7903368]
[0, 2, 0.0, 249.0, 765.0, 0.6125, 0.33333334, 7903386]
[0, 2, 0.0, 246.0, 738.0, 0.6125, 0.33333334, 7903387]
[0, 2, 0.0, 243.0, 711.0, 0.6125, 0.33333334, 7903433]
[0, 2, 0.0, 241.0, 659.0, 0.6125, 0.33333334, 7903434]
[0, 2, 0.0, 243.0, 606.0, 0.6125, 0.33333334, 7903435]
[0, 2, 0.0, 250.0, 551.0, 0.6125, 0.33333334, 7903450]
[0, 2, 0.0, 257.0, 521.0, 0.6125, 0.33333334, 7903451]
[0, 2, 0.0, 265.0, 489.0, 0.6125, 0.33333334, 7903467]
[0, 2, 0.0, 286.0, 419.0, 0.6125, 0.33333334, 7903501]
[0, 2, 0.0, 332.0, 322.0, 0.575, 0.26666668, 7903502]
[0, 2, 0.0, 351.0, 294.0, 0.5125, 0.26666668, 7903518]
[0, 1, 0.0, 384.0, 243.0, 0.45000002, 0.26666668, 7903545]
[0, 0, 0.0, 278.0, 995.0, 0.58750004, 0.26666668, 7904196]
[0, 2, 0.0, 276.0, 990.0, 0.6, 0.26666668, 7904197]
[0, 2, 0.0, 275.0, 945.0, 0.6, 0.26666668, 7904198]
[0, 2, 0.0, 274.0, 914.0, 0.6, 0.26666668, 7904216]
[0, 2, 0.0, 271.0, 873.0, 0.6, 0.26666668, 7904230]
[0, 2, 0.0, 269.0, 852.0, 0.6, 0.26666668, 7904234]
[0, 2, 0.0, 267.0, 829.0, 0.6, 0.26666668, 7904249]
[0, 2, 0.0, 266.0, 783.0, 0.6, 0.26666668, 7904281]
[0, 2, 0.0, 270.0, 728.0, 0.6, 0.26666668, 7904282]
[0, 2, 0.0, 278.0, 665.0, 0.6, 0.26666668, 7904314]
[0, 2, 0.0, 283.0, 633.0, 0.6, 0.26666668, 7904315]
[0, 2, 0.0, 302.0, 531.0, 0.6, 0.26666668, 7904348]
[0, 2, 0.0, 319.0, 467.0, 0.6, 0.26666668, 7904349]
[0, 2, 0.0, 336.0, 410.0, 0.6, 0.26666668, 7904382]
[0, 2, 0.0, 351.0, 364.0, 0.6, 0.26666668, 7904383]
[0, 1, 0.0, 366.0, 328.0, 0.6, 0.26666668, 7904411]
[0, 0, 0.0, 291.0, 943.0, 0.6, 0.26666668, 7905145]
[0, 2, 0.0, 289.0, 941.0, 0.6, 0.26666668, 7905146]
[0, 2, 0.0, 274.0, 910.0, 0.6, 0.26666668, 7905150]
[0, 2, 0.0, 271.0, 895.0, 0.6, 0.26666668, 7905151]
[0, 2, 0.0, 269.0, 876.0, 0.6, 0.26666668, 7905152]
[0, 2, 0.0, 267.0, 854.0, 0.6, 0.26666668, 7905169]
[0, 2, 0.0, 266.0, 806.0, 0.6, 0.26666668, 7905182]
[0, 2, 0.0, 266.0, 761.0, 0.6, 0.26666668, 7905197]
[0, 2, 0.0, 266.0, 715.0, 0.6, 0.26666668, 7905217]
[0, 2, 0.0, 269.0, 664.0, 0.6, 0.26666668, 7905233]
[0, 2, 0.0, 271.0, 638.0, 0.6, 0.26666668, 7905234]
[0, 2, 0.0, 275.0, 608.0, 0.6, 0.26666668, 7905250]
[0, 2, 0.0, 279.0, 578.0, 0.6, 0.26666668, 7905251]
[0, 2, 0.0, 285.0, 546.0, 0.6, 0.26666668, 7905267]
[0, 2, 0.0, 298.0, 483.0, 0.6, 0.26666668, 7905287]
[0, 2, 0.0, 308.0, 453.0, 0.6, 0.26666668, 7905288]
[0, 2, 0.0, 317.0, 425.0, 0.6, 0.26666668, 7905302]
[0, 2, 0.0, 338.0, 371.0, 0.6, 0.26666668, 7905316]
[0, 2, 0.0, 348.0, 347.0, 0.6, 0.26666668, 7905317]
[0, 2, 0.0, 361.0, 321.0, 0.6, 0.26666668, 7905335]
[0, 2, 0.0, 388.0, 268.0, 0.6, 0.26666668, 7905352]
[0, 2, 0.0, 402.0, 241.0, 0.6, 0.26666668, 7905353]
[0, 2, 0.0, 418.0, 214.0, 0.6, 0.26666668, 7905371]
[0, 1, 0.0, 436.0, 186.0, 0.58750004, 0.26666668, 7905385]
[0, 0, 0.0, 276.0, 995.0, 0.6, 0.26666668, 7906009]
[0, 2, 0.0, 274.0, 990.0, 0.6, 0.26666668, 7906010]
[0, 2, 0.0, 270.0, 964.0, 0.6, 0.26666668, 7906011]
[0, 2, 0.0, 268.0, 933.0, 0.6, 0.26666668, 7906012]
[0, 2, 0.0, 267.0, 911.0, 0.6, 0.26666668, 7906044]
[0, 2, 0.0, 267.0, 865.0, 0.6, 0.26666668, 7906045]
[0, 2, 0.0, 268.0, 816.0, 0.6, 0.26666668, 7906078]
[0, 2, 0.0, 270.0, 769.0, 0.6, 0.26666668, 7906079]
[0, 2, 0.0, 274.0, 720.0, 0.6, 0.26666668, 7906111]
[0, 2, 0.0, 277.0, 694.0, 0.6125, 0.26666668, 7906112]
[0, 2, 0.0, 279.0, 665.0, 0.6125, 0.26666668, 7906113]
[0, 2, 0.0, 286.0, 602.0, 0.6125, 0.26666668, 7906144]
[0, 2, 0.0, 291.0, 570.0, 0.6125, 0.26666668, 7906145]
[0, 2, 0.0, 298.0, 536.0, 0.6125, 0.26666668, 7906146]
[0, 2, 0.0, 314.0, 469.0, 0.6125, 0.26666668, 7906178]
[0, 2, 0.0, 323.0, 438.0, 0.6125, 0.26666668, 7906179]
[0, 2, 0.0, 332.0, 410.0, 0.6125, 0.26666668, 7906180]
[0, 2, 0.0, 350.0, 355.0, 0.6125, 0.26666668, 7906196]
[0, 2, 0.0, 369.0, 307.0, 0.6125, 0.26666668, 7906213]
[0, 2, 0.0, 378.0, 286.0, 0.6125, 0.26666668, 7906214]
[0, 2, 0.0, 387.0, 268.0, 0.6125, 0.26666668, 7906230]
[0, 1, 0.0, 405.0, 238.0, 0.6, 0.26666668, 7906247]
[0, 0, 0.0, 261.0, 981.0, 0.58750004, 0.26666668, 7906894]
[0, 2, 0.0, 259.0, 978.0, 0.6, 0.26666668, 7906909]
[0, 2, 0.0, 250.0, 921.0, 0.6, 0.26666668, 7906910]
[0, 2, 0.0, 250.0, 898.0, 0.6, 0.26666668, 7906928]
[0, 2, 0.0, 251.0, 836.0, 0.6, 0.26666668, 7906943]
[0, 2, 0.0, 258.0, 763.0, 0.6, 0.26666668, 7906962]
[0, 2, 0.0, 266.0, 696.0, 0.6, 0.26666668, 7906977]
[0, 2, 0.0, 274.0, 637.0, 0.6, 0.26666668, 7906996]
[0, 2, 0.0, 282.0, 582.0, 0.6, 0.26666668, 7907013]
[0, 2, 0.0, 291.0, 526.0, 0.6, 0.26666668, 7907031]
[0, 2, 0.0, 305.0, 463.0, 0.6, 0.26666668, 7907048]
[0, 2, 0.0, 327.0, 388.0, 0.6, 0.26666668, 7907064]
[0, 2, 0.0, 336.0, 356.0, 0.6, 0.26666668, 7907065]
[0, 1, 0.0, 347.0, 326.0, 0.58750004, 0.26666668, 7907081]
[0, 0, 0.0, 257.0, 998.0, 0.6, 0.33333334, 7907724]
[0, 2, 0.0, 245.0, 960.0, 0.6125, 0.26666668, 7907725]
[0, 2, 0.0, 239.0, 930.0, 0.6125, 0.26666668, 7907726]
[0, 2, 0.0, 237.0, 912.0, 0.6125, 0.26666668, 7907740]
[0, 2, 0.0, 235.0, 892.0, 0.6125, 0.26666668, 7907743]
[0, 2, 0.0, 234.0, 869.0, 0.6125, 0.26666668, 7907791]
[0, 2, 0.0, 236.0, 789.0, 0.6125, 0.26666668, 7907792]
[0, 2, 0.0, 243.0, 730.0, 0.6125, 0.26666668, 7907793]
[0, 2, 0.0, 248.0, 701.0, 0.6125, 0.26666668, 7907825]
[0, 2, 0.0, 261.0, 642.0, 0.6125, 0.26666668, 7907826]
[0, 2, 0.0, 274.0, 586.0, 0.6125, 0.26666668, 7907858]
[0, 2, 0.0, 296.0, 499.0, 0.6125, 0.26666668, 7907859]
[0, 2, 0.0, 306.0, 466.0, 0.6125, 0.26666668, 7907891]
[0, 1, 0.0, 340.0, 368.0, 0.6, 0.26666668, 7907922]
[0, 0, 0.0, 256.0, 1020.0, 0.6125, 0.26666668, 7908553]
[0, 2, 0.0, 253.0, 1017.0, 0.6125, 0.26666668, 7908554]
[0, 2, 0.0, 232.0, 942.0, 0.6125, 0.26666668, 7908555]
[0, 2, 0.0, 229.0, 918.0, 0.6125, 0.26666668, 7908570]
[0, 2, 0.0, 227.0, 891.0, 0.6125, 0.26666668, 7908574]
[0, 2, 0.0, 225.0, 864.0, 0.6125, 0.26666668, 7908588]
[0, 2, 0.0, 222.0, 805.0, 0.6125, 0.26666668, 7908605]
[0, 2, 0.0, 221.0, 743.0, 0.6125, 0.26666668, 7908622]
[0, 2, 0.0, 224.0, 677.0, 0.6125, 0.26666668, 7908641]
[0, 2, 0.0, 234.0, 607.0, 0.6125, 0.26666668, 7908658]
[0, 2, 0.0, 251.0, 531.0, 0.6125, 0.26666668, 7908680]
[0, 2, 0.0, 261.0, 495.0, 0.6125, 0.26666668, 7908681]
[0, 1, 0.0, 291.0, 414.0, 0.6, 0.26666668, 7908713]
[0, 0, 0.0, 761.0, 1149.0, 0.575, 0.26666668, 7910386]
[0, 2, 0.0, 761.0, 1140.0, 0.58750004, 0.26666668, 7910387]
[0, 2, 0.0, 764.0, 1101.0, 0.58750004, 0.26666668, 7910388]
[0, 2, 0.0, 768.0, 1072.0, 0.58750004, 0.26666668, 7910403]
[0, 2, 0.0, 770.0, 1053.0, 0.58750004, 0.26666668, 7910404]
[0, 2, 0.0, 772.0, 1032.0, 0.58750004, 0.26666668, 7910421]
[0, 2, 0.0, 775.0, 983.0, 0.6125, 0.26666668, 7910452]
[0, 2, 0.0, 781.0, 891.0, 0.6125, 0.26666668, 7910453]
[0, 2, 0.0, 784.0, 859.0, 0.6125, 0.26666668, 7910469]
[0, 2, 0.0, 793.0, 796.0, 0.6125, 0.26666668, 7910490]
[0, 2, 0.0, 805.0, 733.0, 0.6125, 0.26666668, 7910508]
[0, 2, 0.0, 820.0, 671.0, 0.6125, 0.26666668, 7910527]
[0, 2, 0.0, 833.0, 606.0, 0.6125, 0.26666668, 7910542]
[0, 2, 0.0, 843.0, 542.0, 0.6125, 0.26666668, 7910556]
[0, 2, 0.0, 850.0, 484.0, 0.6125, 0.26666668, 7910575]
[0, 2, 0.0, 856.0, 432.0, 0.6125, 0.26666668, 7910592]
[0, 2, 0.0, 863.0, 388.0, 0.6125, 0.26666668, 7910607]
[0, 1, 0.0, 869.0, 364.0, 0.6, 0.26666668, 7910625]
[0, 0, 0.0, 755.0, 1122.0, 0.6, 0.26666668, 7911282]
[0, 2, 0.0, 755.0, 1119.0, 0.6, 0.26666668, 7911283]
[0, 2, 0.0, 761.0, 1085.0, 0.6, 0.26666668, 7911284]
[0, 2, 0.0, 767.0, 1035.0, 0.6, 0.26666668, 7911285]
[0, 2, 0.0, 770.0, 1003.0, 0.6, 0.26666668, 7911300]
[0, 2, 0.0, 775.0, 937.0, 0.6, 0.26666668, 7911319]
[0, 2, 0.0, 777.0, 907.0, 0.6, 0.26666668, 7911320]
[0, 2, 0.0, 779.0, 877.0, 0.6, 0.26666668, 7911334]
[0, 2, 0.0, 783.0, 816.0, 0.6, 0.26666668, 7911354]
[0, 2, 0.0, 789.0, 750.0, 0.6, 0.26666668, 7911370]
[0, 2, 0.0, 792.0, 717.0, 0.6, 0.26666668, 7911371]
[0, 2, 0.0, 795.0, 682.0, 0.6, 0.26666668, 7911387]
[0, 2, 0.0, 801.0, 613.0, 0.6, 0.26666668, 7911405]
[0, 2, 0.0, 807.0, 546.0, 0.6, 0.26666668, 7911422]
[0, 2, 0.0, 811.0, 516.0, 0.6, 0.26666668, 7911423]
[0, 2, 0.0, 815.0, 489.0, 0.6, 0.26666668, 7911438]
[0, 2, 0.0, 825.0, 442.0, 0.6, 0.26666668, 7911456]
[0, 2, 0.0, 835.0, 399.0, 0.6, 0.26666668, 7911478]
[0, 2, 0.0, 845.0, 362.0, 0.6, 0.26666668, 7911492]
[0, 2, 0.0, 850.0, 345.0, 0.6, 0.26666668, 7911493]
[0, 1, 0.0, 856.0, 327.0, 0.5625, 0.26666668, 7911508]
[0, 0, 0.0, 726.0, 1135.0, 0.575, 0.26666668, 7912148]
[0, 2, 0.0, 726.0, 1131.0, 0.6, 0.26666668, 7912164]
[0, 2, 0.0, 731.0, 1059.0, 0.6, 0.26666668, 7912165]
[0, 2, 0.0, 734.0, 1035.0, 0.6, 0.26666668, 7912166]
[0, 2, 0.0, 737.0, 1009.0, 0.6, 0.26666668, 7912181]
[0, 2, 0.0, 740.0, 985.0, 0.6, 0.26666668, 7912182]
[0, 2, 0.0, 744.0, 959.0, 0.6, 0.26666668, 7912198]
[0, 2, 0.0, 748.0, 933.0, 0.6, 0.26666668, 7912199]
[0, 2, 0.0, 753.0, 905.0, 0.6, 0.26666668, 7912215]
[0, 2, 0.0, 758.0, 875.0, 0.625, 0.26666668, 7912216]
[0, 2, 0.0, 763.0, 844.0, 0.625, 0.26666668, 7912232]
[0, 2, 0.0, 769.0, 810.0, 0.625, 0.26666668, 7912233]
[0, 2, 0.0, 775.0, 773.0, 0.625, 0.26666668, 7912249]
[0, 2, 0.0, 785.0, 700.0, 0.625, 0.26666668, 7912266]
[0, 2, 0.0, 793.0, 630.0, 0.625, 0.26666668, 7912283]
[0, 2, 0.0, 800.0, 570.0, 0.625, 0.26666668, 7912300]
[0, 2, 0.0, 809.0, 516.0, 0.625, 0.26666668, 7912317]
[0, 2, 0.0, 820.0, 465.0, 0.625, 0.26666668, 7912337]
[0, 2, 0.0, 828.0, 437.0, 0.625, 0.26666668, 7912338]
[0, 2, 0.0, 835.0, 408.0, 0.6125, 0.26666668, 7912354]
[0, 1, 0.0, 843.0, 375.0, 0.6, 0.26666668, 7912370]
[0, 0, 0.0, 749.0, 1038.0, 0.6125, 0.26666668, 7913096]
[0, 2, 0.0, 749.0, 1030.0, 0.6125, 0.26666668, 7913097]
[0, 2, 0.0, 753.0, 995.0, 0.6125, 0.26666668, 7913098]
[0, 2, 0.0, 755.0, 980.0, 0.6125, 0.26666668, 7913099]
[0, 2, 0.0, 762.0, 936.0, 0.6125, 0.26666668, 7913131]
[0, 2, 0.0, 773.0, 875.0, 0.6125, 0.26666668, 7913132]
[0, 2, 0.0, 779.0, 840.0, 0.6125, 0.26666668, 7913133]
[0, 2, 0.0, 786.0, 804.0, 0.6125, 0.26666668, 7913147]
[0, 2, 0.0, 793.0, 770.0, 0.6125, 0.26666668, 7913148]
[0, 2, 0.0, 801.0, 736.0, 0.6125, 0.26666668, 7913164]
[0, 2, 0.0, 809.0, 703.0, 0.6125, 0.26666668, 7913165]
[0, 2, 0.0, 819.0, 670.0, 0.6125, 0.26666668, 7913181]
[0, 2, 0.0, 838.0, 602.0, 0.6125, 0.26666668, 7913198]
[0, 2, 0.0, 854.0, 534.0, 0.6125, 0.26666668, 7913215]
[0, 2, 0.0, 862.0, 497.0, 0.6125, 0.26666668, 7913216]
[0, 2, 0.0, 870.0, 461.0, 0.6125, 0.26666668, 7913232]
[0, 2, 0.0, 879.0, 424.0, 0.6125, 0.26666668, 7913233]
[0, 2, 0.0, 888.0, 389.0, 0.6125, 0.26666668, 7913249]
[0, 1, 0.0, 900.0, 329.0, 0.6125, 0.26666668, 7913267]
[0, 0, 0.0, 743.0, 1174.0, 0.58750004, 0.26666668, 7913996]
[0, 2, 0.0, 741.0, 1171.0, 0.6125, 0.26666668, 7913998]
[0, 2, 0.0, 736.0, 1160.0, 0.6125, 0.26666668, 7913999]
[0, 2, 0.0, 729.0, 1107.0, 0.6125, 0.26666668, 7914000]
[0, 2, 0.0, 728.0, 1053.0, 0.6125, 0.26666668, 7914014]
[0, 2, 0.0, 728.0, 984.0, 0.6125, 0.26666668, 7914036]
[0, 2, 0.0, 728.0, 903.0, 0.6125, 0.26666668, 7914050]
[0, 2, 0.0, 730.0, 823.0, 0.6125, 0.26666668, 7914067]
[0, 2, 0.0, 731.0, 786.0, 0.6125, 0.26666668, 7914084]
[0, 2, 0.0, 733.0, 749.0, 0.6125, 0.26666668, 7914100]
[0, 2, 0.0, 734.0, 714.0, 0.6125, 0.26666668, 7914101]
[0, 2, 0.0, 738.0, 647.0, 0.6125, 0.26666668, 7914102]
[0, 2, 0.0, 741.0, 612.0, 0.6125, 0.26666668, 7914115]
[0, 2, 0.0, 750.0, 544.0, 0.6125, 0.26666668, 7914164]
[0, 2, 0.0, 756.0, 508.0, 0.6125, 0.26666668, 7914165]
[0, 2, 0.0, 776.0, 401.0, 0.6125, 0.26666668, 7914166]
[0, 2, 0.0, 782.0, 368.0, 0.6125, 0.26666668, 7914167]
[0, 2, 0.0, 790.0, 335.0, 0.6125, 0.26666668, 7914199]
[0, 1, 0.0, 814.0, 248.0, 0.58750004, 0.26666668, 7914227]
[0, 0, 0.0, 724.0, 1160.0, 0.625, 0.33333334, 7914792]
[0, 2, 0.0, 722.0, 1153.0, 0.625, 0.33333334, 7914793]
[0, 2, 0.0, 722.0, 1108.0, 0.625, 0.33333334, 7914794]
[0, 2, 0.0, 722.0, 1095.0, 0.625, 0.33333334, 7914809]
[0, 2, 0.0, 722.0, 1063.0, 0.625, 0.33333334, 7914826]
[0, 2, 0.0, 723.0, 1045.0, 0.625, 0.33333334, 7914827]
[0, 2, 0.0, 724.0, 1025.0, 0.625, 0.33333334, 7914843]
[0, 2, 0.0, 726.0, 979.0, 0.625, 0.33333334, 7914867]
[0, 2, 0.0, 730.0, 927.0, 0.625, 0.33333334, 7914881]
[0, 2, 0.0, 732.0, 900.0, 0.625, 0.33333334, 7914882]
[0, 2, 0.0, 735.0, 874.0, 0.625, 0.33333334, 7914898]
[0, 2, 0.0, 741.0, 824.0, 0.625, 0.33333334, 7914914]
[0, 2, 0.0, 744.0, 800.0, 0.625, 0.33333334, 7914915]
[0, 2, 0.0, 747.0, 775.0, 0.625, 0.33333334, 7914931]
[0, 2, 0.0, 751.0, 748.0, 0.625, 0.33333334, 7914932]
[0, 2, 0.0, 755.0, 720.0, 0.625, 0.33333334, 7914950]
[0, 2, 0.0, 760.0, 688.0, 0.625, 0.33333334, 7914951]
[0, 2, 0.0, 765.0, 656.0, 0.625, 0.33333334, 7914966]
[0, 2, 0.0, 777.0, 586.0, 0.625, 0.33333334, 7914983]
[0, 2, 0.0, 787.0, 519.0, 0.625, 0.33333334, 7915003]
[0, 2, 0.0, 798.0, 454.0, 0.625, 0.33333334, 7915018]
[0, 2, 0.0, 803.0, 424.0, 0.625, 0.33333334, 7915019]
[0, 2, 0.0, 809.0, 393.0, 0.625, 0.33333334, 7915039]
[0, 2, 0.0, 819.0, 343.0, 0.625, 0.33333334, 7915055]
[0, 2, 0.0, 827.0, 302.0, 0.625, 0.33333334, 7915072]
[0, 2, 0.0, 834.0, 274.0, 0.625, 0.33333334, 7915088]
[0, 1, 0.0, 837.0, 263.0, 0.6125, 0.33333334, 7915103]
[0, 0, 0.0, 710.0, 1177.0, 0.6, 0.33333334, 7915658]
[0, 2, 0.0, 708.0, 1119.0, 0.6125, 0.33333334, 7915659]
[0, 2, 0.0, 709.0, 1082.0, 0.6125, 0.33333334, 7915677]
[0, 2, 0.0, 711.0, 1038.0, 0.6125, 0.33333334, 7915709]
[0, 2, 0.0, 717.0, 965.0, 0.6125, 0.33333334, 7915710]
[0, 2, 0.0, 719.0, 939.0, 0.6125, 0.33333334, 7915726]
[0, 2, 0.0, 724.0, 886.0, 0.6125, 0.33333334, 7915759]
[0, 2, 0.0, 728.0, 856.0, 0.6125, 0.33333334, 7915760]
[0, 2, 0.0, 732.0, 827.0, 0.6125, 0.33333334, 7915761]
[0, 2, 0.0, 743.0, 761.0, 0.6125, 0.33333334, 7915793]
[0, 2, 0.0, 749.0, 728.0, 0.6125, 0.33333334, 7915794]
[0, 2, 0.0, 764.0, 663.0, 0.6125, 0.33333334, 7915795]
[0, 2, 0.0, 771.0, 631.0, 0.6125, 0.33333334, 7915826]
[0, 2, 0.0, 777.0, 600.0, 0.6125, 0.33333334, 7915827]
[0, 2, 0.0, 789.0, 541.0, 0.6125, 0.33333334, 7915828]
[0, 2, 0.0, 796.0, 510.0, 0.6125, 0.33333334, 7915844]
[0, 2, 0.0, 812.0, 449.0, 0.6125, 0.33333334, 7915861]
[0, 2, 0.0, 829.0, 387.0, 0.6125, 0.33333334, 7915894]
[0, 2, 0.0, 838.0, 359.0, 0.6125, 0.33333334, 7915895]
[0, 2, 0.0, 847.0, 330.0, 0.6125, 0.33333334, 7915898]
[0, 1, 0.0, 856.0, 303.0, 0.6125, 0.26666668, 7915925]
[0, 0, 0.0, 729.0, 1136.0, 0.6125, 0.33333334, 7916539]
[0, 2, 0.0, 727.0, 1132.0, 0.6125, 0.33333334, 7916540]
[0, 2, 0.0, 720.0, 1104.0, 0.6125, 0.33333334, 7916541]
[0, 2, 0.0, 719.0, 1088.0, 0.6125, 0.33333334, 7916542]
[0, 2, 0.0, 718.0, 1042.0, 0.6125, 0.33333334, 7916574]
[0, 2, 0.0, 721.0, 984.0, 0.6125, 0.33333334, 7916575]
[0, 2, 0.0, 727.0, 914.0, 0.6125, 0.33333334, 7916591]
[0, 2, 0.0, 735.0, 838.0, 0.6125, 0.33333334, 7916624]
[0, 2, 0.0, 744.0, 761.0, 0.6125, 0.33333334, 7916625]
[0, 2, 0.0, 754.0, 684.0, 0.6125, 0.33333334, 7916641]
[0, 2, 0.0, 760.0, 650.0, 0.6125, 0.33333334, 7916642]
[0, 2, 0.0, 765.0, 615.0, 0.6125, 0.33333334, 7916658]
[0, 2, 0.0, 770.0, 583.0, 0.6125, 0.33333334, 7916659]
[0, 2, 0.0, 776.0, 552.0, 0.625, 0.33333334, 7916691]
[0, 2, 0.0, 782.0, 521.0, 0.625, 0.33333334, 7916692]
[0, 1, 0.0, 798.0, 457.0, 0.625, 0.33333334, 7916720]
[0, 0, 0.0, 703.0, 1123.0, 0.6125, 0.33333334, 7917438]
[0, 2, 0.0, 707.0, 1092.0, 0.6125, 0.33333334, 7917439]
[0, 2, 0.0, 711.0, 1056.0, 0.6125, 0.33333334, 7917440]
[0, 2, 0.0, 713.0, 1033.0, 0.6125, 0.33333334, 7917457]
[0, 2, 0.0, 719.0, 979.0, 0.625, 0.33333334, 7917489]
[0, 2, 0.0, 726.0, 918.0, 0.625, 0.33333334, 7917490]
[0, 2, 0.0, 734.0, 857.0, 0.625, 0.33333334, 7917523]
[0, 2, 0.0, 744.0, 799.0, 0.625, 0.33333334, 7917524]
[0, 2, 0.0, 754.0, 736.0, 0.625, 0.33333334, 7917556]
[0, 2, 0.0, 761.0, 703.0, 0.625, 0.33333334, 7917557]
[0, 2, 0.0, 785.0, 582.0, 0.625, 0.33333334, 7917573]
[0, 2, 0.0, 794.0, 540.0, 0.625, 0.33333334, 7917574]
[0, 2, 0.0, 803.0, 501.0, 0.625, 0.33333334, 7917591]
[0, 2, 0.0, 823.0, 432.0, 0.625, 0.33333334, 7917624]
[0, 2, 0.0, 840.0, 375.0, 0.625, 0.33333334, 7917625]
[0, 2, 0.0, 851.0, 333.0, 0.625, 0.33333334, 7917657]
[0, 1, 0.0, 858.0, 313.0, 0.6, 0.26666668, 7917659]
[0, 0, 0.0, 697.0, 1076.0, 0.625, 0.33333334, 7918303]
[0, 2, 0.0, 700.0, 1033.0, 0.625, 0.33333334, 7918304]
[0, 2, 0.0, 705.0, 994.0, 0.625, 0.33333334, 7918339]
[0, 2, 0.0, 714.0, 912.0, 0.625, 0.33333334, 7918340]
[0, 2, 0.0, 717.0, 880.0, 0.625, 0.33333334, 7918371]
[0, 2, 0.0, 723.0, 811.0, 0.625, 0.33333334, 7918372]
[0, 2, 0.0, 731.0, 737.0, 0.625, 0.33333334, 7918388]
[0, 2, 0.0, 742.0, 665.0, 0.625, 0.33333334, 7918421]
[0, 2, 0.0, 749.0, 629.0, 0.625, 0.33333334, 7918422]
[0, 2, 0.0, 771.0, 519.0, 0.625, 0.33333334, 7918438]
[0, 2, 0.0, 783.0, 442.0, 0.625, 0.33333334, 7918455]
[0, 2, 0.0, 794.0, 375.0, 0.625, 0.33333334, 7918472]
[0, 2, 0.0, 806.0, 310.0, 0.625, 0.33333334, 7918491]
[0, 2, 0.0, 822.0, 251.0, 0.625, 0.33333334, 7918508]
[0, 1, 0.0, 830.0, 224.0, 0.6125, 0.26666668, 7918523]
