0,0,0.0,551.0,1361.0,0.6,0.26666668,8141679
0,2,0.0,540.0,1325.0,0.6,0.26666668,8141695
0,2,0.0,528.0,1277.0,0.6,0.26666668,8141696
0,2,0.0,514.0,1221.0,0.6,0.26666668,8141696
0,2,0.0,501.0,1163.0,0.6,0.26666668,8141732
0,2,0.0,488.0,1103.0,0.6125,0.26666668,8141732
0,2,0.0,476.0,1039.0,0.6125,0.26666668,8141733
0,2,0.0,467.0,971.0,0.6125,0.26666668,8141733
0,2,0.0,464.0,901.0,0.6125,0.26666668,8141781
0,2,0.0,467.0,832.0,0.6125,0.26666668,8141782
0,2,0.0,476.0,759.0,0.6125,0.26666668,8141782
0,2,0.0,489.0,684.0,0.6125,0.26666668,8141783
0,2,0.0,505.0,610.0,0.6125,0.26666668,8141784
0,2,0.0,529.0,531.0,0.6125,0.26666668,8141784
0,2,0.0,558.0,452.0,0.6125,0.26666668,8141819
0,2,0.0,589.0,371.0,0.6,0.26666668,8141819
0,1,0.0,589.0,371.0,0.6,0.26666668,8141820
0,0,0.0,550.0,1396.0,0.6125,0.33333334,8142325
0,2,0.0,542.0,1379.0,0.6,0.33333334,8142341
0,2,0.0,517.0,1304.0,0.6,0.33333334,8142341
0,2,0.0,502.0,1248.0,0.6,0.33333334,8142342
0,2,0.0,487.0,1184.0,0.6,0.33333334,8142342
0,2,0.0,474.0,1116.0,0.6,0.33333334,8142372
0,2,0.0,463.0,1045.0,0.6,0.33333334,8142373
0,2,0.0,457.0,972.0,0.6,0.33333334,8142398
0,2,0.0,454.0,897.0,0.6125,0.33333334,8142399
0,2,0.0,456.0,821.0,0.6125,0.33333334,8142399
0,2,0.0,463.0,739.0,0.6125,0.33333334,8142400
0,2,0.0,476.0,653.0,0.6125,0.33333334,8142421
0,2,0.0,493.0,562.0,0.6125,0.33333334,8142422
0,2,0.0,512.0,473.0,0.6125,0.33333334,8142442
0,2,0.0,535.0,391.0,0.6125,0.33333334,8142443
0,2,0.0,561.0,314.0,0.6125,0.33333334,8142443
0,2,0.0,589.0,240.0,0.6125,0.33333334,8142444
0,2,0.0,622.0,167.0,0.6,0.26666668,8142463
0,1,0.0,622.0,167.0,0.6,0.26666668,8142464
0,0,0.0,671.0,1454.0,0.58750004,0.26666668,8142968
0,2,0.0,667.0,1446.0,0.58750004,0.26666668,8142984
0,2,0.0,648.0,1401.0,0.58750004,0.26666668,8142985
0,2,0.0,630.0,1361.0,0.58750004,0.26666668,8142986
0,2,0.0,610.0,1309.0,0.58750004,0.26666668,8142986
0,2,0.0,589.0,1251.0,0.6,0.26666668,8143004
0,2,0.0,568.0,1190.0,0.6,0.26666668,8143005
0,2,0.0,548.0,1129.0,0.6,0.26666668,8143030
0,2,0.0,531.0,1069.0,0.6,0.26666668,8143033
0,2,0.0,518.0,1006.0,0.6,0.26666668,8143087
0,2,0.0,508.0,939.0,0.6,0.26666668,8143087
0,2,0.0,501.0,874.0,0.6,0.26666668,8143088
0,2,0.0,497.0,810.0,0.6,0.26666668,8143088
0,2,0.0,496.0,744.0,0.6,0.26666668,8143110
0,2,0.0,497.0,679.0,0.6,0.26666668,8143111
0,2,0.0,502.0,608.0,0.6,0.26666668,8143111
0,2,0.0,509.0,543.0,0.6,0.26666668,8143112
0,2,0.0,521.0,478.0,0.6,0.26666668,8143112
0,2,0.0,536.0,416.0,0.6,0.26666668,8143113
0,2,0.0,556.0,356.0,0.6,0.26666668,8143131
0,2,0.0,580.0,292.0,0.6,0.26666668,8143132
0,2,0.0,608.0,228.0,0.6,0.26666668,8143151
0,2,0.0,641.0,166.0,0.58750004,0.26666668,8143152
0,1,0.0,641.0,166.0,0.58750004,0.26666668,8143168
0,0,0.0,656.0,1445.0,0.58750004,0.26666668,8143631
0,2,0.0,655.0,1444.0,0.58750004,0.26666668,8143648
0,2,0.0,648.0,1437.0,0.58750004,0.26666668,8143648
0,2,0.0,625.0,1407.0,0.58750004,0.26666668,8143649
0,2,0.0,605.0,1378.0,0.58750004,0.26666668,8143649
0,2,0.0,580.0,1340.0,0.58750004,0.26666668,8143650
0,2,0.0,553.0,1293.0,0.58750004,0.26666668,8143677
0,2,0.0,527.0,1241.0,0.58750004,0.26666668,8143678
0,2,0.0,502.0,1184.0,0.6,0.26666668,8143697
0,2,0.0,479.0,1125.0,0.6,0.26666668,8143698
0,2,0.0,460.0,1066.0,0.6,0.26666668,8143717
0,2,0.0,446.0,1002.0,0.6,0.26666668,8143717
0,2,0.0,437.0,940.0,0.6,0.26666668,8143718
0,2,0.0,432.0,879.0,0.6,0.26666668,8143718
0,2,0.0,430.0,818.0,0.6,0.26666668,8143735
0,2,0.0,431.0,758.0,0.6,0.26666668,8143736
0,2,0.0,435.0,696.0,0.6,0.26666668,8143756
0,2,0.0,444.0,634.0,0.6,0.26666668,8143757
0,2,0.0,457.0,565.0,0.6,0.26666668,8143777
0,2,0.0,476.0,495.0,0.6,0.26666668,8143778
0,2,0.0,501.0,417.0,0.6,0.26666668,8143797
0,2,0.0,529.0,343.0,0.6,0.26666668,8143797
0,2,0.0,559.0,276.0,0.6,0.26666668,8143818
0,2,0.0,588.0,214.0,0.6,0.26666668,8143818
0,2,0.0,616.0,158.0,0.6,0.26666668,8143819
0,2,0.0,645.0,108.0,0.58750004,0.26666668,8143819
0,1,0.0,645.0,108.0,0.58750004,0.26666668,8143847
0,0,0.0,652.0,1337.0,0.6,0.33333334,8144335
0,2,0.0,651.0,1336.0,0.6,0.33333334,8144346
0,2,0.0,639.0,1326.0,0.6,0.33333334,8144346
0,2,0.0,611.0,1292.0,0.6,0.33333334,8144346
0,2,0.0,588.0,1258.0,0.6,0.33333334,8144347
0,2,0.0,562.0,1214.0,0.6,0.33333334,8144347
0,2,0.0,538.0,1159.0,0.6,0.33333334,8144367
0,2,0.0,518.0,1099.0,0.6,0.33333334,8144368
0,2,0.0,501.0,1036.0,0.6,0.33333334,8144387
0,2,0.0,487.0,968.0,0.6,0.33333334,8144388
0,2,0.0,478.0,902.0,0.6,0.33333334,8144406
0,2,0.0,472.0,834.0,0.6,0.33333334,8144406
0,2,0.0,470.0,764.0,0.6,0.33333334,8144430
0,2,0.0,472.0,693.0,0.6,0.33333334,8144431
0,2,0.0,478.0,622.0,0.6,0.33333334,8144431
0,2,0.0,487.0,558.0,0.6,0.33333334,8144432
0,2,0.0,497.0,497.0,0.6,0.33333334,8144451
0,2,0.0,507.0,443.0,0.6,0.33333334,8144452
0,2,0.0,519.0,391.0,0.6,0.33333334,8144494
0,2,0.0,532.0,348.0,0.6,0.33333334,8144495
0,2,0.0,545.0,306.0,0.6,0.33333334,8144497
0,2,0.0,559.0,265.0,0.6,0.33333334,8144502
0,2,0.0,578.0,220.0,0.58750004,0.26666668,8144503
0,1,0.0,578.0,220.0,0.58750004,0.26666668,8144504
0,0,0.0,654.0,1328.0,0.58750004,0.26666668,8145041
0,2,0.0,653.0,1327.0,0.58750004,0.26666668,8145057
0,2,0.0,643.0,1313.0,0.6,0.26666668,8145058
0,2,0.0,615.0,1266.0,0.6,0.26666668,8145058
0,2,0.0,597.0,1228.0,0.6,0.26666668,8145075
0,2,0.0,575.0,1180.0,0.6,0.26666668,8145075
0,2,0.0,553.0,1125.0,0.6,0.26666668,8145076
0,2,0.0,533.0,1069.0,0.6,0.26666668,8145077
0,2,0.0,516.0,1010.0,0.6,0.26666668,8145121
0,2,0.0,500.0,949.0,0.6,0.26666668,8145123
0,2,0.0,487.0,890.0,0.6,0.26666668,8145123
0,2,0.0,477.0,832.0,0.6,0.26666668,8145124
0,2,0.0,470.0,774.0,0.6,0.26666668,8145153
0,2,0.0,465.0,718.0,0.6,0.26666668,8145153
0,2,0.0,465.0,657.0,0.6,0.26666668,8145153
0,2,0.0,469.0,594.0,0.6,0.26666668,8145154
0,2,0.0,477.0,529.0,0.6,0.26666668,8145185
0,2,0.0,487.0,465.0,0.6,0.26666668,8145186
0,2,0.0,500.0,402.0,0.6,0.26666668,8145186
0,2,0.0,516.0,342.0,0.6,0.26666668,8145187
0,2,0.0,533.0,286.0,0.6,0.26666668,8145212
0,2,0.0,555.0,230.0,0.6,0.26666668,8145212
0,1,0.0,555.0,230.0,0.6,0.26666668,8145213
0,0,0.0,685.0,1190.0,0.58750004,0.26666668,8145757
0,2,0.0,681.0,1186.0,0.6,0.26666668,8145771
0,2,0.0,666.0,1167.0,0.6,0.26666668,8145771
0,2,0.0,652.0,1148.0,0.6,0.26666668,8145772
0,2,0.0,634.0,1118.0,0.6,0.26666668,8145772
0,2,0.0,614.0,1077.0,0.6,0.26666668,8145790
0,2,0.0,595.0,1030.0,0.6,0.26666668,8145791
0,2,0.0,575.0,976.0,0.6,0.26666668,8145809
0,2,0.0,557.0,922.0,0.6,0.26666668,8145809
0,2,0.0,541.0,867.0,0.6,0.26666668,8145829
0,2,0.0,529.0,808.0,0.6,0.26666668,8145830
0,2,0.0,521.0,747.0,0.6,0.26666668,8145858
0,2,0.0,517.0,679.0,0.6,0.26666668,8145858
0,2,0.0,517.0,610.0,0.6,0.26666668,8145859
0,2,0.0,521.0,540.0,0.6,0.26666668,8145860
0,2,0.0,528.0,474.0,0.6,0.26666668,8145888
0,2,0.0,538.0,412.0,0.6,0.26666668,8145888
0,2,0.0,550.0,360.0,0.6,0.26666668,8145908
0,2,0.0,563.0,307.0,0.6,0.26666668,8145909
0,2,0.0,577.0,252.0,0.6,0.26666668,8145909
0,2,0.0,592.0,205.0,0.6,0.26666668,8145910
0,2,0.0,611.0,157.0,0.6,0.26666668,8145928
0,2,0.0,638.0,103.0,0.6,0.26666668,8145929
0,1,0.0,638.0,103.0,0.6,0.26666668,8145946
0,0,0.0,666.0,1452.0,0.6,0.26666668,8146451
0,2,0.0,665.0,1451.0,0.58750004,0.26666668,8146467
0,2,0.0,654.0,1443.0,0.58750004,0.26666668,8146467
0,2,0.0,621.0,1406.0,0.58750004,0.26666668,8146468
0,2,0.0,594.0,1367.0,0.58750004,0.26666668,8146468
0,2,0.0,564.0,1314.0,0.6,0.26666668,8146469
0,2,0.0,535.0,1251.0,0.6,0.26666668,8146505
0,2,0.0,510.0,1183.0,0.6,0.26666668,8146505
0,2,0.0,486.0,1112.0,0.6,0.26666668,8146506
0,2,0.0,465.0,1036.0,0.6,0.26666668,8146507
0,2,0.0,449.0,961.0,0.6,0.26666668,8146554
0,2,0.0,438.0,884.0,0.6,0.26666668,8146554
0,2,0.0,430.0,807.0,0.6,0.26666668,8146555
0,2,0.0,426.0,725.0,0.6,0.26666668,8146555
0,2,0.0,425.0,641.0,0.6,0.26666668,8146556
0,2,0.0,428.0,555.0,0.6,0.26666668,8146557
0,2,0.0,435.0,475.0,0.6,0.26666668,8146570
0,2,0.0,446.0,399.0,0.6,0.26666668,8146571
0,2,0.0,460.0,328.0,0.6,0.26666668,8146593
0,2,0.0,478.0,262.0,0.6,0.26666668,8146596
0,2,0.0,499.0,194.0,0.6,0.26666668,8146620
0,2,0.0,522.0,134.0,0.6,0.26666668,8146621
0,2,0.0,551.0,70.0,0.6,0.26666668,8146627
0,1,0.0,551.0,70.0,0.6,0.26666668,8146628
0,0,0.0,662.0,1389.0,0.6,0.26666668,8147165
0,2,0.0,659.0,1387.0,0.6,0.26666668,8147180
0,2,0.0,649.0,1381.0,0.6,0.26666668,8147180
0,2,0.0,628.0,1364.0,0.6,0.26666668,8147181
0,2,0.0,611.0,1346.0,0.6,0.26666668,8147181
0,2,0.0,586.0,1314.0,0.6,0.26666668,8147182
0,2,0.0,556.0,1267.0,0.6,0.26666668,8147198
0,2,0.0,525.0,1210.0,0.6,0.26666668,8147199
0,2,0.0,496.0,1148.0,0.6,0.26666668,8147259
0,2,0.0,470.0,1080.0,0.6,0.26666668,8147260
0,2,0.0,451.0,1011.0,0.6125,0.26666668,8147260
0,2,0.0,437.0,942.0,0.6125,0.26666668,8147261
0,2,0.0,424.0,873.0,0.6125,0.26666668,8147282
0,2,0.0,416.0,805.0,0.6125,0.26666668,8147282
0,2,0.0,411.0,731.0,0.6125,0.26666668,8147282
0,2,0.0,412.0,654.0,0.6125,0.26666668,8147283
0,2,0.0,417.0,575.0,0.6125,0.26666668,8147305
0,2,0.0,426.0,494.0,0.6125,0.26666668,8147305
0,2,0.0,439.0,420.0,0.6125,0.26666668,8147306
0,2,0.0,455.0,350.0,0.6125,0.26666668,8147308
0,2,0.0,472.0,288.0,0.6125,0.26666668,8147326
0,2,0.0,491.0,230.0,0.6125,0.26666668,8147326
0,2,0.0,513.0,173.0,0.6125,0.26666668,8147343
0,2,0.0,540.0,119.0,0.6125,0.26666668,8147343
0,2,0.0,570.0,66.0,0.6,0.26666668,8147370
0,1,0.0,570.0,66.0,0.6,0.26666668,8147371
0,0,0.0,682.0,1393.0,0.6,0.26666668,8147862
0,2,0.0,681.0,1392.0,0.6,0.26666668,8147863
0,2,0.0,672.0,1381.0,0.6,0.26666668,8147864
0,2,0.0,645.0,1341.0,0.6,0.26666668,8147864
0,2,0.0,624.0,1307.0,0.6,0.26666668,8147877
0,2,0.0,602.0,1264.0,0.6,0.26666668,8147878
0,2,0.0,576.0,1214.0,0.6,0.26666668,8147898
0,2,0.0,550.0,1160.0,0.6,0.26666668,8147898
0,2,0.0,527.0,1100.0,0.6,0.26666668,8147916
0,2,0.0,504.0,1038.0,0.6,0.26666668,8147917
0,2,0.0,484.0,975.0,0.6,0.26666668,8147932
0,2,0.0,466.0,912.0,0.6,0.26666668,8147932
0,2,0.0,452.0,845.0,0.6125,0.26666668,8147958
0,2,0.0,441.0,776.0,0.6125,0.26666668,8147958
0,2,0.0,434.0,699.0,0.6125,0.26666668,8147978
0,2,0.0,430.0,621.0,0.6125,0.26666668,8147979
0,2,0.0,432.0,542.0,0.6125,0.26666668,8147980
0,2,0.0,437.0,468.0,0.6125,0.26666668,8147980
0,2,0.0,446.0,398.0,0.6125,0.26666668,8147997
0,2,0.0,457.0,335.0,0.6125,0.26666668,8147998
0,2,0.0,468.0,286.0,0.6125,0.26666668,8148016
0,2,0.0,482.0,236.0,0.6125,0.26666668,8148017
0,2,0.0,498.0,184.0,0.6125,0.26666668,8148039
0,2,0.0,515.0,139.0,0.6,0.26666668,8148040
0,2,0.0,533.0,89.0,0.6,0.26666668,8148065
0,2,0.0,556.0,41.0,0.5,0.26666668,8148065
0,1,0.0,556.0,41.0,0.5,0.26666668,8148066
0,0,0.0,727.0,1425.0,0.58750004,0.26666668,8148558
0,2,0.0,726.0,1424.0,0.58750004,0.26666668,8148573
0,2,0.0,717.0,1411.0,0.58750004,0.26666668,8148574
0,2,0.0,694.0,1370.0,0.58750004,0.26666668,8148574
0,2,0.0,677.0,1336.0,0.58750004,0.26666668,8148575
0,2,0.0,655.0,1295.0,0.58750004,0.26666668,8148575
0,2,0.0,629.0,1244.0,0.58750004,0.26666668,8148592
0,2,0.0,606.0,1190.0,0.6,0.26666668,8148592
0,2,0.0,581.0,1131.0,0.6,0.26666668,8148613
0,2,0.0,557.0,1071.0,0.6,0.26666668,8148613
0,2,0.0,536.0,1011.0,0.6,0.26666668,8148633
0,2,0.0,520.0,951.0,0.6,0.26666668,8148634
0,2,0.0,505.0,890.0,0.6,0.26666668,8148654
0,2,0.0,493.0,830.0,0.6,0.26666668,8148657
0,2,0.0,483.0,768.0,0.6,0.26666668,8148675
0,2,0.0,476.0,706.0,0.6,0.26666668,8148676
0,2,0.0,474.0,639.0,0.6,0.26666668,8148677
0,2,0.0,477.0,574.0,0.6,0.26666668,8148678
0,2,0.0,485.0,505.0,0.6,0.26666668,8148722
0,2,0.0,495.0,439.0,0.6,0.26666668,8148722
0,2,0.0,512.0,372.0,0.6,0.26666668,8148730
0,2,0.0,533.0,304.0,0.6,0.26666668,8148731
0,2,0.0,558.0,240.0,0.6,0.26666668,8148751
0,2,0.0,586.0,176.0,0.6,0.26666668,8148752
0,1,0.0,586.0,176.0,0.6,0.26666668,8148753
0,0,0.0,698.0,1262.0,0.6125,0.33333334,8149375
0,2,0.0,697.0,1261.0,0.6125,0.33333334,8149389
0,2,0.0,686.0,1251.0,0.6,0.33333334,8149413
0,2,0.0,659.0,1212.0,0.6,0.33333334,8149413
0,2,0.0,638.0,1173.0,0.6,0.33333334,8149414
0,2,0.0,617.0,1125.0,0.6,0.33333334,8149414
0,2,0.0,596.0,1066.0,0.6,0.33333334,8149436
0,2,0.0,578.0,1003.0,0.6,0.33333334,8149437
0,2,0.0,563.0,936.0,0.6,0.33333334,8149438
0,2,0.0,550.0,865.0,0.6,0.33333334,8149438
0,2,0.0,543.0,782.0,0.6,0.33333334,8149456
0,2,0.0,539.0,700.0,0.6,0.33333334,8149456
0,2,0.0,541.0,617.0,0.6,0.33333334,8149457
0,2,0.0,545.0,540.0,0.6,0.33333334,8149458
0,2,0.0,552.0,469.0,0.6,0.33333334,8149483
0,2,0.0,561.0,404.0,0.6125,0.33333334,8149483
0,2,0.0,572.0,339.0,0.6125,0.33333334,8149506
0,2,0.0,587.0,281.0,0.6125,0.33333334,8149506
0,2,0.0,603.0,225.0,0.6125,0.33333334,8149527
0,2,0.0,623.0,172.0,0.6125,0.33333334,8149527
0,1,0.0,623.0,172.0,0.6125,0.33333334,8149528
0,0,0.0,806.0,1451.0,0.58750004,0.26666668,8150104
0,2,0.0,802.0,1448.0,0.58750004,0.26666668,8150119
0,2,0.0,786.0,1437.0,0.58750004,0.26666668,8150120
0,2,0.0,772.0,1425.0,0.58750004,0.26666668,8150121
0,2,0.0,752.0,1408.0,0.58750004,0.26666668,8150121
0,2,0.0,728.0,1385.0,0.58750004,0.26666668,8150138
0,2,0.0,702.0,1358.0,0.58750004,0.26666668,8150138
0,2,0.0,670.0,1321.0,0.6,0.26666668,8150162
0,2,0.0,637.0,1279.0,0.6,0.26666668,8150162
0,2,0.0,604.0,1231.0,0.6,0.26666668,8150182
0,2,0.0,571.0,1179.0,0.6,0.26666668,8150182
0,2,0.0,543.0,1125.0,0.6,0.26666668,8150205
0,2,0.0,518.0,1067.0,0.6,0.26666668,8150205
0,2,0.0,495.0,1006.0,0.6,0.26666668,8150238
0,2,0.0,474.0,936.0,0.6,0.26666668,8150238
0,2,0.0,459.0,864.0,0.6,0.26666668,8150238
0,2,0.0,449.0,789.0,0.6,0.26666668,8150239
0,2,0.0,446.0,712.0,0.6,0.26666668,8150260
0,2,0.0,449.0,632.0,0.6,0.26666668,8150260
0,2,0.0,457.0,555.0,0.6,0.26666668,8150261
0,2,0.0,470.0,480.0,0.6,0.26666668,8150261
0,2,0.0,488.0,410.0,0.6,0.26666668,8150281
0,2,0.0,509.0,347.0,0.6,0.26666668,8150282
0,1,0.0,509.0,347.0,0.6,0.26666668,8150301
0,0,0.0,753.0,1479.0,0.58750004,0.26666668,8150935
0,2,0.0,749.0,1476.0,0.58750004,0.26666668,8150951
0,2,0.0,732.0,1461.0,0.58750004,0.26666668,8150952
0,2,0.0,715.0,1443.0,0.58750004,0.26666668,8150952
0,2,0.0,692.0,1415.0,0.58750004,0.26666668,8150953
0,2,0.0,664.0,1377.0,0.58750004,0.26666668,8150970
0,2,0.0,632.0,1330.0,0.58750004,0.26666668,8150971
0,2,0.0,598.0,1273.0,0.6,0.26666668,8151002
0,2,0.0,564.0,1213.0,0.6,0.26666668,8151003
0,2,0.0,534.0,1147.0,0.6,0.26666668,8151003
0,2,0.0,507.0,1082.0,0.6,0.26666668,8151004
0,2,0.0,482.0,1010.0,0.6,0.26666668,8151053
0,2,0.0,462.0,935.0,0.6,0.26666668,8151054
0,2,0.0,448.0,856.0,0.6,0.26666668,8151054
0,2,0.0,441.0,773.0,0.6,0.26666668,8151055
0,2,0.0,439.0,686.0,0.6,0.26666668,8151056
0,2,0.0,442.0,600.0,0.6,0.26666668,8151059
0,2,0.0,452.0,513.0,0.6,0.26666668,8151087
0,2,0.0,467.0,430.0,0.6,0.26666668,8151088
0,2,0.0,484.0,359.0,0.6,0.26666668,8151089
0,2,0.0,502.0,297.0,0.6,0.26666668,8151090
0,2,0.0,520.0,236.0,0.6,0.26666668,8151104
0,2,0.0,541.0,178.0,0.6,0.26666668,8151105
0,1,0.0,541.0,178.0,0.6,0.26666668,8151122
0,0,0.0,718.0,1471.0,0.6,0.33333334,8151666
0,2,0.0,717.0,1469.0,0.6,0.33333334,8151682
0,2,0.0,701.0,1443.0,0.6,0.33333334,8151682
0,2,0.0,685.0,1412.0,0.6,0.33333334,8151684
0,2,0.0,666.0,1369.0,0.6,0.33333334,8151685
0,2,0.0,644.0,1316.0,0.6,0.33333334,8151704
0,2,0.0,622.0,1260.0,0.6,0.33333334,8151707
0,2,0.0,601.0,1201.0,0.6,0.33333334,8151755
0,2,0.0,583.0,1143.0,0.6,0.33333334,8151757
0,2,0.0,566.0,1080.0,0.6,0.33333334,8151757
0,2,0.0,549.0,1012.0,0.6,0.33333334,8151760
0,2,0.0,536.0,943.0,0.6,0.33333334,8151760
0,2,0.0,526.0,874.0,0.6125,0.33333334,8151761
0,2,0.0,520.0,807.0,0.6125,0.33333334,8151787
0,2,0.0,517.0,742.0,0.6125,0.33333334,8151788
0,2,0.0,517.0,677.0,0.6125,0.33333334,8151788
0,2,0.0,519.0,613.0,0.6125,0.33333334,8151789
0,2,0.0,524.0,551.0,0.6125,0.33333334,8151814
0,2,0.0,532.0,496.0,0.6125,0.33333334,8151816
0,2,0.0,543.0,442.0,0.6125,0.33333334,8151836
0,2,0.0,556.0,387.0,0.6125,0.33333334,8151836
0,2,0.0,570.0,332.0,0.6125,0.33333334,8151836
0,2,0.0,587.0,278.0,0.6125,0.26666668,8151837
0,1,0.0,587.0,278.0,0.6125,0.26666668,8151854
0,0,0.0,748.0,1459.0,0.58750004,0.26666668,8152414
0,2,0.0,747.0,1458.0,0.58750004,0.26666668,8152429
0,2,0.0,736.0,1446.0,0.58750004,0.26666668,8152429
0,2,0.0,700.0,1401.0,0.6,0.26666668,8152430
0,2,0.0,673.0,1364.0,0.6,0.26666668,8152431
0,2,0.0,642.0,1320.0,0.6,0.26666668,8152431
0,2,0.0,612.0,1274.0,0.6,0.26666668,8152461
0,2,0.0,581.0,1225.0,0.6,0.26666668,8152467
0,2,0.0,551.0,1171.0,0.6,0.26666668,8152486
0,2,0.0,526.0,1115.0,0.6,0.26666668,8152494
0,2,0.0,502.0,1055.0,0.6,0.26666668,8152494
0,2,0.0,481.0,989.0,0.6,0.26666668,8152495
0,2,0.0,466.0,923.0,0.6,0.26666668,8152516
0,2,0.0,456.0,854.0,0.6,0.26666668,8152516
0,2,0.0,451.0,787.0,0.6,0.26666668,8152517
0,2,0.0,451.0,719.0,0.6,0.26666668,8152517
0,2,0.0,455.0,649.0,0.6,0.26666668,8152536
0,2,0.0,464.0,580.0,0.6,0.26666668,8152536
0,2,0.0,478.0,509.0,0.6,0.26666668,8152555
0,2,0.0,496.0,439.0,0.6,0.26666668,8152556
0,2,0.0,518.0,367.0,0.6,0.26666668,8152576
0,2,0.0,540.0,301.0,0.6,0.26666668,8152577
0,1,0.0,540.0,301.0,0.6,0.26666668,8152594
0,0,0.0,681.0,1407.0,0.6,0.33333334,8153144
0,2,0.0,679.0,1404.0,0.6,0.33333334,8153160
0,2,0.0,658.0,1373.0,0.6,0.33333334,8153161
0,2,0.0,637.0,1338.0,0.6,0.33333334,8153162
0,2,0.0,614.0,1294.0,0.6125,0.33333334,8153162
0,2,0.0,593.0,1245.0,0.6125,0.33333334,8153186
0,2,0.0,572.0,1190.0,0.6125,0.33333334,8153189
0,2,0.0,553.0,1133.0,0.6125,0.33333334,8153217
0,2,0.0,537.0,1075.0,0.6125,0.33333334,8153217
0,2,0.0,525.0,1013.0,0.6125,0.33333334,8153218
0,2,0.0,517.0,946.0,0.6125,0.33333334,8153218
0,2,0.0,514.0,878.0,0.6125,0.33333334,8153239
0,2,0.0,514.0,808.0,0.6125,0.33333334,8153239
0,2,0.0,518.0,739.0,0.6125,0.33333334,8153262
0,2,0.0,527.0,671.0,0.6125,0.33333334,8153263
0,2,0.0,540.0,604.0,0.6125,0.33333334,8153264
0,2,0.0,555.0,543.0,0.6125,0.33333334,8153264
0,2,0.0,570.0,483.0,0.6125,0.33333334,8153284
0,2,0.0,587.0,431.0,0.6125,0.33333334,8153285
0,2,0.0,607.0,378.0,0.6125,0.33333334,8153306
0,2,0.0,627.0,328.0,0.6125,0.33333334,8153307
0,2,0.0,648.0,279.0,0.6125,0.33333334,8153328
0,2,0.0,668.0,233.0,0.6125,0.26666668,8153329
0,2,0.0,689.0,190.0,0.6,0.26666668,8153337
0,1,0.0,689.0,190.0,0.6,0.26666668,8153338
0,0,0.0,730.0,1440.0,0.6,0.33333334,8153858
0,2,0.0,728.0,1438.0,0.6,0.33333334,8153873
0,2,0.0,699.0,1406.0,0.6,0.33333334,8153874
0,2,0.0,671.0,1372.0,0.6,0.33333334,8153874
0,2,0.0,640.0,1331.0,0.6,0.33333334,8153875
0,2,0.0,609.0,1285.0,0.6,0.33333334,8153892
0,2,0.0,578.0,1233.0,0.6125,0.33333334,8153892
0,2,0.0,550.0,1177.0,0.6125,0.33333334,8153911
0,2,0.0,528.0,1122.0,0.6125,0.33333334,8153912
0,2,0.0,507.0,1063.0,0.6125,0.33333334,8153939
0,2,0.0,489.0,999.0,0.6125,0.33333334,8153939
0,2,0.0,474.0,931.0,0.6125,0.33333334,8153956
0,2,0.0,465.0,860.0,0.6125,0.33333334,8153957
0,2,0.0,461.0,787.0,0.6125,0.33333334,8153975
0,2,0.0,461.0,717.0,0.6125,0.33333334,8153976
0,2,0.0,464.0,649.0,0.6125,0.33333334,8153976
0,2,0.0,471.0,584.0,0.6125,0.33333334,8153977
0,2,0.0,480.0,523.0,0.6125,0.33333334,8153999
0,2,0.0,491.0,465.0,0.6125,0.33333334,8154000
0,2,0.0,502.0,411.0,0.6125,0.33333334,8154028
0,2,0.0,514.0,366.0,0.6125,0.33333334,8154029
0,2,0.0,527.0,318.0,0.6125,0.33333334,8154029
0,2,0.0,544.0,271.0,0.6125,0.33333334,8154030
0,1,0.0,544.0,271.0,0.6125,0.33333334,8154048
0,0,0.0,738.0,1374.0,0.6,0.26666668,8154622
0,2,0.0,730.0,1364.0,0.6,0.26666668,8154638
0,2,0.0,702.0,1318.0,0.6,0.26666668,8154639
0,2,0.0,683.0,1282.0,0.6125,0.26666668,8154639
0,2,0.0,665.0,1240.0,0.6125,0.26666668,8154639
0,2,0.0,646.0,1193.0,0.6125,0.26666668,8154658
0,2,0.0,629.0,1142.0,0.6125,0.26666668,8154659
0,2,0.0,614.0,1088.0,0.6125,0.26666668,8154680
0,2,0.0,603.0,1029.0,0.6125,0.26666668,8154680
0,2,0.0,595.0,964.0,0.6125,0.26666668,8154700
0,2,0.0,590.0,899.0,0.6125,0.26666668,8154701
0,2,0.0,589.0,830.0,0.6125,0.26666668,8154724
0,2,0.0,589.0,764.0,0.6125,0.26666668,8154724
0,2,0.0,593.0,698.0,0.6125,0.26666668,8154724
0,2,0.0,598.0,639.0,0.6125,0.26666668,8154725
0,2,0.0,603.0,584.0,0.6125,0.26666668,8154746
0,2,0.0,610.0,531.0,0.6125,0.26666668,8154747
0,2,0.0,619.0,481.0,0.6125,0.26666668,8154777
0,2,0.0,629.0,436.0,0.6125,0.26666668,8154778
0,2,0.0,642.0,387.0,0.6125,0.26666668,8154778
0,2,0.0,656.0,343.0,0.6,0.26666668,8154780
0,1,0.0,656.0,343.0,0.6,0.26666668,8154802
0,0,0.0,945.0,1500.0,0.58750004,0.26666668,8155422
0,2,0.0,944.0,1499.0,0.58750004,0.26666668,8155423
0,2,0.0,937.0,1493.0,0.58750004,0.26666668,8155423
0,2,0.0,917.0,1476.0,0.58750004,0.26666668,8155423
0,2,0.0,903.0,1461.0,0.58750004,0.26666668,8155437
0,2,0.0,883.0,1440.0,0.58750004,0.26666668,8155438
0,2,0.0,859.0,1411.0,0.58750004,0.26666668,8155457
0,2,0.0,833.0,1375.0,0.6,0.26666668,8155458
0,2,0.0,806.0,1332.0,0.6,0.26666668,8155476
0,2,0.0,778.0,1286.0,0.6,0.26666668,8155477
0,2,0.0,754.0,1237.0,0.6,0.26666668,8155495
0,2,0.0,732.0,1186.0,0.6,0.26666668,8155495
0,2,0.0,710.0,1133.0,0.6,0.26666668,8155515
0,2,0.0,688.0,1076.0,0.6,0.26666668,8155515
0,2,0.0,669.0,1017.0,0.6,0.26666668,8155536
0,2,0.0,653.0,959.0,0.6,0.26666668,8155539
0,2,0.0,637.0,901.0,0.6,0.26666668,8155579
0,2,0.0,622.0,844.0,0.6,0.26666668,8155579
0,2,0.0,609.0,789.0,0.6,0.26666668,8155586
0,2,0.0,598.0,733.0,0.6125,0.26666668,8155586
0,2,0.0,590.0,679.0,0.6125,0.26666668,8155587
0,2,0.0,586.0,631.0,0.6125,0.26666668,8155587
0,2,0.0,584.0,588.0,0.6125,0.26666668,8155609
0,2,0.0,584.0,541.0,0.6125,0.26666668,8155610
0,2,0.0,586.0,501.0,0.6125,0.26666668,8155611
0,2,0.0,592.0,456.0,0.6125,0.26666668,8155612
0,2,0.0,602.0,405.0,0.6125,0.26666668,8155636
0,1,0.0,602.0,405.0,0.6125,0.26666668,8155637
0,0,0.0,642.0,1343.0,0.625,0.33333334,8156541
0,2,0.0,626.0,1316.0,0.6125,0.33333334,8156558
0,2,0.0,606.0,1274.0,0.6125,0.33333334,8156559
0,2,0.0,580.0,1221.0,0.6125,0.33333334,8156559
0,2,0.0,553.0,1159.0,0.6125,0.33333334,8156603
0,2,0.0,530.0,1093.0,0.6125,0.33333334,8156603
0,2,0.0,509.0,1023.0,0.6125,0.33333334,8156623
0,2,0.0,488.0,947.0,0.6125,0.33333334,8156624
0,2,0.0,471.0,871.0,0.6125,0.33333334,8156625
0,2,0.0,460.0,791.0,0.6125,0.33333334,8156626
0,2,0.0,455.0,707.0,0.6125,0.33333334,8156652
0,2,0.0,453.0,620.0,0.6125,0.33333334,8156653
0,2,0.0,459.0,534.0,0.6125,0.33333334,8156653
0,2,0.0,470.0,449.0,0.6125,0.33333334,8156654
0,2,0.0,484.0,369.0,0.6125,0.33333334,8156680
0,2,0.0,498.0,294.0,0.6125,0.33333334,8156680
0,2,0.0,515.0,224.0,0.6125,0.33333334,8156680
0,2,0.0,534.0,161.0,0.6125,0.33333334,8156681
0,2,0.0,555.0,102.0,0.6125,0.33333334,8156698
0,2,0.0,578.0,45.0,0.6,0.26666668,8156698
0,1,0.0,578.0,45.0,0.6,0.26666668,8156715
0,0,0.0,652.0,1412.0,0.6,0.33333334,8157274
0,2,0.0,651.0,1411.0,0.6,0.33333334,8157288
0,2,0.0,639.0,1399.0,0.6125,0.33333334,8157289
0,2,0.0,606.0,1359.0,0.6125,0.33333334,8157289
0,2,0.0,582.0,1324.0,0.6125,0.33333334,8157289
0,2,0.0,554.0,1280.0,0.6125,0.33333334,8157290
0,2,0.0,527.0,1224.0,0.6125,0.33333334,8157311
0,2,0.0,500.0,1163.0,0.6125,0.33333334,8157315
0,2,0.0,476.0,1098.0,0.6125,0.33333334,8157343
0,2,0.0,457.0,1030.0,0.6125,0.33333334,8157344
0,2,0.0,445.0,959.0,0.6125,0.33333334,8157345
0,2,0.0,436.0,889.0,0.6125,0.33333334,8157345
0,2,0.0,430.0,813.0,0.6125,0.33333334,8157367
0,2,0.0,429.0,734.0,0.6125,0.33333334,8157367
0,2,0.0,433.0,650.0,0.6125,0.33333334,8157395
0,2,0.0,441.0,560.0,0.6125,0.33333334,8157395
0,2,0.0,456.0,470.0,0.6125,0.33333334,8157396
0,2,0.0,478.0,384.0,0.6125,0.33333334,8157396
0,2,0.0,500.0,306.0,0.6125,0.33333334,8157415
0,2,0.0,527.0,229.0,0.6125,0.33333334,8157415
0,2,0.0,554.0,160.0,0.6125,0.33333334,8157434
0,2,0.0,583.0,92.0,0.6125,0.33333334,8157434
0,2,0.0,614.0,31.0,0.6,0.33333334,8157456
0,1,0.0,614.0,31.0,0.6,0.33333334,8157457
0,0,0.0,730.0,1465.0,0.58750004,0.26666668,8157984
0,2,0.0,727.0,1462.0,0.58750004,0.26666668,8158000
0,2,0.0,714.0,1448.0,0.58750004,0.26666668,8158001
0,2,0.0,679.0,1400.0,0.58750004,0.26666668,8158001
0,2,0.0,653.0,1360.0,0.6,0.26666668,8158024
0,2,0.0,625.0,1309.0,0.6,0.26666668,8158025
0,2,0.0,598.0,1249.0,0.6,0.26666668,8158025
0,2,0.0,573.0,1185.0,0.6,0.26666668,8158026
0,2,0.0,549.0,1118.0,0.6,0.26666668,8158050
0,2,0.0,532.0,1054.0,0.6,0.26666668,8158051
0,2,0.0,517.0,987.0,0.6,0.26666668,8158070
0,2,0.0,506.0,917.0,0.6,0.26666668,8158071
0,2,0.0,498.0,849.0,0.6,0.26666668,8158071
0,2,0.0,494.0,777.0,0.6,0.26666668,8158072
0,2,0.0,495.0,702.0,0.6,0.26666668,8158090
0,2,0.0,500.0,626.0,0.6,0.26666668,8158090
0,2,0.0,508.0,545.0,0.6,0.26666668,8158111
0,2,0.0,522.0,467.0,0.6,0.26666668,8158112
0,2,0.0,543.0,387.0,0.6,0.26666668,8158132
0,2,0.0,565.0,314.0,0.6,0.26666668,8158133
0,2,0.0,591.0,244.0,0.6,0.26666668,8158152
0,2,0.0,621.0,177.0,0.6,0.26666668,8158152
0,2,0.0,650.0,113.0,0.6,0.26666668,8158173
0,2,0.0,679.0,55.0,0.6,0.26666668,8158173
0,2,0.0,713.0,-3.0,0.575,0.33333334,8158174
0,1,0.0,713.0,-3.0,0.575,0.33333334,8158175
0,0,0.0,597.0,1301.0,0.6125,0.33333334,8158749
0,2,0.0,586.0,1283.0,0.6125,0.33333334,8158765
0,2,0.0,543.0,1197.0,0.6125,0.33333334,8158765
0,2,0.0,521.0,1138.0,0.6125,0.33333334,8158766
0,2,0.0,501.0,1075.0,0.6125,0.33333334,8158767
0,2,0.0,483.0,1011.0,0.6125,0.33333334,8158784
0,2,0.0,469.0,939.0,0.6125,0.33333334,8158784
0,2,0.0,461.0,864.0,0.6125,0.33333334,8158807
0,2,0.0,459.0,782.0,0.6125,0.33333334,8158807
0,2,0.0,464.0,696.0,0.6125,0.33333334,8158825
0,2,0.0,476.0,609.0,0.6125,0.33333334,8158825
0,2,0.0,493.0,520.0,0.6125,0.33333334,8158844
0,2,0.0,514.0,433.0,0.6125,0.33333334,8158845
0,2,0.0,539.0,348.0,0.625,0.33333334,8158863
0,2,0.0,565.0,273.0,0.625,0.33333334,8158864
0,2,0.0,593.0,205.0,0.625,0.33333334,8158884
0,2,0.0,622.0,142.0,0.625,0.33333334,8158884
0,2,0.0,654.0,81.0,0.625,0.33333334,8158885
0,2,0.0,688.0,23.0,0.58750004,0.33333334,8158885
0,1,0.0,688.0,23.0,0.58750004,0.33333334,8158905
0,0,0.0,613.0,1432.0,0.6,0.26666668,8159378
0,2,0.0,612.0,1430.0,0.6,0.26666668,8159394
0,2,0.0,600.0,1409.0,0.6,0.26666668,8159394
0,2,0.0,587.0,1383.0,0.6,0.26666668,8159395
0,2,0.0,569.0,1346.0,0.6,0.26666668,8159395
0,2,0.0,549.0,1301.0,0.6125,0.26666668,8159417
0,2,0.0,530.0,1252.0,0.6125,0.26666668,8159418
0,2,0.0,510.0,1199.0,0.6125,0.26666668,8159440
0,2,0.0,490.0,1143.0,0.6125,0.26666668,8159440
0,2,0.0,471.0,1083.0,0.6125,0.26666668,8159460
0,2,0.0,455.0,1019.0,0.6125,0.26666668,8159462
0,2,0.0,443.0,948.0,0.6125,0.26666668,8159484
0,2,0.0,435.0,877.0,0.6125,0.26666668,8159487
0,2,0.0,430.0,802.0,0.6125,0.26666668,8159487
0,2,0.0,428.0,725.0,0.6125,0.26666668,8159487
0,2,0.0,430.0,644.0,0.6125,0.26666668,8159511
0,2,0.0,436.0,562.0,0.6125,0.26666668,8159513
0,2,0.0,445.0,483.0,0.6125,0.26666668,8159533
0,2,0.0,460.0,409.0,0.6125,0.26666668,8159533
0,2,0.0,479.0,336.0,0.625,0.26666668,8159534
0,2,0.0,498.0,269.0,0.625,0.26666668,8159534
0,2,0.0,518.0,212.0,0.625,0.26666668,8159555
0,2,0.0,540.0,160.0,0.625,0.26666668,8159556
0,2,0.0,563.0,108.0,0.625,0.26666668,8159581
0,2,0.0,589.0,56.0,0.625,0.26666668,8159582
0,2,0.0,624.0,-6.0,0.575,0.33333334,8159582
0,1,0.0,624.0,-6.0,0.575,0.33333334,8159583
0,0,0.0,641.0,1329.0,0.6125,0.33333334,8160092
0,2,0.0,637.0,1323.0,0.6125,0.33333334,8160107
0,2,0.0,605.0,1251.0,0.6125,0.33333334,8160108
0,2,0.0,583.0,1192.0,0.6125,0.33333334,8160109
0,2,0.0,559.0,1128.0,0.6125,0.33333334,8160109
0,2,0.0,538.0,1064.0,0.6125,0.33333334,8160125
0,2,0.0,519.0,991.0,0.6125,0.33333334,8160126
0,2,0.0,503.0,922.0,0.6125,0.33333334,8160176
0,2,0.0,488.0,851.0,0.6125,0.33333334,8160176
0,2,0.0,478.0,779.0,0.6125,0.33333334,8160177
0,2,0.0,472.0,705.0,0.6125,0.33333334,8160177
0,2,0.0,472.0,631.0,0.6125,0.33333334,8160178
0,2,0.0,477.0,557.0,0.6125,0.33333334,8160179
0,2,0.0,485.0,487.0,0.625,0.33333334,8160226
0,2,0.0,493.0,421.0,0.625,0.33333334,8160227
0,2,0.0,503.0,362.0,0.625,0.33333334,8160228
0,2,0.0,514.0,304.0,0.625,0.33333334,8160233
0,2,0.0,526.0,249.0,0.625,0.33333334,8160237
0,2,0.0,539.0,199.0,0.625,0.33333334,8160238
0,2,0.0,551.0,157.0,0.625,0.33333334,8160279
0,2,0.0,565.0,113.0,0.625,0.33333334,8160280
0,2,0.0,578.0,78.0,0.6,0.26666668,8160281
0,2,0.0,590.0,43.0,0.5625,0.26666668,8160281
0,1,0.0,590.0,43.0,0.5625,0.26666668,8160282
0,0,0.0,676.0,1363.0,0.6125,0.33333334,8160907
0,2,0.0,668.0,1352.0,0.6125,0.33333334,8160923
0,2,0.0,634.0,1299.0,0.6125,0.33333334,8160924
0,2,0.0,612.0,1254.0,0.6125,0.33333334,8160954
0,2,0.0,589.0,1199.0,0.6125,0.33333334,8160955
0,2,0.0,567.0,1141.0,0.6125,0.33333334,8160973
0,2,0.0,546.0,1081.0,0.6125,0.33333334,8160973
0,2,0.0,530.0,1022.0,0.6125,0.33333334,8160974
0,2,0.0,517.0,960.0,0.625,0.33333334,8160974
0,2,0.0,507.0,894.0,0.625,0.33333334,8160997
0,2,0.0,501.0,824.0,0.625,0.33333334,8160998
0,2,0.0,498.0,750.0,0.625,0.33333334,8160998
0,2,0.0,499.0,676.0,0.625,0.33333334,8160998
0,2,0.0,503.0,603.0,0.625,0.33333334,8161044
0,2,0.0,509.0,531.0,0.625,0.33333334,8161044
0,2,0.0,516.0,460.0,0.625,0.33333334,8161045
0,2,0.0,526.0,393.0,0.625,0.33333334,8161045
0,2,0.0,538.0,332.0,0.625,0.33333334,8161046
0,2,0.0,550.0,277.0,0.625,0.33333334,8161046
0,2,0.0,562.0,227.0,0.625,0.33333334,8161066
0,2,0.0,575.0,179.0,0.625,0.33333334,8161066
0,2,0.0,588.0,138.0,0.6125,0.26666668,8161084
0,1,0.0,588.0,138.0,0.6125,0.26666668,8161084
0,0,0.0,652.0,1402.0,0.6,0.33333334,8161637
0,2,0.0,650.0,1399.0,0.6,0.33333334,8161654
0,2,0.0,625.0,1360.0,0.6125,0.33333334,8161654
0,2,0.0,604.0,1323.0,0.6125,0.33333334,8161654
0,2,0.0,577.0,1280.0,0.6125,0.33333334,8161655
0,2,0.0,549.0,1230.0,0.6125,0.33333334,8161673
0,2,0.0,522.0,1174.0,0.6125,0.33333334,8161673
0,2,0.0,495.0,1115.0,0.6125,0.33333334,8161697
0,2,0.0,470.0,1054.0,0.6125,0.33333334,8161698
0,2,0.0,450.0,990.0,0.6125,0.33333334,8161720
0,2,0.0,431.0,922.0,0.6125,0.33333334,8161721
0,2,0.0,414.0,849.0,0.6125,0.33333334,8161743
0,2,0.0,401.0,778.0,0.6125,0.33333334,8161743
0,2,0.0,391.0,704.0,0.6125,0.33333334,8161744
0,2,0.0,385.0,632.0,0.6125,0.33333334,8161744
0,2,0.0,383.0,564.0,0.6125,0.33333334,8161770
0,2,0.0,383.0,497.0,0.6125,0.33333334,8161771
0,2,0.0,386.0,434.0,0.6125,0.33333334,8161789
0,2,0.0,394.0,374.0,0.6125,0.33333334,8161790
0,2,0.0,406.0,316.0,0.625,0.33333334,8161790
0,2,0.0,419.0,261.0,0.65000004,0.33333334,8161791
0,2,0.0,433.0,212.0,0.65000004,0.33333334,8161811
0,2,0.0,449.0,167.0,0.65000004,0.33333334,8161811
0,2,0.0,468.0,122.0,0.6375,0.33333334,8161833
0,2,0.0,489.0,77.0,0.625,0.33333334,8161833
0,1,0.0,489.0,77.0,0.625,0.33333334,8161851
0,0,0.0,672.0,1456.0,0.6,0.33333334,8162367
0,2,0.0,671.0,1455.0,0.6,0.33333334,8162383
0,2,0.0,661.0,1441.0,0.6,0.33333334,8162384
0,2,0.0,635.0,1402.0,0.6,0.33333334,8162384
0,2,0.0,617.0,1371.0,0.6125,0.33333334,8162385
0,2,0.0,596.0,1331.0,0.6125,0.33333334,8162385
0,2,0.0,572.0,1285.0,0.6125,0.33333334,8162414
0,2,0.0,548.0,1233.0,0.6125,0.33333334,8162420
0,2,0.0,527.0,1176.0,0.6125,0.33333334,8162443
0,2,0.0,507.0,1116.0,0.6125,0.33333334,8162444
0,2,0.0,487.0,1057.0,0.6125,0.33333334,8162445
0,2,0.0,469.0,997.0,0.6125,0.33333334,8162445
0,2,0.0,454.0,933.0,0.6125,0.33333334,8162467
0,2,0.0,442.0,867.0,0.6125,0.33333334,8162468
0,2,0.0,433.0,797.0,0.6125,0.33333334,8162486
0,2,0.0,427.0,723.0,0.6125,0.33333334,8162487
0,2,0.0,424.0,647.0,0.6125,0.33333334,8162487
0,2,0.0,425.0,569.0,0.6125,0.33333334,8162488
0,2,0.0,429.0,489.0,0.6125,0.33333334,8162508
0,2,0.0,435.0,421.0,0.6125,0.33333334,8162509
0,2,0.0,443.0,359.0,0.6125,0.33333334,8162541
0,2,0.0,452.0,303.0,0.6125,0.33333334,8162541
0,2,0.0,462.0,253.0,0.6125,0.33333334,8162542
0,2,0.0,471.0,213.0,0.6125,0.33333334,8162543
0,2,0.0,480.0,175.0,0.6125,0.33333334,8162562
0,2,0.0,487.0,143.0,0.6125,0.33333334,8162563
0,2,0.0,496.0,110.0,0.6125,0.33333334,8162585
0,2,0.0,505.0,82.0,0.6,0.26666668,8162606
0,1,0.0,505.0,82.0,0.6,0.26666668,8162607
0,0,0.0,671.0,1500.0,0.6,0.33333334,8163099
0,2,0.0,667.0,1494.0,0.6,0.33333334,8163114
0,2,0.0,651.0,1464.0,0.6,0.33333334,8163115
0,2,0.0,636.0,1435.0,0.6,0.33333334,8163115
0,2,0.0,619.0,1396.0,0.6,0.33333334,8163116
0,2,0.0,603.0,1352.0,0.6125,0.33333334,8163133
0,2,0.0,587.0,1304.0,0.6125,0.33333334,8163134
0,2,0.0,570.0,1253.0,0.6125,0.33333334,8163158
0,2,0.0,551.0,1200.0,0.6125,0.33333334,8163158
0,2,0.0,532.0,1144.0,0.6125,0.33333334,8163176
0,2,0.0,517.0,1085.0,0.6125,0.33333334,8163177
0,2,0.0,501.0,1023.0,0.6125,0.33333334,8163195
0,2,0.0,485.0,956.0,0.6125,0.33333334,8163196
0,2,0.0,472.0,885.0,0.6125,0.33333334,8163225
0,2,0.0,463.0,812.0,0.6125,0.33333334,8163225
0,2,0.0,457.0,732.0,0.6125,0.33333334,8163226
0,2,0.0,455.0,652.0,0.6125,0.33333334,8163226
0,2,0.0,458.0,569.0,0.6125,0.33333334,8163254
0,2,0.0,466.0,487.0,0.6125,0.33333334,8163254
0,2,0.0,475.0,416.0,0.6125,0.33333334,8163278
0,2,0.0,487.0,350.0,0.6125,0.33333334,8163279
0,2,0.0,499.0,287.0,0.6125,0.33333334,8163279
0,2,0.0,512.0,232.0,0.6125,0.33333334,8163280
0,2,0.0,527.0,179.0,0.6125,0.26666668,8163302
0,2,0.0,546.0,128.0,0.6,0.26666668,8163303
0,1,0.0,546.0,128.0,0.6,0.26666668,8163303
0,0,0.0,723.0,1466.0,0.6,0.33333334,8163896
0,2,0.0,719.0,1462.0,0.6,0.33333334,8163913
0,2,0.0,701.0,1444.0,0.6,0.33333334,8163914
0,2,0.0,686.0,1426.0,0.6,0.33333334,8163914
0,2,0.0,668.0,1399.0,0.6,0.33333334,8163915
0,2,0.0,646.0,1363.0,0.6,0.33333334,8163933
0,2,0.0,621.0,1316.0,0.6,0.33333334,8163934
0,2,0.0,599.0,1261.0,0.6125,0.33333334,8163956
0,2,0.0,579.0,1201.0,0.6125,0.33333334,8163957
0,2,0.0,560.0,1138.0,0.6125,0.33333334,8163979
0,2,0.0,543.0,1073.0,0.6125,0.33333334,8163980
0,2,0.0,529.0,1005.0,0.6125,0.33333334,8164003
0,2,0.0,518.0,935.0,0.6125,0.33333334,8164007
0,2,0.0,510.0,865.0,0.6125,0.33333334,8164007
0,2,0.0,505.0,792.0,0.6125,0.33333334,8164008
0,2,0.0,501.0,720.0,0.6125,0.33333334,8164034
0,2,0.0,502.0,644.0,0.6125,0.33333334,8164036
0,2,0.0,506.0,567.0,0.6125,0.33333334,8164037
0,2,0.0,516.0,489.0,0.6125,0.33333334,8164037
0,2,0.0,532.0,410.0,0.6125,0.33333334,8164072
0,2,0.0,551.0,337.0,0.6125,0.33333334,8164073
0,2,0.0,573.0,266.0,0.6125,0.33333334,8164073
0,2,0.0,597.0,202.0,0.6125,0.33333334,8164074
0,2,0.0,622.0,144.0,0.6125,0.33333334,8164098
0,2,0.0,645.0,92.0,0.6125,0.33333334,8164099
0,2,0.0,667.0,43.0,0.6,0.26666668,8164115
0,1,0.0,667.0,43.0,0.6,0.26666668,8164116
0,0,0.0,678.0,1476.0,0.6,0.33333334,8164678
0,2,0.0,677.0,1475.0,0.6,0.26666668,8164694
0,2,0.0,668.0,1467.0,0.6,0.26666668,8164695
0,2,0.0,646.0,1444.0,0.6,0.26666668,8164695
0,2,0.0,628.0,1421.0,0.6,0.26666668,8164696
0,2,0.0,607.0,1389.0,0.6,0.26666668,8164696
0,2,0.0,583.0,1346.0,0.6,0.26666668,8164714
0,2,0.0,559.0,1298.0,0.6125,0.26666668,8164715
0,2,0.0,536.0,1244.0,0.6125,0.26666668,8164759
0,2,0.0,516.0,1186.0,0.6125,0.26666668,8164761
0,2,0.0,497.0,1126.0,0.6125,0.26666668,8164763
0,2,0.0,480.0,1065.0,0.6125,0.26666668,8164765
0,2,0.0,464.0,999.0,0.6125,0.26666668,8164792
0,2,0.0,453.0,932.0,0.6125,0.26666668,8164793
0,2,0.0,444.0,860.0,0.6125,0.26666668,8164822
0,2,0.0,439.0,786.0,0.6125,0.26666668,8164822
0,2,0.0,436.0,707.0,0.6125,0.26666668,8164845
0,2,0.0,438.0,632.0,0.6125,0.26666668,8164845
0,2,0.0,445.0,555.0,0.6125,0.26666668,8164846
0,2,0.0,455.0,487.0,0.6125,0.26666668,8164847
0,2,0.0,467.0,425.0,0.6125,0.26666668,8164847
0,2,0.0,482.0,365.0,0.6125,0.26666668,8164848
0,2,0.0,495.0,312.0,0.6125,0.26666668,8164872
0,2,0.0,509.0,265.0,0.6125,0.26666668,8164872
0,2,0.0,523.0,224.0,0.6125,0.26666668,8164872
0,2,0.0,538.0,184.0,0.6125,0.26666668,8164873
0,2,0.0,555.0,148.0,0.6,0.26666668,8164891
0,1,0.0,555.0,148.0,0.6,0.26666668,8164892
0,0,0.0,766.0,1520.0,0.6125,0.33333334,8165375
0,2,0.0,759.0,1513.0,0.6,0.33333334,8165391
0,2,0.0,732.0,1480.0,0.6,0.33333334,8165392
0,2,0.0,710.0,1449.0,0.6125,0.33333334,8165392
0,2,0.0,686.0,1409.0,0.6125,0.33333334,8165393
0,2,0.0,660.0,1362.0,0.6125,0.33333334,8165414
0,2,0.0,632.0,1306.0,0.6125,0.33333334,8165414
0,2,0.0,608.0,1249.0,0.6125,0.33333334,8165441
0,2,0.0,586.0,1190.0,0.6125,0.33333334,8165442
0,2,0.0,565.0,1130.0,0.6125,0.33333334,8165460
0,2,0.0,545.0,1071.0,0.6125,0.33333334,8165460
0,2,0.0,528.0,1007.0,0.6125,0.33333334,8165461
0,2,0.0,515.0,942.0,0.6125,0.33333334,8165461
0,2,0.0,505.0,874.0,0.6125,0.33333334,8165483
0,2,0.0,498.0,804.0,0.6125,0.33333334,8165486
0,2,0.0,495.0,729.0,0.6125,0.33333334,8165508
0,2,0.0,495.0,655.0,0.6125,0.33333334,8165508
0,2,0.0,498.0,581.0,0.6125,0.33333334,8165527
0,2,0.0,504.0,513.0,0.6125,0.33333334,8165527
0,2,0.0,512.0,447.0,0.6125,0.33333334,8165528
0,2,0.0,522.0,383.0,0.6125,0.33333334,8165528
0,2,0.0,534.0,325.0,0.625,0.33333334,8165548
0,2,0.0,547.0,272.0,0.625,0.33333334,8165556
0,2,0.0,560.0,223.0,0.625,0.33333334,8165590
0,2,0.0,573.0,173.0,0.625,0.33333334,8165590
0,2,0.0,588.0,128.0,0.625,0.33333334,8165591
0,1,0.0,588.0,128.0,0.625,0.33333334,8165591
0,0,0.0,678.0,1450.0,0.6125,0.33333334,8166174
0,2,0.0,676.0,1447.0,0.6125,0.33333334,8166189
0,2,0.0,660.0,1416.0,0.6125,0.33333334,8166190
0,2,0.0,645.0,1387.0,0.6125,0.33333334,8166190
0,2,0.0,626.0,1347.0,0.6125,0.33333334,8166191
0,2,0.0,607.0,1299.0,0.6125,0.33333334,8166210
0,2,0.0,589.0,1245.0,0.6125,0.33333334,8166210
0,2,0.0,570.0,1184.0,0.6125,0.33333334,8166228
0,2,0.0,551.0,1120.0,0.6125,0.33333334,8166228
0,2,0.0,536.0,1054.0,0.6125,0.33333334,8166248
0,2,0.0,524.0,984.0,0.6125,0.33333334,8166248
0,2,0.0,515.0,908.0,0.6125,0.33333334,8166269
0,2,0.0,510.0,830.0,0.6125,0.33333334,8166269
0,2,0.0,510.0,749.0,0.6125,0.33333334,8166290
0,2,0.0,512.0,667.0,0.6125,0.33333334,8166291
0,2,0.0,516.0,585.0,0.625,0.33333334,8166298
0,2,0.0,526.0,500.0,0.625,0.33333334,8166299
0,2,0.0,539.0,420.0,0.625,0.33333334,8166337
0,2,0.0,554.0,342.0,0.625,0.33333334,8166338
0,2,0.0,571.0,268.0,0.625,0.33333334,8166339
0,2,0.0,590.0,202.0,0.625,0.33333334,8166340
0,2,0.0,611.0,140.0,0.625,0.33333334,8166364
0,2,0.0,632.0,83.0,0.625,0.33333334,8166365
0,2,0.0,655.0,25.0,0.6,0.33333334,8166366
0,1,0.0,655.0,25.0,0.6,0.33333334,8166369
0,0,0.0,569.0,1341.0,0.6125,0.33333334,8166954
0,2,0.0,566.0,1336.0,0.6125,0.33333334,8166970
0,2,0.0,533.0,1280.0,0.6125,0.33333334,8166971
0,2,0.0,504.0,1226.0,0.6125,0.33333334,8166972
0,2,0.0,474.0,1161.0,0.6125,0.33333334,8166972
0,2,0.0,446.0,1086.0,0.6125,0.33333334,8166991
0,2,0.0,417.0,1003.0,0.6125,0.33333334,8167017
0,2,0.0,392.0,910.0,0.6125,0.33333334,8167039
0,2,0.0,374.0,820.0,0.6125,0.33333334,8167042
0,2,0.0,362.0,725.0,0.625,0.33333334,8167042
0,2,0.0,355.0,634.0,0.625,0.33333334,8167043
0,2,0.0,354.0,548.0,0.625,0.33333334,8167066
0,2,0.0,357.0,468.0,0.625,0.33333334,8167067
0,2,0.0,362.0,394.0,0.625,0.33333334,8167068
0,2,0.0,369.0,324.0,0.625,0.33333334,8167068
0,2,0.0,380.0,260.0,0.625,0.33333334,8167103
0,2,0.0,395.0,204.0,0.625,0.33333334,8167103
0,2,0.0,412.0,151.0,0.625,0.33333334,8167104
0,2,0.0,430.0,100.0,0.625,0.33333334,8167104
0,2,0.0,453.0,48.0,0.625,0.33333334,8167126
0,2,0.0,478.0,5.0,0.575,0.26666668,8167127
0,1,0.0,478.0,5.0,0.575,0.26666668,8167127
0,0,0.0,589.0,1428.0,0.6125,0.33333334,8167651
0,2,0.0,588.0,1427.0,0.6,0.33333334,8167667
0,2,0.0,580.0,1413.0,0.6125,0.33333334,8167667
0,2,0.0,548.0,1357.0,0.6125,0.33333334,8167667
0,2,0.0,527.0,1312.0,0.6125,0.33333334,8167668
0,2,0.0,502.0,1260.0,0.6125,0.33333334,8167668
0,2,0.0,477.0,1203.0,0.6125,0.33333334,8167704
0,2,0.0,454.0,1144.0,0.6125,0.33333334,8167705
0,2,0.0,432.0,1084.0,0.6125,0.33333334,8167705
0,2,0.0,409.0,1019.0,0.6125,0.33333334,8167706
0,2,0.0,389.0,951.0,0.6125,0.33333334,8167720
