0,2,0.0,876.0,679.0,0.6875,0.33333334,6375733
0,2,0.0,888.0,661.0,0.6875,0.33333334,6375734
0,2,0.0,900.0,642.0,0.6625,0.33333334,6375734
0,2,0.0,914.0,622.0,0.65000004,0.33333334,6375773
0,1,0.0,914.0,622.0,0.65000004,0.33333334,6375774
0,0,0.0,689.0,1250.0,0.6375,0.33333334,6376118
0,2,0.0,689.0,1249.0,0.65000004,0.33333334,6376134
0,2,0.0,689.0,1242.0,0.6625,0.33333334,6376134
0,2,0.0,694.0,1214.0,0.6625,0.33333334,6376135
0,2,0.0,698.0,1191.0,0.6875,0.33333334,6376136
0,2,0.0,703.0,1167.0,0.6875,0.33333334,6376136
0,2,0.0,709.0,1138.0,0.6875,0.33333334,6376163
0,2,0.0,715.0,1110.0,0.6875,0.33333334,6376164
0,2,0.0,723.0,1078.0,0.6875,0.33333334,6376190
0,2,0.0,732.0,1048.0,0.6875,0.33333334,6376190
0,2,0.0,743.0,1016.0,0.6875,0.33333334,6376191
0,2,0.0,755.0,984.0,0.6875,0.33333334,6376191
0,2,0.0,765.0,955.0,0.6875,0.33333334,6376215
0,2,0.0,774.0,925.0,0.6875,0.33333334,6376216
0,2,0.0,782.0,899.0,0.6875,0.33333334,6376238
0,2,0.0,791.0,873.0,0.6875,0.33333334,6376239
0,2,0.0,801.0,845.0,0.6875,0.33333334,6376240
0,2,0.0,812.0,819.0,0.6875,0.33333334,6376240
0,2,0.0,824.0,792.0,0.6875,0.33333334,6376278
0,2,0.0,834.0,767.0,0.6875,0.33333334,6376279
0,2,0.0,843.0,745.0,0.6875,0.33333334,6376285
0,2,0.0,852.0,724.0,0.6875,0.33333334,6376286
0,2,0.0,859.0,703.0,0.675,0.33333334,6376308
0,2,0.0,866.0,686.0,0.675,0.33333334,6376309
0,2,0.0,873.0,670.0,0.675,0.33333334,6376310
0,2,0.0,880.0,654.0,0.6625,0.33333334,6376310
0,2,0.0,887.0,639.0,0.6625,0.33333334,6376333
0,2,0.0,894.0,624.0,0.6375,0.33333334,6376336
0,1,0.0,894.0,624.0,0.6375,0.33333334,6376362
0,0,0.0,679.0,1210.0,0.6625,0.33333334,6376714
0,2,0.0,679.0,1208.0,0.675,0.33333334,6376729
0,2,0.0,680.0,1199.0,0.675,0.33333334,6376730
0,2,0.0,685.0,1171.0,0.675,0.33333334,6376731
0,2,0.0,691.0,1146.0,0.675,0.33333334,6376731
0,2,0.0,698.0,1119.0,0.675,0.33333334,6376732
0,2,0.0,706.0,1088.0,0.6875,0.33333334,6376753
0,2,0.0,715.0,1056.0,0.6875,0.33333334,6376753
0,2,0.0,726.0,1024.0,0.6875,0.33333334,6376810
0,2,0.0,738.0,991.0,0.6875,0.33333334,6376811
0,2,0.0,749.0,965.0,0.6875,0.33333334,6376812
0,2,0.0,760.0,939.0,0.71250004,0.33333334,6376812
0,2,0.0,770.0,913.0,0.71250004,0.33333334,6376812
0,2,0.0,780.0,888.0,0.71250004,0.33333334,6376814
0,2,0.0,793.0,858.0,0.71250004,0.33333334,6376839
0,2,0.0,807.0,830.0,0.71250004,0.33333334,6376839
0,2,0.0,823.0,799.0,0.71250004,0.33333334,6376840
0,2,0.0,838.0,769.0,0.71250004,0.33333334,6376840
0,2,0.0,850.0,744.0,0.71250004,0.33333334,6376862
0,2,0.0,863.0,719.0,0.7,0.33333334,6376863
0,2,0.0,874.0,699.0,0.7,0.33333334,6376888
0,2,0.0,883.0,683.0,0.7,0.33333334,6376889
0,2,0.0,890.0,671.0,0.6875,0.33333334,6376892
0,2,0.0,896.0,661.0,0.6875,0.33333334,6376893
0,2,0.0,902.0,651.0,0.6625,0.33333334,6376914
0,1,0.0,902.0,651.0,0.6625,0.33333334,6376915
0,0,0.0,705.0,1240.0,0.65000004,0.33333334,6377255
0,2,0.0,705.0,1236.0,0.6625,0.33333334,6377272
0,2,0.0,706.0,1217.0,0.6625,0.33333334,6377273
0,2,0.0,712.0,1169.0,0.6625,0.33333334,6377274
0,2,0.0,717.0,1139.0,0.675,0.33333334,6377274
0,2,0.0,723.0,1110.0,0.675,0.33333334,6377275
0,2,0.0,731.0,1078.0,0.675,0.33333334,6377310
0,2,0.0,740.0,1048.0,0.675,0.33333334,6377310
0,2,0.0,750.0,1017.0,0.675,0.33333334,6377338
0,2,0.0,760.0,988.0,0.675,0.33333334,6377339
0,2,0.0,769.0,963.0,0.675,0.33333334,6377340
0,2,0.0,779.0,935.0,0.675,0.33333334,6377342
0,2,0.0,789.0,910.0,0.675,0.33333334,6377365
0,2,0.0,801.0,886.0,0.675,0.33333334,6377366
0,2,0.0,814.0,860.0,0.675,0.33333334,6377367
0,2,0.0,827.0,835.0,0.675,0.33333334,6377367
0,2,0.0,839.0,812.0,0.675,0.33333334,6377391
0,2,0.0,854.0,785.0,0.675,0.33333334,6377391
0,2,0.0,870.0,760.0,0.675,0.33333334,6377392
0,2,0.0,889.0,730.0,0.65000004,0.33333334,6377393
0,1,0.0,889.0,730.0,0.65000004,0.33333334,6377431
0,0,0.0,704.0,1250.0,0.65000004,0.33333334,6377835
0,2,0.0,704.0,1249.0,0.65000004,0.33333334,6377850
0,2,0.0,704.0,1243.0,0.6625,0.33333334,6377850
0,2,0.0,707.0,1218.0,0.6625,0.33333334,6377851
0,2,0.0,711.0,1194.0,0.6625,0.33333334,6377852
0,2,0.0,717.0,1162.0,0.6625,0.33333334,6377852
0,2,0.0,723.0,1127.0,0.6625,0.33333334,6377881
0,2,0.0,731.0,1090.0,0.6625,0.33333334,6377882
0,2,0.0,741.0,1056.0,0.6625,0.33333334,6377911
0,2,0.0,750.0,1026.0,0.675,0.33333334,6377912
0,2,0.0,760.0,995.0,0.675,0.33333334,6377913
0,2,0.0,769.0,968.0,0.675,0.33333334,6377913
0,2,0.0,779.0,937.0,0.7,0.33333334,6377944
0,2,0.0,790.0,908.0,0.7,0.33333334,6377945
0,2,0.0,802.0,878.0,0.7,0.33333334,6377945
0,2,0.0,816.0,848.0,0.7,0.33333334,6377946
0,2,0.0,828.0,823.0,0.7,0.33333334,6377968
0,2,0.0,839.0,800.0,0.7,0.40000004,6377969
0,2,0.0,849.0,777.0,0.7,0.40000004,6377970
0,2,0.0,859.0,758.0,0.7,0.40000004,6377971
0,2,0.0,870.0,740.0,0.7,0.40000004,6378003
0,2,0.0,883.0,720.0,0.7,0.40000004,6378012
0,2,0.0,899.0,697.0,0.6625,0.40000004,6378013
0,1,0.0,899.0,697.0,0.6625,0.40000004,6378014
0,0,0.0,709.0,1289.0,0.675,0.40000004,6378411
0,2,0.0,709.0,1287.0,0.6875,0.40000004,6378427
0,2,0.0,710.0,1275.0,0.6875,0.40000004,6378427
0,2,0.0,716.0,1239.0,0.6875,0.40000004,6378428
0,2,0.0,722.0,1209.0,0.6875,0.40000004,6378428
0,2,0.0,729.0,1175.0,0.6875,0.40000004,6378429
0,2,0.0,738.0,1137.0,0.6875,0.40000004,6378459
0,2,0.0,749.0,1098.0,0.6875,0.40000004,6378459
0,2,0.0,760.0,1060.0,0.6875,0.40000004,6378479
0,2,0.0,770.0,1027.0,0.6875,0.40000004,6378480
0,2,0.0,779.0,995.0,0.6875,0.40000004,6378480
0,2,0.0,789.0,967.0,0.6875,0.40000004,6378481
0,2,0.0,800.0,939.0,0.6875,0.40000004,6378503
0,2,0.0,812.0,912.0,0.7,0.40000004,6378503
0,2,0.0,824.0,887.0,0.7,0.40000004,6378528
0,2,0.0,837.0,860.0,0.7,0.40000004,6378529
0,2,0.0,849.0,835.0,0.7,0.40000004,6378561
0,2,0.0,865.0,809.0,0.7,0.40000004,6378562
0,2,0.0,884.0,779.0,0.7,0.40000004,6378563
0,2,0.0,903.0,750.0,0.675,0.33333334,6378563
0,1,0.0,903.0,750.0,0.675,0.33333334,6378564
0,0,0.0,719.0,1320.0,0.625,0.33333334,6378972
0,2,0.0,719.0,1316.0,0.675,0.33333334,6378988
0,2,0.0,720.0,1300.0,0.6875,0.33333334,6378988
0,2,0.0,727.0,1261.0,0.71250004,0.33333334,6378989
0,2,0.0,732.0,1235.0,0.71250004,0.33333334,6378989
0,2,0.0,739.0,1204.0,0.71250004,0.40000004,6378989
0,2,0.0,747.0,1172.0,0.71250004,0.40000004,6379011
0,2,0.0,756.0,1136.0,0.71250004,0.40000004,6379011
0,2,0.0,764.0,1104.0,0.71250004,0.40000004,6379035
0,2,0.0,772.0,1065.0,0.71250004,0.40000004,6379038
0,2,0.0,780.0,1030.0,0.71250004,0.40000004,6379060
0,2,0.0,787.0,996.0,0.71250004,0.40000004,6379060
0,2,0.0,795.0,967.0,0.71250004,0.40000004,6379060
0,2,0.0,805.0,939.0,0.71250004,0.40000004,6379061
0,2,0.0,814.0,913.0,0.71250004,0.40000004,6379085
0,2,0.0,825.0,890.0,0.71250004,0.40000004,6379089
0,2,0.0,836.0,866.0,0.71250004,0.40000004,6379114
0,2,0.0,847.0,842.0,0.71250004,0.40000004,6379114
0,2,0.0,859.0,819.0,0.71250004,0.40000004,6379115
0,2,0.0,873.0,794.0,0.71250004,0.40000004,6379116
0,2,0.0,890.0,767.0,0.7,0.40000004,6379135
0,1,0.0,890.0,767.0,0.7,0.40000004,6379136
0,0,0.0,715.0,1333.0,0.675,0.40000004,6379532
0,2,0.0,715.0,1330.0,0.7,0.40000004,6379547
0,2,0.0,716.0,1316.0,0.7,0.40000004,6379548
0,2,0.0,722.0,1272.0,0.7,0.40000004,6379548
0,2,0.0,727.0,1240.0,0.7,0.40000004,6379549
0,2,0.0,733.0,1200.0,0.7,0.40000004,6379549
0,2,0.0,741.0,1158.0,0.7,0.40000004,6379569
0,2,0.0,749.0,1118.0,0.7,0.40000004,6379570
0,2,0.0,758.0,1079.0,0.7,0.40000004,6379594
0,2,0.0,766.0,1048.0,0.7,0.40000004,6379596
0,2,0.0,773.0,1019.0,0.725,0.40000004,6379617
0,2,0.0,780.0,991.0,0.725,0.40000004,6379617
0,2,0.0,788.0,966.0,0.725,0.40000004,6379617
0,2,0.0,798.0,938.0,0.725,0.40000004,6379618
0,2,0.0,810.0,910.0,0.725,0.40000004,6379650
0,2,0.0,822.0,883.0,0.725,0.40000004,6379651
0,2,0.0,836.0,853.0,0.725,0.40000004,6379651
0,2,0.0,847.0,827.0,0.725,0.40000004,6379652
0,2,0.0,859.0,802.0,0.725,0.40000004,6379673
0,2,0.0,872.0,778.0,0.725,0.40000004,6379681
0,2,0.0,885.0,756.0,0.71250004,0.40000004,6379715
0,2,0.0,896.0,737.0,0.71250004,0.40000004,6379715
0,2,0.0,909.0,716.0,0.6875,0.40000004,6379719
0,2,0.0,920.0,698.0,0.675,0.40000004,6379719
0,2,0.0,929.0,683.0,0.65000004,0.40000004,6379721
0,1,0.0,929.0,683.0,0.65000004,0.40000004,6379721
0,0,0.0,706.0,1307.0,0.6375,0.33333334,6380075
0,2,0.0,706.0,1299.0,0.6375,0.33333334,6380091
0,2,0.0,710.0,1256.0,0.65000004,0.33333334,6380092
0,2,0.0,714.0,1220.0,0.65000004,0.33333334,6380093
0,2,0.0,719.0,1185.0,0.6625,0.33333334,6380093
0,2,0.0,724.0,1147.0,0.6625,0.33333334,6380111
0,2,0.0,730.0,1111.0,0.6875,0.33333334,6380112
0,2,0.0,738.0,1071.0,0.6875,0.33333334,6380152
0,2,0.0,746.0,1039.0,0.6875,0.33333334,6380152
0,2,0.0,755.0,1005.0,0.6875,0.33333334,6380152
0,2,0.0,762.0,978.0,0.6875,0.33333334,6380153
0,2,0.0,769.0,953.0,0.7,0.40000004,6380172
0,2,0.0,777.0,926.0,0.7,0.40000004,6380172
0,2,0.0,786.0,902.0,0.7,0.40000004,6380194
0,2,0.0,796.0,878.0,0.7,0.40000004,6380195
0,2,0.0,808.0,852.0,0.7,0.40000004,6380195
0,2,0.0,821.0,828.0,0.7,0.40000004,6380196
0,2,0.0,833.0,805.0,0.7,0.40000004,6380222
0,2,0.0,847.0,779.0,0.7,0.40000004,6380223
0,2,0.0,863.0,755.0,0.675,0.40000004,6380246
0,1,0.0,863.0,755.0,0.675,0.40000004,6380246
0,0,0.0,690.0,1290.0,0.675,0.40000004,6380600
0,2,0.0,690.0,1286.0,0.675,0.40000004,6380616
0,2,0.0,691.0,1255.0,0.6875,0.40000004,6380617
0,2,0.0,694.0,1232.0,0.7,0.40000004,6380617
0,2,0.0,698.0,1205.0,0.725,0.40000004,6380618
0,2,0.0,702.0,1179.0,0.725,0.40000004,6380641
0,2,0.0,707.0,1152.0,0.725,0.40000004,6380642
0,2,0.0,713.0,1125.0,0.725,0.40000004,6380663
0,2,0.0,719.0,1098.0,0.7375,0.40000004,6380663
0,2,0.0,727.0,1068.0,0.7375,0.40000004,6380685
0,2,0.0,735.0,1042.0,0.7375,0.40000004,6380685
0,2,0.0,745.0,1012.0,0.7375,0.40000004,6380705
0,2,0.0,756.0,980.0,0.7375,0.40000004,6380706
0,2,0.0,767.0,949.0,0.7375,0.40000004,6380706
0,2,0.0,779.0,918.0,0.7375,0.40000004,6380707
0,2,0.0,791.0,889.0,0.7375,0.40000004,6380730
0,2,0.0,804.0,859.0,0.7375,0.40000004,6380731
0,2,0.0,817.0,833.0,0.7375,0.40000004,6380757
0,2,0.0,830.0,808.0,0.7375,0.40000004,6380757
0,2,0.0,842.0,784.0,0.7375,0.40000004,6380758
0,2,0.0,853.0,763.0,0.7375,0.40000004,6380758
0,2,0.0,862.0,746.0,0.725,0.40000004,6380777
0,2,0.0,871.0,731.0,0.71250004,0.40000004,6380778
0,2,0.0,878.0,719.0,0.71250004,0.40000004,6380799
0,2,0.0,884.0,709.0,0.6875,0.40000004,6380799
0,2,0.0,889.0,698.0,0.6625,0.40000004,6380821
0,1,0.0,889.0,698.0,0.6625,0.40000004,6380821
0,0,0.0,701.0,1303.0,0.675,0.40000004,6381198
0,2,0.0,701.0,1300.0,0.6875,0.40000004,6381212
0,2,0.0,701.0,1288.0,0.6875,0.40000004,6381212
0,2,0.0,702.0,1249.0,0.6875,0.40000004,6381213
0,2,0.0,705.0,1215.0,0.6875,0.40000004,6381213
0,2,0.0,709.0,1181.0,0.7,0.40000004,6381214
0,2,0.0,714.0,1144.0,0.7,0.40000004,6381233
0,2,0.0,721.0,1113.0,0.725,0.40000004,6381233
0,2,0.0,729.0,1079.0,0.725,0.40000004,6381253
0,2,0.0,737.0,1050.0,0.725,0.40000004,6381254
0,2,0.0,746.0,1021.0,0.725,0.40000004,6381290
0,2,0.0,756.0,991.0,0.725,0.40000004,6381291
0,2,0.0,766.0,964.0,0.725,0.40000004,6381292
0,2,0.0,777.0,933.0,0.725,0.40000004,6381292
0,2,0.0,789.0,902.0,0.725,0.40000004,6381314
0,2,0.0,802.0,870.0,0.725,0.40000004,6381315
0,2,0.0,817.0,838.0,0.725,0.40000004,6381315
0,2,0.0,831.0,807.0,0.725,0.40000004,6381316
0,2,0.0,845.0,777.0,0.725,0.40000004,6381339
0,2,0.0,856.0,754.0,0.725,0.40000004,6381339
0,2,0.0,868.0,733.0,0.71250004,0.40000004,6381364
0,2,0.0,880.0,713.0,0.7,0.40000004,6381365
0,2,0.0,891.0,695.0,0.6875,0.40000004,6381366
0,2,0.0,900.0,679.0,0.6625,0.40000004,6381366
0,1,0.0,900.0,679.0,0.6625,0.40000004,6381393
0,0,0.0,708.0,1295.0,0.71250004,0.40000004,6381773
0,2,0.0,708.0,1287.0,0.71250004,0.40000004,6381789
0,2,0.0,711.0,1251.0,0.71250004,0.40000004,6381790
0,2,0.0,714.0,1221.0,0.71250004,0.40000004,6381791
0,2,0.0,718.0,1190.0,0.71250004,0.40000004,6381791
0,2,0.0,723.0,1155.0,0.71250004,0.40000004,6381832
0,2,0.0,728.0,1124.0,0.725,0.40000004,6381834
0,2,0.0,734.0,1094.0,0.725,0.40000004,6381835
0,2,0.0,740.0,1065.0,0.725,0.40000004,6381836
0,2,0.0,746.0,1039.0,0.725,0.40000004,6381868
0,2,0.0,753.0,1010.0,0.7375,0.40000004,6381868
0,2,0.0,761.0,981.0,0.7375,0.40000004,6381869
0,2,0.0,770.0,951.0,0.7375,0.40000004,6381869
0,2,0.0,779.0,920.0,0.7375,0.40000004,6381897
0,2,0.0,789.0,893.0,0.7375,0.40000004,6381897
0,2,0.0,800.0,863.0,0.7375,0.40000004,6381898
0,2,0.0,812.0,836.0,0.7375,0.40000004,6381898
0,2,0.0,825.0,809.0,0.7375,0.40000004,6381926
0,2,0.0,840.0,779.0,0.725,0.40000004,6381926
0,2,0.0,856.0,752.0,0.7,0.40000004,6381926
0,1,0.0,856.0,752.0,0.7,0.40000004,6381927
0,0,0.0,697.0,1249.0,0.6875,0.40000004,6382351
0,2,0.0,698.0,1239.0,0.7,0.40000004,6382367
0,2,0.0,703.0,1204.0,0.7,0.40000004,6382367
0,2,0.0,707.0,1179.0,0.71250004,0.40000004,6382368
0,2,0.0,713.0,1147.0,0.71250004,0.40000004,6382368
0,2,0.0,720.0,1115.0,0.71250004,0.40000004,6382390
0,2,0.0,729.0,1077.0,0.71250004,0.40000004,6382391
0,2,0.0,739.0,1043.0,0.7375,0.40000004,6382431
0,2,0.0,749.0,1009.0,0.7375,0.40000004,6382431
0,2,0.0,758.0,979.0,0.7375,0.40000004,6382432
0,2,0.0,767.0,953.0,0.75,0.40000004,6382432
0,2,0.0,775.0,930.0,0.75,0.40000004,6382452
0,2,0.0,784.0,907.0,0.75,0.40000004,6382453
0,2,0.0,792.0,887.0,0.75,0.40000004,6382453
0,2,0.0,801.0,867.0,0.75,0.40000004,6382454
0,2,0.0,812.0,846.0,0.75,0.40000004,6382479
0,2,0.0,824.0,825.0,0.75,0.40000004,6382479
0,2,0.0,837.0,802.0,0.75,0.40000004,6382501
0,2,0.0,851.0,780.0,0.75,0.40000004,6382506
0,2,0.0,866.0,759.0,0.7375,0.40000004,6382525
0,2,0.0,881.0,739.0,0.725,0.40000004,6382526
0,2,0.0,896.0,718.0,0.725,0.40000004,6382526
0,2,0.0,911.0,698.0,0.6875,0.40000004,6382526
0,1,0.0,911.0,698.0,0.6875,0.40000004,6382550
0,0,0.0,716.0,1321.0,0.7,0.40000004,6382944
0,2,0.0,716.0,1319.0,0.7,0.40000004,6382961
0,2,0.0,717.0,1300.0,0.71250004,0.40000004,6382962
0,2,0.0,722.0,1254.0,0.71250004,0.40000004,6382963
0,2,0.0,726.0,1223.0,0.725,0.40000004,6382964
0,2,0.0,731.0,1191.0,0.725,0.40000004,6382964
0,2,0.0,737.0,1155.0,0.75,0.40000004,6382987
0,2,0.0,744.0,1120.0,0.75,0.40000004,6382987
0,2,0.0,752.0,1085.0,0.75,0.40000004,6383020
0,2,0.0,761.0,1051.0,0.75,0.40000004,6383021
0,2,0.0,770.0,1019.0,0.75,0.40000004,6383021
0,2,0.0,779.0,990.0,0.75,0.40000004,6383022
0,2,0.0,788.0,963.0,0.75,0.40000004,6383041
0,2,0.0,797.0,937.0,0.75,0.40000004,6383042
0,2,0.0,808.0,909.0,0.75,0.40000004,6383062
0,2,0.0,821.0,880.0,0.75,0.40000004,6383066
0,2,0.0,835.0,851.0,0.75,0.40000004,6383087
0,2,0.0,849.0,822.0,0.75,0.40000004,6383088
0,2,0.0,867.0,790.0,0.725,0.40000004,6383088
0,2,0.0,885.0,761.0,0.725,0.40000004,6383089
0,2,0.0,901.0,734.0,0.71250004,0.40000004,6383111
0,2,0.0,917.0,709.0,0.6875,0.40000004,6383112
0,1,0.0,917.0,709.0,0.6875,0.40000004,6383132
0,0,0.0,705.0,1335.0,0.71250004,0.40000004,6383507
0,2,0.0,705.0,1323.0,0.725,0.40000004,6383522
0,2,0.0,709.0,1280.0,0.725,0.40000004,6383522
0,2,0.0,712.0,1251.0,0.725,0.40000004,6383523
0,2,0.0,716.0,1218.0,0.725,0.40000004,6383523
0,2,0.0,721.0,1187.0,0.7375,0.40000004,6383542
0,2,0.0,726.0,1155.0,0.7375,0.40000004,6383542
0,2,0.0,732.0,1126.0,0.7625,0.40000004,6383560
0,2,0.0,738.0,1097.0,0.7625,0.40000004,6383561
0,2,0.0,744.0,1068.0,0.7625,0.40000004,6383588
0,2,0.0,750.0,1041.0,0.7625,0.40000004,6383589
0,2,0.0,757.0,1012.0,0.7625,0.40000004,6383610
0,2,0.0,766.0,984.0,0.7625,0.40000004,6383610
0,2,0.0,777.0,955.0,0.7625,0.40000004,6383610
0,2,0.0,788.0,930.0,0.7625,0.40000004,6383611
0,2,0.0,798.0,905.0,0.7625,0.40000004,6383632
0,2,0.0,808.0,881.0,0.77500004,0.4666667,6383632
0,2,0.0,818.0,860.0,0.77500004,0.4666667,6383653
0,2,0.0,830.0,838.0,0.77500004,0.4666667,6383654
0,2,0.0,842.0,814.0,0.77500004,0.4666667,6383676
0,2,0.0,854.0,794.0,0.77500004,0.4666667,6383677
0,2,0.0,870.0,771.0,0.75,0.4666667,6383677
0,2,0.0,889.0,746.0,0.725,0.40000004,6383678
0,2,0.0,909.0,720.0,0.6875,0.40000004,6383700
0,1,0.0,909.0,720.0,0.6875,0.40000004,6383701
0,0,0.0,700.0,1359.0,0.675,0.40000004,6384065
0,2,0.0,700.0,1354.0,0.6875,0.40000004,6384082
0,2,0.0,701.0,1331.0,0.7,0.40000004,6384082
0,2,0.0,703.0,1312.0,0.7,0.40000004,6384083
0,2,0.0,705.0,1287.0,0.725,0.40000004,6384083
0,2,0.0,708.0,1262.0,0.725,0.40000004,6384112
0,2,0.0,711.0,1236.0,0.7625,0.40000004,6384113
0,2,0.0,715.0,1209.0,0.7625,0.40000004,6384135
0,2,0.0,719.0,1184.0,0.7625,0.40000004,6384136
0,2,0.0,724.0,1158.0,0.77500004,0.40000004,6384136
0,2,0.0,729.0,1132.0,0.77500004,0.40000004,6384137
0,2,0.0,734.0,1107.0,0.77500004,0.4666667,6384155
0,2,0.0,740.0,1080.0,0.77500004,0.4666667,6384156
0,2,0.0,746.0,1053.0,0.77500004,0.4666667,6384176
0,2,0.0,753.0,1026.0,0.77500004,0.4666667,6384177
0,2,0.0,761.0,1001.0,0.77500004,0.4666667,6384198
0,2,0.0,771.0,974.0,0.77500004,0.4666667,6384198
0,2,0.0,782.0,947.0,0.77500004,0.4666667,6384226
0,2,0.0,794.0,921.0,0.77500004,0.4666667,6384227
0,2,0.0,807.0,891.0,0.77500004,0.4666667,6384228
0,2,0.0,820.0,865.0,0.77500004,0.4666667,6384229
0,2,0.0,835.0,835.0,0.77500004,0.4666667,6384250
0,2,0.0,851.0,805.0,0.7625,0.4666667,6384251
0,2,0.0,867.0,777.0,0.75,0.4666667,6384272
0,2,0.0,882.0,752.0,0.75,0.4666667,6384272
0,2,0.0,894.0,731.0,0.75,0.4666667,6384273
0,2,0.0,903.0,715.0,0.75,0.4666667,6384273
0,2,0.0,911.0,701.0,0.7375,0.4666667,6384295
0,2,0.0,918.0,688.0,0.725,0.4666667,6384296
0,2,0.0,924.0,677.0,0.71250004,0.40000004,6384318
0,2,0.0,930.0,668.0,0.7,0.40000004,6384319
0,2,0.0,935.0,659.0,0.6875,0.40000004,6384320
0,1,0.0,935.0,659.0,0.6875,0.40000004,6384321
0,0,0.0,701.0,1377.0,0.71250004,0.40000004,6384696
0,2,0.0,701.0,1376.0,0.725,0.40000004,6384711
0,2,0.0,701.0,1370.0,0.7375,0.40000004,6384711
0,2,0.0,702.0,1347.0,0.7625,0.40000004,6384712
0,2,0.0,703.0,1328.0,0.7625,0.40000004,6384713
0,2,0.0,705.0,1304.0,0.7625,0.40000004,6384714
0,2,0.0,708.0,1275.0,0.7625,0.40000004,6384751
0,2,0.0,713.0,1243.0,0.7625,0.40000004,6384754
0,2,0.0,719.0,1209.0,0.7625,0.40000004,6384755
0,2,0.0,725.0,1174.0,0.7625,0.40000004,6384755
0,2,0.0,732.0,1140.0,0.7625,0.40000004,6384783
0,2,0.0,738.0,1109.0,0.7625,0.4666667,6384790
0,2,0.0,744.0,1079.0,0.77500004,0.4666667,6384792
0,2,0.0,751.0,1050.0,0.77500004,0.4666667,6384793
0,2,0.0,758.0,1022.0,0.77500004,0.4666667,6384814
0,2,0.0,767.0,996.0,0.77500004,0.4666667,6384815
0,2,0.0,779.0,966.0,0.77500004,0.4666667,6384815
0,2,0.0,791.0,938.0,0.77500004,0.4666667,6384832
0,2,0.0,805.0,908.0,0.77500004,0.4666667,6384854
0,2,0.0,822.0,874.0,0.77500004,0.4666667,6384854
0,2,0.0,838.0,843.0,0.77500004,0.4666667,6384854
0,2,0.0,855.0,810.0,0.77500004,0.4666667,6384855
0,2,0.0,873.0,781.0,0.7625,0.4666667,6384874
0,2,0.0,890.0,754.0,0.7375,0.4666667,6384874
0,2,0.0,906.0,727.0,0.725,0.40000004,6384895
0,2,0.0,921.0,702.0,0.6875,0.40000004,6384897
0,1,0.0,921.0,702.0,0.6875,0.40000004,6384898
0,0,0.0,720.0,1298.0,0.675,0.40000004,6385305
0,2,0.0,720.0,1297.0,0.675,0.40000004,6385321
0,2,0.0,721.0,1279.0,0.675,0.40000004,6385321
0,2,0.0,728.0,1238.0,0.7,0.40000004,6385322
0,2,0.0,733.0,1213.0,0.725,0.40000004,6385322
0,2,0.0,739.0,1190.0,0.725,0.40000004,6385323
0,2,0.0,746.0,1166.0,0.725,0.40000004,6385343
0,2,0.0,752.0,1140.0,0.7375,0.40000004,6385343
0,2,0.0,759.0,1116.0,0.7375,0.40000004,6385371
0,2,0.0,767.0,1088.0,0.7375,0.40000004,6385371
0,2,0.0,776.0,1057.0,0.7375,0.40000004,6385393
0,2,0.0,785.0,1025.0,0.7375,0.40000004,6385393
0,2,0.0,796.0,991.0,0.7375,0.40000004,6385394
0,2,0.0,807.0,962.0,0.7375,0.40000004,6385394
0,2,0.0,817.0,934.0,0.7625,0.40000004,6385414
0,2,0.0,827.0,909.0,0.7625,0.40000004,6385414
0,2,0.0,836.0,888.0,0.7625,0.40000004,6385434
0,2,0.0,845.0,868.0,0.7625,0.40000004,6385435
0,2,0.0,854.0,848.0,0.7625,0.40000004,6385457
0,2,0.0,863.0,829.0,0.7625,0.40000004,6385458
0,2,0.0,873.0,810.0,0.75,0.40000004,6385459
0,2,0.0,886.0,788.0,0.7375,0.40000004,6385459
0,2,0.0,902.0,763.0,0.7,0.40000004,6385484
0,1,0.0,902.0,763.0,0.7,0.40000004,6385485
0,0,0.0,724.0,1325.0,0.6875,0.40000004,6385883
0,2,0.0,724.0,1316.0,0.6875,0.40000004,6385899
0,2,0.0,727.0,1281.0,0.6875,0.40000004,6385899
0,2,0.0,729.0,1256.0,0.7,0.40000004,6385899
0,2,0.0,732.0,1229.0,0.7,0.40000004,6385900
0,2,0.0,736.0,1201.0,0.71250004,0.40000004,6385920
0,2,0.0,740.0,1174.0,0.7375,0.40000004,6385920
0,2,0.0,745.0,1143.0,0.7375,0.40000004,6385947
0,2,0.0,750.0,1115.0,0.7375,0.40000004,6385947
0,2,0.0,757.0,1084.0,0.7375,0.40000004,6385980
0,2,0.0,763.0,1054.0,0.7375,0.40000004,6385981
0,2,0.0,769.0,1023.0,0.7375,0.40000004,6385982
0,2,0.0,776.0,993.0,0.7375,0.40000004,6385983
0,2,0.0,784.0,966.0,0.75,0.40000004,6386007
0,2,0.0,793.0,940.0,0.75,0.40000004,6386008
0,2,0.0,803.0,913.0,0.75,0.40000004,6386012
0,2,0.0,812.0,889.0,0.75,0.40000004,6386013
0,2,0.0,822.0,866.0,0.75,0.40000004,6386046
0,2,0.0,833.0,843.0,0.75,0.40000004,6386050
0,2,0.0,844.0,822.0,0.75,0.40000004,6386051
0,2,0.0,856.0,801.0,0.75,0.40000004,6386053
0,2,0.0,869.0,780.0,0.75,0.40000004,6386083
0,2,0.0,882.0,760.0,0.725,0.40000004,6386084
0,2,0.0,896.0,739.0,0.71250004,0.40000004,6386086
0,2,0.0,910.0,718.0,0.6875,0.40000004,6386087
0,2,0.0,920.0,701.0,0.675,0.40000004,6386088
0,1,0.0,920.0,701.0,0.675,0.40000004,6386089
0,0,0.0,728.0,1371.0,0.675,0.40000004,6386495
0,2,0.0,728.0,1370.0,0.6875,0.40000004,6386510
0,2,0.0,728.0,1361.0,0.7,0.40000004,6386511
0,2,0.0,729.0,1333.0,0.725,0.40000004,6386512
0,2,0.0,730.0,1315.0,0.725,0.40000004,6386513
0,2,0.0,732.0,1292.0,0.725,0.40000004,6386514
0,2,0.0,735.0,1267.0,0.725,0.40000004,6386535
0,2,0.0,739.0,1242.0,0.725,0.40000004,6386535
0,2,0.0,743.0,1213.0,0.725,0.40000004,6386557
0,2,0.0,747.0,1183.0,0.7375,0.40000004,6386558
0,2,0.0,752.0,1148.0,0.7375,0.40000004,6386588
0,2,0.0,757.0,1114.0,0.7375,0.40000004,6386590
0,2,0.0,763.0,1080.0,0.7625,0.40000004,6386590
0,2,0.0,769.0,1048.0,0.7625,0.40000004,6386614
0,2,0.0,776.0,1018.0,0.7625,0.40000004,6386639
0,2,0.0,783.0,991.0,0.7625,0.40000004,6386640
0,2,0.0,791.0,967.0,0.7625,0.40000004,6386640
0,2,0.0,800.0,941.0,0.7625,0.40000004,6386640
0,2,0.0,809.0,914.0,0.7625,0.40000004,6386641
0,2,0.0,818.0,889.0,0.7625,0.40000004,6386641
0,2,0.0,830.0,861.0,0.7625,0.40000004,6386664
0,2,0.0,843.0,833.0,0.7625,0.40000004,6386665
0,2,0.0,856.0,806.0,0.7625,0.40000004,6386665
0,2,0.0,867.0,784.0,0.7625,0.40000004,6386666
0,2,0.0,877.0,765.0,0.7625,0.40000004,6386688
0,2,0.0,885.0,749.0,0.7625,0.40000004,6386688
0,2,0.0,892.0,735.0,0.7625,0.40000004,6386711
0,2,0.0,898.0,724.0,0.7625,0.40000004,6386713
0,2,0.0,904.0,715.0,0.75,0.40000004,6386735
0,2,0.0,910.0,706.0,0.725,0.40000004,6386735
0,2,0.0,918.0,696.0,0.7,0.40000004,6386735
0,1,0.0,918.0,696.0,0.7,0.40000004,6386736
0,0,0.0,714.0,1364.0,0.675,0.40000004,6387071
0,2,0.0,714.0,1361.0,0.675,0.40000004,6387071
0,2,0.0,714.0,1338.0,0.6875,0.40000004,6387072
0,2,0.0,715.0,1318.0,0.6875,0.40000004,6387089
0,2,0.0,717.0,1290.0,0.7,0.40000004,6387090
0,2,0.0,719.0,1261.0,0.7,0.40000004,6387109
0,2,0.0,722.0,1228.0,0.725,0.40000004,6387110
0,2,0.0,726.0,1196.0,0.725,0.40000004,6387129
0,2,0.0,731.0,1161.0,0.725,0.40000004,6387130
0,2,0.0,738.0,1127.0,0.7375,0.40000004,6387149
0,2,0.0,744.0,1095.0,0.7375,0.40000004,6387150
0,2,0.0,751.0,1063.0,0.7375,0.40000004,6387182
0,2,0.0,758.0,1032.0,0.7375,0.40000004,6387182
0,2,0.0,766.0,1000.0,0.7625,0.40000004,6387183
0,2,0.0,774.0,970.0,0.7625,0.40000004,6387183
0,2,0.0,783.0,940.0,0.7625,0.40000004,6387205
0,2,0.0,793.0,910.0,0.7625,0.40000004,6387206
0,2,0.0,803.0,882.0,0.7625,0.40000004,6387232
0,2,0.0,815.0,854.0,0.7625,0.40000004,6387232
0,2,0.0,828.0,827.0,0.75,0.40000004,6387232
0,2,0.0,840.0,801.0,0.75,0.40000004,6387233
0,2,0.0,853.0,775.0,0.7375,0.40000004,6387260
0,2,0.0,867.0,753.0,0.725,0.40000004,6387260
0,2,0.0,882.0,731.0,0.71250004,0.40000004,6387261
0,2,0.0,897.0,707.0,0.6875,0.40000004,6387261
0,1,0.0,897.0,707.0,0.6875,0.40000004,6387279
0,0,0.0,728.0,1311.0,0.6625,0.40000004,6387665
0,2,0.0,728.0,1309.0,0.675,0.40000004,6387681
0,2,0.0,729.0,1284.0,0.675,0.40000004,6387681
0,2,0.0,731.0,1263.0,0.6875,0.40000004,6387682
0,2,0.0,734.0,1236.0,0.6875,0.40000004,6387682
0,2,0.0,738.0,1205.0,0.6875,0.40000004,6387701
0,2,0.0,742.0,1173.0,0.6875,0.40000004,6387702
0,2,0.0,747.0,1137.0,0.6875,0.40000004,6387722
0,2,0.0,753.0,1102.0,0.6875,0.40000004,6387723
0,2,0.0,760.0,1065.0,0.6875,0.40000004,6387747
0,2,0.0,767.0,1034.0,0.6875,0.40000004,6387748
0,2,0.0,774.0,1003.0,0.71250004,0.40000004,6387770
0,2,0.0,780.0,976.0,0.71250004,0.40000004,6387771
0,2,0.0,786.0,951.0,0.725,0.40000004,6387771
0,2,0.0,794.0,927.0,0.725,0.40000004,6387772
0,2,0.0,802.0,904.0,0.725,0.40000004,6387793
0,2,0.0,812.0,881.0,0.725,0.40000004,6387799
0,2,0.0,825.0,854.0,0.725,0.40000004,6387850
0,2,0.0,840.0,827.0,0.71250004,0.40000004,6387851
0,2,0.0,859.0,795.0,0.675,0.40000004,6387851
0,1,0.0,859.0,795.0,0.675,0.40000004,6387853
0,0,0.0,713.0,1411.0,0.675,0.40000004,6388260
0,2,0.0,713.0,1404.0,0.6875,0.40000004,6388276
0,2,0.0,714.0,1370.0,0.6875,0.40000004,6388276
0,2,0.0,715.0,1343.0,0.7,0.40000004,6388277
0,2,0.0,717.0,1313.0,0.725,0.40000004,6388277
0,2,0.0,720.0,1281.0,0.725,0.40000004,6388295
0,2,0.0,724.0,1252.0,0.725,0.40000004,6388296
0,2,0.0,728.0,1219.0,0.7375,0.40000004,6388319
0,2,0.0,732.0,1190.0,0.7375,0.40000004,6388319
0,2,0.0,736.0,1157.0,0.7375,0.40000004,6388339
0,2,0.0,741.0,1124.0,0.7375,0.40000004,6388340
0,2,0.0,746.0,1089.0,0.7375,0.40000004,6388362
0,2,0.0,753.0,1054.0,0.7375,0.40000004,6388362
0,2,0.0,761.0,1019.0,0.7375,0.40000004,6388363
0,2,0.0,770.0,985.0,0.7375,0.40000004,6388364
0,2,0.0,779.0,953.0,0.7375,0.40000004,6388386
0,2,0.0,788.0,923.0,0.7375,0.40000004,6388390
0,2,0.0,797.0,897.0,0.7375,0.40000004,6388415
0,2,0.0,806.0,874.0,0.7375,0.40000004,6388418
0,2,0.0,816.0,853.0,0.7375,0.40000004,6388419
0,2,0.0,826.0,833.0,0.7375,0.40000004,6388419
0,2,0.0,836.0,815.0,0.71250004,0.40000004,6388443
0,2,0.0,847.0,796.0,0.6875,0.40000004,6388443
0,1,0.0,847.0,796.0,0.6875,0.40000004,6388462
0,0,0.0,715.0,1310.0,0.7,0.40000004,6388856
0,2,0.0,715.0,1303.0,0.7,0.40000004,6388871
0,2,0.0,717.0,1278.0,0.71250004,0.40000004,6388871
0,2,0.0,718.0,1259.0,0.71250004,0.40000004,6388872
0,2,0.0,720.0,1236.0,0.71250004,0.40000004,6388872
0,2,0.0,724.0,1207.0,0.725,0.40000004,6388893
0,2,0.0,729.0,1179.0,0.75,0.40000004,6388899
0,2,0.0,734.0,1146.0,0.75,0.40000004,6388920
0,2,0.0,740.0,1115.0,0.75,0.40000004,6388920
0,2,0.0,747.0,1083.0,0.75,0.40000004,6388941
0,2,0.0,754.0,1052.0,0.75,0.40000004,6388941
0,2,0.0,763.0,1020.0,0.75,0.40000004,6388942
0,2,0.0,773.0,988.0,0.75,0.40000004,6388943
0,2,0.0,783.0,957.0,0.75,0.40000004,6388971
0,2,0.0,794.0,929.0,0.75,0.40000004,6388972
0,2,0.0,807.0,901.0,0.75,0.40000004,6388975
0,2,0.0,822.0,873.0,0.7375,0.40000004,6388976
0,2,0.0,837.0,845.0,0.725,0.40000004,6389000
0,2,0.0,852.0,819.0,0.71250004,0.40000004,6389001
0,2,0.0,868.0,792.0,0.6875,0.40000004,6389021
0,1,0.0,868.0,792.0,0.6875,0.40000004,6389021
0,0,0.0,711.0,1299.0,0.7375,0.4666667,6389416
0,2,0.0,711.0,1298.0,0.75,0.4666667,6389431
0,2,0.0,712.0,1283.0,0.75,0.4666667,6389432
0,2,0.0,718.0,1243.0,0.7625,0.4666667,6389432
0,2,0.0,722.0,1216.0,0.7625,0.4666667,6389433
0,2,0.0,727.0,1189.0,0.7625,0.4666667,6389434
0,2,0.0,732.0,1159.0,0.7875,0.4666667,6389455
0,2,0.0,737.0,1128.0,0.7875,0.4666667,6389455
0,2,0.0,742.0,1099.0,0.7875,0.4666667,6389476
0,2,0.0,747.0,1072.0,0.8,0.4666667,6389476
0,2,0.0,753.0,1043.0,0.8,0.4666667,6389499
0,2,0.0,760.0,1014.0,0.8,0.4666667,6389500
0,2,0.0,770.0,983.0,0.8,0.4666667,6389500
0,2,0.0,783.0,952.0,0.8,0.4666667,6389502
0,2,0.0,797.0,922.0,0.8,0.4666667,6389537
0,2,0.0,812.0,890.0,0.7875,0.4666667,6389538
0,2,0.0,827.0,861.0,0.7875,0.4666667,6389538
0,2,0.0,842.0,831.0,0.77500004,0.4666667,6389547
0,2,0.0,859.0,801.0,0.75,0.4666667,6389581
0,2,0.0,875.0,774.0,0.7375,0.4666667,6389582
0,2,0.0,890.0,748.0,0.725,0.40000004,6389583
0,1,0.0,890.0,748.0,0.725,0.40000004,6389584
0,0,0.0,718.0,1266.0,0.71250004,0.40000004,6390010
0,2,0.0,720.0,1253.0,0.725,0.40000004,6390026
0,2,0.0,727.0,1212.0,0.7375,0.40000004,6390027
0,2,0.0,732.0,1185.0,0.7375,0.40000004,6390028
0,2,0.0,738.0,1152.0,0.7625,0.40000004,6390028
0,2,0.0,745.0,1118.0,0.7625,0.40000004,6390050
0,2,0.0,753.0,1080.0,0.7625,0.40000004,6390051
0,2,0.0,761.0,1045.0,0.7625,0.40000004,6390094
0,2,0.0,771.0,1013.0,0.7625,0.40000004,6390095
0,2,0.0,780.0,985.0,0.7625,0.40000004,6390095
0,2,0.0,790.0,958.0,0.77500004,0.40000004,6390096
0,2,0.0,798.0,936.0,0.77500004,0.40000004,6390096
0,2,0.0,806.0,916.0,0.77500004,0.4666667,6390097
0,2,0.0,814.0,897.0,0.77500004,0.4666667,6390124
0,2,0.0,824.0,876.0,0.77500004,0.4666667,6390125
0,2,0.0,834.0,857.0,0.77500004,0.4666667,6390156
0,2,0.0,846.0,836.0,0.7625,0.4666667,6390157
0,2,0.0,861.0,814.0,0.7375,0.4666667,6390157
0,2,0.0,878.0,789.0,0.7,0.40000004,6390157
0,1,0.0,878.0,789.0,0.7,0.40000004,6390173
0,0,0.0,717.0,1271.0,0.6875,0.40000004,6390554
0,2,0.0,717.0,1269.0,0.6875,0.40000004,6390570
0,2,0.0,718.0,1247.0,0.6875,0.40000004,6390570
0,2,0.0,721.0,1224.0,0.6875,0.40000004,6390570
0,2,0.0,726.0,1196.0,0.7,0.40000004,6390571
0,2,0.0,732.0,1167.0,0.7,0.40000004,6390593
0,2,0.0,738.0,1135.0,0.71250004,0.40000004,6390594
0,2,0.0,744.0,1108.0,0.71250004,0.40000004,6390615
0,2,0.0,751.0,1079.0,0.7375,0.40000004,6390616
0,2,0.0,758.0,1052.0,0.7375,0.40000004,6390641
0,2,0.0,767.0,1027.0,0.7375,0.40000004,6390641
0,2,0.0,776.0,1000.0,0.7375,0.40000004,6390642
0,2,0.0,787.0,972.0,0.7375,0.40000004,6390643
0,2,0.0,801.0,940.0,0.7375,0.40000004,6390674
0,2,0.0,818.0,907.0,0.7375,0.40000004,6390675
0,2,0.0,834.0,877.0,0.71250004,0.40000004,6390676
0,2,0.0,852.0,844.0,0.7,0.40000004,6390676
0,2,0.0,868.0,815.0,0.675,0.40000004,6390703
0,1,0.0,868.0,815.0,0.675,0.40000004,6390704
0,0,0.0,714.0,1293.0,0.6875,0.40000004,6391148
0,2,0.0,715.0,1280.0,0.7,0.40000004,6391164
0,2,0.0,721.0,1233.0,0.71250004,0.40000004,6391164
0,2,0.0,728.0,1203.0,0.7375,0.40000004,6391165
0,2,0.0,734.0,1175.0,0.7375,0.40000004,6391165
0,2,0.0,741.0,1144.0,0.75,0.40000004,6391187
0,2,0.0,747.0,1117.0,0.75,0.40000004,6391188
0,2,0.0,755.0,1088.0,0.75,0.40000004,6391219
0,2,0.0,765.0,1058.0,0.75,0.40000004,6391220
0,2,0.0,777.0,1026.0,0.77500004,0.40000004,6391221
0,2,0.0,790.0,995.0,0.77500004,0.40000004,6391221
0,2,0.0,804.0,961.0,0.77500004,0.40000004,6391243
0,2,0.0,818.0,931.0,0.77500004,0.40000004,6391243
0,2,0.0,832.0,900.0,0.77500004,0.40000004,6391266
0,2,0.0,845.0,874.0,0.77500004,0.40000004,6391267
0,2,0.0,858.0,851.0,0.77500004,0.40000004,6391272
0,2,0.0,871.0,827.0,0.7625,0.40000004,6391273
0,2,0.0,884.0,805.0,0.7625,0.40000004,6391301
0,2,0.0,896.0,787.0,0.75,0.40000004,6391302
0,2,0.0,908.0,769.0,0.7375,0.40000004,6391303
0,2,0.0,919.0,753.0,0.71250004,0.40000004,6391305
0,1,0.0,919.0,753.0,0.71250004,0.40000004,6391324
0,0,0.0,721.0,1373.0,0.7,0.40000004,6391675
0,2,0.0,721.0,1372.0,0.7,0.40000004,6391690
0,2,0.0,722.0,1360.0,0.71250004,0.40000004,6391691
0,2,0.0,726.0,1320.0,0.71250004,0.40000004,6391691
0,2,0.0,730.0,1290.0,0.725,0.40000004,6391692
0,2,0.0,734.0,1263.0,0.75,0.40000004,6391693
0,2,0.0,739.0,1233.0,0.75,0.40000004,6391715
0,2,0.0,744.0,1203.0,0.75,0.40000004,6391716
0,2,0.0,749.0,1174.0,0.75,0.40000004,6391745
0,2,0.0,755.0,1143.0,0.75,0.40000004,6391745
0,2,0.0,761.0,1114.0,0.75,0.40000004,6391747
0,2,0.0,770.0,1080.0,0.75,0.40000004,6391747
0,2,0.0,780.0,1045.0,0.75,0.40000004,6391768
0,2,0.0,792.0,1009.0,0.75,0.40000004,6391768
0,2,0.0,805.0,973.0,0.75,0.40000004,6391833
0,2,0.0,818.0,940.0,0.75,0.40000004,6391833
0,2,0.0,831.0,909.0,0.75,0.40000004,6391835
0,2,0.0,843.0,882.0,0.75,0.40000004,6391835
0,2,0.0,854.0,857.0,0.75,0.40000004,6391836
0,2,0.0,866.0,833.0,0.7375,0.40000004,6391837
0,2,0.0,879.0,813.0,0.725,0.40000004,6391838
0,2,0.0,893.0,792.0,0.7,0.40000004,6391838
0,2,0.0,908.0,770.0,0.675,0.40000004,6391860
0,1,0.0,908.0,770.0,0.675,0.40000004,6391860
0,0,0.0,722.0,1295.0,0.7375,0.4666667,6392267
0,2,0.0,722.0,1293.0,0.7375,0.4666667,6392283
0,2,0.0,725.0,1275.0,0.75,0.4666667,6392284
0,2,0.0,732.0,1235.0,0.7875,0.4666667,6392284
0,2,0.0,737.0,1209.0,0.7875,0.4666667,6392285
0,2,0.0,742.0,1184.0,0.7875,0.4666667,6392285
0,2,0.0,747.0,1157.0,0.7875,0.4666667,6392304
0,2,0.0,752.0,1129.0,0.7875,0.4666667,6392305
0,2,0.0,758.0,1101.0,0.7875,0.4666667,6392326
0,2,0.0,766.0,1073.0,0.7875,0.4666667,6392326
0,2,0.0,776.0,1042.0,0.7875,0.4666667,6392349
0,2,0.0,786.0,1015.0,0.7875,0.4666667,6392351
0,2,0.0,796.0,990.0,0.7875,0.4666667,6392379
0,2,0.0,805.0,964.0,0.7875,0.4666667,6392379
0,2,0.0,813.0,943.0,0.7875,0.4666667,6392380
0,2,0.0,821.0,924.0,0.7875,0.4666667,6392380
0,2,0.0,831.0,903.0,0.7875,0.4666667,6392405
0,2,0.0,842.0,881.0,0.7875,0.4666667,6392405
0,2,0.0,854.0,860.0,0.7875,0.4666667,6392405
0,2,0.0,867.0,840.0,0.7875,0.4666667,6392406
0,2,0.0,882.0,817.0,0.77500004,0.4666667,6392428
0,2,0.0,896.0,796.0,0.7625,0.4666667,6392428
0,2,0.0,911.0,773.0,0.7375,0.4666667,6392451
0,2,0.0,925.0,753.0,0.71250004,0.40000004,6392452
0,1,0.0,925.0,753.0,0.71250004,0.40000004,6392453
0,0,0.0,722.0,1354.0,0.7,0.40000004,6392928
0,2,0.0,722.0,1353.0,0.71250004,0.40000004,6392945
0,2,0.0,724.0,1337.0,0.725,0.40000004,6392945
0,2,0.0,730.0,1301.0,0.75,0.40000004,6392946
0,2,0.0,734.0,1277.0,0.75,0.40000004,6392946
0,2,0.0,738.0,1253.0,0.75,0.40000004,6392947
0,2,0.0,742.0,1225.0,0.75,0.40000004,6392971
0,2,0.0,746.0,1196.0,0.75,0.40000004,6392976
0,2,0.0,751.0,1167.0,0.75,0.40000004,6393008
0,2,0.0,757.0,1137.0,0.75,0.40000004,6393009
0,2,0.0,764.0,1110.0,0.75,0.40000004,6393009
0,2,0.0,772.0,1082.0,0.75,0.40000004,6393010
0,2,0.0,780.0,1055.0,0.75,0.40000004,6393031
0,2,0.0,788.0,1031.0,0.75,0.40000004,6393031
0,2,0.0,796.0,1007.0,0.75,0.40000004,6393032
0,2,0.0,805.0,984.0,0.75,0.40000004,6393032
0,2,0.0,814.0,960.0,0.75,0.40000004,6393051
0,2,0.0,825.0,935.0,0.75,0.40000004,6393051
0,2,0.0,836.0,909.0,0.75,0.40000004,6393079
0,2,0.0,848.0,885.0,0.7375,0.40000004,6393080
0,2,0.0,862.0,858.0,0.725,0.40000004,6393101
0,2,0.0,875.0,834.0,0.7,0.40000004,6393102
0,2,0.0,886.0,811.0,0.6875,0.40000004,6393103
0,1,0.0,886.0,811.0,0.6875,0.40000004,6393104
0,0,0.0,706.0,1331.0,0.675,0.40000004,6393557
0,2,0.0,706.0,1329.0,0.675,0.40000004,6393574
0,2,0.0,706.0,1315.0,0.6875,0.40000004,6393574
0,2,0.0,709.0,1277.0,0.6875,0.40000004,6393575
0,2,0.0,712.0,1254.0,0.7,0.40000004,6393576
0,2,0.0,716.0,1228.0,0.7,0.40000004,6393576
0,2,0.0,721.0,1200.0,0.7,0.40000004,6393621
0,2,0.0,727.0,1173.0,0.7,0.40000004,6393623
0,2,0.0,733.0,1144.0,0.725,0.40000004,6393630
0,2,0.0,739.0,1119.0,0.725,0.40000004,6393631
0,2,0.0,746.0,1094.0,0.725,0.40000004,6393661
0,2,0.0,753.0,1069.0,0.7375,0.40000004,6393662
0,2,0.0,760.0,1044.0,0.7375,0.40000004,6393679
0,2,0.0,768.0,1021.0,0.7375,0.40000004,6393680
0,2,0.0,777.0,998.0,0.7375,0.40000004,6393680
0,2,0.0,787.0,975.0,0.7375,0.40000004,6393681
0,2,0.0,797.0,951.0,0.7375,0.40000004,6393703
0,2,0.0,808.0,929.0,0.7375,0.40000004,6393703
0,2,0.0,820.0,906.0,0.7375,0.40000004,6393704
0,2,0.0,831.0,886.0,0.7375,0.40000004,6393704
0,2,0.0,841.0,866.0,0.725,0.40000004,6393724
0,2,0.0,851.0,847.0,0.725,0.40000004,6393724
0,2,0.0,861.0,830.0,0.71250004,0.40000004,6393746
0,2,0.0,870.0,815.0,0.7,0.40000004,6393746
0,2,0.0,879.0,801.0,0.6875,0.40000004,6393746
0,2,0.0,888.0,787.0,0.6625,0.40000004,6393747
0,1,0.0,888.0,787.0,0.6625,0.40000004,6393772
0,0,0.0,718.0,1392.0,0.6375,0.33333334,6394154
0,2,0.0,718.0,1391.0,0.6375,0.33333334,6394169
0,2,0.0,718.0,1385.0,0.6625,0.33333334,6394169
0,2,0.0,719.0,1366.0,0.6875,0.33333334,6394170
0,2,0.0,720.0,1347.0,0.6875,0.33333334,6394171
0,2,0.0,723.0,1325.0,0.7,0.40000004,6394171
0,2,0.0,726.0,1298.0,0.7,0.40000004,6394189
0,2,0.0,731.0,1269.0,0.725,0.40000004,6394189
0,2,0.0,736.0,1237.0,0.725,0.40000004,6394213
0,2,0.0,741.0,1203.0,0.725,0.40000004,6394214
0,2,0.0,747.0,1171.0,0.725,0.40000004,6394237
0,2,0.0,753.0,1137.0,0.725,0.40000004,6394238
0,2,0.0,760.0,1108.0,0.725,0.40000004,6394238
0,2,0.0,768.0,1080.0,0.7375,0.40000004,6394239
0,2,0.0,776.0,1055.0,0.7375,0.40000004,6394261
0,2,0.0,784.0,1034.0,0.7375,0.40000004,6394262
0,2,0.0,792.0,1013.0,0.7375,0.40000004,6394294
0,2,0.0,800.0,993.0,0.7625,0.40000004,6394295
0,2,0.0,809.0,972.0,0.7625,0.40000004,6394295
0,2,0.0,820.0,950.0,0.75,0.40000004,6394296
0,2,0.0,832.0,927.0,0.7375,0.40000004,6394323
0,2,0.0,846.0,901.0,0.725,0.40000004,6394323
0,2,0.0,862.0,874.0,0.6875,0.40000004,6394324
0,2,0.0,877.0,845.0,0.675,0.40000004,6394325
0,1,0.0,877.0,845.0,0.675,0.40000004,6394348
0,0,0.0,718.0,1408.0,0.675,0.40000004,6394747
0,2,0.0,718.0,1407.0,0.6875,0.40000004,6394763
0,2,0.0,719.0,1399.0,0.725,0.40000004,6394764
0,2,0.0,723.0,1379.0,0.725,0.40000004,6394764
0,2,0.0,726.0,1359.0,0.725,0.40000004,6394765
0,2,0.0,729.0,1335.0,0.725,0.40000004,6394766
0,2,0.0,733.0,1304.0,0.7375,0.40000004,6394785
0,2,0.0,738.0,1270.0,0.7375,0.40000004,6394792
0,2,0.0,743.0,1236.0,0.7625,0.40000004,6394828
0,2,0.0,748.0,1201.0,0.7625,0.40000004,6394829
0,2,0.0,754.0,1168.0,0.7625,0.40000004,6394829
0,2,0.0,761.0,1134.0,0.7625,0.40000004,6394831
0,2,0.0,769.0,1104.0,0.7625,0.40000004,6394852
0,2,0.0,779.0,1075.0,0.7625,0.40000004,6394853
0,2,0.0,790.0,1045.0,0.7625,0.40000004,6394854
0,2,0.0,800.0,1018.0,0.7625,0.40000004,6394855
0,2,0.0,809.0,993.0,0.7625,0.40000004,6394874
0,2,0.0,820.0,967.0,0.7625,0.40000004,6394875
0,2,0.0,832.0,942.0,0.7625,0.40000004,6394906
0,2,0.0,844.0,916.0,0.7625,0.40000004,6394907
0,2,0.0,856.0,893.0,0.7625,0.40000004,6394908
0,2,0.0,868.0,870.0,0.75,0.40000004,6394909
0,2,0.0,878.0,852.0,0.75,0.40000004,6394934
0,2,0.0,888.0,834.0,0.7375,0.40000004,6394935
0,2,0.0,897.0,819.0,0.725,0.40000004,6394936
0,2,0.0,905.0,805.0,0.71250004,0.40000004,6394937
0,1,0.0,905.0,805.0,0.71250004,0.40000004,6394954
0,0,0.0,739.0,1403.0,0.71250004,0.4666667,6395358
0,2,0.0,739.0,1399.0,0.725,0.4666667,6395375
0,2,0.0,739.0,1377.0,0.7625,0.4666667,6395375
0,2,0.0,740.0,1355.0,0.7625,0.4666667,6395376
0,2,0.0,741.0,1331.0,0.7625,0.4666667,6395377
0,2,0.0,743.0,1304.0,0.77500004,0.4666667,6395399
0,2,0.0,745.0,1274.0,0.77500004,0.4666667,6395399
0,2,0.0,748.0,1244.0,0.8,0.4666667,6395451
0,2,0.0,752.0,1214.0,0.8,0.4666667,6395451
0,2,0.0,757.0,1181.0,0.8,0.4666667,6395452
0,2,0.0,762.0,1150.0,0.8,0.4666667,6395452
0,2,0.0,769.0,1118.0,0.8,0.4666667,6395481
0,2,0.0,779.0,1086.0,0.8,0.4666667,6395482
0,2,0.0,789.0,1057.0,0.8,0.4666667,6395483
0,2,0.0,799.0,1028.0,0.8,0.4666667,6395483
0,2,0.0,808.0,1002.0,0.8,0.4666667,6395483
0,2,0.0,817.0,977.0,0.8,0.4666667,6395484
0,2,0.0,828.0,951.0,0.7875,0.4666667,6395511
0,2,0.0,838.0,928.0,0.7875,0.4666667,6395512
0,2,0.0,849.0,905.0,0.77500004,0.4666667,6395512
0,2,0.0,859.0,884.0,0.7625,0.4666667,6395512
0,2,0.0,870.0,865.0,0.75,0.4666667,6395538
0,2,0.0,881.0,846.0,0.725,0.4666667,6395539
0,2,0.0,890.0,830.0,0.6875,0.40000004,6395562
0,1,0.0,890.0,830.0,0.6875,0.40000004,6395563
0,0,0.0,726.0,1429.0,0.675,0.40000004,6395952
0,2,0.0,726.0,1428.0,0.6875,0.40000004,6395969
0,2,0.0,727.0,1415.0,0.7,0.40000004,6395969
0,2,0.0,732.0,1376.0,0.725,0.40000004,6395970
0,2,0.0,735.0,1348.0,0.7375,0.40000004,6395970
0,2,0.0,739.0,1318.0,0.7625,0.40000004,6395971
0,2,0.0,743.0,1285.0,0.7625,0.40000004,6395998
0,2,0.0,747.0,1256.0,0.7625,0.40000004,6395998
0,2,0.0,752.0,1224.0,0.7625,0.40000004,6396029
0,2,0.0,757.0,1193.0,0.7625,0.40000004,6396030
0,2,0.0,764.0,1162.0,0.7625,0.40000004,6396030
0,2,0.0,772.0,1131.0,0.7625,0.40000004,6396031
0,2,0.0,783.0,1100.0,0.7625,0.40000004,6396054
0,2,0.0,793.0,1072.0,0.7625,0.40000004,6396055
0,2,0.0,803.0,1044.0,0.77500004,0.4666667,6396055
0,2,0.0,812.0,1018.0,0.77500004,0.4666667,6396056
0,2,0.0,820.0,997.0,0.77500004,0.4666667,6396078
0,2,0.0,829.0,975.0,0.77500004,0.4666667,6396078
0,2,0.0,839.0,953.0,0.77500004,0.4666667,6396103
0,2,0.0,848.0,934.0,0.77500004,0.4666667,6396103
0,2,0.0,858.0,914.0,0.77500004,0.4666667,6396127
0,2,0.0,868.0,895.0,0.7625,0.4666667,6396127
0,2,0.0,879.0,877.0,0.75,0.4666667,6396128
0,2,0.0,890.0,859.0,0.725,0.4666667,6396128
0,1,0.0,890.0,859.0,0.725,0.4666667,6396149
0,0,0.0,731.0,1498.0,0.6875,0.40000004,6396513
0,2,0.0,731.0,1494.0,0.7,0.40000004,6396529
0,2,0.0,731.0,1477.0,0.7375,0.40000004,6396529
0,2,0.0,733.0,1439.0,0.7375,0.40000004,6396529
0,2,0.0,735.0,1412.0,0.7375,0.40000004,6396530
0,2,0.0,737.0,1382.0,0.75,0.40000004,6396531
0,2,0.0,741.0,1348.0,0.75,0.40000004,6396554
0,2,0.0,744.0,1315.0,0.75,0.40000004,6396555
0,2,0.0,748.0,1278.0,0.75,0.40000004,6396582
0,2,0.0,752.0,1242.0,0.75,0.40000004,6396582
0,2,0.0,758.0,1203.0,0.75,0.40000004,6396583
0,2,0.0,765.0,1167.0,0.77500004,0.40000004,6396584
0,2,0.0,773.0,1134.0,0.77500004,0.40000004,6396607
0,2,0.0,784.0,1102.0,0.77500004,0.40000004,6396608
0,2,0.0,793.0,1076.0,0.77500004,0.4666667,6396633
0,2,0.0,802.0,1049.0,0.77500004,0.4666667,6396633
0,2,0.0,811.0,1023.0,0.77500004,0.4666667,6396634
0,2,0.0,820.0,1000.0,0.77500004,0.4666667,6396635
0,2,0.0,832.0,976.0,0.77500004,0.4666667,6396656
0,2,0.0,843.0,953.0,0.7625,0.4666667,6396657
0,2,0.0,855.0,931.0,0.75,0.4666667,6396682
0,2,0.0,867.0,908.0,0.7375,0.4666667,6396683
0,2,0.0,878.0,889.0,0.71250004,0.40000004,6396684
0,2,0.0,888.0,870.0,0.7,0.40000004,6396685
0,1,0.0,888.0,870.0,0.7,0.40000004,6396729
0,0,0.0,730.0,1368.0,0.7,0.40000004,6397091
0,2,0.0,730.0,1362.0,0.71250004,0.40000004,6397107
0,2,0.0,733.0,1332.0,0.725,0.40000004,6397107
0,2,0.0,737.0,1308.0,0.75,0.40000004,6397108
0,2,0.0,741.0,1280.0,0.75,0.40000004,6397108
0,2,0.0,746.0,1250.0,0.75,0.40000004,6397127
0,2,0.0,751.0,1218.0,0.7625,0.40000004,6397128
0,2,0.0,756.0,1190.0,0.7625,0.40000004,6397160
0,2,0.0,763.0,1161.0,0.7875,0.4666667,6397160
0,2,0.0,771.0,1132.0,0.7875,0.4666667,6397161
0,2,0.0,781.0,1103.0,0.7875,0.4666667,6397161
0,2,0.0,791.0,1077.0,0.7875,0.4666667,6397183
0,2,0.0,801.0,1049.0,0.7875,0.4666667,6397183
0,2,0.0,811.0,1021.0,0.7875,0.4666667,6397207
0,2,0.0,821.0,996.0,0.7875,0.4666667,6397207
0,2,0.0,834.0,968.0,0.7875,0.4666667,6397226
0,2,0.0,846.0,943.0,0.7875,0.4666667,6397227
0,2,0.0,858.0,919.0,0.7875,0.4666667,6397227
0,2,0.0,870.0,895.0,0.77500004,0.4666667,6397228
0,2,0.0,881.0,874.0,0.77500004,0.4666667,6397255
0,2,0.0,892.0,855.0,0.7625,0.4666667,6397255
0,2,0.0,902.0,837.0,0.75,0.4666667,6397280
0,2,0.0,911.0,821.0,0.7375,0.4666667,6397281
0,2,0.0,920.0,806.0,0.71250004,0.40000004,6397281
0,2,0.0,929.0,792.0,0.6875,0.40000004,6397282
0,1,0.0,929.0,792.0,0.6875,0.40000004,6397302
0,0,0.0,741.0,1366.0,0.7,0.40000004,6397684
0,2,0.0,741.0,1364.0,0.7,0.40000004,6397700
0,2,0.0,742.0,1340.0,0.71250004,0.40000004,6397700
0,2,0.0,744.0,1319.0,0.75,0.40000004,6397701
0,2,0.0,746.0,1289.0,0.75,0.40000004,6397701
0,2,0.0,749.0,1261.0,0.75,0.40000004,6397719
0,2,0.0,753.0,1229.0,0.75,0.40000004,6397719
0,2,0.0,757.0,1197.0,0.75,0.40000004,6397743
0,2,0.0,764.0,1162.0,0.75,0.40000004,6397743
0,2,0.0,773.0,1128.0,0.75,0.40000004,6397766
0,2,0.0,784.0,1092.0,0.75,0.40000004,6397767
0,2,0.0,796.0,1057.0,0.75,0.40000004,6397787
0,2,0.0,808.0,1022.0,0.75,0.40000004,6397788
0,2,0.0,820.0,990.0,0.75,0.40000004,6397789
0,2,0.0,832.0,961.0,0.75,0.40000004,6397789
0,2,0.0,844.0,931.0,0.75,0.40000004,6397812
0,2,0.0,856.0,905.0,0.725,0.40000004,6397813
0,2,0.0,868.0,881.0,0.7,0.40000004,6397833
0,2,0.0,880.0,856.0,0.675,0.40000004,6397834
0,1,0.0,880.0,856.0,0.675,0.40000004,6397853
0,0,0.0,736.0,1363.0,0.7,0.40000004,6398245
0,2,0.0,736.0,1361.0,0.7,0.40000004,6398261
0,2,0.0,737.0,1340.0,0.7,0.40000004,6398261
0,2,0.0,741.0,1293.0,0.71250004,0.40000004,6398262
0,2,0.0,744.0,1264.0,0.71250004,0.40000004,6398262
0,2,0.0,747.0,1230.0,0.71250004,0.40000004,6398263
0,2,0.0,753.0,1196.0,0.75,0.40000004,6398283
0,2,0.0,760.0,1159.0,0.75,0.40000004,6398283
0,2,0.0,768.0,1125.0,0.75,0.40000004,6398310
0,2,0.0,777.0,1094.0,0.7625,0.40000004,6398312
0,2,0.0,785.0,1067.0,0.7625,0.40000004,6398333
0,2,0.0,793.0,1041.0,0.7625,0.4666667,6398334
0,2,0.0,801.0,1017.0,0.7625,0.4666667,6398335
0,2,0.0,809.0,995.0,0.7625,0.4666667,6398336
0,2,0.0,817.0,973.0,0.7625,0.4666667,6398386
0,2,0.0,827.0,950.0,0.7625,0.4666667,6398387
0,2,0.0,839.0,926.0,0.75,0.4666667,6398387
0,2,0.0,851.0,902.0,0.7375,0.4666667,6398388
0,2,0.0,864.0,876.0,0.7,0.40000004,6398389
0,1,0.0,864.0,876.0,0.7,0.40000004,6398389
0,0,0.0,733.0,1386.0,0.7,0.40000004,6398806
0,2,0.0,733.0,1384.0,0.71250004,0.40000004,6398821
0,2,0.0,736.0,1363.0,0.75,0.40000004,6398822
0,2,0.0,742.0,1315.0,0.75,0.40000004,6398823
0,2,0.0,745.0,1284.0,0.7625,0.4666667,6398823
0,2,0.0,748.0,1257.0,0.7875,0.4666667,6398824
0,2,0.0,752.0,1227.0,0.7875,0.4666667,6398846
0,2,0.0,756.0,1199.0,0.7875,0.4666667,6398846
0,2,0.0,761.0,1171.0,0.7875,0.4666667,6398889
0,2,0.0,767.0,1145.0,0.7875,0.4666667,6398890
0,2,0.0,776.0,1116.0,0.7875,0.4666667,6398890
0,2,0.0,785.0,1089.0,0.825,0.4666667,6398890
0,2,0.0,794.0,1064.0,0.825,0.4666667,6398891
0,2,0.0,803.0,1035.0,0.825,0.4666667,6398891
0,2,0.0,812.0,1009.0,0.825,0.4666667,6398913
0,2,0.0,822.0,983.0,0.825,0.4666667,6398914
0,2,0.0,834.0,954.0,0.825,0.4666667,6398942
0,2,0.0,846.0,930.0,0.825,0.4666667,6398943
0,2,0.0,857.0,906.0,0.8125,0.4666667,6398943
0,2,0.0,869.0,881.0,0.8125,0.4666667,6398944
0,2,0.0,879.0,862.0,0.8,0.4666667,6398973
0,2,0.0,889.0,846.0,0.7875,0.4666667,6398973
0,2,0.0,898.0,830.0,0.7625,0.4666667,6398991
0,2,0.0,906.0,817.0,0.7375,0.4666667,6398992
0,1,0.0,906.0,817.0,0.7375,0.4666667,6398993
0,0,0.0,736.0,1463.0,0.675,0.40000004,6399348
0,2,0.0,736.0,1462.0,0.6875,0.40000004,6399364
0,2,0.0,736.0,1456.0,0.725,0.40000004,6399364
0,2,0.0,737.0,1437.0,0.725,0.40000004,6399365
0,2,0.0,738.0,1418.0,0.725,0.40000004,6399365
0,2,0.0,739.0,1398.0,0.7625,0.40000004,6399366
0,2,0.0,740.0,1374.0,0.7625,0.40000004,6399385
0,2,0.0,742.0,1348.0,0.77500004,0.4666667,6399385
0,2,0.0,744.0,1323.0,0.77500004,0.4666667,6399407
0,2,0.0,747.0,1296.0,0.8,0.4666667,6399407
0,2,0.0,751.0,1267.0,0.8,0.4666667,6399438
0,2,0.0,756.0,1237.0,0.8,0.4666667,6399439
0,2,0.0,762.0,1205.0,0.8,0.4666667,6399439
0,2,0.0,770.0,1172.0,0.8,0.4666667,6399440
0,2,0.0,780.0,1142.0,0.8,0.4666667,6399466
0,2,0.0,791.0,1110.0,0.8,0.4666667,6399467
0,2,0.0,800.0,1083.0,0.8,0.4666667,6399467
0,2,0.0,808.0,1059.0,0.8,0.4666667,6399467
0,2,0.0,816.0,1035.0,0.8,0.4666667,6399498
0,2,0.0,823.0,1014.0,0.8,0.4666667,6399499
0,2,0.0,832.0,994.0,0.8,0.4666667,6399518
0,2,0.0,841.0,973.0,0.7875,0.4666667,6399519
0,2,0.0,851.0,951.0,0.77500004,0.4666667,6399519
0,2,0.0,863.0,928.0,0.7625,0.4666667,6399520
0,2,0.0,878.0,904.0,0.7375,0.4666667,6399539
0,2,0.0,892.0,881.0,0.71250004,0.40000004,6399540
0,1,0.0,892.0,881.0,0.71250004,0.40000004,6399557
0,0,0.0,758.0,1427.0,0.71250004,0.4666667,6399997
0,2,0.0,757.0,1419.0,0.71250004,0.4666667,6400010
0,2,0.0,757.0,1383.0,0.7375,0.4666667,6400010
0,2,0.0,758.0,1353.0,0.7625,0.4666667,6400011
0,2,0.0,759.0,1324.0,0.7625,0.4666667,6400011
