529.67303,1566.43,433.066,94.94098,1474.6569,364
516.34796,1719.0437,249.84578,296.20444,1447.5824,479
687.57556,1582.4244,309.14252,328.85974,1309.4412,346
868.79706,1645.7358,311.80753,326.86044,1431.6667,277
846.14435,1717.0443,223.86182,336.857,1513.9856,264
864.7995,1697.0513,241.18446,400.83478,1438.4272,291
872.7946,1645.7358,183.88649,173.58035,1625.3727,306
877.4584,1711.0464,200.54288,226.89517,1631.2325,293
835.4843,1761.029,231.85689,174.24678,1697.7173,355
389.09317,1306.5203,282.4923,237.55814,1074.2643,268
584.30597,1413.1499,346.45282,296.20444,1141.99,317
612.2887,1313.8511,430.401,210.90073,1117.8473,297
483.0352,1467.7976,250.51204,376.84308,1115.4591,269
685.57684,1379.1617,453.71994,267.54773,1135.5366,289
505.0216,1298.5231,294.4849,268.21414,1051.5999,256
790.84515,1290.5258,468.37756,327.5269,1015.5551,270
630.27765,1292.5251,295.15115,324.86115,1024.0525,256
676.9155,1233.8788,377.7668,265.5484,1013.4859,281
708.89575,1189.2277,463.71378,220.89725,998.8884,273
631.6101,1295.8573,273.16473,310.1996,1048.8109,286
683.57806,1286.5272,403.7508,266.8813,1057.3463,293
741.5423,1301.8552,551.6595,282.2093,1037.1757,273
602.2949,1300.5223,243.84949,273.54562,1087.7335,278
759.5312,1337.8428,346.45282,334.85767,1084.7179,304
787.5139,1186.5619,512.3504,284.2086,943.375,242
Testing:-:NAO:-:mmmmxxxxx:-:0,2,0.0,483.0,910.0,0.675,0.40000004,6742565::0,2,0.0,486.0,876.0,0.675,0.40000004,6742565::0,2,0.0,490.0,842.0,0.675,0.40000004,6742580::0,2,0.0,494.0,814.0,0.675,0.40000004,6742581::0,2,0.0,498.0,783.0,0.675,0.40000004,6742594::0,2,0.0,502.0,756.0,0.675,0.40000004,6742594::0,2,0.0,507.0,733.0,0.675,0.40000004,6742611::0,2,0.0,513.0,710.0,0.675,0.40000004,6742611::0,2,0.0,520.0,689.0,0.675,0.40000004,6742628::0,2,0.0,528.0,671.0,0.675,0.40000004,6742629::0,2,0.0,537.0,652.0,0.675,0.40000004,6742646::0,2,0.0,546.0,630.0,0.675,0.40000004,6742646::0,2,0.0,556.0,609.0,0.675,0.40000004,6742662::0,2,0.0,566.0,589.0,0.675,0.40000004,6742662::0,2,0.0,579.0,569.0,0.675,0.40000004,6742680::0,2,0.0,595.0,549.0,0.675,0.40000004,6742680::0,2,0.0,610.0,531.0,0.675,0.40000004,6742696::0,2,0.0,622.0,516.0,0.675,0.40000004,6742697::0,2,0.0,633.0,502.0,0.675,0.40000004,6742713::0,2,0.0,645.0,489.0,0.675,0.40000004,6742713::
Testing:-:NAO:-:mmmmxxxx:-:0,2,0.0,443.0,981.0,0.6625,0.33333334,6797533::0,2,0.0,445.0,943.0,0.6625,0.33333334,6797534::0,2,0.0,448.0,906.0,0.6625,0.33333334,6797534::0,2,0.0,452.0,871.0,0.6625,0.33333334,6797535::0,2,0.0,457.0,838.0,0.6625,0.33333334,6797535::0,2,0.0,463.0,808.0,0.6625,0.33333334,6797550::0,2,0.0,470.0,778.0,0.6625,0.33333334,6797551::0,2,0.0,477.0,751.0,0.6625,0.33333334,6797584::0,2,0.0,484.0,727.0,0.6625,0.33333334,6797586::0,2,0.0,491.0,703.0,0.6625,0.33333334,6797587::0,2,0.0,498.0,681.0,0.6625,0.33333334,6797588::0,2,0.0,507.0,660.0,0.6625,0.33333334,6797618::0,2,0.0,518.0,638.0,0.6625,0.33333334,6797619::0,2,0.0,531.0,616.0,0.6625,0.33333334,6797620::0,2,0.0,544.0,595.0,0.6625,0.33333334,6797639::0,2,0.0,557.0,572.0,0.6625,0.33333334,6797651::0,2,0.0,569.0,550.0,0.6625,0.33333334,6797654::0,2,0.0,581.0,531.0,0.6625,0.33333334,6797654::0,2,0.0,593.0,513.0,0.6625,0.33333334,6797654::0,2,0.0,603.0,497.0,0.6625,0.33333334,6797671::
592.0,1411.0,714.0,499.0,920.1239,207
592.0,1411.0,714.0,499.0,920.1239,207
671.0,1563.0,715.0,476.0,1087.8901,286
671.0,1563.0,715.0,476.0,1087.8901,286
493.0,986.0,329.0,196.0,806.84326,870
493.0,986.0,329.0,196.0,806.84326,870
527.0,1086.0,294.0,-52.0,1161.6079,810
527.0,1086.0,294.0,-52.0,1161.6079,810
528.0,1043.0,347.0,215.0,847.55237,857
528.0,1043.0,347.0,215.0,847.55237,857
529.0,1081.0,296.0,-33.0,1138.1058,835
529.0,1081.0,296.0,-33.0,1138.1058,835
518.0,1056.0,304.0,-38.0,1114.734,814
518.0,1056.0,304.0,-38.0,1114.734,814
523.0,1075.0,301.0,-59.0,1155.5259,772
523.0,1075.0,301.0,-59.0,1155.5259,772
530.0,1072.0,349.0,222.0,869.05756,799
530.0,1072.0,349.0,222.0,869.05756,799
528.0,1035.0,300.0,-52.0,1110.6543,785
528.0,1035.0,300.0,-52.0,1110.6543,785
533.0,1077.0,299.0,-47.0,1148.0992,806
533.0,1077.0,299.0,-47.0,1148.0992,806
525.0,1068.0,302.0,-40.0,1130.2181,813
525.0,1068.0,302.0,-40.0,1130.2181,813
33.0,284.0,36.0,136.0,148.0304,591
33.0,284.0,36.0,136.0,148.0304,591
35.0,635.0,19.0,608.0,31.38471,203
35.0,635.0,19.0,608.0,31.38471,203
27.0,158.0,34.0,147.0,13.038404,1
27.0,158.0,34.0,147.0,13.038404,1
35.0,626.0,21.0,460.0,166.58931,331
35.0,626.0,21.0,460.0,166.58931,331
20.0,273.0,47.0,149.0,126.90548,102
20.0,273.0,47.0,149.0,126.90548,102
48.0,607.0,356.0,-11.0,690.49835,638
48.0,607.0,356.0,-11.0,690.49835,638
42.0,583.0,408.0,236.0,504.3461,750
42.0,583.0,408.0,236.0,504.3461,750
104.0,295.0,242.0,-72.0,392.088,522
104.0,295.0,242.0,-72.0,392.088,522
45.0,586.0,362.0,-12.0,676.8257,729
45.0,586.0,362.0,-12.0,676.8257,729
45.0,585.0,75.0,118.0,467.96262,637
45.0,585.0,75.0,118.0,467.96262,637
48.0,620.0,76.0,127.0,493.7945,576
48.0,620.0,76.0,127.0,493.7945,576
53.0,624.0,74.0,120.0,504.43732,523
53.0,624.0,74.0,120.0,504.43732,523
580.0,704.0,613.0,398.0,307.77426,2466
580.0,704.0,613.0,398.0,307.77426,2466
593.0,711.0,614.0,399.0,312.70593,2509
593.0,711.0,614.0,399.0,312.70593,2509
591.0,713.0,614.0,395.0,318.8307,2415
591.0,713.0,614.0,395.0,318.8307,2415
588.0,707.0,615.0,394.0,314.16238,2394
588.0,707.0,615.0,394.0,314.16238,2394
585.0,711.0,649.0,-57.0,770.66205,655
585.0,711.0,649.0,-57.0,770.66205,655
369.0,731.0,417.0,320.0,413.79343,464
463.0,177.0,570.0,-41.0,242.84357,118
463.0,177.0,570.0,-41.0,242.84357,118
