0,2,0.0,367.0,1387.0,0.5375,0.26666668,936287
0,2,0.0,368.0,1379.0,0.5,0.26666668,936287
0,2,0.0,370.0,1371.0,0.52500004,0.26666668,936288
0,2,0.0,372.0,1364.0,0.52500004,0.26666668,936304
0,2,0.0,375.0,1356.0,0.5375,0.26666668,936311
0,2,0.0,377.0,1349.0,0.5375,0.26666668,936334
0,2,0.0,380.0,1341.0,0.5375,0.26666668,936334
0,2,0.0,383.0,1333.0,0.5375,0.26666668,936334
0,2,0.0,386.0,1324.0,0.5375,0.26666668,936334
0,2,0.0,388.0,1316.0,0.5375,0.26666668,936346
0,2,0.0,390.0,1307.0,0.5375,0.26666668,936347
0,2,0.0,392.0,1298.0,0.5375,0.26666668,936359
0,2,0.0,394.0,1290.0,0.5375,0.26666668,936359
0,2,0.0,396.0,1281.0,0.5375,0.26666668,936381
0,2,0.0,398.0,1271.0,0.5375,0.26666668,936382
0,2,0.0,399.0,1260.0,0.5375,0.26666668,936394
0,2,0.0,400.0,1250.0,0.5375,0.26666668,936395
0,2,0.0,401.0,1241.0,0.5375,0.26666668,936411
0,2,0.0,402.0,1233.0,0.5375,0.26666668,936411
0,2,0.0,402.0,1226.0,0.5375,0.26666668,936432
0,2,0.0,402.0,1220.0,0.5375,0.26666668,936432
0,2,0.0,403.0,1213.0,0.5375,0.26666668,936445
0,2,0.0,404.0,1206.0,0.5375,0.26666668,936445
0,2,0.0,405.0,1200.0,0.5375,0.26666668,936466
0,2,0.0,407.0,1194.0,0.52500004,0.26666668,936466
0,2,0.0,410.0,1188.0,0.52500004,0.26666668,936480
0,2,0.0,413.0,1184.0,0.5375,0.26666668,936480
0,2,0.0,415.0,1180.0,0.52500004,0.26666668,936495
0,2,0.0,417.0,1177.0,0.52500004,0.26666668,936495
0,2,0.0,420.0,1175.0,0.5,0.26666668,936512
0,2,0.0,423.0,1172.0,0.4875,0.26666668,936513
0,2,0.0,426.0,1169.0,0.4625,0.26666668,936531
0,2,0.0,433.0,1162.0,0.425,0.20000002,936532
0,1,0.0,433.0,1162.0,0.425,0.20000002,936544
0,0,0.0,349.0,1448.0,0.5125,0.26666668,939099
0,2,0.0,348.0,1449.0,0.55,0.26666668,939116
0,2,0.0,348.0,1451.0,0.55,0.26666668,939117
0,2,0.0,348.0,1453.0,0.55,0.26666668,939117
0,2,0.0,348.0,1455.0,0.55,0.26666668,939117
0,2,0.0,348.0,1457.0,0.55,0.26666668,939118
0,2,0.0,348.0,1456.0,0.55,0.26666668,939118
0,2,0.0,348.0,1454.0,0.55,0.26666668,939118
0,2,0.0,350.0,1449.0,0.55,0.26666668,939129
0,2,0.0,352.0,1443.0,0.52500004,0.26666668,939129
0,2,0.0,353.0,1439.0,0.52500004,0.26666668,939129
0,2,0.0,354.0,1435.0,0.52500004,0.26666668,939130
0,2,0.0,356.0,1429.0,0.52500004,0.26666668,939131
0,2,0.0,358.0,1422.0,0.52500004,0.26666668,939131
0,2,0.0,360.0,1415.0,0.5375,0.26666668,939155
0,2,0.0,362.0,1407.0,0.5375,0.26666668,939161
0,2,0.0,364.0,1399.0,0.5375,0.26666668,939161
0,2,0.0,367.0,1391.0,0.5375,0.26666668,939164
0,2,0.0,370.0,1384.0,0.5375,0.26666668,939190
0,2,0.0,373.0,1377.0,0.5375,0.26666668,939190
0,2,0.0,376.0,1370.0,0.5375,0.26666668,939191
0,2,0.0,379.0,1362.0,0.5375,0.26666668,939191
0,2,0.0,382.0,1354.0,0.5375,0.26666668,939223
0,2,0.0,384.0,1346.0,0.5375,0.26666668,939224
0,2,0.0,386.0,1336.0,0.5375,0.26666668,939241
0,2,0.0,388.0,1328.0,0.5375,0.26666668,939241
0,2,0.0,390.0,1318.0,0.5375,0.26666668,939241
0,2,0.0,391.0,1309.0,0.5375,0.26666668,939241
0,2,0.0,393.0,1300.0,0.5375,0.26666668,939256
0,2,0.0,394.0,1291.0,0.5375,0.26666668,939256
0,2,0.0,395.0,1282.0,0.5375,0.26666668,939277
0,2,0.0,396.0,1271.0,0.5375,0.26666668,939277
0,2,0.0,397.0,1261.0,0.5375,0.26666668,939289
0,2,0.0,398.0,1253.0,0.5375,0.26666668,939290
0,2,0.0,398.0,1244.0,0.5375,0.26666668,939309
0,2,0.0,398.0,1237.0,0.5375,0.26666668,939309
0,2,0.0,399.0,1230.0,0.5375,0.26666668,939322
0,2,0.0,399.0,1223.0,0.5375,0.26666668,939322
0,2,0.0,399.0,1218.0,0.5375,0.26666668,939337
0,2,0.0,400.0,1212.0,0.5375,0.26666668,939337
0,2,0.0,401.0,1208.0,0.5375,0.26666668,939356
0,2,0.0,404.0,1202.0,0.5125,0.26666668,939427
0,2,0.0,408.0,1196.0,0.5125,0.26666668,939441
0,2,0.0,411.0,1191.0,0.5375,0.26666668,939441
0,2,0.0,413.0,1189.0,0.52500004,0.26666668,939442
0,2,0.0,415.0,1187.0,0.5125,0.26666668,939442
0,2,0.0,418.0,1184.0,0.5125,0.26666668,939442
0,2,0.0,420.0,1180.0,0.475,0.26666668,939442
0,2,0.0,424.0,1175.0,0.45000002,0.26666668,939443
0,2,0.0,426.0,1172.0,0.4,0.20000002,939443
0,1,0.0,426.0,1172.0,0.4,0.20000002,939444
0,0,0.0,347.0,1447.0,0.4875,0.26666668,942058
0,2,0.0,347.0,1448.0,0.5375,0.26666668,942060
0,2,0.0,347.0,1450.0,0.5375,0.26666668,942060
0,2,0.0,347.0,1452.0,0.5375,0.26666668,942061
0,2,0.0,347.0,1454.0,0.5375,0.26666668,942061
0,2,0.0,347.0,1456.0,0.5375,0.26666668,942061
0,2,0.0,347.0,1457.0,0.5375,0.26666668,942061
0,2,0.0,347.0,1455.0,0.5375,0.26666668,942061
0,2,0.0,349.0,1451.0,0.5375,0.26666668,942062
0,2,0.0,351.0,1444.0,0.52500004,0.26666668,942062
0,2,0.0,353.0,1436.0,0.52500004,0.26666668,942062
0,2,0.0,354.0,1431.0,0.52500004,0.26666668,942062
0,2,0.0,356.0,1425.0,0.52500004,0.26666668,942063
0,2,0.0,358.0,1418.0,0.52500004,0.26666668,942096
0,2,0.0,360.0,1411.0,0.5375,0.26666668,942096
0,2,0.0,362.0,1402.0,0.5375,0.26666668,942097
0,2,0.0,364.0,1394.0,0.5375,0.26666668,942097
0,2,0.0,366.0,1387.0,0.5375,0.26666668,942145
0,2,0.0,368.0,1379.0,0.5375,0.26666668,942145
0,2,0.0,370.0,1372.0,0.5375,0.26666668,942146
0,2,0.0,373.0,1364.0,0.5375,0.26666668,942146
0,2,0.0,376.0,1357.0,0.5375,0.26666668,942147
0,2,0.0,379.0,1349.0,0.5375,0.26666668,942147
0,2,0.0,382.0,1340.0,0.5375,0.26666668,942181
0,2,0.0,385.0,1331.0,0.5375,0.26666668,942184
0,2,0.0,388.0,1322.0,0.5375,0.26666668,942185
0,2,0.0,391.0,1312.0,0.5375,0.26666668,942185
0,2,0.0,393.0,1302.0,0.5375,0.26666668,942212
0,2,0.0,395.0,1294.0,0.52500004,0.26666668,942212
0,2,0.0,397.0,1285.0,0.52500004,0.26666668,942213
0,2,0.0,399.0,1276.0,0.52500004,0.26666668,942213
0,2,0.0,401.0,1266.0,0.5375,0.26666668,942246
0,2,0.0,403.0,1256.0,0.5375,0.26666668,942246
0,2,0.0,404.0,1247.0,0.5375,0.26666668,942246
0,2,0.0,404.0,1238.0,0.5375,0.26666668,942247
0,2,0.0,405.0,1230.0,0.5375,0.26666668,942280
0,2,0.0,405.0,1223.0,0.5375,0.26666668,942280
0,2,0.0,405.0,1215.0,0.5375,0.26666668,942280
0,2,0.0,405.0,1208.0,0.5375,0.26666668,942280
0,2,0.0,406.0,1201.0,0.5375,0.26666668,942297
0,2,0.0,407.0,1193.0,0.5375,0.26666668,942297
0,2,0.0,408.0,1186.0,0.52500004,0.26666668,942314
0,2,0.0,410.0,1179.0,0.52500004,0.26666668,942314
0,2,0.0,413.0,1174.0,0.52500004,0.26666668,942331
0,2,0.0,416.0,1169.0,0.52500004,0.26666668,942331
0,2,0.0,418.0,1166.0,0.52500004,0.26666668,942348
0,2,0.0,419.0,1164.0,0.52500004,0.26666668,942348
0,2,0.0,422.0,1161.0,0.5125,0.26666668,942368
0,2,0.0,424.0,1159.0,0.5125,0.26666668,942368
0,2,0.0,427.0,1156.0,0.4625,0.26666668,942385
0,2,0.0,429.0,1154.0,0.4,0.20000002,942385
0,1,0.0,429.0,1154.0,0.4,0.20000002,942402
0,0,0.0,347.0,1448.0,0.5,0.26666668,943410
0,2,0.0,347.0,1450.0,0.55,0.26666668,943413
0,2,0.0,347.0,1452.0,0.5375,0.26666668,943414
0,2,0.0,347.0,1454.0,0.5375,0.26666668,943414
0,2,0.0,347.0,1455.0,0.5375,0.26666668,943414
0,2,0.0,347.0,1456.0,0.5375,0.26666668,943414
0,2,0.0,347.0,1455.0,0.5375,0.26666668,943415
0,2,0.0,348.0,1453.0,0.5375,0.26666668,943415
0,2,0.0,349.0,1449.0,0.5375,0.26666668,943415
0,2,0.0,351.0,1442.0,0.52500004,0.26666668,943415
0,2,0.0,352.0,1437.0,0.52500004,0.26666668,943418
0,2,0.0,353.0,1432.0,0.52500004,0.26666668,943419
0,2,0.0,355.0,1426.0,0.52500004,0.26666668,943437
0,2,0.0,357.0,1419.0,0.52500004,0.26666668,943437
0,2,0.0,359.0,1410.0,0.5375,0.26666668,943462
0,2,0.0,362.0,1401.0,0.5375,0.26666668,943462
0,2,0.0,364.0,1393.0,0.5375,0.26666668,943486
0,2,0.0,366.0,1385.0,0.5375,0.26666668,943486
0,2,0.0,369.0,1378.0,0.5375,0.26666668,943486
0,2,0.0,372.0,1371.0,0.5375,0.26666668,943487
0,2,0.0,374.0,1364.0,0.5375,0.26666668,943502
0,2,0.0,377.0,1357.0,0.5375,0.26666668,943502
0,2,0.0,380.0,1349.0,0.5375,0.26666668,943516
0,2,0.0,383.0,1341.0,0.5375,0.26666668,943516
0,2,0.0,386.0,1332.0,0.5375,0.26666668,943536
0,2,0.0,388.0,1323.0,0.5375,0.26666668,943536
0,2,0.0,390.0,1313.0,0.5375,0.26666668,943553
0,2,0.0,392.0,1305.0,0.5375,0.26666668,943553
0,2,0.0,393.0,1297.0,0.5375,0.26666668,943567
0,2,0.0,394.0,1288.0,0.5375,0.26666668,943568
0,2,0.0,396.0,1277.0,0.5375,0.26666668,943586
0,2,0.0,397.0,1266.0,0.5375,0.26666668,943588
0,2,0.0,398.0,1256.0,0.5375,0.26666668,943605
0,2,0.0,399.0,1247.0,0.5375,0.26666668,943605
0,2,0.0,400.0,1238.0,0.5375,0.26666668,943619
0,2,0.0,400.0,1230.0,0.5375,0.26666668,943619
0,2,0.0,400.0,1224.0,0.5375,0.26666668,943636
0,2,0.0,400.0,1218.0,0.5375,0.26666668,943636
0,2,0.0,400.0,1212.0,0.5375,0.26666668,943653
0,2,0.0,401.0,1205.0,0.5375,0.26666668,943653
0,2,0.0,403.0,1197.0,0.52500004,0.26666668,943669
0,2,0.0,405.0,1192.0,0.52500004,0.26666668,943669
0,2,0.0,408.0,1187.0,0.52500004,0.26666668,943687
0,2,0.0,411.0,1183.0,0.52500004,0.26666668,943688
0,2,0.0,414.0,1180.0,0.52500004,0.26666668,943704
0,2,0.0,416.0,1178.0,0.4875,0.26666668,943704
0,2,0.0,419.0,1175.0,0.4875,0.26666668,943720
0,2,0.0,422.0,1172.0,0.475,0.26666668,943720
0,2,0.0,425.0,1168.0,0.4625,0.26666668,943738
0,2,0.0,427.0,1166.0,0.4,0.20000002,943738
0,1,0.0,427.0,1166.0,0.4,0.20000002,943756
0,0,0.0,346.0,1445.0,0.55,0.26666668,946304
0,2,0.0,346.0,1447.0,0.55,0.26666668,946315
0,2,0.0,346.0,1449.0,0.55,0.26666668,946315
0,2,0.0,346.0,1451.0,0.55,0.26666668,946315
0,2,0.0,346.0,1453.0,0.55,0.26666668,946315
0,2,0.0,346.0,1454.0,0.55,0.26666668,946315
0,2,0.0,346.0,1452.0,0.5375,0.26666668,946316
0,2,0.0,347.0,1449.0,0.5375,0.26666668,946316
0,2,0.0,349.0,1444.0,0.52500004,0.26666668,946316
0,2,0.0,350.0,1441.0,0.52500004,0.26666668,946316
0,2,0.0,351.0,1437.0,0.52500004,0.26666668,946317
0,2,0.0,352.0,1432.0,0.52500004,0.26666668,946342
0,2,0.0,354.0,1426.0,0.52500004,0.26666668,946342
0,2,0.0,356.0,1419.0,0.55,0.26666668,946343
0,2,0.0,359.0,1411.0,0.55,0.26666668,946343
0,2,0.0,361.0,1404.0,0.55,0.26666668,946359
0,2,0.0,363.0,1396.0,0.55,0.26666668,946359
0,2,0.0,365.0,1389.0,0.5375,0.26666668,946377
0,2,0.0,368.0,1381.0,0.5375,0.26666668,946378
0,2,0.0,371.0,1373.0,0.5375,0.26666668,946394
0,2,0.0,374.0,1366.0,0.5375,0.26666668,946394
0,2,0.0,377.0,1359.0,0.5375,0.26666668,946443
0,2,0.0,380.0,1351.0,0.5375,0.26666668,946444
0,2,0.0,382.0,1344.0,0.5375,0.26666668,946444
0,2,0.0,384.0,1335.0,0.5375,0.26666668,946444
0,2,0.0,386.0,1326.0,0.5375,0.26666668,946444
0,2,0.0,388.0,1317.0,0.5375,0.26666668,946445
0,2,0.0,389.0,1308.0,0.5375,0.26666668,946477
0,2,0.0,390.0,1300.0,0.5375,0.26666668,946477
0,2,0.0,391.0,1290.0,0.5375,0.26666668,946478
0,2,0.0,392.0,1282.0,0.5375,0.26666668,946478
0,2,0.0,394.0,1271.0,0.5375,0.26666668,946511
0,2,0.0,395.0,1261.0,0.5375,0.26666668,946511
0,2,0.0,396.0,1251.0,0.5375,0.26666668,946511
0,2,0.0,397.0,1242.0,0.5375,0.26666668,946512
0,2,0.0,397.0,1235.0,0.5375,0.26666668,946544
0,2,0.0,397.0,1228.0,0.5375,0.26666668,946545
0,2,0.0,398.0,1221.0,0.5375,0.26666668,946545
0,2,0.0,398.0,1216.0,0.5375,0.26666668,946549
0,2,0.0,399.0,1211.0,0.5375,0.26666668,946578
0,2,0.0,400.0,1206.0,0.5375,0.26666668,946579
0,2,0.0,402.0,1201.0,0.5375,0.26666668,946579
0,2,0.0,405.0,1195.0,0.5375,0.26666668,946579
0,2,0.0,408.0,1191.0,0.5375,0.26666668,946612
0,2,0.0,410.0,1189.0,0.52500004,0.26666668,946612
0,2,0.0,413.0,1186.0,0.5125,0.26666668,946613
0,2,0.0,415.0,1184.0,0.4875,0.26666668,946613
0,2,0.0,417.0,1182.0,0.475,0.26666668,946646
0,2,0.0,421.0,1177.0,0.4625,0.26666668,946646
0,2,0.0,428.0,1169.0,0.425,0.20000002,946647
0,1,0.0,428.0,1169.0,0.425,0.20000002,946647
0,0,0.0,348.0,1446.0,0.5,0.26666668,949250
0,2,0.0,348.0,1447.0,0.55,0.26666668,949253
0,2,0.0,348.0,1449.0,0.55,0.26666668,949253
0,2,0.0,348.0,1451.0,0.5375,0.26666668,949253
0,2,0.0,348.0,1453.0,0.5375,0.26666668,949253
0,2,0.0,348.0,1455.0,0.5375,0.26666668,949254
0,2,0.0,348.0,1454.0,0.5375,0.26666668,949254
0,2,0.0,348.0,1452.0,0.5375,0.26666668,949254
0,2,0.0,349.0,1448.0,0.5375,0.26666668,949255
0,2,0.0,351.0,1442.0,0.52500004,0.26666668,949255
0,2,0.0,352.0,1438.0,0.52500004,0.26666668,949256
0,2,0.0,353.0,1434.0,0.5125,0.26666668,949256
0,2,0.0,355.0,1428.0,0.5125,0.26666668,949276
0,2,0.0,357.0,1421.0,0.5125,0.26666668,949281
0,2,0.0,359.0,1413.0,0.5375,0.26666668,949301
0,2,0.0,361.0,1405.0,0.52500004,0.26666668,949301
0,2,0.0,364.0,1397.0,0.52500004,0.26666668,949318
0,2,0.0,366.0,1389.0,0.52500004,0.26666668,949318
0,2,0.0,368.0,1382.0,0.55,0.26666668,949342
0,2,0.0,371.0,1375.0,0.55,0.26666668,949342
0,2,0.0,374.0,1368.0,0.52500004,0.26666668,949343
0,2,0.0,377.0,1362.0,0.52500004,0.26666668,949343
0,2,0.0,380.0,1354.0,0.52500004,0.26666668,949355
0,2,0.0,382.0,1347.0,0.52500004,0.26666668,949356
0,2,0.0,384.0,1338.0,0.52500004,0.26666668,949374
0,2,0.0,387.0,1330.0,0.52500004,0.26666668,949374
0,2,0.0,390.0,1319.0,0.52500004,0.26666668,949390
0,2,0.0,392.0,1310.0,0.52500004,0.26666668,949391
0,2,0.0,394.0,1302.0,0.52500004,0.26666668,949406
0,2,0.0,395.0,1293.0,0.52500004,0.26666668,949406
0,2,0.0,397.0,1284.0,0.52500004,0.26666668,949426
0,2,0.0,399.0,1274.0,0.52500004,0.26666668,949426
0,2,0.0,400.0,1263.0,0.52500004,0.26666668,949442
0,2,0.0,401.0,1254.0,0.55,0.26666668,949442
0,2,0.0,401.0,1244.0,0.5375,0.26666668,949458
0,2,0.0,401.0,1236.0,0.5375,0.26666668,949458
0,2,0.0,401.0,1227.0,0.5375,0.26666668,949477
0,2,0.0,401.0,1220.0,0.5375,0.26666668,949477
0,2,0.0,401.0,1213.0,0.5375,0.26666668,949492
0,2,0.0,402.0,1207.0,0.5375,0.26666668,949493
0,2,0.0,403.0,1201.0,0.5375,0.26666668,949508
0,2,0.0,404.0,1195.0,0.5375,0.26666668,949509
0,2,0.0,406.0,1188.0,0.5375,0.26666668,949527
0,2,0.0,408.0,1183.0,0.52500004,0.26666668,949527
0,2,0.0,410.0,1179.0,0.52500004,0.26666668,949544
0,2,0.0,412.0,1176.0,0.52500004,0.26666668,949544
0,2,0.0,414.0,1173.0,0.52500004,0.26666668,949560
0,2,0.0,416.0,1171.0,0.5125,0.26666668,949560
0,2,0.0,419.0,1169.0,0.5,0.26666668,949578
0,2,0.0,422.0,1166.0,0.5,0.26666668,949578
0,2,0.0,423.0,1164.0,0.4375,0.26666668,949594
0,1,0.0,423.0,1164.0,0.4375,0.26666668,949595
0,0,0.0,347.0,1445.0,0.5125,0.26666668,952263
0,2,0.0,347.0,1447.0,0.52500004,0.26666668,952265
0,2,0.0,347.0,1449.0,0.52500004,0.26666668,952265
0,2,0.0,347.0,1451.0,0.52500004,0.26666668,952270
0,2,0.0,347.0,1453.0,0.52500004,0.26666668,952270
0,2,0.0,347.0,1455.0,0.52500004,0.26666668,952270
0,2,0.0,347.0,1453.0,0.5375,0.26666668,952270
0,2,0.0,347.0,1450.0,0.5375,0.26666668,952271
0,2,0.0,349.0,1445.0,0.52500004,0.26666668,952271
0,2,0.0,350.0,1441.0,0.52500004,0.26666668,952271
0,2,0.0,351.0,1437.0,0.52500004,0.26666668,952272
0,2,0.0,352.0,1433.0,0.52500004,0.26666668,952284
0,2,0.0,354.0,1428.0,0.52500004,0.26666668,952285
0,2,0.0,356.0,1421.0,0.5375,0.26666668,952302
0,2,0.0,358.0,1413.0,0.5375,0.26666668,952303
0,2,0.0,360.0,1406.0,0.5375,0.26666668,952317
0,2,0.0,363.0,1398.0,0.5375,0.26666668,952317
0,2,0.0,366.0,1390.0,0.5375,0.26666668,952337
0,2,0.0,369.0,1383.0,0.5375,0.26666668,952355
0,2,0.0,371.0,1376.0,0.5375,0.26666668,952355
0,2,0.0,374.0,1369.0,0.5375,0.26666668,952355
0,2,0.0,376.0,1363.0,0.5375,0.26666668,952369
0,2,0.0,379.0,1355.0,0.5375,0.26666668,952370
0,2,0.0,382.0,1346.0,0.5375,0.26666668,952386
0,2,0.0,385.0,1338.0,0.5375,0.26666668,952386
0,2,0.0,388.0,1330.0,0.5375,0.26666668,952405
0,2,0.0,391.0,1320.0,0.52500004,0.26666668,952405
0,2,0.0,393.0,1312.0,0.52500004,0.26666668,952420
0,2,0.0,395.0,1304.0,0.52500004,0.26666668,952420
0,2,0.0,397.0,1295.0,0.52500004,0.26666668,952438
0,2,0.0,399.0,1285.0,0.52500004,0.26666668,952439
0,2,0.0,401.0,1274.0,0.52500004,0.26666668,952454
0,2,0.0,402.0,1263.0,0.52500004,0.26666668,952454
0,2,0.0,403.0,1253.0,0.55,0.26666668,952472
0,2,0.0,404.0,1244.0,0.55,0.26666668,952472
0,2,0.0,405.0,1236.0,0.5375,0.26666668,952489
0,2,0.0,405.0,1228.0,0.5375,0.26666668,952489
0,2,0.0,405.0,1220.0,0.5375,0.26666668,952504
0,2,0.0,405.0,1212.0,0.5375,0.26666668,952504
0,2,0.0,405.0,1205.0,0.5375,0.26666668,952523
0,2,0.0,406.0,1199.0,0.5375,0.26666668,952523
0,2,0.0,406.0,1192.0,0.5375,0.26666668,952540
0,2,0.0,407.0,1184.0,0.5375,0.26666668,952541
0,2,0.0,409.0,1178.0,0.5375,0.26666668,952556
0,2,0.0,412.0,1173.0,0.5375,0.26666668,952558
0,2,0.0,415.0,1169.0,0.5375,0.26666668,952575
0,2,0.0,417.0,1166.0,0.5375,0.26666668,952575
0,2,0.0,418.0,1164.0,0.52500004,0.26666668,952592
0,2,0.0,420.0,1162.0,0.5125,0.26666668,952593
0,2,0.0,422.0,1160.0,0.5125,0.26666668,952606
0,2,0.0,426.0,1156.0,0.4625,0.26666668,952606
0,2,0.0,433.0,1150.0,0.4125,0.20000002,952625
0,1,0.0,433.0,1150.0,0.4125,0.20000002,952625
0,0,0.0,347.0,1445.0,0.5,0.26666668,953651
0,2,0.0,347.0,1447.0,0.52500004,0.26666668,953653
0,2,0.0,347.0,1449.0,0.52500004,0.26666668,953653
0,2,0.0,347.0,1451.0,0.52500004,0.26666668,953654
0,2,0.0,347.0,1453.0,0.52500004,0.26666668,953654
0,2,0.0,347.0,1455.0,0.52500004,0.26666668,953654
0,2,0.0,347.0,1453.0,0.5375,0.26666668,953654
0,2,0.0,348.0,1449.0,0.5375,0.26666668,953655
0,2,0.0,350.0,1443.0,0.52500004,0.26666668,953655
0,2,0.0,351.0,1439.0,0.52500004,0.26666668,953655
0,2,0.0,352.0,1435.0,0.52500004,0.26666668,953656
0,2,0.0,354.0,1429.0,0.52500004,0.26666668,953676
0,2,0.0,355.0,1423.0,0.52500004,0.26666668,953681
0,2,0.0,357.0,1416.0,0.52500004,0.26666668,953718
0,2,0.0,359.0,1408.0,0.52500004,0.26666668,953718
0,2,0.0,361.0,1400.0,0.52500004,0.26666668,953718
0,2,0.0,363.0,1393.0,0.55,0.26666668,953719
0,2,0.0,365.0,1385.0,0.5375,0.26666668,953736
0,2,0.0,368.0,1378.0,0.5375,0.26666668,953737
0,2,0.0,371.0,1371.0,0.5375,0.26666668,953752
0,2,0.0,374.0,1365.0,0.5375,0.26666668,953753
0,2,0.0,377.0,1358.0,0.5375,0.26666668,953764
0,2,0.0,380.0,1350.0,0.5375,0.26666668,953764
0,2,0.0,382.0,1342.0,0.5375,0.26666668,953791
0,2,0.0,385.0,1333.0,0.5375,0.26666668,953791
0,2,0.0,388.0,1324.0,0.5375,0.26666668,953791
0,2,0.0,390.0,1315.0,0.5375,0.26666668,953791
0,2,0.0,392.0,1306.0,0.5375,0.26666668,953808
0,2,0.0,394.0,1297.0,0.5375,0.26666668,953809
0,2,0.0,396.0,1288.0,0.5375,0.26666668,953829
0,2,0.0,397.0,1279.0,0.5375,0.26666668,953830
0,2,0.0,398.0,1269.0,0.5375,0.26666668,953842
0,2,0.0,399.0,1258.0,0.5375,0.26666668,953842
0,2,0.0,400.0,1249.0,0.5375,0.26666668,953865
0,2,0.0,401.0,1241.0,0.5375,0.26666668,953865
0,2,0.0,401.0,1232.0,0.5375,0.26666668,953882
0,2,0.0,401.0,1225.0,0.5375,0.26666668,953882
0,2,0.0,401.0,1218.0,0.5375,0.26666668,953895
0,2,0.0,401.0,1212.0,0.5375,0.26666668,953896
0,2,0.0,402.0,1206.0,0.5375,0.26666668,953914
0,2,0.0,403.0,1199.0,0.5375,0.26666668,953914
0,2,0.0,404.0,1192.0,0.5375,0.26666668,953926
0,2,0.0,407.0,1186.0,0.52500004,0.26666668,953926
0,2,0.0,410.0,1181.0,0.52500004,0.26666668,953943
0,2,0.0,412.0,1177.0,0.52500004,0.26666668,953943
0,2,0.0,413.0,1175.0,0.52500004,0.26666668,953960
0,2,0.0,415.0,1173.0,0.5125,0.26666668,953961
0,2,0.0,418.0,1170.0,0.5125,0.26666668,953977
0,2,0.0,420.0,1167.0,0.5,0.26666668,953977
0,2,0.0,424.0,1163.0,0.45000002,0.26666668,953995
0,2,0.0,426.0,1161.0,0.4,0.20000002,953995
0,1,0.0,426.0,1161.0,0.4,0.20000002,954012
0,0,0.0,348.0,1445.0,0.5125,0.26666668,955884
0,2,0.0,348.0,1447.0,0.55,0.26666668,955887
0,2,0.0,348.0,1449.0,0.5375,0.26666668,955888
0,2,0.0,348.0,1451.0,0.5375,0.26666668,955900
0,2,0.0,348.0,1453.0,0.5375,0.26666668,955900
0,2,0.0,348.0,1454.0,0.5375,0.26666668,955900
0,2,0.0,348.0,1453.0,0.5375,0.26666668,955901
0,2,0.0,348.0,1451.0,0.5375,0.26666668,955901
0,2,0.0,349.0,1447.0,0.52500004,0.26666668,955901
0,2,0.0,351.0,1440.0,0.52500004,0.26666668,955902
0,2,0.0,352.0,1436.0,0.52500004,0.26666668,955903
0,2,0.0,353.0,1432.0,0.52500004,0.26666668,955903
0,2,0.0,355.0,1426.0,0.52500004,0.26666668,955925
0,2,0.0,357.0,1419.0,0.52500004,0.26666668,955926
0,2,0.0,359.0,1411.0,0.52500004,0.26666668,955927
0,2,0.0,361.0,1404.0,0.52500004,0.26666668,955927
0,2,0.0,363.0,1396.0,0.55,0.26666668,955959
0,2,0.0,365.0,1388.0,0.55,0.26666668,955959
0,2,0.0,368.0,1381.0,0.55,0.26666668,955960
0,2,0.0,370.0,1375.0,0.55,0.26666668,955960
0,2,0.0,373.0,1367.0,0.55,0.26666668,955981
0,2,0.0,375.0,1360.0,0.5375,0.26666668,955981
0,2,0.0,377.0,1352.0,0.5375,0.26666668,955996
0,2,0.0,379.0,1344.0,0.5375,0.26666668,955997
0,2,0.0,381.0,1335.0,0.5375,0.26666668,956011
0,2,0.0,383.0,1326.0,0.5375,0.26666668,956011
0,2,0.0,385.0,1316.0,0.5375,0.26666668,956025
0,2,0.0,386.0,1308.0,0.5375,0.26666668,956025
0,2,0.0,387.0,1300.0,0.5375,0.26666668,956042
0,2,0.0,388.0,1291.0,0.5375,0.26666668,956042
0,2,0.0,389.0,1282.0,0.5375,0.26666668,956059
0,2,0.0,390.0,1273.0,0.5375,0.26666668,956059
0,2,0.0,391.0,1262.0,0.5375,0.26666668,956074
0,2,0.0,392.0,1253.0,0.5375,0.26666668,956075
0,2,0.0,393.0,1244.0,0.5375,0.26666668,956093
0,2,0.0,393.0,1237.0,0.5375,0.26666668,956093
0,2,0.0,394.0,1230.0,0.5375,0.26666668,956111
0,2,0.0,394.0,1224.0,0.5375,0.26666668,956111
0,2,0.0,395.0,1219.0,0.5375,0.26666668,956125
0,2,0.0,396.0,1214.0,0.5375,0.26666668,956125
0,2,0.0,397.0,1210.0,0.5375,0.26666668,956144
0,2,0.0,400.0,1206.0,0.5375,0.26666668,956144
0,2,0.0,403.0,1201.0,0.5375,0.26666668,956160
0,2,0.0,406.0,1198.0,0.52500004,0.26666668,956161
0,2,0.0,408.0,1195.0,0.52500004,0.26666668,956176
0,2,0.0,410.0,1193.0,0.5125,0.26666668,956177
0,2,0.0,412.0,1190.0,0.4875,0.26666668,956195
0,2,0.0,415.0,1186.0,0.475,0.26666668,956196
0,2,0.0,420.0,1180.0,0.4375,0.26666668,956214
0,1,0.0,420.0,1180.0,0.4375,0.26666668,956214
0,0,0.0,346.0,1444.0,0.5,0.26666668,957205
0,2,0.0,346.0,1446.0,0.52500004,0.26666668,957207
0,2,0.0,346.0,1448.0,0.52500004,0.26666668,957207
0,2,0.0,346.0,1450.0,0.52500004,0.26666668,957207
0,2,0.0,346.0,1452.0,0.52500004,0.26666668,957207
0,2,0.0,346.0,1454.0,0.52500004,0.26666668,957208
0,2,0.0,346.0,1456.0,0.52500004,0.26666668,957208
0,2,0.0,346.0,1455.0,0.52500004,0.26666668,957208
0,2,0.0,346.0,1453.0,0.52500004,0.26666668,957211
0,2,0.0,347.0,1449.0,0.52500004,0.26666668,957212
0,2,0.0,348.0,1446.0,0.52500004,0.26666668,957213
0,2,0.0,349.0,1442.0,0.52500004,0.26666668,957213
0,2,0.0,350.0,1438.0,0.52500004,0.26666668,957236
0,2,0.0,351.0,1434.0,0.52500004,0.26666668,957237
0,2,0.0,353.0,1428.0,0.52500004,0.26666668,957258
0,2,0.0,355.0,1422.0,0.52500004,0.26666668,957258
0,2,0.0,357.0,1416.0,0.52500004,0.26666668,957271
0,2,0.0,359.0,1408.0,0.52500004,0.26666668,957278
0,2,0.0,361.0,1400.0,0.52500004,0.26666668,957292
0,2,0.0,363.0,1392.0,0.52500004,0.26666668,957298
0,2,0.0,366.0,1385.0,0.52500004,0.26666668,957298
0,2,0.0,369.0,1377.0,0.55,0.26666668,957299
0,2,0.0,372.0,1370.0,0.55,0.26666668,957310
0,2,0.0,375.0,1363.0,0.5375,0.26666668,957310
0,2,0.0,378.0,1355.0,0.5375,0.26666668,957326
0,2,0.0,381.0,1347.0,0.5375,0.26666668,957326
0,2,0.0,384.0,1338.0,0.5375,0.26666668,957344
0,2,0.0,387.0,1329.0,0.5375,0.26666668,957345
0,2,0.0,390.0,1321.0,0.5375,0.26666668,957362
0,2,0.0,392.0,1313.0,0.5375,0.26666668,957362
0,2,0.0,394.0,1304.0,0.5375,0.26666668,957377
0,2,0.0,396.0,1295.0,0.5375,0.26666668,957377
0,2,0.0,398.0,1286.0,0.5375,0.26666668,957401
0,2,0.0,400.0,1276.0,0.5375,0.26666668,957401
0,2,0.0,402.0,1265.0,0.5375,0.26666668,957413
0,2,0.0,404.0,1255.0,0.5375,0.26666668,957413
0,2,0.0,405.0,1246.0,0.5375,0.26666668,957428
0,2,0.0,406.0,1238.0,0.5375,0.26666668,957428
0,2,0.0,407.0,1230.0,0.5375,0.26666668,957448
0,2,0.0,408.0,1223.0,0.5375,0.26666668,957448
0,2,0.0,408.0,1215.0,0.52500004,0.26666668,957470
0,2,0.0,408.0,1207.0,0.52500004,0.26666668,957470
0,2,0.0,409.0,1198.0,0.52500004,0.26666668,957484
0,2,0.0,410.0,1192.0,0.52500004,0.26666668,957484
0,2,0.0,411.0,1185.0,0.55,0.26666668,957497
0,2,0.0,412.0,1178.0,0.5375,0.26666668,957497
0,2,0.0,415.0,1172.0,0.5375,0.26666668,957514
0,2,0.0,418.0,1167.0,0.5375,0.26666668,957514
0,2,0.0,420.0,1164.0,0.5375,0.26666668,957530
0,2,0.0,422.0,1162.0,0.52500004,0.26666668,957530
0,2,0.0,424.0,1160.0,0.52500004,0.26666668,957548
0,2,0.0,426.0,1158.0,0.5125,0.26666668,957548
0,2,0.0,429.0,1156.0,0.5,0.26666668,957565
0,2,0.0,432.0,1153.0,0.4625,0.26666668,957565
0,2,0.0,433.0,1151.0,0.4125,0.20000002,957581
0,1,0.0,433.0,1151.0,0.4125,0.20000002,957581
0,0,0.0,346.0,1446.0,0.4875,0.26666668,958613
0,2,0.0,346.0,1447.0,0.5375,0.26666668,958631
0,2,0.0,346.0,1449.0,0.5375,0.26666668,958635
0,2,0.0,346.0,1451.0,0.5375,0.26666668,958635
0,2,0.0,346.0,1453.0,0.5375,0.26666668,958636
0,2,0.0,346.0,1455.0,0.5375,0.26666668,958636
0,2,0.0,346.0,1456.0,0.5375,0.26666668,958636
0,2,0.0,346.0,1454.0,0.5375,0.26666668,958636
0,2,0.0,347.0,1451.0,0.5375,0.26666668,958637
0,2,0.0,349.0,1445.0,0.52500004,0.26666668,958637
0,2,0.0,350.0,1441.0,0.52500004,0.26666668,958637
0,2,0.0,351.0,1437.0,0.52500004,0.26666668,958637
0,2,0.0,352.0,1431.0,0.52500004,0.26666668,958638
0,2,0.0,353.0,1425.0,0.52500004,0.26666668,958638
0,2,0.0,355.0,1417.0,0.52500004,0.26666668,958669
0,2,0.0,357.0,1409.0,0.55,0.26666668,958670
0,2,0.0,359.0,1402.0,0.55,0.26666668,958670
0,2,0.0,361.0,1394.0,0.55,0.26666668,958675
0,2,0.0,363.0,1387.0,0.5375,0.26666668,958692
0,2,0.0,365.0,1380.0,0.5375,0.26666668,958692
0,2,0.0,368.0,1373.0,0.5375,0.26666668,958705
0,2,0.0,371.0,1365.0,0.5375,0.26666668,958705
0,2,0.0,374.0,1357.0,0.5375,0.26666668,958717
0,2,0.0,377.0,1350.0,0.5375,0.26666668,958717
0,2,0.0,380.0,1342.0,0.5375,0.26666668,958734
0,2,0.0,383.0,1333.0,0.5375,0.26666668,958734
0,2,0.0,386.0,1324.0,0.5375,0.26666668,958754
0,2,0.0,388.0,1315.0,0.5375,0.26666668,958754
0,2,0.0,390.0,1307.0,0.5375,0.26666668,958765
0,2,0.0,392.0,1298.0,0.5375,0.26666668,958766
0,2,0.0,394.0,1290.0,0.5375,0.26666668,958787
0,2,0.0,396.0,1280.0,0.5375,0.26666668,958787
0,2,0.0,398.0,1269.0,0.5375,0.26666668,958801
0,2,0.0,399.0,1260.0,0.5375,0.26666668,958802
0,2,0.0,399.0,1250.0,0.5375,0.26666668,958820
0,2,0.0,399.0,1240.0,0.5375,0.26666668,958820
0,2,0.0,399.0,1233.0,0.5375,0.26666668,958842
0,2,0.0,399.0,1226.0,0.5375,0.26666668,958842
0,2,0.0,400.0,1220.0,0.5375,0.26666668,958855
0,2,0.0,400.0,1213.0,0.5375,0.26666668,958856
0,2,0.0,401.0,1206.0,0.5375,0.26666668,958873
0,2,0.0,402.0,1201.0,0.5375,0.26666668,958873
0,2,0.0,403.0,1195.0,0.5375,0.26666668,958902
0,2,0.0,405.0,1189.0,0.5375,0.26666668,958902
0,2,0.0,408.0,1183.0,0.5375,0.26666668,958902
0,2,0.0,411.0,1179.0,0.5375,0.26666668,958902
0,2,0.0,414.0,1176.0,0.5375,0.26666668,958918
0,2,0.0,416.0,1174.0,0.52500004,0.26666668,958918
0,2,0.0,418.0,1172.0,0.52500004,0.26666668,958968
0,2,0.0,420.0,1169.0,0.5125,0.26666668,958968
0,2,0.0,424.0,1165.0,0.475,0.26666668,958969
0,2,0.0,426.0,1163.0,0.4125,0.20000002,958969
0,1,0.0,426.0,1163.0,0.4125,0.20000002,958969
0,0,0.0,348.0,1446.0,0.5,0.26666668,961233
0,2,0.0,348.0,1447.0,0.55,0.26666668,961236
0,2,0.0,348.0,1449.0,0.55,0.26666668,961236
0,2,0.0,348.0,1451.0,0.55,0.26666668,961237
0,2,0.0,348.0,1453.0,0.55,0.26666668,961237
0,2,0.0,348.0,1455.0,0.55,0.26666668,961237
0,2,0.0,348.0,1456.0,0.55,0.26666668,961237
0,2,0.0,348.0,1455.0,0.55,0.26666668,961238
0,2,0.0,348.0,1453.0,0.55,0.26666668,961238
0,2,0.0,349.0,1449.0,0.55,0.26666668,961238
0,2,0.0,351.0,1442.0,0.52500004,0.26666668,961238
0,2,0.0,352.0,1438.0,0.52500004,0.26666668,961241
0,2,0.0,353.0,1433.0,0.52500004,0.26666668,961249
0,2,0.0,354.0,1427.0,0.52500004,0.26666668,961262
0,2,0.0,355.0,1420.0,0.52500004,0.26666668,961263
0,2,0.0,356.0,1412.0,0.55,0.26666668,961288
0,2,0.0,357.0,1404.0,0.5375,0.26666668,961288
0,2,0.0,359.0,1395.0,0.5375,0.26666668,961289
0,2,0.0,361.0,1387.0,0.5125,0.26666668,961289
0,2,0.0,363.0,1380.0,0.5125,0.26666668,961313
0,2,0.0,365.0,1374.0,0.5375,0.26666668,961316
0,2,0.0,368.0,1366.0,0.5375,0.26666668,961336
0,2,0.0,370.0,1359.0,0.5375,0.26666668,961337
0,2,0.0,372.0,1351.0,0.5375,0.26666668,961354
0,2,0.0,375.0,1342.0,0.5375,0.26666668,961354
0,2,0.0,378.0,1334.0,0.5375,0.26666668,961355
0,2,0.0,381.0,1325.0,0.5375,0.26666668,961355
0,2,0.0,383.0,1317.0,0.5375,0.26666668,961405
0,2,0.0,385.0,1309.0,0.5375,0.26666668,961405
0,2,0.0,387.0,1301.0,0.5375,0.26666668,961405
0,2,0.0,388.0,1292.0,0.5375,0.26666668,961406
0,2,0.0,389.0,1284.0,0.5375,0.26666668,961406
0,2,0.0,391.0,1274.0,0.5375,0.26666668,961406
0,2,0.0,393.0,1264.0,0.5375,0.26666668,961439
0,2,0.0,394.0,1253.0,0.5375,0.26666668,961439
0,2,0.0,395.0,1244.0,0.5375,0.26666668,961439
0,2,0.0,395.0,1236.0,0.5375,0.26666668,961440
0,2,0.0,396.0,1228.0,0.5375,0.26666668,961473
0,2,0.0,396.0,1223.0,0.5375,0.26666668,961473
0,2,0.0,396.0,1217.0,0.5375,0.26666668,961473
0,2,0.0,397.0,1213.0,0.5375,0.26666668,961474
0,2,0.0,398.0,1208.0,0.5375,0.26666668,961506
0,2,0.0,401.0,1202.0,0.5375,0.26666668,961507
0,2,0.0,404.0,1197.0,0.5375,0.26666668,961507
0,2,0.0,407.0,1193.0,0.5375,0.26666668,961507
0,2,0.0,409.0,1190.0,0.5375,0.26666668,961540
0,2,0.0,411.0,1188.0,0.5,0.26666668,961541
0,2,0.0,414.0,1185.0,0.5,0.26666668,961541
0,2,0.0,416.0,1182.0,0.4875,0.26666668,961541
0,2,0.0,419.0,1178.0,0.475,0.26666668,961574
0,2,0.0,425.0,1172.0,0.4375,0.20000002,961574
0,1,0.0,425.0,1172.0,0.4375,0.20000002,961575
0,0,0.0,346.0,1443.0,0.4875,0.26666668,964233
0,2,0.0,346.0,1445.0,0.5375,0.26666668,964248
0,2,0.0,346.0,1447.0,0.5375,0.26666668,964253
0,2,0.0,346.0,1449.0,0.5375,0.26666668,964253
0,2,0.0,346.0,1451.0,0.5375,0.26666668,964253
0,2,0.0,346.0,1453.0,0.5375,0.26666668,964253
0,2,0.0,346.0,1455.0,0.5375,0.26666668,964254
0,2,0.0,346.0,1456.0,0.5375,0.26666668,964254
0,2,0.0,346.0,1455.0,0.5375,0.26666668,964254
0,2,0.0,346.0,1453.0,0.5375,0.26666668,964254
0,2,0.0,348.0,1449.0,0.5375,0.26666668,964255
0,2,0.0,350.0,1442.0,0.52500004,0.26666668,964255
0,2,0.0,351.0,1438.0,0.52500004,0.26666668,964255
0,2,0.0,352.0,1433.0,0.52500004,0.26666668,964255
0,2,0.0,353.0,1427.0,0.52500004,0.26666668,964256
0,2,0.0,354.0,1420.0,0.52500004,0.26666668,964257
0,2,0.0,356.0,1412.0,0.5375,0.26666668,964289
0,2,0.0,358.0,1404.0,0.5375,0.26666668,964289
0,2,0.0,360.0,1396.0,0.5375,0.26666668,964289
0,2,0.0,362.0,1388.0,0.5375,0.26666668,964289
0,2,0.0,364.0,1381.0,0.5125,0.26666668,964307
0,2,0.0,366.0,1375.0,0.5375,0.26666668,964307
0,2,0.0,368.0,1368.0,0.5375,0.26666668,964319
0,2,0.0,370.0,1360.0,0.5375,0.26666668,964320
0,2,0.0,372.0,1353.0,0.5375,0.26666668,964337
0,2,0.0,374.0,1345.0,0.5375,0.26666668,964337
0,2,0.0,377.0,1336.0,0.5375,0.26666668,964354
0,2,0.0,380.0,1328.0,0.5375,0.26666668,964355
0,2,0.0,383.0,1319.0,0.5375,0.26666668,964369
0,2,0.0,385.0,1310.0,0.5375,0.26666668,964369
0,2,0.0,387.0,1303.0,0.5375,0.26666668,964397
0,2,0.0,389.0,1295.0,0.5375,0.26666668,964397
0,2,0.0,391.0,1286.0,0.5375,0.26666668,964411
0,2,0.0,393.0,1276.0,0.5375,0.26666668,964411
0,2,0.0,395.0,1266.0,0.5375,0.26666668,964433
0,2,0.0,396.0,1255.0,0.5375,0.26666668,964433
0,2,0.0,397.0,1246.0,0.5375,0.26666668,964446
0,2,0.0,398.0,1236.0,0.5375,0.26666668,964446
0,2,0.0,398.0,1228.0,0.5375,0.26666668,964475
0,2,0.0,398.0,1222.0,0.5375,0.26666668,964475
0,2,0.0,398.0,1215.0,0.5375,0.26666668,964476
0,2,0.0,398.0,1210.0,0.5375,0.26666668,964476
0,2,0.0,399.0,1204.0,0.5375,0.26666668,964487
0,2,0.0,401.0,1196.0,0.5375,0.26666668,964487
0,2,0.0,404.0,1189.0,0.52500004,0.26666668,964505
0,2,0.0,407.0,1184.0,0.52500004,0.26666668,964505
0,2,0.0,409.0,1181.0,0.52500004,0.26666668,964521
0,2,0.0,410.0,1179.0,0.5125,0.26666668,964521
0,2,0.0,412.0,1176.0,0.5125,0.26666668,964538
0,2,0.0,415.0,1174.0,0.4875,0.26666668,964538
0,2,0.0,418.0,1171.0,0.475,0.26666668,964556
0,2,0.0,422.0,1167.0,0.45000002,0.26666668,964557
0,1,0.0,422.0,1167.0,0.45000002,0.26666668,964581
0,0,0.0,344.0,1446.0,0.4875,0.26666668,967278
0,2,0.0,344.0,1447.0,0.5375,0.26666668,967294
0,2,0.0,344.0,1449.0,0.5375,0.26666668,967294
0,2,0.0,344.0,1451.0,0.5375,0.26666668,967295
0,2,0.0,344.0,1453.0,0.5375,0.26666668,967295
0,2,0.0,344.0,1455.0,0.5375,0.26666668,967295
0,2,0.0,344.0,1456.0,0.5375,0.26666668,967295
0,2,0.0,344.0,1457.0,0.5375,0.26666668,967296
0,2,0.0,344.0,1455.0,0.5375,0.26666668,967296
0,2,0.0,345.0,1452.0,0.5375,0.26666668,967296
0,2,0.0,347.0,1447.0,0.52500004,0.26666668,967297
0,2,0.0,349.0,1439.0,0.52500004,0.26666668,967297
0,2,0.0,350.0,1433.0,0.52500004,0.26666668,967299
0,2,0.0,351.0,1427.0,0.52500004,0.26666668,967299
0,2,0.0,352.0,1421.0,0.52500004,0.26666668,967302
0,2,0.0,354.0,1413.0,0.52500004,0.26666668,967302
0,2,0.0,356.0,1405.0,0.55,0.26666668,967324
0,2,0.0,357.0,1397.0,0.55,0.26666668,967324
0,2,0.0,359.0,1390.0,0.55,0.26666668,967350
0,2,0.0,361.0,1383.0,0.55,0.26666668,967350
0,2,0.0,363.0,1376.0,0.5375,0.26666668,967350
0,2,0.0,365.0,1368.0,0.5375,0.26666668,967351
0,2,0.0,367.0,1361.0,0.5375,0.26666668,967376
0,2,0.0,369.0,1355.0,0.5375,0.26666668,967377
0,2,0.0,372.0,1348.0,0.5375,0.26666668,967393
0,2,0.0,375.0,1340.0,0.5375,0.26666668,967394
0,2,0.0,378.0,1331.0,0.5375,0.26666668,967411
0,2,0.0,381.0,1323.0,0.5375,0.26666668,967411
0,2,0.0,383.0,1314.0,0.5375,0.26666668,967424
0,2,0.0,385.0,1306.0,0.5375,0.26666668,967424
0,2,0.0,386.0,1298.0,0.5375,0.26666668,967449
0,2,0.0,387.0,1290.0,0.5375,0.26666668,967449
0,2,0.0,388.0,1280.0,0.5375,0.26666668,967450
0,2,0.0,389.0,1270.0,0.5375,0.26666668,967450
0,2,0.0,390.0,1260.0,0.5375,0.26666668,967470
0,2,0.0,391.0,1251.0,0.5375,0.26666668,967471
0,2,0.0,391.0,1240.0,0.5375,0.26666668,967485
0,2,0.0,392.0,1233.0,0.5375,0.26666668,967485
0,2,0.0,393.0,1227.0,0.5375,0.26666668,967500
0,2,0.0,393.0,1221.0,0.5375,0.26666668,967501
0,2,0.0,394.0,1216.0,0.5375,0.26666668,967516
0,2,0.0,395.0,1211.0,0.5375,0.26666668,967516
0,2,0.0,397.0,1206.0,0.52500004,0.26666668,967535
0,2,0.0,399.0,1202.0,0.5,0.26666668,967535
0,2,0.0,402.0,1198.0,0.5125,0.26666668,967551
0,2,0.0,405.0,1195.0,0.5125,0.26666668,967551
0,2,0.0,408.0,1192.0,0.5125,0.26666668,967567
0,2,0.0,409.0,1190.0,0.4875,0.26666668,967567
0,2,0.0,411.0,1186.0,0.4875,0.26666668,967585
0,2,0.0,415.0,1180.0,0.45000002,0.26666668,967585
0,2,0.0,422.0,1173.0,0.4125,0.20000002,967602
0,1,0.0,422.0,1173.0,0.4125,0.20000002,967602
0,0,0.0,348.0,1442.0,0.5125,0.26666668,968593
0,2,0.0,348.0,1444.0,0.52500004,0.26666668,968597
0,2,0.0,348.0,1446.0,0.52500004,0.26666668,968602
0,2,0.0,348.0,1448.0,0.52500004,0.26666668,968603
0,2,0.0,348.0,1450.0,0.52500004,0.26666668,968603
0,2,0.0,348.0,1452.0,0.52500004,0.26666668,968603
0,2,0.0,348.0,1454.0,0.52500004,0.26666668,968604
0,2,0.0,348.0,1452.0,0.52500004,0.26666668,968604
0,2,0.0,348.0,1449.0,0.52500004,0.26666668,968604
0,2,0.0,350.0,1444.0,0.52500004,0.26666668,968605
0,2,0.0,351.0,1440.0,0.52500004,0.26666668,968605
0,2,0.0,352.0,1436.0,0.52500004,0.26666668,968605
0,2,0.0,353.0,1432.0,0.5125,0.26666668,968629
0,2,0.0,354.0,1426.0,0.5125,0.26666668,968629
0,2,0.0,356.0,1419.0,0.5125,0.26666668,968651
0,2,0.0,358.0,1411.0,0.5375,0.26666668,968652
0,2,0.0,360.0,1403.0,0.5375,0.26666668,968652
0,2,0.0,362.0,1395.0,0.5375,0.26666668,968653
0,2,0.0,365.0,1387.0,0.5375,0.26666668,968679
0,2,0.0,367.0,1380.0,0.5375,0.26666668,968679
0,2,0.0,370.0,1373.0,0.5375,0.26666668,968702
0,2,0.0,372.0,1367.0,0.52500004,0.26666668,968703
0,2,0.0,375.0,1360.0,0.52500004,0.26666668,968703
0,2,0.0,378.0,1353.0,0.55,0.26666668,968704
0,2,0.0,381.0,1345.0,0.55,0.26666668,968719
0,2,0.0,384.0,1337.0,0.55,0.26666668,968719
0,2,0.0,386.0,1329.0,0.55,0.26666668,968735
0,2,0.0,389.0,1320.0,0.55,0.26666668,968739
0,2,0.0,391.0,1312.0,0.5375,0.26666668,968752
0,2,0.0,392.0,1303.0,0.5375,0.26666668,968752
0,2,0.0,393.0,1295.0,0.5375,0.26666668,968768
0,2,0.0,395.0,1286.0,0.5375,0.26666668,968768
0,2,0.0,396.0,1276.0,0.5375,0.26666668,968786
0,2,0.0,397.0,1265.0,0.5375,0.26666668,968787
0,2,0.0,398.0,1255.0,0.5375,0.26666668,968803
0,2,0.0,399.0,1244.0,0.52500004,0.26666668,968803
0,2,0.0,399.0,1235.0,0.52500004,0.26666668,968819
0,2,0.0,400.0,1228.0,0.55,0.26666668,968819
0,2,0.0,400.0,1221.0,0.55,0.26666668,968837
0,2,0.0,400.0,1215.0,0.55,0.26666668,968837
0,2,0.0,400.0,1209.0,0.55,0.26666668,968861
0,2,0.0,400.0,1203.0,0.55,0.26666668,968861
0,2,0.0,401.0,1198.0,0.55,0.26666668,968874
0,2,0.0,403.0,1191.0,0.55,0.26666668,968875
0,2,0.0,406.0,1185.0,0.52500004,0.26666668,968894
0,2,0.0,409.0,1181.0,0.52500004,0.26666668,968895
0,2,0.0,411.0,1178.0,0.52500004,0.26666668,968908
0,2,0.0,413.0,1176.0,0.5125,0.26666668,968908
0,2,0.0,415.0,1174.0,0.5125,0.26666668,968921
0,2,0.0,417.0,1172.0,0.475,0.26666668,968923
0,2,0.0,418.0,1169.0,0.475,0.26666668,968939
0,2,0.0,423.0,1165.0,0.45000002,0.26666668,968939
0,2,0.0,426.0,1162.0,0.4,0.20000002,968955
0,1,0.0,426.0,1162.0,0.4,0.20000002,968956
0,0,0.0,347.0,1446.0,0.5,0.26666668,971642
0,2,0.0,347.0,1447.0,0.55,0.26666668,971645
0,2,0.0,347.0,1449.0,0.55,0.26666668,971645
0,2,0.0,347.0,1451.0,0.55,0.26666668,971645
0,2,0.0,347.0,1453.0,0.55,0.26666668,971646
0,2,0.0,347.0,1455.0,0.55,0.26666668,971646
0,2,0.0,347.0,1457.0,0.55,0.26666668,971647
0,2,0.0,347.0,1455.0,0.55,0.26666668,971647
0,2,0.0,348.0,1451.0,0.55,0.26666668,971647
0,2,0.0,350.0,1445.0,0.52500004,0.26666668,971647
0,2,0.0,351.0,1441.0,0.52500004,0.26666668,971647
0,2,0.0,352.0,1437.0,0.52500004,0.26666668,971657
0,2,0.0,353.0,1431.0,0.5375,0.26666668,971679
0,2,0.0,354.0,1425.0,0.5375,0.26666668,971681
0,2,0.0,356.0,1417.0,0.5375,0.26666668,971681
0,2,0.0,358.0,1409.0,0.5375,0.26666668,971682
0,2,0.0,360.0,1401.0,0.5375,0.26666668,971707
0,2,0.0,361.0,1393.0,0.5375,0.26666668,971709
0,2,0.0,363.0,1386.0,0.5375,0.26666668,971735
0,2,0.0,364.0,1378.0,0.5375,0.26666668,971736
0,2,0.0,366.0,1371.0,0.5375,0.26666668,971741
0,2,0.0,368.0,1364.0,0.5375,0.26666668,971741
0,2,0.0,371.0,1356.0,0.5375,0.26666668,971754
0,2,0.0,373.0,1349.0,0.5375,0.26666668,971754
0,2,0.0,376.0,1341.0,0.5375,0.26666668,971766
0,2,0.0,378.0,1333.0,0.5375,0.26666668,971766
0,2,0.0,380.0,1325.0,0.5375,0.26666668,971783
0,2,0.0,382.0,1316.0,0.5375,0.26666668,971783
0,2,0.0,384.0,1308.0,0.5375,0.26666668,971798
0,2,0.0,385.0,1299.0,0.5375,0.26666668,971798
0,2,0.0,386.0,1291.0,0.5375,0.26666668,971815
0,2,0.0,387.0,1281.0,0.5375,0.26666668,971815
0,2,0.0,388.0,1271.0,0.5375,0.26666668,971836
0,2,0.0,390.0,1261.0,0.5375,0.26666668,971836
0,2,0.0,391.0,1251.0,0.5375,0.26666668,971851
0,2,0.0,391.0,1243.0,0.5375,0.26666668,971852
0,2,0.0,391.0,1236.0,0.5375,0.26666668,971866
0,2,0.0,391.0,1229.0,0.5375,0.26666668,971867
0,2,0.0,392.0,1224.0,0.5375,0.26666668,971885
0,2,0.0,393.0,1219.0,0.5375,0.26666668,971885
0,2,0.0,394.0,1214.0,0.5375,0.26666668,971902
0,2,0.0,396.0,1209.0,0.5375,0.26666668,971902
0,2,0.0,400.0,1203.0,0.5375,0.26666668,971917
0,2,0.0,402.0,1200.0,0.5375,0.26666668,971918
0,2,0.0,404.0,1198.0,0.5375,0.26666668,971936
0,2,0.0,406.0,1196.0,0.5125,0.26666668,971936
0,2,0.0,408.0,1194.0,0.5125,0.26666668,971953
0,2,0.0,411.0,1191.0,0.5125,0.26666668,971953
0,2,0.0,414.0,1187.0,0.475,0.26666668,971968
0,2,0.0,421.0,1178.0,0.4375,0.26666668,971968
0,1,0.0,421.0,1178.0,0.4375,0.26666668,971991
0,0,0.0,347.0,1444.0,0.5,0.26666668,972978
0,2,0.0,347.0,1445.0,0.55,0.26666668,972981
0,2,0.0,347.0,1447.0,0.55,0.26666668,972987
0,2,0.0,347.0,1449.0,0.55,0.26666668,972987
0,2,0.0,347.0,1451.0,0.55,0.26666668,972987
0,2,0.0,347.0,1453.0,0.5375,0.26666668,972987
0,2,0.0,347.0,1454.0,0.5375,0.26666668,972988
0,2,0.0,347.0,1455.0,0.5375,0.26666668,972988
0,2,0.0,347.0,1454.0,0.5375,0.26666668,972988
0,2,0.0,347.0,1452.0,0.5375,0.26666668,972989
0,2,0.0,348.0,1448.0,0.5375,0.26666668,972989
0,2,0.0,350.0,1441.0,0.52500004,0.26666668,972989
0,2,0.0,351.0,1437.0,0.52500004,0.26666668,972989
0,2,0.0,352.0,1432.0,0.52500004,0.26666668,972989
0,2,0.0,354.0,1426.0,0.52500004,0.26666668,973000
0,2,0.0,356.0,1419.0,0.5375,0.26666668,973000
0,2,0.0,358.0,1411.0,0.5375,0.26666668,973030
0,2,0.0,360.0,1403.0,0.5375,0.26666668,973032
0,2,0.0,362.0,1396.0,0.5375,0.26666668,973045
0,2,0.0,364.0,1388.0,0.5375,0.26666668,973046
0,2,0.0,367.0,1380.0,0.5375,0.26666668,973051
0,2,0.0,369.0,1373.0,0.5375,0.26666668,973051
0,2,0.0,371.0,1367.0,0.5375,0.26666668,973066
0,2,0.0,373.0,1360.0,0.52500004,0.26666668,973067
0,2,0.0,375.0,1352.0,0.55,0.26666668,973086
0,2,0.0,377.0,1345.0,0.55,0.26666668,973086
0,2,0.0,379.0,1337.0,0.55,0.26666668,973105
0,2,0.0,381.0,1328.0,0.55,0.26666668,973105
0,2,0.0,383.0,1320.0,0.55,0.26666668,973118
0,2,0.0,384.0,1310.0,0.55,0.26666668,973118
0,2,0.0,385.0,1302.0,0.55,0.26666668,973137
0,2,0.0,385.0,1294.0,0.55,0.26666668,973137
0,2,0.0,386.0,1284.0,0.55,0.26666668,973154
0,2,0.0,386.0,1275.0,0.55,0.26666668,973154
0,2,0.0,387.0,1265.0,0.55,0.26666668,973169
0,2,0.0,388.0,1255.0,0.55,0.26666668,973170
0,2,0.0,388.0,1247.0,0.55,0.26666668,973188
0,2,0.0,388.0,1240.0,0.55,0.26666668,973189
0,2,0.0,388.0,1233.0,0.55,0.26666668,973204
0,2,0.0,389.0,1228.0,0.55,0.26666668,973205
0,2,0.0,390.0,1223.0,0.55,0.26666668,973221
0,2,0.0,391.0,1219.0,0.55,0.26666668,973221
0,2,0.0,393.0,1214.0,0.55,0.26666668,973240
0,2,0.0,395.0,1211.0,0.5375,0.26666668,973240
0,2,0.0,397.0,1208.0,0.52500004,0.26666668,973258
0,2,0.0,399.0,1206.0,0.5125,0.26666668,973259
0,2,0.0,402.0,1204.0,0.5,0.26666668,973277
0,2,0.0,404.0,1202.0,0.4875,0.26666668,973278
0,2,0.0,406.0,1200.0,0.4875,0.26666668,973292
0,2,0.0,408.0,1196.0,0.475,0.26666668,973293
0,2,0.0,413.0,1189.0,0.425,0.26666668,973307
0,1,0.0,413.0,1189.0,0.425,0.26666668,973307
0,0,0.0,346.0,1445.0,0.5125,0.26666668,976011
0,2,0.0,346.0,1446.0,0.5375,0.26666668,976028
0,2,0.0,346.0,1448.0,0.5375,0.26666668,976028
0,2,0.0,346.0,1450.0,0.5375,0.26666668,976029
0,2,0.0,346.0,1452.0,0.5375,0.26666668,976029
0,2,0.0,346.0,1454.0,0.5375,0.26666668,976029
0,2,0.0,346.0,1452.0,0.5375,0.26666668,976029
0,2,0.0,346.0,1450.0,0.5375,0.26666668,976030
0,2,0.0,348.0,1445.0,0.5375,0.26666668,976030
0,2,0.0,349.0,1441.0,0.52500004,0.26666668,976030
0,2,0.0,350.0,1437.0,0.52500004,0.26666668,976030
0,2,0.0,351.0,1433.0,0.52500004,0.26666668,976031
0,2,0.0,352.0,1428.0,0.52500004,0.26666668,976031
0,2,0.0,354.0,1421.0,0.52500004,0.26666668,976067
0,2,0.0,355.0,1414.0,0.55,0.26666668,976068
0,2,0.0,357.0,1406.0,0.55,0.26666668,976068
0,2,0.0,359.0,1399.0,0.55,0.26666668,976068
0,2,0.0,361.0,1392.0,0.55,0.26666668,976094
0,2,0.0,363.0,1384.0,0.55,0.26666668,976095
0,2,0.0,366.0,1377.0,0.55,0.26666668,976106
0,2,0.0,368.0,1370.0,0.5375,0.26666668,976106
0,2,0.0,370.0,1362.0,0.5375,0.26666668,976127
0,2,0.0,372.0,1355.0,0.5375,0.26666668,976127
0,2,0.0,375.0,1347.0,0.5375,0.26666668,976141
0,2,0.0,378.0,1340.0,0.5375,0.26666668,976142
0,2,0.0,381.0,1332.0,0.5375,0.26666668,976161
0,2,0.0,384.0,1323.0,0.5375,0.26666668,976162
0,2,0.0,387.0,1312.0,0.5375,0.26666668,976178
0,2,0.0,389.0,1304.0,0.5375,0.26666668,976178
0,2,0.0,391.0,1295.0,0.5375,0.26666668,976191
0,2,0.0,393.0,1286.0,0.5375,0.26666668,976191
0,2,0.0,394.0,1276.0,0.5375,0.26666668,976204
0,2,0.0,396.0,1266.0,0.5375,0.26666668,976204
0,2,0.0,398.0,1256.0,0.5375,0.26666668,976218
0,2,0.0,399.0,1246.0,0.5375,0.26666668,976218
0,2,0.0,400.0,1236.0,0.5375,0.26666668,976239
0,2,0.0,400.0,1229.0,0.5375,0.26666668,976239
0,2,0.0,401.0,1221.0,0.5375,0.26666668,976251
0,2,0.0,402.0,1214.0,0.5375,0.26666668,976252
0,2,0.0,402.0,1206.0,0.5375,0.26666668,976268
0,2,0.0,403.0,1200.0,0.5375,0.26666668,976268
0,2,0.0,404.0,1193.0,0.5375,0.26666668,976284
0,2,0.0,405.0,1186.0,0.5375,0.26666668,976284
0,2,0.0,407.0,1179.0,0.5375,0.26666668,976302
0,2,0.0,409.0,1174.0,0.5375,0.26666668,976302
0,2,0.0,411.0,1171.0,0.5375,0.26666668,976319
0,2,0.0,414.0,1168.0,0.5375,0.26666668,976319
0,2,0.0,416.0,1166.0,0.52500004,0.26666668,976335
0,2,0.0,418.0,1164.0,0.52500004,0.26666668,976335
0,2,0.0,421.0,1162.0,0.5125,0.26666668,976353
0,2,0.0,424.0,1159.0,0.5,0.26666668,976353
0,2,0.0,426.0,1157.0,0.4125,0.20000002,976372
0,1,0.0,426.0,1157.0,0.4125,0.20000002,976383
0,0,0.0,346.0,1444.0,0.4875,0.26666668,978992
0,2,0.0,346.0,1445.0,0.5375,0.26666668,978994
0,2,0.0,346.0,1447.0,0.5375,0.26666668,978997
0,2,0.0,346.0,1449.0,0.5375,0.26666668,978997
0,2,0.0,346.0,1451.0,0.5375,0.26666668,978997
0,2,0.0,346.0,1453.0,0.5375,0.26666668,978998
0,2,0.0,346.0,1455.0,0.5375,0.26666668,978998
0,2,0.0,346.0,1456.0,0.5375,0.26666668,978998
0,2,0.0,346.0,1455.0,0.5375,0.26666668,978998
0,2,0.0,346.0,1453.0,0.5375,0.26666668,978999
0,2,0.0,346.0,1450.0,0.5375,0.26666668,978999
0,2,0.0,348.0,1444.0,0.5125,0.26666668,978999
0,2,0.0,349.0,1440.0,0.5125,0.26666668,978999
0,2,0.0,350.0,1436.0,0.5125,0.26666668,979000
0,2,0.0,351.0,1431.0,0.5125,0.26666668,979041
0,2,0.0,352.0,1424.0,0.5125,0.26666668,979041
0,2,0.0,354.0,1417.0,0.5375,0.26666668,979042
0,2,0.0,356.0,1408.0,0.5375,0.26666668,979042
0,2,0.0,358.0,1401.0,0.52500004,0.26666668,979042
0,2,0.0,360.0,1392.0,0.52500004,0.26666668,979042
0,2,0.0,362.0,1384.0,0.5125,0.26666668,979076
0,2,0.0,364.0,1377.0,0.5125,0.26666668,979076
0,2,0.0,366.0,1370.0,0.52500004,0.26666668,979076
0,2,0.0,368.0,1364.0,0.52500004,0.26666668,979077
0,2,0.0,370.0,1357.0,0.55,0.26666668,979126
0,2,0.0,372.0,1350.0,0.55,0.26666668,979126
0,2,0.0,375.0,1341.0,0.55,0.26666668,979127
0,2,0.0,377.0,1333.0,0.55,0.26666668,979127
0,2,0.0,379.0,1325.0,0.55,0.26666668,979127
0,2,0.0,381.0,1316.0,0.55,0.26666668,979127
0,2,0.0,382.0,1308.0,0.55,0.26666668,979160
0,2,0.0,383.0,1299.0,0.55,0.26666668,979160
0,2,0.0,384.0,1290.0,0.55,0.26666668,979160
0,2,0.0,385.0,1281.0,0.55,0.26666668,979160
0,2,0.0,386.0,1272.0,0.55,0.26666668,979194
0,2,0.0,387.0,1263.0,0.55,0.26666668,979194
0,2,0.0,388.0,1253.0,0.55,0.26666668,979194
0,2,0.0,388.0,1245.0,0.5375,0.26666668,979194
0,2,0.0,389.0,1238.0,0.5375,0.26666668,979244
0,2,0.0,389.0,1231.0,0.5375,0.26666668,979244
0,2,0.0,390.0,1226.0,0.5375,0.26666668,979245
0,2,0.0,391.0,1221.0,0.5375,0.26666668,979245
0,2,0.0,393.0,1216.0,0.5375,0.26666668,979245
0,2,0.0,395.0,1213.0,0.52500004,0.26666668,979246
0,2,0.0,397.0,1210.0,0.52500004,0.26666668,979279
0,2,0.0,399.0,1207.0,0.52500004,0.26666668,979279
0,2,0.0,401.0,1205.0,0.4875,0.26666668,979280
0,2,0.0,404.0,1202.0,0.4875,0.26666668,979280
0,2,0.0,406.0,1200.0,0.4875,0.26666668,979314
0,2,0.0,408.0,1196.0,0.475,0.26666668,979314
0,2,0.0,414.0,1186.0,0.45000002,0.26666668,979315
0,1,0.0,414.0,1186.0,0.45000002,0.26666668,979315
0,0,0.0,347.0,1446.0,0.5,0.26666668,981935
0,2,0.0,347.0,1447.0,0.55,0.26666668,981952
0,2,0.0,347.0,1449.0,0.55,0.26666668,981953
0,2,0.0,347.0,1451.0,0.5375,0.26666668,981953
0,2,0.0,347.0,1453.0,0.5375,0.26666668,981953
0,2,0.0,347.0,1455.0,0.5375,0.26666668,981953
0,2,0.0,347.0,1457.0,0.5375,0.26666668,981954
0,2,0.0,347.0,1458.0,0.5375,0.26666668,981954
0,2,0.0,347.0,1456.0,0.5375,0.26666668,981954
0,2,0.0,348.0,1453.0,0.5375,0.26666668,981954
0,2,0.0,350.0,1447.0,0.52500004,0.26666668,981955
0,2,0.0,351.0,1443.0,0.52500004,0.26666668,981955
0,2,0.0,352.0,1438.0,0.52500004,0.26666668,981955
0,2,0.0,354.0,1432.0,0.52500004,0.26666668,981966
0,2,0.0,356.0,1425.0,0.52500004,0.26666668,981966
0,2,0.0,357.0,1417.0,0.5375,0.26666668,981984
0,2,0.0,359.0,1409.0,0.5375,0.26666668,981985
0,2,0.0,361.0,1401.0,0.5375,0.26666668,982003
0,2,0.0,363.0,1393.0,0.5375,0.26666668,982004
0,2,0.0,366.0,1385.0,0.5375,0.26666668,982004
0,2,0.0,368.0,1378.0,0.5375,0.26666668,982004
0,2,0.0,370.0,1372.0,0.5375,0.26666668,982026
0,2,0.0,372.0,1365.0,0.5375,0.26666668,982026
0,2,0.0,375.0,1357.0,0.5375,0.26666668,982038
0,2,0.0,378.0,1350.0,0.5375,0.26666668,982039
0,2,0.0,381.0,1341.0,0.5375,0.26666668,982054
0,2,0.0,383.0,1332.0,0.5375,0.26666668,982055
0,2,0.0,386.0,1323.0,0.5375,0.26666668,982073
0,2,0.0,388.0,1315.0,0.5375,0.26666668,982074
0,2,0.0,389.0,1306.0,0.5375,0.26666668,982093
0,2,0.0,390.0,1298.0,0.5375,0.26666668,982093
0,2,0.0,391.0,1290.0,0.5375,0.26666668,982106
0,2,0.0,392.0,1280.0,0.5375,0.26666668,982106
0,2,0.0,393.0,1270.0,0.5375,0.26666668,982125
